2020-09-11 08:45:01	RISK OF RAIN FOR F1 FIRST PRACTICE SESSION IS 0%
2020-09-11 09:00:00	GREEN LIGHT - PIT EXIT OPEN
2020-09-11 10:22:52	DOUBLE YELLOW IN TRACK SECTOR 3
2020-09-11 10:23:07	CLEAR IN TRACK SECTOR 3
2020-09-11 10:23:20	CAR 6 (LAT) SPUN AND CONTINUED AT TURN 3
2020-09-11 10:30:00	CHEQUERED FLAG
2020-09-11 10:40:02	RISK OF RAIN FOR F2 PRACTICE SESSION IS 0% 
2020-09-11 10:40:02	RISK OF RAIN FOR F2 PRACTICE SESSION IS 0% 
