2020-12-11 08:45:07	RISK OF RAIN FOR F1 FIRST PRACTICE SESSION IS 0%
2020-12-11 09:00:00	GREEN LIGHT - PIT EXIT OPEN
2020-12-11 09:22:35	DOUBLE YELLOW IN TRACK SECTOR 10
2020-12-11 09:22:36	DRS DISABLED IN ZONE 2
2020-12-11 09:24:14	CLEAR IN TRACK SECTOR 10
2020-12-11 09:24:14	DRS ENABLED IN ZONE 2
2020-12-11 09:24:49	VIRTUAL SAFETY CAR DEPLOYED
2020-12-11 09:24:51	DOUBLE YELLOW IN TRACK SECTOR 10
2020-12-11 09:25:38	CLEAR IN TRACK SECTOR 10
2020-12-11 09:25:41	VIRTUAL SAFETY CAR ENDING
2020-12-11 09:25:55	TRACK CLEAR
2020-12-11 09:26:00	DRS ENABLED
2020-12-11 09:29:04	CAR 18 (STR) TIME 1:41.525 DELETED - TRACK LIMITS AT TURN 21
2020-12-11 09:31:01	CAR 18 (STR) TIME 2:08.986 DELETED - TRACK LIMITS AT TURN 21
2020-12-11 09:51:48	CAR 11 (PER) MISSED THE APEX OF TURN 12
2020-12-11 10:04:54	CAR 33 (VER) TIME 1:37.445 DELETED - TRACK LIMITS AT TURN 21
2020-12-11 10:05:09	YELLOW IN TRACK SECTOR 12
2020-12-11 10:05:10	DRS DISABLED IN ZONE 2
2020-12-11 10:05:11	DOUBLE YELLOW IN TRACK SECTOR 13
2020-12-11 10:05:17	CLEAR IN TRACK SECTOR 13
2020-12-11 10:05:18	CLEAR IN TRACK SECTOR 12
2020-12-11 10:05:18	DRS ENABLED IN ZONE 2
2020-12-11 10:05:30	CAR 23 (ALB) SPUN AND CONTINUED AT TURN 12
2020-12-11 10:08:13	CAR 10 (GAS) TIME 1:38.911 DELETED - TRACK LIMITS AT TURN 21
2020-12-11 10:20:24	CAR 33 (VER) TIME 1:42.517 DELETED - TRACK LIMITS AT TURN 21
2020-12-11 10:21:40	CAR 4 (NOR) OFF TRACK AND CONTINUED AT TURN 20
2020-12-11 10:21:59	CAR 33 (VER) TIME 1:42.789 DELETED - TRACK LIMITS AT TURN 21
2020-12-11 10:30:00	CHEQUERED FLAG
2020-12-11 10:30:47	CAR 18 (STR) TIME 1:45.887 DELETED - TRACK LIMITS AT TURN 21
2020-12-11 10:31:48	CAR 5 (VET) TIME 1:46.914 DELETED - TRACK LIMITS AT TURN 21
2020-12-11 10:32:10	CAR 55 (SAI) TIME 1:44.489 DELETED - TRACK LIMITS AT TURN 21
2020-12-11 10:38:54	YELLOW IN TRACK SECTOR 6
2020-12-11 10:40:22	CLEAR IN TRACK SECTOR 6
