2020-07-18 13:00:00	GREEN LIGHT - PIT EXIT OPEN
2020-07-18 13:03:26	CAR 99 (GIO) TIME 1:17.912 DELETED - TRACK LIMITS AT TURN 4
2020-07-18 13:18:00	CHEQUERED FLAG
2020-07-18 13:22:57	TURN 6 INCIDENT INVOLVING CARS 55 (SAI) AND 99 (GIO) NOTED
2020-07-18 13:25:00	GREEN LIGHT - PIT EXIT OPEN
2020-07-18 13:25:36	TURN 6 INCIDENT INVOLVING CARS 55 (SAI) AND 99 (GIO) WILL BE INVESTIGATED AFTER THE SESSION
2020-07-18 13:40:00	CHEQUERED FLAG
2020-07-18 13:48:00	GREEN LIGHT - PIT EXIT OPEN
2020-07-18 13:51:41	CAR 11 (PER) TIME 1:15.088 DELETED - TRACK LIMITS AT TURN 4
2020-07-18 14:00:00	CHEQUERED FLAG
2020-07-18 14:18:45	SAFETY CAR THROUGH THE PIT LANE
2020-07-18 14:21:30	PIT LANE ENTRY CLEAR
