2020-07-11 12:54:58	START OF Q1 IS DELAYED
2020-07-11 12:56:34	A 5 MINUTE WARNING WILL BE GIVEN PRIOR TO THE START OF Q1
2020-07-11 13:01:52	A 10 MINUTE WARNING WILL NOW BE GIVEN PRIOR TO THE START OF Q1
2020-07-11 13:36:23	Q1 WILL START AT 15:46
2020-07-11 13:37:49	LOW GRIP CONDITIONS
2020-07-11 13:37:53	DRS DISABLED
2020-07-11 13:41:51	WET TRACK
2020-07-11 13:46:00	GREEN LIGHT - PIT EXIT OPEN
2020-07-11 13:53:14	YELLOW IN TRACK SECTOR 5
2020-07-11 13:53:15	DOUBLE YELLOW IN TRACK SECTOR 5
2020-07-11 13:53:17	YELLOW IN TRACK SECTOR 5
2020-07-11 13:53:17	CLEAR IN TRACK SECTOR 5
2020-07-11 13:53:34	CAR 23 (ALB) SPUN AND CONTINUED AT TURN 3
2020-07-11 14:02:13	YELLOW IN TRACK SECTOR 15
2020-07-11 14:02:28	CLEAR IN TRACK SECTOR 15
2020-07-11 14:03:31	DOUBLE YELLOW IN TRACK SECTOR 8
2020-07-11 14:03:34	YELLOW IN TRACK SECTOR 7
2020-07-11 14:03:48	RED FLAG
2020-07-11 14:03:48	CLEAR IN TRACK SECTOR 7
2020-07-11 14:03:48	CLEAR IN TRACK SECTOR 8
2020-07-11 14:04:22	SESSION WILL NOT BE RESTARTED
2020-07-11 14:06:36	Q1 WILL START AT 16:11
2020-07-11 14:07:26	Q2 WILL START AT 16:11
2020-07-11 14:07:49	TRACK CLEAR
2020-07-11 14:11:00	GREEN LIGHT - PIT EXIT OPEN
2020-07-11 14:19:42	CAR 23 (ALB) TIME 1:20.124 DELETED - TRACK LIMITS AT TURN 9
2020-07-11 14:20:30	CAR 20 (MAG) TIME 1:21.072 DELETED - TRACK LIMITS AT TURN 9
2020-07-11 14:20:46	TURN 9 INCIDENT INVOLVING CARS 16 (LEC) AND 26 (KVY) WILL BE INVESTIGATED AFTER THE SESSION
2020-07-11 14:21:19	CAR 26 (KVY) TIME 1:19.889 DELETED - TRACK LIMITS AT TURN 9
2020-07-11 14:26:00	CHEQUERED FLAG
2020-07-11 14:28:45	Q3 WILL START AT 16:34
2020-07-11 14:34:00	GREEN LIGHT - PIT EXIT OPEN
2020-07-11 14:41:19	CAR 4 (NOR) TIME 1:27.358 DELETED - TRACK LIMITS AT TURN 9
2020-07-11 14:46:00	CHEQUERED FLAG
2020-07-11 14:46:08	YELLOW IN TRACK SECTOR 12
2020-07-11 14:46:09	DOUBLE YELLOW IN TRACK SECTOR 12
2020-07-11 14:46:10	CLEAR IN TRACK SECTOR 12
2020-07-11 14:46:29	YELLOW IN TRACK SECTOR 15
2020-07-11 14:46:32	CLEAR IN TRACK SECTOR 15
2020-07-11 15:08:46	SAFETY CAR THROUGH THE PIT LANE
