2020-09-04 13:00:00	GREEN LIGHT - PIT EXIT OPEN
2020-09-04 13:07:42	CAR 8 (GRO) MISSED THE 1ST CHICANE
2020-09-04 13:11:49	CAR 7 (RAI) OFF TRACK AND CONTINUED AT TURN 5
2020-09-04 13:17:28	CAR 4 (NOR) MISSED THE 1ST CHICANE
2020-09-04 13:20:47	CAR 16 (LEC) TIME 1:22.011 DELETED - TRACK LIMITS AT TURN 11
2020-09-04 13:21:07	CAR 26 (KVY) MISSED THE 1ST CHICANE
2020-09-04 13:22:45	CAR 16 (LEC) TIME 1:51.770 DELETED - TRACK LIMITS AT TURN 11
2020-09-04 13:23:37	CAR 5 (VET) MISSED THE 2ND CHICANE
2020-09-04 13:24:26	CAR 5 (VET) TIME 1:46.155 DELETED - TRACK LIMITS AT TURN 5
2020-09-04 13:44:16	CAR 8 (GRO) TIME 1:21.729 DELETED - TRACK LIMITS AT TURN 11
2020-09-04 13:46:28	CAR 8 (GRO) TIME 2:28.844 DELETED - TRACK LIMITS AT TURN 11
2020-09-04 13:46:44	CAR 10 (GAS) MISSED THE APEX OF TURN 2
2020-09-04 13:46:56	CAR 55 (SAI) OFF TRACK AND CONTINUED AT TURN 6
2020-09-04 13:48:00	CAR 3 (RIC) TIME 1:20.905 DELETED - TRACK LIMITS AT TURN 11
2020-09-04 13:50:51	CAR 5 (VET) TIME 1:22.518 DELETED - TRACK LIMITS AT TURN 11
2020-09-04 13:51:24	CAR 23 (ALB) TIME 1:21.531 DELETED - TRACK LIMITS AT TURN 11
2020-09-04 13:52:34	CAR 5 (VET) TIME 1:47.495 DELETED - TRACK LIMITS AT TURN 11
2020-09-04 13:53:44	CAR 23 (ALB) TIME 2:14.643 DELETED - TRACK LIMITS AT TURN 11
2020-09-04 13:54:58	CAR 20 (MAG) TIME 1:23.042 DELETED - TRACK LIMITS AT TURN 11
2020-09-04 14:03:45	CAR 63 (RUS) MISSED THE 2ND CHICANE
2020-09-04 14:05:41	CAR 63 (RUS) TIME 1:28.798 DELETED - TRACK LIMITS AT TURN 5 AND TURN 11
2020-09-04 14:05:43	CAR 63 (RUS) TIME 1:28.798 DELETED - TRACK LIMITS AT TURN 11
2020-09-04 14:06:29	CAR 63 (RUS) TIME 1:26.671 DELETED - TRACK LIMITS AT TURN 11
2020-09-04 14:07:33	CAR 63 (RUS) TIME 1:27.143 DELETED - TRACK LIMITS AT TURN 11
2020-09-04 14:08:44	CAR 23 (ALB) TIME 1:25.835 DELETED - TRACK LIMITS AT TURN 11
2020-09-04 14:08:49	CAR 33 (VER) MISSED THE 1ST CHICANE
2020-09-04 14:09:17	CAR 23 (ALB) TIME 1:26.687 DELETED - TRACK LIMITS AT TURN 11
2020-09-04 14:10:03	CAR 8 (GRO) TIME 1:25.601 DELETED - TRACK LIMITS AT TURN 11
2020-09-04 14:11:32	CAR 18 (STR) MISSED THE APEX OF TURN 2
2020-09-04 14:11:53	CAR 8 (GRO) TIME 1:25.809 DELETED - TRACK LIMITS AT TURN 11
2020-09-04 14:12:57	YELLOW IN TRACK SECTOR 8
2020-09-04 14:13:07	CLEAR IN TRACK SECTOR 8
2020-09-04 14:13:16	CAR 5 (VET) SPUN AND CONTINUED AT TURN 6
2020-09-04 14:14:59	CAR 55 (SAI) TIME 1:25.202 DELETED - TRACK LIMITS AT TURN 11
2020-09-04 14:15:02	CAR 55 (SAI) TIME 1:26.279 DELETED - TRACK LIMITS AT TURN 11
2020-09-04 14:16:35	YELLOW IN TRACK SECTOR 8
2020-09-04 14:16:38	CLEAR IN TRACK SECTOR 8
2020-09-04 14:17:05	CAR 63 (RUS) MISSED THE 1ST CHICANE
2020-09-04 14:17:09	CAR 33 (VER) TIME 1:24.837 DELETED - TRACK LIMITS AT TURN 11
2020-09-04 14:17:16	CAR 16 (LEC) OFF TRACK AND CONTINUED AT TURN 6
2020-09-04 14:18:15	CAR 6 (LAT) MISSED THE 1ST CHICANE
2020-09-04 14:19:49	CAR 10 (GAS) MISSED THE 1ST CHICANE
2020-09-04 14:19:56	CAR 77 (BOT) MISSED THE 1ST CHICANE
2020-09-04 14:20:31	CAR 99 (GIO) MISSED THE 1ST CHICANE
2020-09-04 14:21:54	CAR 23 (ALB) MISSED THE 1ST CHICANE
2020-09-04 14:25:13	CAR 33 (VER) TIME 1:24.452 DELETED - TRACK LIMITS AT TURN 11
2020-09-04 14:26:27	CAR 33 (VER) TIME 1:24.689 DELETED - TRACK LIMITS AT TURN 11
2020-09-04 14:26:53	CAR 4 (NOR) TIME 1:21.532 DELETED - TRACK LIMITS AT TURN 11
2020-09-04 14:28:00	CAR 55 (SAI) TIME 1:24.379 DELETED - TRACK LIMITS AT TURN 11
2020-09-04 14:29:01	CAR 4 (NOR) TIME 1:54.292 DELETED - TRACK LIMITS AT TURN 11
2020-09-04 14:30:00	CHEQUERED FLAG
2020-09-04 14:42:57	RISK OF RAIN FOR F2 QUALIFYING SESSION IS 0%
