Time,DriverNumber,LapTime,LapNumber,PitOutTime,PitInTime,Sector1Time,Sector2Time,Sector3Time,SpeedI1,SpeedI2,SpeedFL,SpeedST,Compound,TyreLife
0 days 00:33:23.643000,3,"",1,0 days 00:31:39.722000,"","",0 days 00:00:35.531000,0 days 00:00:32.384000,235.0,223.0,255.0,"",soft,1.0
0 days 00:34:41.394000,3,0 days 00:01:17.751000,2,"","",0 days 00:00:28.506000,0 days 00:00:27.361000,0 days 00:00:21.884000,280.0,251.0,261.0,302.0,soft,2.0
0 days 00:36:34.067000,3,0 days 00:01:52.673000,3,"","",0 days 00:00:44.352000,0 days 00:00:41.345000,0 days 00:00:26.976000,123.0,188.0,256.0,294.0,soft,3.0
0 days 00:37:51.590000,3,0 days 00:01:17.523000,4,"","",0 days 00:00:28.583000,0 days 00:00:27.318000,0 days 00:00:21.622000,278.0,250.0,257.0,298.0,soft,4.0
0 days 00:39:26.452000,3,0 days 00:01:34.862000,5,"","",0 days 00:00:31.817000,0 days 00:00:37.652000,0 days 00:00:25.393000,254.0,213.0,257.0,286.0,soft,5.0
0 days 00:40:43.864000,3,0 days 00:01:17.412000,6,"","",0 days 00:00:28.348000,0 days 00:00:27.313000,0 days 00:00:21.751000,278.0,251.0,258.0,302.0,soft,6.0
0 days 00:42:14.850000,3,0 days 00:01:30.986000,7,"",0 days 00:42:13.143000,0 days 00:00:28.256000,0 days 00:00:34.413000,0 days 00:00:28.317000,281.0,217.0,"",306.0,soft,7.0
0 days 01:03:04.438000,3,"",8,0 days 01:01:19.940000,"","",0 days 00:00:33.853000,0 days 00:00:36.066000,247.0,227.0,260.0,"",soft,1.0
0 days 01:04:21.029000,3,0 days 00:01:16.591000,9,"","",0 days 00:00:27.794000,0 days 00:00:27.247000,0 days 00:00:21.550000,282.0,254.0,258.0,305.0,soft,2.0
0 days 01:06:13.367000,3,0 days 00:01:52.338000,10,"","",0 days 00:00:38.856000,0 days 00:00:41.435000,0 days 00:00:32.047000,215.0,185.0,257.0,272.0,soft,3.0
0 days 01:07:29.946000,3,0 days 00:01:16.579000,11,"","",0 days 00:00:27.997000,0 days 00:00:26.974000,0 days 00:00:21.608000,281.0,254.0,258.0,305.0,soft,4.0
0 days 01:09:22.715000,3,0 days 00:01:52.769000,12,"","",0 days 00:00:36.458000,0 days 00:00:39.158000,0 days 00:00:37.153000,173.0,166.0,255.0,288.0,soft,5.0
0 days 01:10:39.223000,3,0 days 00:01:16.508000,13,"","",0 days 00:00:27.869000,0 days 00:00:26.916000,0 days 00:00:21.723000,280.0,254.0,257.0,304.0,soft,6.0
0 days 01:12:18.715000,3,0 days 00:01:39.492000,14,"",0 days 01:12:17.024000,0 days 00:00:34.978000,0 days 00:00:36.890000,0 days 00:00:27.624000,253.0,199.0,"",286.0,soft,7.0
0 days 00:24:38.088000,63,"",1,0 days 00:23:10.190000,"","",0 days 00:00:32.526000,0 days 00:00:24.770000,251.0,224.0,253.0,"",medium,1.0
0 days 00:25:58.370000,63,0 days 00:01:20.282000,2,"","",0 days 00:00:29.331000,0 days 00:00:28.502000,0 days 00:00:22.449000,271.0,245.0,253.0,297.0,medium,2.0
0 days 00:27:28.591000,63,0 days 00:01:30.221000,3,"",0 days 00:27:26.849000,0 days 00:00:29.270000,0 days 00:00:30.925000,0 days 00:00:30.026000,258.0,230.0,"",298.0,medium,3.0
0 days 00:29:38.050000,63,0 days 00:02:09.459000,4,0 days 00:27:46.573000,0 days 00:29:36.325000,0 days 00:01:00.612000,0 days 00:00:39.735000,0 days 00:00:29.112000,177.0,119.0,"","",medium,4.0
0 days 00:34:24.195000,63,"",5,0 days 00:32:51.484000,"","",0 days 00:00:32.626000,0 days 00:00:29.473000,265.0,227.0,258.0,"",soft,1.0
0 days 00:35:43.415000,63,0 days 00:01:19.220000,6,"","",0 days 00:00:28.329000,0 days 00:00:27.639000,0 days 00:00:23.252000,277.0,250.0,256.0,304.0,soft,2.0
0 days 00:37:32.934000,63,0 days 00:01:49.519000,7,"","",0 days 00:00:37.283000,0 days 00:00:36.009000,0 days 00:00:36.227000,248.0,226.0,256.0,284.0,soft,3.0
0 days 00:38:51.302000,63,0 days 00:01:18.368000,8,"","",0 days 00:00:28.535000,0 days 00:00:27.728000,0 days 00:00:22.105000,277.0,253.0,258.0,306.0,soft,4.0
0 days 00:40:40.816000,63,0 days 00:01:49.514000,9,"","",0 days 00:00:36.865000,0 days 00:00:38.463000,0 days 00:00:34.186000,199.0,229.0,257.0,291.0,soft,5.0
0 days 00:42:10.016000,63,0 days 00:01:29.200000,10,"","",0 days 00:00:28.476000,0 days 00:00:36.052000,0 days 00:00:24.672000,253.0,221.0,258.0,306.0,soft,6.0
0 days 00:43:27.554000,63,0 days 00:01:17.538000,11,"","",0 days 00:00:28.193000,0 days 00:00:27.299000,0 days 00:00:22.046000,276.0,251.0,258.0,304.0,soft,7.0
0 days 00:45:17.574000,63,0 days 00:01:50.020000,12,"","",0 days 00:00:37.561000,0 days 00:00:39.453000,0 days 00:00:33.006000,250.0,113.0,257.0,297.0,soft,8.0
0 days 00:46:41.962000,63,0 days 00:01:24.388000,13,"",0 days 00:46:40.249000,0 days 00:00:28.364000,0 days 00:00:27.606000,0 days 00:00:28.418000,278.0,251.0,"",304.0,soft,9.0
0 days 00:56:08.352000,63,"",14,0 days 00:54:32.387000,"","",0 days 00:00:37.427000,0 days 00:00:26.814000,264.0,178.0,256.0,"",soft,1.0
0 days 00:57:45.122000,63,0 days 00:01:36.770000,15,"","",0 days 00:00:28.816000,0 days 00:00:39.336000,0 days 00:00:28.618000,220.0,178.0,256.0,300.0,soft,2.0
0 days 00:59:02.031000,63,0 days 00:01:16.909000,16,"","",0 days 00:00:28.032000,0 days 00:00:27.007000,0 days 00:00:21.870000,275.0,252.0,258.0,"",soft,3.0
0 days 01:00:46.910000,63,0 days 00:01:44.879000,17,"","",0 days 00:00:35.714000,0 days 00:00:40.280000,0 days 00:00:28.885000,241.0,176.0,259.0,288.0,soft,4.0
0 days 01:02:24.933000,63,0 days 00:01:38.023000,18,"","",0 days 00:00:30.448000,0 days 00:00:39.564000,0 days 00:00:28.011000,202.0,202.0,257.0,304.0,soft,5.0
0 days 01:03:42.001000,63,0 days 00:01:17.068000,19,"","",0 days 00:00:27.952000,0 days 00:00:26.952000,0 days 00:00:22.164000,276.0,253.0,258.0,302.0,soft,6.0
0 days 01:05:30.730000,63,0 days 00:01:48.729000,20,"","",0 days 00:00:40.160000,0 days 00:00:38.867000,0 days 00:00:29.702000,133.0,199.0,258.0,288.0,soft,7.0
0 days 01:06:47.577000,63,0 days 00:01:16.847000,21,"","",0 days 00:00:27.888000,0 days 00:00:27.083000,0 days 00:00:21.876000,274.0,252.0,251.0,303.0,soft,8.0
0 days 01:08:37.781000,63,0 days 00:01:50.204000,22,"",0 days 01:08:37.288000,0 days 00:00:33.922000,0 days 00:00:44.184000,0 days 00:00:32.098000,178.0,123.0,"",276.0,soft,9.0
0 days 01:10:54.437000,63,0 days 00:02:16.656000,23,0 days 01:09:16.931000,0 days 01:10:54.488000,0 days 00:01:13.365000,0 days 00:00:34.273000,0 days 00:00:29.018000,201.0,221.0,"","",soft,10.0
0 days 00:17:59.686000,55,"",1,0 days 00:16:03.502000,0 days 00:17:57.938000,"",0 days 00:00:38.340000,0 days 00:00:29.060000,247.0,215.0,"","",soft,1.0
0 days 00:34:14.641000,55,"",2,0 days 00:32:34.157000,"","",0 days 00:00:33.008000,0 days 00:00:37.059000,264.0,217.0,261.0,"",soft,2.0
0 days 00:35:36.723000,55,0 days 00:01:22.082000,3,"","",0 days 00:00:28.296000,0 days 00:00:27.642000,0 days 00:00:26.144000,280.0,250.0,229.0,306.0,soft,3.0
0 days 00:37:26.771000,55,0 days 00:01:50.048000,4,"","",0 days 00:00:32.861000,0 days 00:00:35.290000,0 days 00:00:41.897000,255.0,211.0,259.0,274.0,soft,4.0
0 days 00:38:44.729000,55,0 days 00:01:17.958000,5,"","",0 days 00:00:28.633000,0 days 00:00:27.395000,0 days 00:00:21.930000,278.0,251.0,255.0,306.0,soft,5.0
0 days 00:40:22.061000,55,0 days 00:01:37.332000,6,"","",0 days 00:00:33.588000,0 days 00:00:37.531000,0 days 00:00:26.213000,235.0,202.0,259.0,291.0,soft,6.0
0 days 00:41:39.647000,55,0 days 00:01:17.586000,7,"","",0 days 00:00:28.363000,0 days 00:00:27.264000,0 days 00:00:21.959000,278.0,251.0,256.0,302.0,soft,7.0
0 days 00:43:24.257000,55,0 days 00:01:44.610000,8,"","",0 days 00:00:33.520000,0 days 00:00:38.091000,0 days 00:00:32.999000,228.0,197.0,251.0,291.0,soft,8.0
0 days 00:44:54.208000,55,0 days 00:01:29.951000,9,"","",0 days 00:00:30.166000,0 days 00:00:32.595000,0 days 00:00:27.190000,258.0,221.0,260.0,301.0,soft,9.0
0 days 00:46:16.319000,55,0 days 00:01:22.111000,10,"",0 days 00:46:14.437000,0 days 00:00:28.154000,0 days 00:00:27.422000,0 days 00:00:26.535000,280.0,250.0,"",304.0,soft,10.0
0 days 00:48:03.410000,55,0 days 00:01:47.091000,11,0 days 00:46:38.849000,"",0 days 00:00:51.680000,0 days 00:00:30.558000,0 days 00:00:24.853000,263.0,228.0,259.0,"",soft,11.0
0 days 00:49:20.739000,55,0 days 00:01:17.329000,12,"","",0 days 00:00:28.278000,0 days 00:00:27.139000,0 days 00:00:21.912000,278.0,251.0,255.0,300.0,soft,12.0
0 days 00:50:53.719000,55,0 days 00:01:32.980000,13,"",0 days 00:50:51.896000,0 days 00:00:32.536000,0 days 00:00:32.661000,0 days 00:00:27.783000,225.0,222.0,"",289.0,soft,13.0
0 days 00:58:57.764000,55,"",14,0 days 00:57:24.289000,"","",0 days 00:00:33.956000,0 days 00:00:25.348000,253.0,219.0,259.0,"",soft,1.0
0 days 01:00:14.309000,55,0 days 00:01:16.545000,15,"","",0 days 00:00:27.988000,0 days 00:00:26.886000,0 days 00:00:21.671000,278.0,254.0,260.0,301.0,soft,2.0
0 days 01:02:00.113000,55,0 days 00:01:45.804000,16,"","",0 days 00:00:40.166000,0 days 00:00:36.376000,0 days 00:00:29.262000,165.0,219.0,262.0,290.0,soft,3.0
0 days 01:03:19.345000,55,0 days 00:01:19.232000,17,"","",0 days 00:00:27.939000,0 days 00:00:27.112000,0 days 00:00:24.181000,281.0,254.0,229.0,304.0,soft,4.0
0 days 01:04:53.625000,55,0 days 00:01:34.280000,18,"","",0 days 00:00:34.425000,0 days 00:00:34.783000,0 days 00:00:25.072000,246.0,227.0,261.0,265.0,soft,5.0
0 days 01:06:10.303000,55,0 days 00:01:16.678000,19,"","",0 days 00:00:27.827000,0 days 00:00:26.997000,0 days 00:00:21.854000,278.0,254.0,259.0,303.0,soft,6.0
0 days 01:07:52.905000,55,0 days 00:01:42.602000,20,"","",0 days 00:00:36.671000,0 days 00:00:38.061000,0 days 00:00:27.870000,210.0,223.0,261.0,294.0,soft,7.0
0 days 01:09:15.477000,55,0 days 00:01:22.572000,21,"",0 days 01:09:13.728000,0 days 00:00:27.915000,0 days 00:00:27.093000,0 days 00:00:27.564000,278.0,255.0,"",303.0,soft,8.0
0 days 00:31:53.965000,44,"",1,0 days 00:30:17.249000,"","",0 days 00:00:30.764000,0 days 00:00:22.968000,253.0,236.0,257.0,"",soft,1.0
0 days 00:33:20.885000,44,0 days 00:01:26.920000,2,"","",0 days 00:00:30.495000,0 days 00:00:31.958000,0 days 00:00:24.467000,260.0,229.0,257.0,301.0,soft,2.0
0 days 00:34:37.357000,44,0 days 00:01:16.472000,3,"","",0 days 00:00:28.250000,0 days 00:00:26.795000,0 days 00:00:21.427000,275.0,252.0,258.0,300.0,soft,3.0
0 days 00:36:12.085000,44,0 days 00:01:34.728000,4,"","",0 days 00:00:34.382000,0 days 00:00:34.165000,0 days 00:00:26.181000,243.0,223.0,256.0,292.0,soft,4.0
0 days 00:37:41.337000,44,0 days 00:01:29.252000,5,"","",0 days 00:00:28.227000,0 days 00:00:30.778000,0 days 00:00:30.247000,268.0,217.0,256.0,301.0,soft,5.0
0 days 00:39:02.567000,44,0 days 00:01:21.230000,6,"","",0 days 00:00:28.094000,0 days 00:00:26.733000,0 days 00:00:26.403000,280.0,256.0,230.0,304.0,soft,6.0
0 days 00:40:31.511000,44,0 days 00:01:28.944000,7,"","",0 days 00:00:33.221000,0 days 00:00:31.159000,0 days 00:00:24.564000,199.0,233.0,259.0,264.0,soft,7.0
0 days 00:42:06.090000,44,0 days 00:01:34.579000,8,"","",0 days 00:00:30.525000,0 days 00:00:34.155000,0 days 00:00:29.899000,264.0,200.0,257.0,293.0,soft,8.0
0 days 00:43:22.210000,44,0 days 00:01:16.120000,9,"","",0 days 00:00:27.916000,0 days 00:00:26.487000,0 days 00:00:21.717000,277.0,256.0,260.0,300.0,soft,9.0
0 days 00:44:48.227000,44,0 days 00:01:26.017000,10,"","",0 days 00:00:31.684000,0 days 00:00:32.064000,0 days 00:00:22.269000,253.0,214.0,259.0,291.0,soft,10.0
0 days 00:46:04.211000,44,0 days 00:01:15.984000,11,"","",0 days 00:00:27.922000,0 days 00:00:26.562000,0 days 00:00:21.500000,281.0,254.0,256.0,302.0,soft,11.0
0 days 00:47:38.397000,44,0 days 00:01:34.186000,12,"",0 days 00:47:36.662000,0 days 00:00:32.806000,0 days 00:00:34.217000,0 days 00:00:27.163000,201.0,196.0,"",287.0,soft,12.0
0 days 00:55:53.702000,44,"",13,0 days 00:54:26.395000,"","",0 days 00:00:31.132000,0 days 00:00:25.383000,262.0,226.0,259.0,"",soft,1.0
0 days 00:57:17.792000,44,0 days 00:01:24.090000,14,"","",0 days 00:00:27.721000,0 days 00:00:30.147000,0 days 00:00:26.222000,278.0,207.0,258.0,302.0,soft,2.0
0 days 00:58:33.394000,44,0 days 00:01:15.602000,15,"","",0 days 00:00:27.663000,0 days 00:00:26.322000,0 days 00:00:21.617000,277.0,259.0,257.0,"",soft,3.0
0 days 01:00:25.956000,44,0 days 00:01:52.562000,16,"","",0 days 00:00:39.903000,0 days 00:00:44.997000,0 days 00:00:27.662000,207.0,200.0,258.0,291.0,soft,4.0
0 days 01:01:41.435000,44,0 days 00:01:15.479000,17,"","",0 days 00:00:27.633000,0 days 00:00:26.310000,0 days 00:00:21.536000,278.0,259.0,257.0,303.0,soft,5.0
0 days 01:03:16.804000,44,0 days 00:01:35.369000,18,"",0 days 01:03:15.049000,0 days 00:00:35.205000,0 days 00:00:33.884000,0 days 00:00:26.280000,226.0,214.0,"",286.0,soft,6.0
0 days 01:11:32.374000,44,"",19,0 days 01:09:42.750000,0 days 01:11:32.153000,"",0 days 00:00:32.309000,0 days 00:00:29.745000,245.0,177.0,"","",soft,7.0
0 days 01:13:41.383000,44,0 days 00:02:09.009000,20,0 days 01:11:50.237000,0 days 01:13:39.626000,0 days 00:01:06.448000,0 days 00:00:33.068000,0 days 00:00:29.493000,188.0,224.0,"","",soft,8.0
0 days 00:31:12.482000,33,"",1,0 days 00:29:45.555000,"","",0 days 00:00:32.826000,0 days 00:00:24.010000,264.0,219.0,261.0,"",medium,1.0
0 days 00:32:29.515000,33,0 days 00:01:17.033000,2,"","",0 days 00:00:28.226000,0 days 00:00:27.297000,0 days 00:00:21.510000,275.0,253.0,257.0,289.0,medium,2.0
0 days 00:34:09.610000,33,0 days 00:01:40.095000,3,"","",0 days 00:00:33.435000,0 days 00:00:34.320000,0 days 00:00:32.340000,236.0,213.0,258.0,"",medium,3.0
0 days 00:35:50.307000,33,0 days 00:01:40.697000,4,"",0 days 00:35:48.593000,0 days 00:00:28.053000,0 days 00:00:27.120000,0 days 00:00:45.524000,277.0,252.0,"",305.0,medium,4.0
0 days 00:38:14.691000,33,0 days 00:02:24.384000,5,0 days 00:36:43.311000,"",0 days 00:01:24.482000,0 days 00:00:36.021000,0 days 00:00:23.881000,243.0,219.0,261.0,"",medium,5.0
0 days 00:39:46.246000,33,0 days 00:01:31.555000,6,"","",0 days 00:00:28.218000,0 days 00:00:38.196000,0 days 00:00:25.141000,278.0,211.0,261.0,"",medium,6.0
0 days 00:41:04.935000,33,0 days 00:01:18.689000,7,"","",0 days 00:00:28.288000,0 days 00:00:27.176000,0 days 00:00:23.225000,275.0,251.0,258.0,304.0,medium,7.0
0 days 00:42:42.004000,33,0 days 00:01:37.069000,8,"","",0 days 00:00:34.772000,0 days 00:00:36.739000,0 days 00:00:25.558000,215.0,201.0,226.0,290.0,medium,8.0
0 days 00:44:18.108000,33,0 days 00:01:36.104000,9,"","",0 days 00:00:33.762000,0 days 00:00:37.701000,0 days 00:00:24.641000,260.0,225.0,260.0,262.0,medium,9.0
0 days 00:45:35.388000,33,0 days 00:01:17.280000,10,"","",0 days 00:00:28.135000,0 days 00:00:27.276000,0 days 00:00:21.869000,277.0,251.0,258.0,303.0,medium,10.0
0 days 00:47:02.864000,33,0 days 00:01:27.476000,11,"",0 days 00:47:01.340000,0 days 00:00:30.415000,0 days 00:00:30.724000,0 days 00:00:26.337000,254.0,221.0,"",291.0,medium,11.0
0 days 00:57:52.164000,33,"",12,0 days 00:56:17.677000,"","",0 days 00:00:35.882000,0 days 00:00:28.689000,263.0,234.0,262.0,"",soft,1.0
0 days 00:59:08.248000,33,0 days 00:01:16.084000,13,"","",0 days 00:00:27.588000,0 days 00:00:26.885000,0 days 00:00:21.611000,276.0,253.0,258.0,303.0,soft,2.0
0 days 01:00:49.650000,33,0 days 00:01:41.402000,14,"","",0 days 00:00:33.724000,0 days 00:00:38.872000,0 days 00:00:28.806000,199.0,197.0,218.0,290.0,soft,3.0
0 days 01:02:31.539000,33,0 days 00:01:41.889000,15,"","",0 days 00:00:36.468000,0 days 00:00:37.604000,0 days 00:00:27.817000,202.0,198.0,262.0,263.0,soft,4.0
0 days 01:03:51.369000,33,0 days 00:01:19.830000,16,"","",0 days 00:00:27.492000,0 days 00:00:26.999000,0 days 00:00:25.339000,278.0,253.0,185.0,305.0,soft,5.0
0 days 01:05:28.328000,33,0 days 00:01:36.959000,17,"",0 days 01:05:27.009000,0 days 00:00:34.593000,0 days 00:00:35.323000,0 days 00:00:27.043000,237.0,219.0,"",258.0,soft,6.0
0 days 01:07:40.461000,33,0 days 00:02:12.133000,18,0 days 01:05:56.272000,0 days 01:07:40.464000,0 days 00:01:04.473000,0 days 00:00:38.811000,0 days 00:00:28.849000,224.0,144.0,"","",soft,7.0
0 days 00:34:40.322000,31,"",1,0 days 00:33:00.443000,"","",0 days 00:00:36.116000,0 days 00:00:29.247000,246.0,199.0,258.0,"",soft,1.0
0 days 00:35:57.819000,31,0 days 00:01:17.497000,2,"","",0 days 00:00:28.382000,0 days 00:00:27.564000,0 days 00:00:21.551000,281.0,253.0,257.0,305.0,soft,2.0
0 days 00:37:42.447000,31,0 days 00:01:44.628000,3,"","",0 days 00:00:37.285000,0 days 00:00:40.668000,0 days 00:00:26.675000,171.0,210.0,243.0,287.0,soft,3.0
0 days 00:39:13.708000,31,0 days 00:01:31.261000,4,"","",0 days 00:00:31.545000,0 days 00:00:34.004000,0 days 00:00:25.712000,264.0,214.0,260.0,291.0,soft,4.0
0 days 00:40:32.926000,31,0 days 00:01:19.218000,5,"","",0 days 00:00:28.005000,0 days 00:00:27.374000,0 days 00:00:23.839000,282.0,251.0,222.0,303.0,soft,5.0
0 days 00:42:26.507000,31,0 days 00:01:53.581000,6,"","",0 days 00:00:39.405000,0 days 00:00:45.772000,0 days 00:00:28.404000,140.0,197.0,241.0,268.0,soft,6.0
0 days 00:44:09.075000,31,0 days 00:01:42.568000,7,"","",0 days 00:00:32.773000,0 days 00:00:40.420000,0 days 00:00:29.375000,239.0,141.0,258.0,290.0,soft,7.0
0 days 00:45:26.292000,31,0 days 00:01:17.217000,8,"","",0 days 00:00:28.146000,0 days 00:00:27.196000,0 days 00:00:21.875000,280.0,253.0,258.0,300.0,soft,8.0
0 days 00:46:55.890000,31,0 days 00:01:29.598000,9,"",0 days 00:46:54.205000,0 days 00:00:31.949000,0 days 00:00:31.081000,0 days 00:00:26.568000,257.0,199.0,"",289.0,soft,9.0
0 days 00:48:45.545000,31,0 days 00:01:49.655000,10,0 days 00:47:13.823000,0 days 00:48:43.880000,0 days 00:00:54.159000,0 days 00:00:29.854000,0 days 00:00:25.642000,265.0,231.0,"","",soft,1.0
0 days 00:59:13.053000,31,"",11,0 days 00:57:30.832000,"","",0 days 00:00:38.779000,0 days 00:00:30.433000,258.0,213.0,259.0,"",soft,1.0
0 days 01:00:29.759000,31,0 days 00:01:16.706000,12,"","",0 days 00:00:28.018000,0 days 00:00:27.050000,0 days 00:00:21.638000,280.0,253.0,259.0,304.0,soft,2.0
0 days 01:02:11.344000,31,0 days 00:01:41.585000,13,"","",0 days 00:00:35.833000,0 days 00:00:37.864000,0 days 00:00:27.888000,169.0,199.0,228.0,289.0,soft,3.0
0 days 01:03:53.236000,31,0 days 00:01:41.892000,14,"","",0 days 00:00:34.874000,0 days 00:00:37.663000,0 days 00:00:29.355000,218.0,216.0,259.0,273.0,soft,4.0
0 days 01:05:10.268000,31,0 days 00:01:17.032000,15,"","",0 days 00:00:28.240000,0 days 00:00:27.108000,0 days 00:00:21.684000,279.0,247.0,258.0,304.0,soft,5.0
0 days 01:06:55.491000,31,0 days 00:01:45.223000,16,"","",0 days 00:00:36.103000,0 days 00:00:38.277000,0 days 00:00:30.843000,215.0,200.0,236.0,287.0,soft,6.0
0 days 01:08:30.917000,31,0 days 00:01:35.426000,17,"","",0 days 00:00:33.128000,0 days 00:00:37.307000,0 days 00:00:24.991000,"",211.0,258.0,"",soft,7.0
0 days 01:09:47.862000,31,0 days 00:01:16.945000,18,"","",0 days 00:00:28.096000,0 days 00:00:27.093000,0 days 00:00:21.756000,279.0,253.0,258.0,302.0,soft,8.0
0 days 01:11:13.138000,31,0 days 00:01:25.276000,19,"",0 days 01:11:11.346000,0 days 00:00:30.138000,0 days 00:00:28.942000,0 days 00:00:26.196000,257.0,239.0,"",289.0,soft,9.0
0 days 01:13:08.505000,31,0 days 00:01:55.367000,20,0 days 01:11:32.262000,0 days 01:13:06.857000,0 days 00:00:59.602000,0 days 00:00:30.479000,0 days 00:00:25.286000,266.0,233.0,"","",soft,10.0
0 days 00:31:36.167000,26,"",1,0 days 00:30:01.488000,"","",0 days 00:00:33.240000,0 days 00:00:29.219000,238.0,218.0,257.0,"",soft,1.0
0 days 00:32:55.003000,26,0 days 00:01:18.836000,2,"","",0 days 00:00:28.522000,0 days 00:00:28.386000,0 days 00:00:21.928000,274.0,245.0,258.0,303.0,soft,2.0
0 days 00:34:34.325000,26,0 days 00:01:39.322000,3,"","",0 days 00:00:34.723000,0 days 00:00:38.854000,0 days 00:00:25.745000,235.0,204.0,261.0,289.0,soft,3.0
0 days 00:36:06.159000,26,0 days 00:01:31.834000,4,"","",0 days 00:00:32.085000,0 days 00:00:35.153000,0 days 00:00:24.596000,264.0,222.0,261.0,307.0,soft,4.0
0 days 00:37:24.473000,26,0 days 00:01:18.314000,5,"","",0 days 00:00:28.285000,0 days 00:00:27.960000,0 days 00:00:22.069000,280.0,247.0,259.0,305.0,soft,5.0
0 days 00:39:07.034000,26,0 days 00:01:42.561000,6,"","",0 days 00:00:39.064000,0 days 00:00:37.178000,0 days 00:00:26.319000,246.0,217.0,260.0,295.0,soft,6.0
0 days 00:40:25.915000,26,0 days 00:01:18.881000,7,"","",0 days 00:00:28.403000,0 days 00:00:28.117000,0 days 00:00:22.361000,279.0,245.0,261.0,306.0,soft,7.0
0 days 00:41:57.777000,26,0 days 00:01:31.862000,8,"",0 days 00:41:56.089000,0 days 00:00:33.296000,0 days 00:00:31.939000,0 days 00:00:26.627000,246.0,226.0,"",298.0,soft,8.0
0 days 01:02:44.449000,26,"",9,0 days 01:01:09.694000,"","",0 days 00:00:35.993000,0 days 00:00:28.319000,263.0,225.0,262.0,"",soft,1.0
0 days 01:04:01.741000,26,0 days 00:01:17.292000,10,"","",0 days 00:00:27.817000,0 days 00:00:27.418000,0 days 00:00:22.057000,279.0,249.0,257.0,308.0,soft,2.0
0 days 01:05:44.651000,26,0 days 00:01:42.910000,11,"","",0 days 00:00:35.490000,0 days 00:00:40.502000,0 days 00:00:26.918000,236.0,195.0,260.0,293.0,soft,3.0
0 days 01:07:02.283000,26,0 days 00:01:17.632000,12,"","",0 days 00:00:28.113000,0 days 00:00:27.594000,0 days 00:00:21.925000,277.0,251.0,257.0,306.0,soft,4.0
0 days 01:08:44.561000,26,0 days 00:01:42.278000,13,"","",0 days 00:00:35.067000,0 days 00:00:40.883000,0 days 00:00:26.328000,206.0,198.0,260.0,293.0,soft,5.0
0 days 01:10:02.040000,26,0 days 00:01:17.479000,14,"","",0 days 00:00:27.952000,0 days 00:00:27.615000,0 days 00:00:21.912000,275.0,252.0,258.0,303.0,soft,6.0
0 days 01:11:34.957000,26,0 days 00:01:32.917000,15,"",0 days 01:11:33.282000,0 days 00:00:33.573000,0 days 00:00:32.116000,0 days 00:00:27.228000,240.0,224.0,"",289.0,soft,7.0
0 days 00:30:13.451000,23,"",1,0 days 00:28:35.003000,"","",0 days 00:00:37.876000,0 days 00:00:27.196000,251.0,205.0,255.0,"",soft,1.0
0 days 00:31:31.554000,23,0 days 00:01:18.103000,2,"","",0 days 00:00:28.510000,0 days 00:00:27.656000,0 days 00:00:21.937000,274.0,247.0,257.0,297.0,soft,2.0
0 days 00:33:27.857000,23,0 days 00:01:56.303000,3,"","",0 days 00:00:40.894000,0 days 00:00:41.469000,0 days 00:00:33.940000,168.0,142.0,256.0,268.0,soft,3.0
0 days 00:34:45.555000,23,0 days 00:01:17.698000,4,"","",0 days 00:00:28.615000,0 days 00:00:27.378000,0 days 00:00:21.705000,277.0,250.0,259.0,304.0,soft,4.0
0 days 00:36:39.766000,23,0 days 00:01:54.211000,5,"","",0 days 00:00:40.908000,0 days 00:00:42.295000,0 days 00:00:31.008000,121.0,186.0,222.0,276.0,soft,5.0
0 days 00:38:23.482000,23,0 days 00:01:43.716000,6,"","",0 days 00:00:36.752000,0 days 00:00:37.179000,0 days 00:00:29.785000,251.0,187.0,259.0,275.0,soft,6.0
0 days 00:39:40.635000,23,0 days 00:01:17.153000,7,"","",0 days 00:00:28.044000,0 days 00:00:27.393000,0 days 00:00:21.716000,279.0,244.0,257.0,307.0,soft,7.0
0 days 00:41:25.888000,23,0 days 00:01:45.253000,8,"","",0 days 00:00:37.838000,0 days 00:00:39.308000,0 days 00:00:28.107000,241.0,180.0,259.0,290.0,soft,8.0
0 days 00:42:48.581000,23,0 days 00:01:22.693000,9,"","",0 days 00:00:28.251000,0 days 00:00:27.153000,0 days 00:00:27.289000,276.0,251.0,229.0,306.0,soft,9.0
0 days 00:44:31.070000,23,0 days 00:01:42.489000,10,"",0 days 00:44:30.010000,0 days 00:00:35.538000,0 days 00:00:36.414000,0 days 00:00:30.537000,223.0,196.0,"",267.0,soft,10.0
0 days 00:46:34.634000,23,0 days 00:02:03.564000,11,0 days 00:44:52.097000,0 days 00:46:32.929000,0 days 00:00:58.706000,0 days 00:00:35.214000,0 days 00:00:29.644000,257.0,214.0,"","",soft,11.0
0 days 01:02:50.302000,23,"",12,0 days 01:01:14.741000,"","",0 days 00:00:34.630000,0 days 00:00:26.774000,224.0,237.0,260.0,"",soft,1.0
0 days 01:04:06.884000,23,0 days 00:01:16.582000,13,"","",0 days 00:00:27.624000,0 days 00:00:26.997000,0 days 00:00:21.961000,278.0,252.0,259.0,304.0,soft,2.0
0 days 01:05:54.909000,23,0 days 00:01:48.025000,14,"","",0 days 00:00:38.315000,0 days 00:00:40.598000,0 days 00:00:29.112000,206.0,183.0,214.0,247.0,soft,3.0
0 days 01:07:37.258000,23,0 days 00:01:42.349000,15,"","",0 days 00:00:35.078000,0 days 00:00:39.954000,0 days 00:00:27.317000,239.0,219.0,260.0,264.0,soft,4.0
0 days 01:08:54.069000,23,0 days 00:01:16.811000,16,"","",0 days 00:00:27.781000,0 days 00:00:27.350000,0 days 00:00:21.680000,277.0,245.0,258.0,306.0,soft,5.0
0 days 01:10:42.706000,23,0 days 00:01:48.637000,17,"","",0 days 00:00:37.401000,0 days 00:00:42.805000,0 days 00:00:28.431000,230.0,185.0,258.0,280.0,soft,6.0
0 days 01:11:59.834000,23,0 days 00:01:17.128000,18,"","",0 days 00:00:28.005000,0 days 00:00:27.343000,0 days 00:00:21.780000,276.0,247.0,258.0,305.0,soft,7.0
0 days 01:13:44.494000,23,0 days 00:01:44.660000,19,"",0 days 01:13:42.787000,0 days 00:00:37.121000,0 days 00:00:34.826000,0 days 00:00:32.713000,228.0,204.0,"",289.0,soft,8.0
0 days 00:14:02.092000,20,"",1,0 days 00:12:27.359000,0 days 00:14:00.412000,"",0 days 00:00:33.298000,0 days 00:00:29.389000,196.0,148.0,"","",soft,1.0
0 days 00:34:02.959000,20,"",2,0 days 00:32:19.834000,"","",0 days 00:00:30.591000,0 days 00:00:34.980000,260.0,237.0,257.0,"",soft,2.0
0 days 00:35:21.167000,20,0 days 00:01:18.208000,3,"","",0 days 00:00:28.623000,0 days 00:00:27.597000,0 days 00:00:21.988000,278.0,251.0,258.0,303.0,soft,3.0
0 days 00:37:15.712000,20,0 days 00:01:54.545000,4,"","",0 days 00:00:32.802000,0 days 00:00:44.176000,0 days 00:00:37.567000,255.0,199.0,258.0,301.0,soft,4.0
0 days 00:38:33.560000,20,0 days 00:01:17.848000,5,"","",0 days 00:00:28.233000,0 days 00:00:27.540000,0 days 00:00:22.075000,277.0,252.0,255.0,302.0,soft,5.0
0 days 00:40:29.750000,20,0 days 00:01:56.190000,6,"","",0 days 00:00:36.134000,0 days 00:00:47.069000,0 days 00:00:32.987000,230.0,123.0,258.0,303.0,soft,6.0
0 days 00:42:18.923000,20,0 days 00:01:49.173000,7,"",0 days 00:42:17.346000,0 days 00:00:36.221000,0 days 00:00:40.809000,0 days 00:00:32.143000,197.0,149.0,"",305.0,soft,7.0
0 days 01:02:59.578000,20,"",8,0 days 01:01:21.600000,"","",0 days 00:00:33.892000,0 days 00:00:33.144000,263.0,216.0,261.0,"",soft,1.0
0 days 01:04:16.664000,20,0 days 00:01:17.086000,9,"","",0 days 00:00:27.918000,0 days 00:00:27.106000,0 days 00:00:22.062000,279.0,255.0,255.0,307.0,soft,2.0
0 days 01:06:03.866000,20,0 days 00:01:47.202000,10,"","",0 days 00:00:35.712000,0 days 00:00:41.926000,0 days 00:00:29.564000,242.0,185.0,257.0,296.0,soft,3.0
0 days 01:07:21.025000,20,0 days 00:01:17.159000,11,"","",0 days 00:00:28.067000,0 days 00:00:27.161000,0 days 00:00:21.931000,276.0,253.0,255.0,302.0,soft,4.0
0 days 01:09:09.558000,20,0 days 00:01:48.533000,12,"","",0 days 00:00:34.829000,0 days 00:00:47.992000,0 days 00:00:25.712000,228.0,165.0,256.0,301.0,soft,5.0
0 days 01:10:27.070000,20,0 days 00:01:17.512000,13,"","",0 days 00:00:28.170000,0 days 00:00:27.300000,0 days 00:00:22.042000,276.0,252.0,254.0,300.0,soft,6.0
0 days 01:12:11.828000,20,0 days 00:01:44.758000,14,"",0 days 01:12:10.030000,0 days 00:00:33.994000,0 days 00:00:40.523000,0 days 00:00:30.241000,197.0,148.0,"",291.0,soft,7.0
0 days 00:37:21.552000,18,"",1,0 days 00:35:19.149000,"","",0 days 00:00:42.958000,0 days 00:00:37.057000,186.0,215.0,258.0,"",soft,1.0
0 days 00:38:38.529000,18,0 days 00:01:16.977000,2,"","",0 days 00:00:27.986000,0 days 00:00:27.012000,0 days 00:00:21.979000,282.0,255.0,258.0,307.0,soft,2.0
0 days 00:40:37.129000,18,0 days 00:01:58.600000,3,"","",0 days 00:00:39.321000,0 days 00:00:45.760000,0 days 00:00:33.519000,139.0,118.0,248.0,296.0,soft,3.0
0 days 00:42:21.396000,18,0 days 00:01:44.267000,4,"","",0 days 00:00:31.819000,0 days 00:00:43.959000,0 days 00:00:28.489000,231.0,204.0,259.0,294.0,soft,4.0
0 days 00:43:38.686000,18,0 days 00:01:17.290000,5,"","",0 days 00:00:28.041000,0 days 00:00:27.397000,0 days 00:00:21.852000,281.0,252.0,259.0,307.0,soft,5.0
0 days 00:45:29.978000,18,0 days 00:01:51.292000,6,"","",0 days 00:00:40.544000,0 days 00:00:41.972000,0 days 00:00:28.776000,142.0,164.0,260.0,296.0,soft,6.0
0 days 00:47:06.013000,18,0 days 00:01:36.035000,7,"",0 days 00:47:04.354000,0 days 00:00:32.681000,0 days 00:00:35.751000,0 days 00:00:27.603000,249.0,231.0,"",308.0,soft,7.0
0 days 01:03:22.079000,18,"",8,0 days 01:01:42.805000,"","",0 days 00:00:41.392000,0 days 00:00:25.189000,193.0,224.0,262.0,"",soft,1.0
0 days 01:04:38.112000,18,0 days 00:01:16.033000,9,"","",0 days 00:00:27.540000,0 days 00:00:26.738000,0 days 00:00:21.755000,284.0,257.0,261.0,313.0,soft,2.0
0 days 01:06:26.858000,18,0 days 00:01:48.746000,10,"","",0 days 00:00:37.284000,0 days 00:00:45.162000,0 days 00:00:26.300000,166.0,192.0,233.0,297.0,soft,3.0
0 days 01:08:03.640000,18,0 days 00:01:36.782000,11,"","",0 days 00:00:35.549000,0 days 00:00:36.195000,0 days 00:00:25.038000,195.0,221.0,260.0,280.0,soft,4.0
0 days 01:09:19.872000,18,0 days 00:01:16.232000,12,"","",0 days 00:00:27.739000,0 days 00:00:26.718000,0 days 00:00:21.775000,281.0,256.0,260.0,306.0,soft,5.0
0 days 01:11:14.664000,18,0 days 00:01:54.792000,13,"","",0 days 00:00:38.138000,0 days 00:00:43.281000,0 days 00:00:33.373000,175.0,200.0,256.0,296.0,soft,6.0
0 days 01:12:31.979000,18,0 days 00:01:17.315000,14,"","",0 days 00:00:27.916000,0 days 00:00:27.197000,0 days 00:00:22.202000,282.0,253.0,259.0,306.0,soft,7.0
0 days 01:14:10.355000,18,"",15,"",0 days 01:14:10.355000,0 days 00:00:34.828000,0 days 00:00:31.235000,"",238.0,233.0,"",256.0,soft,8.0
0 days 00:30:37.455000,16,"",1,0 days 00:29:09.553000,"","",0 days 00:00:32.582000,0 days 00:00:23.888000,254.0,233.0,256.0,"",soft,1.0
0 days 00:31:55.414000,16,0 days 00:01:17.959000,2,"","",0 days 00:00:28.473000,0 days 00:00:27.523000,0 days 00:00:21.963000,278.0,252.0,258.0,299.0,soft,2.0
0 days 00:33:42.168000,16,0 days 00:01:46.754000,3,"","",0 days 00:00:37.351000,0 days 00:00:39.554000,0 days 00:00:29.849000,204.0,207.0,256.0,290.0,soft,3.0
0 days 00:34:59.017000,16,0 days 00:01:16.849000,4,"","",0 days 00:00:28.171000,0 days 00:00:27.011000,0 days 00:00:21.667000,279.0,253.0,257.0,300.0,soft,4.0
0 days 00:36:51.919000,16,0 days 00:01:52.902000,5,"","",0 days 00:00:39.863000,0 days 00:00:43.241000,0 days 00:00:29.798000,191.0,189.0,256.0,281.0,soft,5.0
0 days 00:38:09.056000,16,0 days 00:01:17.137000,6,"","",0 days 00:00:28.152000,0 days 00:00:27.205000,0 days 00:00:21.780000,280.0,252.0,256.0,298.0,soft,6.0
0 days 00:39:54.876000,16,0 days 00:01:45.820000,7,"",0 days 00:39:54.553000,0 days 00:00:31.902000,0 days 00:00:42.767000,0 days 00:00:31.151000,246.0,192.0,"",301.0,soft,7.0
0 days 00:42:25.950000,16,"",8,0 days 00:40:13.787000,0 days 00:42:24.214000,0 days 00:01:22.145000,0 days 00:00:39.204000,0 days 00:00:29.682000,197.0,220.0,"","",soft,8.0
0 days 00:53:53.027000,16,"",9,0 days 00:52:15.024000,"","",0 days 00:00:39.528000,0 days 00:00:26.795000,212.0,174.0,257.0,"",soft,1.0
0 days 00:55:08.808000,16,0 days 00:01:15.781000,10,"","",0 days 00:00:27.750000,0 days 00:00:26.688000,0 days 00:00:21.343000,280.0,254.0,256.0,300.0,soft,2.0
0 days 00:57:04.758000,16,0 days 00:01:55.950000,11,"","",0 days 00:00:41.037000,0 days 00:00:44.429000,0 days 00:00:30.484000,181.0,197.0,256.0,263.0,soft,3.0
0 days 00:58:24.855000,16,0 days 00:01:20.097000,12,"","",0 days 00:00:27.743000,0 days 00:00:26.852000,0 days 00:00:25.502000,279.0,253.0,227.0,302.0,soft,4.0
0 days 01:00:01.151000,16,0 days 00:01:36.296000,13,"","",0 days 00:00:32,0 days 00:00:36.143000,0 days 00:00:28.153000,227.0,209.0,256.0,269.0,soft,5.0
0 days 01:01:18.042000,16,0 days 00:01:16.891000,14,"","",0 days 00:00:27.923000,0 days 00:00:27.070000,0 days 00:00:21.898000,277.0,250.0,246.0,298.0,soft,6.0
0 days 01:02:46.504000,16,0 days 00:01:28.462000,15,"",0 days 01:02:44.835000,0 days 00:00:29.903000,0 days 00:00:30.796000,0 days 00:00:27.763000,273.0,227.0,"",284.0,soft,7.0
0 days 01:08:41.033000,16,"",16,0 days 01:06:48.037000,0 days 01:08:39.244000,"",0 days 00:00:33.960000,0 days 00:00:30.298000,261.0,227.0,"","",soft,8.0
0 days 01:11:09.525000,16,0 days 00:02:28.492000,17,0 days 01:09:41.905000,"",0 days 00:01:28.501000,0 days 00:00:31.941000,0 days 00:00:28.050000,272.0,210.0,244.0,"",soft,9.0
0 days 01:12:30.215000,16,0 days 00:01:20.690000,18,"","",0 days 00:00:29.343000,0 days 00:00:28.515000,0 days 00:00:22.832000,"",240.0,250.0,283.0,soft,10.0
0 days 01:14:04.948000,16,0 days 00:01:34.733000,19,"",0 days 01:14:03.148000,0 days 00:00:29.085000,0 days 00:00:32.863000,0 days 00:00:32.785000,274.0,213.0,"",294.0,soft,11.0
0 days 00:35:19.821000,11,"",1,0 days 00:33:31.700000,"","",0 days 00:00:42.360000,0 days 00:00:32.508000,204.0,214.0,259.0,"",soft,1.0
0 days 00:36:36.697000,11,0 days 00:01:16.876000,2,"","",0 days 00:00:28.316000,0 days 00:00:26.955000,0 days 00:00:21.605000,283.0,258.0,261.0,307.0,soft,2.0
0 days 00:38:25.931000,11,0 days 00:01:49.234000,3,"","",0 days 00:00:43.696000,0 days 00:00:41.242000,0 days 00:00:24.296000,110.0,216.0,237.0,298.0,soft,3.0
0 days 00:40:14.489000,11,0 days 00:01:48.558000,4,"","",0 days 00:00:34.955000,0 days 00:00:42.013000,0 days 00:00:31.590000,239.0,154.0,260.0,283.0,soft,4.0
0 days 00:41:30.829000,11,0 days 00:01:16.340000,5,"","",0 days 00:00:27.908000,0 days 00:00:26.862000,0 days 00:00:21.570000,283.0,255.0,261.0,306.0,soft,5.0
0 days 00:43:25.524000,11,0 days 00:01:54.695000,6,"","",0 days 00:00:37.174000,0 days 00:00:47.950000,0 days 00:00:29.571000,175.0,192.0,223.0,296.0,soft,6.0
0 days 00:45:14.439000,11,0 days 00:01:48.915000,7,"","",0 days 00:00:35.272000,0 days 00:00:40.617000,0 days 00:00:33.026000,117.0,174.0,260.0,281.0,soft,7.0
0 days 00:46:30.845000,11,0 days 00:01:16.406000,8,"","",0 days 00:00:27.890000,0 days 00:00:26.873000,0 days 00:00:21.643000,285.0,255.0,261.0,306.0,soft,8.0
0 days 00:48:00.977000,11,0 days 00:01:30.132000,9,"",0 days 00:47:59.320000,0 days 00:00:30.471000,0 days 00:00:32.900000,0 days 00:00:26.761000,256.0,198.0,"",296.0,soft,9.0
0 days 00:50:04.561000,11,0 days 00:02:03.584000,10,0 days 00:48:34.384000,0 days 00:50:02.917000,0 days 00:01:04.250000,0 days 00:00:32.383000,0 days 00:00:26.951000,250.0,199.0,"","",soft,10.0
0 days 01:03:11.845000,11,"",11,0 days 01:01:28.879000,"","",0 days 00:00:40.376000,0 days 00:00:26.157000,170.0,214.0,264.0,"",soft,1.0
0 days 01:04:27.443000,11,0 days 00:01:15.598000,12,"","",0 days 00:00:27.454000,0 days 00:00:26.647000,0 days 00:00:21.497000,284.0,258.0,262.0,310.0,soft,2.0
0 days 01:06:17.788000,11,0 days 00:01:50.345000,13,"","",0 days 00:00:35.576000,0 days 00:00:42.225000,0 days 00:00:32.544000,188.0,177.0,260.0,296.0,soft,3.0
0 days 01:07:34.724000,11,0 days 00:01:16.936000,14,"","",0 days 00:00:27.949000,0 days 00:00:26.994000,0 days 00:00:21.993000,282.0,252.0,257.0,309.0,soft,4.0
0 days 01:09:16.658000,11,0 days 00:01:41.934000,15,"",0 days 01:09:14.459000,0 days 00:00:33.373000,0 days 00:00:37.620000,0 days 00:00:30.941000,228.0,194.0,"",296.0,soft,5.0
0 days 01:11:41.561000,11,"",16,0 days 01:09:52.750000,0 days 01:11:41.561000,0 days 00:01:19.918000,0 days 00:00:37.043000,"",231.0,211.0,"","",soft,6.0
0 days 00:31:01.124000,10,"",1,0 days 00:29:19.651000,"","",0 days 00:00:41.345000,0 days 00:00:27.205000,246.0,206.0,260.0,"",soft,1.0
0 days 00:32:19.721000,10,0 days 00:01:18.597000,2,"","",0 days 00:00:28.390000,0 days 00:00:28.252000,0 days 00:00:21.955000,276.0,247.0,260.0,304.0,soft,2.0
0 days 00:34:06.985000,10,0 days 00:01:47.264000,3,"",0 days 00:34:05.258000,0 days 00:00:36.054000,0 days 00:00:38.714000,0 days 00:00:32.496000,240.0,198.0,"",296.0,soft,3.0
0 days 00:36:16.044000,10,0 days 00:02:09.059000,4,0 days 00:34:37.094000,"",0 days 00:01:05.288000,0 days 00:00:36.438000,0 days 00:00:27.333000,172.0,232.0,261.0,"",soft,4.0
0 days 00:37:34.102000,10,0 days 00:01:18.058000,5,"","",0 days 00:00:28.178000,0 days 00:00:27.739000,0 days 00:00:22.141000,280.0,249.0,258.0,309.0,soft,5.0
0 days 00:39:20.290000,10,0 days 00:01:46.188000,6,"","",0 days 00:00:35.874000,0 days 00:00:40.007000,0 days 00:00:30.307000,113.0,206.0,253.0,306.0,soft,6.0
0 days 00:40:37.581000,10,0 days 00:01:17.291000,7,"","",0 days 00:00:28.075000,0 days 00:00:27.264000,0 days 00:00:21.952000,281.0,249.0,263.0,309.0,soft,7.0
0 days 00:42:24.698000,10,0 days 00:01:47.117000,8,"","",0 days 00:00:37.661000,0 days 00:00:40.220000,0 days 00:00:29.236000,246.0,203.0,260.0,323.0,soft,8.0
0 days 00:43:42.151000,10,0 days 00:01:17.453000,9,"","",0 days 00:00:28.064000,0 days 00:00:27.435000,0 days 00:00:21.954000,280.0,250.0,259.0,307.0,soft,9.0
0 days 00:45:21.124000,10,0 days 00:01:38.973000,10,"",0 days 00:45:20.103000,0 days 00:00:36.830000,0 days 00:00:35.280000,0 days 00:00:26.863000,215.0,210.0,"",299.0,soft,10.0
0 days 00:55:32.386000,10,"",11,0 days 00:54:00.951000,"","",0 days 00:00:35.175000,0 days 00:00:24.996000,264.0,224.0,260.0,"",soft,11.0
0 days 00:56:50.279000,10,0 days 00:01:17.893000,12,"","",0 days 00:00:28.127000,0 days 00:00:27.716000,0 days 00:00:22.050000,277.0,251.0,256.0,302.0,soft,12.0
0 days 00:58:22.065000,10,0 days 00:01:31.786000,13,"",0 days 00:58:20.185000,0 days 00:00:32.755000,0 days 00:00:30.206000,0 days 00:00:28.825000,234.0,235.0,"",295.0,soft,13.0
0 days 01:00:26.526000,10,0 days 00:02:04.461000,14,0 days 00:58:42.002000,0 days 01:00:25.991000,0 days 00:01:06.978000,0 days 00:00:31.085000,0 days 00:00:26.398000,275.0,222.0,"","",soft,14.0
0 days 01:05:23.690000,10,"",15,0 days 01:03:48.651000,"","",0 days 00:00:35.822000,0 days 00:00:25.513000,192.0,209.0,262.0,"",soft,1.0
0 days 01:06:40.143000,10,0 days 00:01:16.453000,16,"","",0 days 00:00:27.603000,0 days 00:00:27.047000,0 days 00:00:21.803000,278.0,254.0,258.0,307.0,soft,2.0
0 days 01:08:24.909000,10,0 days 00:01:44.766000,17,"","",0 days 00:00:34.564000,0 days 00:00:41.842000,0 days 00:00:28.360000,244.0,200.0,260.0,295.0,soft,3.0
0 days 01:09:41.821000,10,0 days 00:01:16.912000,18,"","",0 days 00:00:27.820000,0 days 00:00:27.065000,0 days 00:00:22.027000,279.0,251.0,259.0,305.0,soft,4.0
0 days 01:11:11.205000,10,0 days 00:01:29.384000,19,"",0 days 01:11:09.586000,0 days 00:00:32.189000,0 days 00:00:28.643000,0 days 00:00:28.552000,257.0,244.0,"",294.0,soft,5.0
0 days 01:13:01.621000,10,0 days 00:01:50.416000,20,0 days 01:11:27.764000,0 days 01:13:01.637000,0 days 00:00:57.703000,0 days 00:00:28.231000,0 days 00:00:24.482000,272.0,246.0,"","",soft,6.0
0 days 00:14:40.561000,8,"",1,0 days 00:12:59.433000,0 days 00:14:38.749000,"",0 days 00:00:35.113000,0 days 00:00:31.500000,192.0,197.0,"","",soft,1.0
0 days 00:34:17.988000,8,"",2,0 days 00:32:42.215000,"","",0 days 00:00:31.646000,0 days 00:00:33.379000,262.0,225.0,262.0,"",soft,2.0
0 days 00:35:43.230000,8,0 days 00:01:25.242000,3,"","",0 days 00:00:28.989000,0 days 00:00:28.226000,0 days 00:00:28.027000,276.0,247.0,234.0,309.0,soft,3.0
0 days 00:37:30.276000,8,0 days 00:01:47.046000,4,"","",0 days 00:00:34.710000,0 days 00:00:34.352000,0 days 00:00:37.984000,225.0,211.0,259.0,274.0,soft,4.0
0 days 00:38:48.494000,8,0 days 00:01:18.218000,5,"","",0 days 00:00:28.439000,0 days 00:00:27.792000,0 days 00:00:21.987000,277.0,251.0,257.0,306.0,soft,5.0
0 days 00:40:24.924000,8,0 days 00:01:36.430000,6,"","",0 days 00:00:33.438000,0 days 00:00:35.660000,0 days 00:00:27.332000,230.0,201.0,258.0,291.0,soft,6.0
0 days 00:41:42.929000,8,0 days 00:01:18.005000,7,"","",0 days 00:00:28.410000,0 days 00:00:27.588000,0 days 00:00:22.007000,279.0,252.0,255.0,306.0,soft,7.0
0 days 00:43:22.192000,8,0 days 00:01:39.263000,8,"",0 days 00:43:20.436000,0 days 00:00:33.413000,0 days 00:00:36.187000,0 days 00:00:29.663000,185.0,149.0,"",289.0,soft,8.0
0 days 01:02:54.265000,8,"",9,0 days 01:01:12.853000,"","",0 days 00:00:33.356000,0 days 00:00:28.906000,233.0,218.0,263.0,"",soft,1.0
0 days 01:04:11.131000,8,0 days 00:01:16.866000,10,"","",0 days 00:00:27.947000,0 days 00:00:27.023000,0 days 00:00:21.896000,280.0,255.0,255.0,309.0,soft,2.0
0 days 01:06:07.505000,8,0 days 00:01:56.374000,11,"","",0 days 00:00:39.009000,0 days 00:00:47.444000,0 days 00:00:29.921000,190.0,201.0,260.0,288.0,soft,3.0
0 days 01:07:24.979000,8,0 days 00:01:17.474000,12,"","",0 days 00:00:27.986000,0 days 00:00:27.593000,0 days 00:00:21.895000,277.0,250.0,257.0,305.0,soft,4.0
0 days 01:09:15.332000,8,0 days 00:01:50.353000,13,"","",0 days 00:00:37.766000,0 days 00:00:42.129000,0 days 00:00:30.458000,203.0,129.0,258.0,290.0,soft,5.0
0 days 01:10:33.343000,8,0 days 00:01:18.011000,14,"","",0 days 00:00:28.203000,0 days 00:00:27.314000,0 days 00:00:22.494000,276.0,251.0,253.0,303.0,soft,6.0
0 days 01:12:21.815000,8,0 days 00:01:48.472000,15,"",0 days 01:12:20.127000,0 days 00:00:33.138000,0 days 00:00:43.109000,0 days 00:00:32.225000,205.0,149.0,"",281.0,soft,7.0
0 days 00:15:53.113000,7,"",1,0 days 00:14:26.311000,"","",0 days 00:00:31.925000,0 days 00:00:24.107000,247.0,223.0,256.0,"",soft,1.0
0 days 00:17:12.249000,7,0 days 00:01:19.136000,2,"","",0 days 00:00:28.802000,0 days 00:00:28.243000,0 days 00:00:22.091000,276.0,246.0,252.0,300.0,soft,2.0
0 days 00:19:01.009000,7,0 days 00:01:48.760000,3,"","",0 days 00:00:39.665000,0 days 00:00:42.581000,0 days 00:00:26.514000,114.0,186.0,256.0,242.0,soft,3.0
0 days 00:20:19.626000,7,0 days 00:01:18.617000,4,"","",0 days 00:00:28.565000,0 days 00:00:28.104000,0 days 00:00:21.948000,276.0,245.0,255.0,300.0,soft,4.0
0 days 00:22:04.997000,7,0 days 00:01:45.371000,5,"","",0 days 00:00:38.062000,0 days 00:00:42.881000,0 days 00:00:24.428000,145.0,201.0,257.0,288.0,soft,5.0
0 days 00:23:32.138000,7,0 days 00:01:27.141000,6,"","",0 days 00:00:28.627000,0 days 00:00:32.636000,0 days 00:00:25.878000,277.0,217.0,256.0,300.0,soft,6.0
0 days 00:24:56.284000,7,0 days 00:01:24.146000,7,"",0 days 00:24:54.561000,0 days 00:00:28.687000,0 days 00:00:28.574000,0 days 00:00:26.885000,"",216.0,"","",soft,7.0
0 days 00:26:59.926000,7,0 days 00:02:03.642000,8,0 days 00:25:14.196000,0 days 00:26:58.194000,0 days 00:01:06.579000,0 days 00:00:30.966000,0 days 00:00:26.097000,250.0,223.0,"","",soft,8.0
0 days 00:40:53.351000,7,"",9,0 days 00:39:29.902000,"","",0 days 00:00:29.844000,0 days 00:00:24.491000,273.0,230.0,255.0,"",soft,9.0
0 days 00:42:13.308000,7,0 days 00:01:19.957000,10,"","",0 days 00:00:28.743000,0 days 00:00:28.797000,0 days 00:00:22.417000,279.0,241.0,252.0,302.0,soft,10.0
0 days 00:43:49.242000,7,0 days 00:01:35.934000,11,"","",0 days 00:00:31.017000,0 days 00:00:38.588000,0 days 00:00:26.329000,209.0,209.0,257.0,300.0,soft,11.0
0 days 00:45:08.283000,7,0 days 00:01:19.041000,12,"","",0 days 00:00:28.605000,0 days 00:00:28.165000,0 days 00:00:22.271000,279.0,242.0,252.0,302.0,soft,12.0
0 days 00:46:51.356000,7,0 days 00:01:43.073000,13,"",0 days 00:46:50.225000,0 days 00:00:34.593000,0 days 00:00:39.682000,0 days 00:00:28.798000,178.0,178.0,"",294.0,soft,13.0
0 days 00:56:36.249000,7,"",14,0 days 00:55:06.956000,"","",0 days 00:00:33.990000,0 days 00:00:25.656000,241.0,225.0,257.0,"",soft,1.0
0 days 00:57:53.776000,7,0 days 00:01:17.527000,15,"","",0 days 00:00:28.103000,0 days 00:00:27.419000,0 days 00:00:22.005000,279.0,248.0,256.0,301.0,soft,2.0
0 days 00:59:37.941000,7,0 days 00:01:44.165000,16,"","",0 days 00:00:38.463000,0 days 00:00:39.355000,0 days 00:00:26.347000,175.0,219.0,229.0,244.0,soft,3.0
0 days 01:01:10.865000,7,0 days 00:01:32.924000,17,"","",0 days 00:00:33.001000,0 days 00:00:34.246000,0 days 00:00:25.677000,224.0,226.0,258.0,271.0,soft,4.0
0 days 01:02:41.152000,7,0 days 00:01:30.287000,18,"","",0 days 00:00:29.893000,0 days 00:00:33.520000,0 days 00:00:26.874000,254.0,205.0,260.0,302.0,soft,5.0
0 days 01:03:58.701000,7,0 days 00:01:17.549000,19,"","",0 days 00:00:27.916000,0 days 00:00:27.528000,0 days 00:00:22.105000,281.0,246.0,254.0,306.0,soft,6.0
0 days 01:05:37.058000,7,0 days 00:01:38.357000,20,"","",0 days 00:00:34.594000,0 days 00:00:38.536000,0 days 00:00:25.227000,218.0,217.0,235.0,292.0,soft,7.0
0 days 01:07:13.441000,7,0 days 00:01:36.383000,21,"","",0 days 00:00:31.851000,0 days 00:00:37.764000,0 days 00:00:26.768000,227.0,225.0,257.0,282.0,soft,8.0
0 days 01:08:35.324000,7,0 days 00:01:21.883000,22,"",0 days 01:08:34.779000,0 days 00:00:27.953000,0 days 00:00:27.714000,0 days 00:00:26.216000,280.0,247.0,"",302.0,soft,9.0
0 days 01:10:48.782000,7,0 days 00:02:13.458000,23,0 days 01:08:55.896000,"",0 days 00:01:13.271000,0 days 00:00:35.169000,0 days 00:00:25.018000,233.0,222.0,258.0,"",soft,10.0
0 days 01:12:06.594000,7,0 days 00:01:17.812000,24,"","",0 days 00:00:28.026000,0 days 00:00:27.574000,0 days 00:00:22.212000,281.0,246.0,255.0,304.0,soft,11.0
0 days 01:13:38.003000,7,0 days 00:01:31.409000,25,"",0 days 01:13:37.761000,0 days 00:00:31.900000,0 days 00:00:32.754000,0 days 00:00:26.755000,210.0,215.0,"",289.0,soft,12.0
0 days 00:26:10.748000,6,"",1,0 days 00:24:33.970000,"","",0 days 00:00:32.621000,0 days 00:00:25.852000,257.0,223.0,252.0,"",medium,1.0
0 days 00:27:30.486000,6,0 days 00:01:19.738000,2,"","",0 days 00:00:29.073000,0 days 00:00:28.454000,0 days 00:00:22.211000,272.0,243.0,254.0,297.0,medium,2.0
0 days 00:29:10.395000,6,0 days 00:01:39.909000,3,"",0 days 00:29:08.618000,0 days 00:00:34.438000,0 days 00:00:35.405000,0 days 00:00:30.066000,243.0,215.0,"",288.0,medium,3.0
0 days 00:40:04.764000,6,"",4,0 days 00:38:25.863000,"","",0 days 00:00:35.122000,0 days 00:00:26.561000,265.0,222.0,254.0,"",soft,1.0
0 days 00:41:22.923000,6,0 days 00:01:18.159000,5,"","",0 days 00:00:28.647000,0 days 00:00:27.434000,0 days 00:00:22.078000,274.0,247.0,256.0,299.0,soft,2.0
0 days 00:43:18.708000,6,0 days 00:01:55.785000,6,"","",0 days 00:00:44.157000,0 days 00:00:42.225000,0 days 00:00:29.403000,236.0,210.0,256.0,290.0,soft,3.0
0 days 00:44:36.395000,6,0 days 00:01:17.687000,7,"","",0 days 00:00:28.309000,0 days 00:00:27.391000,0 days 00:00:21.987000,276.0,251.0,257.0,302.0,soft,4.0
0 days 00:46:24.658000,6,0 days 00:01:48.263000,8,"","",0 days 00:00:36.697000,0 days 00:00:45.048000,0 days 00:00:26.518000,244.0,223.0,257.0,290.0,soft,5.0
0 days 00:47:42.308000,6,0 days 00:01:17.650000,9,"","",0 days 00:00:28.251000,0 days 00:00:27.405000,0 days 00:00:21.994000,276.0,252.0,257.0,302.0,soft,6.0
0 days 00:49:17.672000,6,0 days 00:01:35.364000,10,"",0 days 00:49:16.029000,0 days 00:00:33.370000,0 days 00:00:35.277000,0 days 00:00:26.717000,208.0,223.0,"",293.0,soft,7.0
0 days 00:51:41.705000,6,0 days 00:02:24.033000,11,0 days 00:49:55.561000,0 days 00:51:39.996000,0 days 00:01:13.712000,0 days 00:00:41.237000,0 days 00:00:29.084000,177.0,171.0,"","",soft,8.0
0 days 00:56:44.295000,6,"",12,0 days 00:55:06.608000,"","",0 days 00:00:36.704000,0 days 00:00:29.694000,112.0,229.0,254.0,"",soft,1.0
0 days 00:58:32.435000,6,0 days 00:01:48.140000,13,"","",0 days 00:00:28.166000,0 days 00:00:27.236000,0 days 00:00:52.738000,274.0,254.0,224.0,299.0,soft,2.0
0 days 01:00:19.701000,6,0 days 00:01:47.266000,14,"","",0 days 00:00:35.330000,0 days 00:00:40.422000,0 days 00:00:31.514000,241.0,213.0,256.0,278.0,soft,3.0
0 days 01:01:47.664000,6,0 days 00:01:27.963000,15,"","",0 days 00:00:28.416000,0 days 00:00:27.610000,0 days 00:00:31.937000,273.0,199.0,224.0,301.0,soft,4.0
0 days 01:03:28.093000,6,0 days 00:01:40.429000,16,"",0 days 01:03:26.268000,0 days 00:00:33.827000,0 days 00:00:38.021000,0 days 00:00:28.581000,245.0,224.0,"",261.0,soft,5.0
0 days 01:05:43.186000,6,0 days 00:02:15.093000,17,0 days 01:03:50.570000,0 days 01:05:42.023000,0 days 00:01:06.451000,0 days 00:00:37.996000,0 days 00:00:30.646000,204.0,223.0,"","",soft,6.0
0 days 00:30:50.094000,5,"",1,0 days 00:29:15.631000,"","",0 days 00:00:35.187000,0 days 00:00:26.220000,254.0,217.0,255.0,"",soft,1.0
0 days 00:32:07.733000,5,0 days 00:01:17.639000,2,"","",0 days 00:00:28.278000,0 days 00:00:27.412000,0 days 00:00:21.949000,277.0,247.0,257.0,298.0,soft,2.0
0 days 00:33:58.803000,5,0 days 00:01:51.070000,3,"","",0 days 00:00:35.204000,0 days 00:00:42.674000,0 days 00:00:33.192000,204.0,172.0,255.0,280.0,soft,3.0
0 days 00:35:16.268000,5,0 days 00:01:17.465000,4,"","",0 days 00:00:28.415000,0 days 00:00:26.995000,0 days 00:00:22.055000,278.0,254.0,254.0,301.0,soft,4.0
0 days 00:37:10.259000,5,0 days 00:01:53.991000,5,"","",0 days 00:00:36.525000,0 days 00:00:43.897000,0 days 00:00:33.569000,205.0,190.0,255.0,286.0,soft,5.0
0 days 00:38:27.774000,5,0 days 00:01:17.515000,6,"","",0 days 00:00:28.337000,0 days 00:00:26.991000,0 days 00:00:22.187000,275.0,251.0,252.0,298.0,soft,6.0
0 days 00:40:04.253000,5,0 days 00:01:36.479000,7,"",0 days 00:40:01.659000,0 days 00:00:33.521000,0 days 00:00:34.005000,0 days 00:00:28.953000,226.0,222.0,"",291.0,soft,7.0
0 days 00:42:58.415000,5,"",8,0 days 00:40:46.449000,0 days 00:42:58.380000,"",0 days 00:00:31.423000,0 days 00:00:27.159000,239.0,235.0,"","",soft,8.0
0 days 00:53:40.478000,5,"",9,0 days 00:52:05.024000,"","",0 days 00:00:35.806000,0 days 00:00:26.885000,253.0,210.0,257.0,"",soft,1.0
0 days 00:54:56.829000,5,0 days 00:01:16.351000,10,"","",0 days 00:00:27.854000,0 days 00:00:26.587000,0 days 00:00:21.910000,276.0,256.0,255.0,298.0,soft,2.0
0 days 00:56:54.390000,5,0 days 00:01:57.561000,11,"","",0 days 00:00:37.863000,0 days 00:00:48.133000,0 days 00:00:31.565000,189.0,164.0,255.0,283.0,soft,3.0
0 days 00:58:14.677000,5,0 days 00:01:20.287000,12,"","",0 days 00:00:28.112000,0 days 00:00:26.793000,0 days 00:00:25.382000,277.0,243.0,191.0,299.0,soft,4.0
0 days 00:59:55.288000,5,0 days 00:01:40.611000,13,"",0 days 00:59:55.296000,0 days 00:00:36.807000,0 days 00:00:34.964000,0 days 00:00:28.840000,197.0,158.0,"",232.0,soft,5.0
0 days 01:07:46.464000,5,"",14,0 days 01:05:59.267000,0 days 01:07:44.818000,"",0 days 00:00:31.371000,0 days 00:00:26.406000,266.0,224.0,"","",soft,6.0
0 days 01:09:38.466000,5,0 days 00:01:52.002000,15,0 days 01:08:03.311000,"",0 days 00:00:59.943000,0 days 00:00:29.293000,0 days 00:00:22.766000,270.0,239.0,244.0,"",soft,7.0
0 days 01:11:00.941000,5,0 days 00:01:22.475000,16,"","",0 days 00:00:29.287000,0 days 00:00:29.744000,0 days 00:00:23.444000,272.0,237.0,245.0,282.0,soft,8.0
0 days 01:12:21.689000,5,0 days 00:01:20.748000,17,"","",0 days 00:00:29.370000,0 days 00:00:28.483000,0 days 00:00:22.895000,271.0,241.0,244.0,"",soft,9.0
0 days 01:13:49.627000,5,0 days 00:01:27.938000,18,"",0 days 01:13:47.976000,0 days 00:00:29.441000,0 days 00:00:28.536000,0 days 00:00:29.961000,"",242.0,"",281.0,soft,10.0
0 days 00:14:10.458000,4,"",1,0 days 00:12:20.037000,0 days 00:14:08.711000,"",0 days 00:00:36.156000,0 days 00:00:29.937000,203.0,201.0,"","",soft,1.0
0 days 00:33:47.841000,4,"",2,0 days 00:32:01.255000,"","",0 days 00:00:34.425000,0 days 00:00:29.358000,247.0,213.0,259.0,"",soft,2.0
0 days 00:35:05.138000,4,0 days 00:01:17.297000,3,"","",0 days 00:00:28.365000,0 days 00:00:27.350000,0 days 00:00:21.582000,279.0,253.0,259.0,302.0,soft,3.0
0 days 00:36:59.078000,4,0 days 00:01:53.940000,4,"","",0 days 00:00:36.364000,0 days 00:00:43.338000,0 days 00:00:34.238000,234.0,209.0,257.0,283.0,soft,4.0
0 days 00:38:19.190000,4,0 days 00:01:20.112000,5,"","",0 days 00:00:28.385000,0 days 00:00:27.204000,0 days 00:00:24.523000,277.0,250.0,238.0,302.0,soft,5.0
0 days 00:39:52.228000,4,0 days 00:01:33.038000,6,"","",0 days 00:00:28.612000,0 days 00:00:35.377000,0 days 00:00:29.049000,280.0,173.0,258.0,283.0,soft,6.0
0 days 00:41:09.573000,4,0 days 00:01:17.345000,7,"","",0 days 00:00:28.242000,0 days 00:00:27.220000,0 days 00:00:21.883000,"",251.0,257.0,303.0,soft,7.0
0 days 00:42:54.959000,4,0 days 00:01:45.386000,8,"","",0 days 00:00:36.232000,0 days 00:00:39.816000,0 days 00:00:29.338000,190.0,208.0,257.0,283.0,soft,8.0
0 days 00:44:25.153000,4,0 days 00:01:30.194000,9,"",0 days 00:44:23.156000,0 days 00:00:28.282000,0 days 00:00:27.262000,0 days 00:00:34.650000,276.0,188.0,"",302.0,soft,9.0
0 days 01:00:41.852000,4,"",10,0 days 00:59:16.403000,"","",0 days 00:00:32.311000,0 days 00:00:23.865000,233.0,215.0,262.0,"",soft,1.0
0 days 01:02:17.460000,4,0 days 00:01:35.608000,11,"","",0 days 00:00:29.875000,0 days 00:00:35.387000,0 days 00:00:30.346000,253.0,195.0,257.0,303.0,soft,2.0
0 days 01:03:33.653000,4,0 days 00:01:16.193000,12,"","",0 days 00:00:27.811000,0 days 00:00:26.764000,0 days 00:00:21.618000,277.0,255.0,260.0,302.0,soft,3.0
0 days 01:05:15.994000,4,0 days 00:01:42.341000,13,"","",0 days 00:00:33.634000,0 days 00:00:39.589000,0 days 00:00:29.118000,190.0,209.0,258.0,283.0,soft,4.0
0 days 01:06:32.925000,4,0 days 00:01:16.931000,14,"","",0 days 00:00:27.852000,0 days 00:00:26.824000,0 days 00:00:22.255000,275.0,252.0,221.0,303.0,soft,5.0
0 days 01:08:15.789000,4,0 days 00:01:42.864000,15,"","",0 days 00:00:36.198000,0 days 00:00:39.205000,0 days 00:00:27.461000,156.0,209.0,257.0,263.0,soft,6.0
0 days 01:09:32.198000,4,0 days 00:01:16.409000,16,"","",0 days 00:00:28.041000,0 days 00:00:26.671000,0 days 00:00:21.697000,276.0,254.0,256.0,300.0,soft,7.0
0 days 01:10:59.525000,4,0 days 00:01:27.327000,17,"",0 days 01:10:57.864000,0 days 00:00:30.050000,0 days 00:00:29.578000,0 days 00:00:27.699000,258.0,239.0,"",281.0,soft,8.0
0 days 01:12:48.663000,4,0 days 00:01:49.138000,18,0 days 01:11:20.058000,0 days 01:12:47.688000,0 days 00:00:49.106000,0 days 00:00:31.623000,0 days 00:00:28.409000,269.0,204.0,"","",soft,10.0
0 days 00:31:43.030000,77,"",1,0 days 00:29:55.955000,"","",0 days 00:00:36.379000,0 days 00:00:37.547000,240.0,217.0,254.0,"",soft,1.0
0 days 00:32:59.892000,77,0 days 00:01:16.862000,2,"","",0 days 00:00:28.549000,0 days 00:00:26.967000,0 days 00:00:21.346000,274.0,256.0,257.0,300.0,soft,2.0
0 days 00:34:56.899000,77,0 days 00:01:57.007000,3,"","",0 days 00:00:37.254000,0 days 00:00:36.794000,0 days 00:00:42.959000,236.0,164.0,255.0,290.0,soft,3.0
0 days 00:36:13.437000,77,0 days 00:01:16.538000,4,"","",0 days 00:00:28.157000,0 days 00:00:26.694000,0 days 00:00:21.687000,280.0,254.0,258.0,300.0,soft,4.0
0 days 00:38:01.758000,77,0 days 00:01:48.321000,5,"","",0 days 00:00:36.069000,0 days 00:00:37.507000,0 days 00:00:34.745000,245.0,183.0,257.0,299.0,soft,5.0
0 days 00:39:18.036000,77,0 days 00:01:16.278000,6,"","",0 days 00:00:28.014000,0 days 00:00:26.726000,0 days 00:00:21.538000,278.0,254.0,257.0,301.0,soft,6.0
0 days 00:41:03.350000,77,0 days 00:01:45.314000,7,"",0 days 00:41:01.634000,0 days 00:00:36.529000,0 days 00:00:38.615000,0 days 00:00:30.170000,83.0,220.0,"",293.0,soft,7.0
0 days 00:43:33.343000,77,0 days 00:02:29.993000,8,0 days 00:41:24.693000,"",0 days 00:01:13.997000,0 days 00:00:35.091000,0 days 00:00:40.905000,232.0,213.0,256.0,"",soft,8.0
0 days 00:44:50.072000,77,0 days 00:01:16.729000,9,"","",0 days 00:00:27.939000,0 days 00:00:26.556000,0 days 00:00:22.234000,282.0,255.0,247.0,301.0,soft,9.0
0 days 00:46:29.216000,77,0 days 00:01:39.144000,10,"",0 days 00:46:27.505000,0 days 00:00:32.503000,0 days 00:00:36.686000,0 days 00:00:29.955000,114.0,217.0,"",272.0,soft,10.0
0 days 00:55:46.068000,77,"",11,0 days 00:54:16.503000,"","",0 days 00:00:34.437000,0 days 00:00:23.420000,253.0,226.0,259.0,"",soft,1.0
0 days 00:57:01.505000,77,0 days 00:01:15.437000,12,"","",0 days 00:00:27.636000,0 days 00:00:26.393000,0 days 00:00:21.408000,278.0,259.0,258.0,291.0,soft,2.0
0 days 00:58:46.134000,77,0 days 00:01:44.629000,13,"","",0 days 00:00:35.683000,0 days 00:00:42.080000,0 days 00:00:26.866000,246.0,204.0,237.0,"",soft,3.0
0 days 01:00:32.022000,77,0 days 00:01:45.888000,14,"","",0 days 00:00:34.179000,0 days 00:00:39.833000,0 days 00:00:31.876000,239.0,178.0,260.0,274.0,soft,4.0
0 days 01:01:53.287000,77,0 days 00:01:21.265000,15,"","",0 days 00:00:27.863000,0 days 00:00:27.699000,0 days 00:00:25.703000,277.0,201.0,259.0,305.0,soft,5.0
0 days 01:03:29.713000,77,0 days 00:01:36.426000,16,"",0 days 01:03:28.103000,0 days 00:00:32.149000,0 days 00:00:35.931000,0 days 00:00:28.346000,266.0,225.0,"",302.0,soft,6.0
0 days 01:11:39.161000,77,"",17,0 days 01:09:59.870000,0 days 01:11:37.591000,"",0 days 00:00:34.376000,0 days 00:00:26.368000,248.0,220.0,"","",soft,7.0
0 days 01:14:12.865000,77,"",18,0 days 01:11:56.154000,0 days 01:14:11.142000,0 days 00:01:04.930000,0 days 00:00:42.921000,0 days 00:00:45.871000,206.0,114.0,"","",soft,8.0
0 days 00:33:52.112000,99,"",1,0 days 00:32:14.242000,"","",0 days 00:00:34.104000,0 days 00:00:31.895000,238.0,219.0,259.0,"",soft,1.0
0 days 00:35:10.618000,99,0 days 00:01:18.506000,2,"","",0 days 00:00:28.573000,0 days 00:00:27.906000,0 days 00:00:22.027000,279.0,245.0,256.0,304.0,soft,2.0
0 days 00:37:03.111000,99,0 days 00:01:52.493000,3,"","",0 days 00:00:38.686000,0 days 00:00:42.319000,0 days 00:00:31.488000,144.0,203.0,259.0,289.0,soft,3.0
0 days 00:38:21.357000,99,0 days 00:01:18.246000,4,"","",0 days 00:00:28.338000,0 days 00:00:27.761000,0 days 00:00:22.147000,279.0,248.0,257.0,304.0,soft,4.0
0 days 00:40:08.398000,99,0 days 00:01:47.041000,5,"","",0 days 00:00:36.905000,0 days 00:00:42.653000,0 days 00:00:27.483000,216.0,196.0,258.0,299.0,soft,5.0
0 days 00:41:26.940000,99,0 days 00:01:18.542000,6,"","",0 days 00:00:28.475000,0 days 00:00:27.852000,0 days 00:00:22.215000,279.0,247.0,259.0,303.0,soft,6.0
0 days 00:43:13.928000,99,0 days 00:01:46.988000,7,"","",0 days 00:00:37.581000,0 days 00:00:42.784000,0 days 00:00:26.623000,170.0,200.0,258.0,300.0,soft,7.0
0 days 00:44:32.182000,99,0 days 00:01:18.254000,8,"","",0 days 00:00:28.331000,0 days 00:00:27.859000,0 days 00:00:22.064000,277.0,245.0,256.0,301.0,soft,8.0
0 days 00:46:19.762000,99,0 days 00:01:47.580000,9,"","",0 days 00:00:37.816000,0 days 00:00:42.351000,0 days 00:00:27.413000,162.0,195.0,258.0,287.0,soft,9.0
0 days 00:47:38.090000,99,0 days 00:01:18.328000,10,"","",0 days 00:00:28.436000,0 days 00:00:27.834000,0 days 00:00:22.058000,279.0,247.0,254.0,300.0,soft,10.0
0 days 00:49:11.647000,99,0 days 00:01:33.557000,11,"",0 days 00:49:10.455000,0 days 00:00:32.185000,0 days 00:00:33.184000,0 days 00:00:28.188000,244.0,221.0,"",288.0,soft,11.0
0 days 00:51:19.650000,99,0 days 00:02:08.003000,12,0 days 00:49:48.403000,0 days 00:51:19.643000,0 days 00:01:07.848000,0 days 00:00:32.177000,0 days 00:00:27.978000,245.0,227.0,"","",soft,12.0
0 days 01:02:37.655000,99,"",13,0 days 01:01:06.259000,"","",0 days 00:00:34.053000,0 days 00:00:25.731000,264.0,214.0,260.0,"",soft,1.0
0 days 01:03:55.151000,99,0 days 00:01:17.496000,14,"","",0 days 00:00:27.951000,0 days 00:00:27.384000,0 days 00:00:22.161000,280.0,250.0,257.0,305.0,soft,2.0
0 days 01:05:35.246000,99,0 days 00:01:40.095000,15,"","",0 days 00:00:35.155000,0 days 00:00:39.149000,0 days 00:00:25.791000,181.0,195.0,259.0,294.0,soft,3.0
0 days 01:06:53.006000,99,0 days 00:01:17.760000,16,"","",0 days 00:00:28.086000,0 days 00:00:27.585000,0 days 00:00:22.089000,279.0,250.0,254.0,305.0,soft,4.0
0 days 01:08:39.547000,99,0 days 00:01:46.541000,17,"",0 days 01:08:37.877000,0 days 00:00:36.484000,0 days 00:00:38.830000,0 days 00:00:31.227000,172.0,174.0,"",290.0,soft,5.0
0 days 01:11:05.368000,99,0 days 00:02:25.821000,18,0 days 01:09:20.707000,"",0 days 00:01:19.668000,0 days 00:00:41.222000,0 days 00:00:24.931000,192.0,212.0,259.0,"",soft,6.0
0 days 01:12:23.867000,99,0 days 00:01:18.499000,19,"","",0 days 00:00:28.429000,0 days 00:00:27.813000,0 days 00:00:22.257000,279.0,246.0,255.0,303.0,soft,7.0
0 days 01:14:03.026000,99,0 days 00:01:39.159000,20,"",0 days 01:14:01.343000,0 days 00:00:32.500000,0 days 00:00:35.461000,0 days 00:00:31.198000,216.0,200.0,"",289.0,soft,8.0
