2020-10-23 13:45:16	RISK OF RAIN FOR F2 PRACTICE SESSION IS 0% 
2020-10-23 13:45:44	RISK OF RAIN FOR F1 SECOND PRACTICE SESSION IS 0%
2020-10-23 14:00:00	GREEN LIGHT - PIT EXIT OPEN
2020-10-23 14:03:24	CAR 23 (ALB) TIME 1:24.781 DELETED - TRACK LIMITS AT TURN 4
2020-10-23 14:03:30	CAR 55 (SAI) TIME 1:23.875 DELETED - TRACK LIMITS AT TURN 1
2020-10-23 14:04:33	YELLOW IN TRACK SECTOR 16
2020-10-23 14:04:44	CLEAR IN TRACK SECTOR 16
2020-10-23 14:04:53	CAR 55 (SAI) SPUN AND CONTINUED AT TURN 14
2020-10-23 14:04:56	CAR 23 (ALB) TIME 1:24.280 DELETED - TRACK LIMITS AT TURN 4
2020-10-23 14:05:10	TRACK SURFACE SLIPPERY IN TRACK SECTOR 13
2020-10-23 14:06:26	CAR 23 (ALB) TIME 1:23.849 DELETED - TRACK LIMITS AT TURN 1
2020-10-23 14:06:31	CLEAR IN TRACK SECTOR 13
2020-10-23 14:07:09	CAR 10 (GAS) TIME 1:26.739 DELETED - TRACK LIMITS AT TURN 4
2020-10-23 14:07:13	CAR 8 (GRO) TIME 1:24.165 DELETED - TRACK LIMITS AT TURN 4
2020-10-23 14:07:20	CAR 7 (RAI) TIME 1:24.767 DELETED - TRACK LIMITS AT TURN 4
2020-10-23 14:07:48	CAR 20 (MAG) TIME 1:23.777 DELETED - TRACK LIMITS AT TURN 4
2020-10-23 14:08:27	CAR 16 (LEC) TIME 1:27.265 DELETED - TRACK LIMITS AT TURN 4
2020-10-23 14:09:28	CAR 10 (GAS) TIME 1:23.097 DELETED - TRACK LIMITS AT TURN 4
2020-10-23 14:09:31	CAR 4 (NOR) TIME 1:23.259 DELETED - TRACK LIMITS AT TURN 4
2020-10-23 14:10:31	CAR 63 (RUS) TIME 1:23.608 DELETED - TRACK LIMITS AT TURN 4
2020-10-23 14:11:00	CAR 4 (NOR) TIME 1:22.581 DELETED - TRACK LIMITS AT TURN 4
2020-10-23 14:11:11	YELLOW IN TRACK SECTOR 4
2020-10-23 14:11:25	CLEAR IN TRACK SECTOR 4
2020-10-23 14:11:30	CAR 11 (PER) SPUN AND CONTINUED AT TURN 3
2020-10-23 14:12:13	CAR 63 (RUS) TIME 1:23.634 DELETED - TRACK LIMITS AT TURN 4
2020-10-23 14:12:54	CAR 5 (VET) TIME 1:23.839 DELETED - TRACK LIMITS AT TURN 4
2020-10-23 14:12:58	CAR 7 (RAI) TIME 1:22.927 DELETED - TRACK LIMITS AT TURN 4
2020-10-23 14:14:31	CAR 26 (KVY) TIME 1:23.070 DELETED - TRACK LIMITS AT TURN 4
2020-10-23 14:14:38	CAR 10 (GAS) TIME 1:23.169 DELETED - TRACK LIMITS AT TURN 4
2020-10-23 14:15:31	CAR 5 (VET) TIME 1:23.839 DELETED - TRACK LIMITS AT TURN 4
2020-10-23 14:15:41	CAR 18 (STR) TIME 1:23.203 DELETED - TRACK LIMITS AT TURN 4
2020-10-23 14:17:32	CAR 23 (ALB) TIME 1:23.006 DELETED - TRACK LIMITS AT TURN 1
2020-10-23 14:17:51	CAR 5 (VET) TIME 1:24.535 DELETED - TRACK LIMITS AT TURN 1
2020-10-23 14:18:34	CAR 8 (GRO) TIME 1:25.006 DELETED - TRACK LIMITS AT TURN 1
2020-10-23 14:18:37	CAR 7 (RAI) TIME 1:23.267 DELETED - TRACK LIMITS AT TURN 4
2020-10-23 14:19:49	CAR 8 (GRO) TIME 1:23.870 DELETED - TRACK LIMITS AT TURN 4
2020-10-23 14:20:01	CAR 31 (OCO) TIME 1:23.072 DELETED - TRACK LIMITS AT TURN 1
2020-10-23 14:21:23	CAR 8 (GRO) TIME 1:23.631 DELETED - TRACK LIMITS AT TURN 2
2020-10-23 14:21:35	CAR 23 (ALB) TIME 1:23.281 DELETED - TRACK LIMITS AT TURN 1
2020-10-23 14:21:47	CAR 26 (KVY) TIME 1:23.420 DELETED - TRACK LIMITS AT TURN 1
2020-10-23 14:23:26	CAR 8 (GRO) TIME 1:27.485 DELETED - TRACK LIMITS AT TURN 1
2020-10-23 14:24:17	CAR 33 (VER) TIME 1:22.277 DELETED - TRACK LIMITS AT TURN 1
2020-10-23 14:25:13	CAR 26 (KVY) TIME 1:22.858 DELETED - TRACK LIMITS AT TURN 4
2020-10-23 14:25:22	CAR 6 (LAT) TIME 1:25.529 DELETED - TRACK LIMITS AT TURN 1
2020-10-23 14:28:10	CAR 6 (LAT) TIME 1:24.321 DELETED - TRACK LIMITS AT TURN 4
2020-10-23 14:29:13	CAR 55 (SAI) TIME 1:23.425 DELETED - TRACK LIMITS AT TURN 4
2020-10-23 14:30:38	CAR 3 (RIC) TIME 1:22.343 DELETED - TRACK LIMITS AT TURN 4
2020-10-23 14:35:09	CAR 23 (ALB) TIME 1:35.083 DELETED - TRACK LIMITS AT TURN 1
2020-10-23 14:35:12	CAR 10 (GAS) TIME 1:20.037 DELETED - TRACK LIMITS AT TURN 4
2020-10-23 14:36:33	CAR 23 (ALB) TIME 1:19.992 DELETED - TRACK LIMITS AT TURN 1
2020-10-23 14:39:20	YELLOW IN TRACK SECTOR 15
2020-10-23 14:39:25	CLEAR IN TRACK SECTOR 15
2020-10-23 14:41:12	YELLOW IN TRACK SECTOR 16
2020-10-23 14:41:17	CLEAR IN TRACK SECTOR 16
2020-10-23 14:41:27	CAR 5 (VET) SPUN AND CONTINUED AT TURN 14
2020-10-23 14:41:43	CAR 11 (PER) TIME 1:22.895 DELETED - TRACK LIMITS AT TURN 4
2020-10-23 14:42:08	YELLOW IN TRACK SECTOR 15
2020-10-23 14:42:21	CLEAR IN TRACK SECTOR 15
2020-10-23 14:42:27	CAR 26 (KVY) SPUN AND CONTINUED AT TURN 13
2020-10-23 14:43:06	CAR 8 (GRO) TIME 1:22.794 DELETED - TRACK LIMITS AT TURN 4
2020-10-23 14:43:09	CAR 11 (PER) TIME 1:20.819 DELETED - TRACK LIMITS AT TURN 4
2020-10-23 14:43:12	CAR 18 (STR) TIME 1:25.872 DELETED - TRACK LIMITS AT TURN 4
2020-10-23 14:43:50	CAR 99 (GIO) TIME 1:20.665 DELETED - TRACK LIMITS AT TURN 4
2020-10-23 14:44:24	CAR 55 (SAI) TIME 1:23.059 DELETED - TRACK LIMITS AT TURN 4
2020-10-23 14:45:18	YELLOW IN TRACK SECTOR 15
2020-10-23 14:45:21	RED FLAG
2020-10-23 14:45:21	CLEAR IN TRACK SECTOR 15
2020-10-23 14:45:30	CAR 18 (STR) TIME 1:20.531 DELETED - TRACK LIMITS AT TURN 4
2020-10-23 14:58:53	SESSION WILL RE-START AT 16:01
2020-10-23 15:00:00	TRACK CLEAR
2020-10-23 15:00:02	DRS ENABLED
2020-10-23 15:01:00	GREEN LIGHT - PIT EXIT OPEN
2020-10-23 15:04:23	CAR 99 (GIO) TIME 1:26.033 DELETED - TRACK LIMITS AT TURN 4
2020-10-23 15:05:11	YELLOW IN TRACK SECTOR 2
2020-10-23 15:05:12	DRS DISABLED IN ZONE 1
2020-10-23 15:05:29	RED FLAG
2020-10-23 15:05:29	CLEAR IN TRACK SECTOR 2
2020-10-23 15:06:57	TURN 1 INCIDENT INVOLVING CARS 18 (STR) AND 33 (VER) UNDER INVESTIGATION
2020-10-23 15:08:01	CAR 23 (ALB) TIME 1:32.736 DELETED - TRACK LIMITS AT TURN 4
2020-10-23 15:20:23	SESSION WILL RE-START AT 16:22
2020-10-23 15:21:03	TRACK CLEAR
2020-10-23 15:21:05	DRS ENABLED
2020-10-23 15:22:00	GREEN LIGHT - PIT EXIT OPEN
2020-10-23 15:25:24	CAR 23 (ALB) TIME 1:29.841 DELETED - TRACK LIMITS AT TURN 4
2020-10-23 15:25:27	CAR 99 (GIO) TIME 1:23.470 DELETED - TRACK LIMITS AT TURN 4
2020-10-23 15:25:29	CAR 8 (GRO) TIME 1:24.225 DELETED - TRACK LIMITS AT TURN 4
2020-10-23 15:25:46	CAR 4 (NOR) TIME 1:21.187 DELETED - TRACK LIMITS AT TURN 4
2020-10-23 15:26:22	CAR 55 (SAI) TIME 1:19.112 DELETED - TRACK LIMITS AT TURN 4
2020-10-23 15:27:03	CAR 23 (ALB) TIME 1:20.473 DELETED - TRACK LIMITS AT TURN 4
2020-10-23 15:28:12	CAR 99 (GIO) TIME 1:24.328 DELETED - TRACK LIMITS AT TURN 4
2020-10-23 15:28:15	CAR 26 (KVY) TIME 1:19.940 DELETED - TRACK LIMITS AT TURN 4
2020-10-23 15:28:45	CAR 7 (RAI) TIME 1:23.955 DELETED - TRACK LIMITS AT TURN 4
2020-10-23 15:29:56	CAR 20 (MAG) TIME 1:25.361 DELETED - TRACK LIMITS AT TURN 4
2020-10-23 15:30:00	CAR 44 (HAM) TIME 1:22.247 DELETED - TRACK LIMITS AT TURN 4
2020-10-23 15:30:00	CHEQUERED FLAG
2020-10-23 15:30:08	CAR 99 (GIO) TIME 1:23.377 DELETED - TRACK LIMITS AT TURN 4
2020-10-23 15:31:00	CAR 99 (GIO) TIME 1:23.079 DELETED - TRACK LIMITS AT TURN 4
2020-10-23 15:31:33	CAR 99 (GIO) TIME 1:23.079 DELETED - TRACK LIMITS AT TURN 4
