Time,AirTemp,Humidity,Pressure,Rainfall,TrackTemp,WindDirection,WindSpeed
0 days 00:00:49.322000,21.1,47.2,1014.3,false,34.7,329,2.4
0 days 00:01:49.323000,21.0,47.5,1014.3,false,34.3,286,0.9
0 days 00:02:49.323000,21.1,47.2,1014.3,false,34.3,292,1.3
0 days 00:03:49.325000,21.1,47.1,1014.2,false,34.4,16,1.1
0 days 00:04:49.325000,21.3,47.0,1014.2,false,34.8,307,0.8
0 days 00:05:49.331000,21.4,46.5,1014.2,false,34.8,166,0.7
0 days 00:06:49.344000,21.4,47.2,1014.2,false,34.8,162,1.6
0 days 00:07:49.359000,21.5,46.5,1014.1,false,34.8,21,1.0
0 days 00:08:49.362000,21.4,46.8,1014.1,false,34.8,188,1.4
0 days 00:09:49.376000,21.4,46.6,1014.1,false,35.0,58,1.3
0 days 00:10:49.363000,21.3,46.9,1014.1,false,35.1,173,1.7
0 days 00:11:49.395000,21.3,46.8,1014.1,false,35.1,47,1.7
0 days 00:12:49.395000,21.2,47.0,1014.0,false,35.1,40,1.3
0 days 00:13:49.411000,21.4,46.7,1014.2,false,35.2,151,0.8
0 days 00:14:49.429000,21.4,46.8,1014.1,false,35.2,149,2.1
0 days 00:15:49.428000,21.0,47.6,1014.2,false,35.2,165,2.5
0 days 00:16:49.447000,20.8,48.3,1013.9,false,35.0,180,3.1
0 days 00:17:49.446000,20.8,48.2,1014.0,false,35.0,145,1.8
0 days 00:18:49.462000,21.0,47.9,1014.1,false,35.2,113,2.1
0 days 00:19:49.463000,21.2,46.7,1014.1,false,35.4,349,1.5
0 days 00:20:49.464000,21.0,47.4,1014.1,false,35.5,141,1.8
0 days 00:21:49.464000,20.9,47.8,1014.0,false,35.2,37,1.4
0 days 00:22:49.450000,20.7,48.6,1013.9,false,35.2,42,2.4
0 days 00:23:49.469000,20.7,48.5,1014.0,false,35.3,2,2.1
0 days 00:24:49.469000,20.7,48.5,1013.9,false,35.3,14,1.8
0 days 00:25:49.484000,20.7,48.5,1013.9,false,35.3,347,1.1
0 days 00:26:49.484000,20.7,48.5,1013.9,false,35.3,64,1.4
0 days 00:27:49.486000,21.0,48.5,1013.9,false,35.5,297,1.1
0 days 00:28:49.501000,21.2,47.5,1013.9,false,35.7,327,1.3
0 days 00:29:49.517000,21.4,47.5,1013.9,false,36.0,300,1.4
0 days 00:30:49.519000,21.4,47.8,1013.9,false,35.7,325,1.7
0 days 00:31:49.538000,21.4,47.5,1013.9,false,35.6,333,1.8
0 days 00:32:49.537000,21.1,48.2,1013.9,false,35.4,357,2.6
0 days 00:33:49.569000,21.1,48.7,1013.8,false,35.4,270,1.5
0 days 00:34:49.587000,21.3,48.0,1013.7,false,35.4,342,0.8
0 days 00:35:49.588000,21.2,48.3,1013.7,false,35.7,303,2.0
0 days 00:36:49.604000,21.2,48.2,1013.8,false,35.6,358,1.2
0 days 00:37:49.588000,21.2,47.8,1013.8,false,35.5,346,1.7
0 days 00:38:49.604000,21.1,48.3,1013.7,false,35.4,350,1.2
0 days 00:39:49.610000,21.0,48.7,1013.7,false,35.5,320,1.9
0 days 00:40:49.605000,21.1,48.5,1013.8,false,35.5,333,0.8
0 days 00:41:49.606000,21.1,48.6,1013.6,false,35.7,338,1.4
0 days 00:42:49.591000,20.9,49.3,1013.6,false,35.7,29,2.3
0 days 00:43:49.609000,21.2,48.8,1013.5,false,35.7,171,0.6
0 days 00:44:49.615000,21.0,49.5,1013.7,false,35.5,321,1.1
0 days 00:45:49.609000,21.0,49.6,1013.7,false,35.3,342,1.7
0 days 00:46:49.612000,20.9,49.6,1013.6,false,35.3,343,3.1
0 days 00:47:49.613000,20.6,50.2,1013.5,false,35.3,42,2.8
0 days 00:48:49.623000,20.6,50.5,1013.6,false,35.3,94,1.0
0 days 00:49:49.627000,20.9,49.7,1013.6,false,35.6,327,0.4
0 days 00:50:49.633000,21.1,49.5,1013.7,false,35.6,262,1.0
0 days 00:51:49.663000,21.4,48.6,1013.5,false,35.7,347,0.6
0 days 00:52:49.663000,21.6,47.8,1013.6,false,35.5,0,0.9
0 days 00:53:49.686000,21.5,48.1,1013.6,false,35.5,340,0.9
0 days 00:54:49.671000,21.1,48.7,1013.6,false,35.4,34,1.5
0 days 00:55:49.667000,20.9,49.5,1013.6,false,35.0,15,1.0
0 days 00:56:49.651000,21.2,49.4,1013.6,false,35.2,132,1.3
0 days 00:57:49.672000,21.4,48.5,1013.6,false,35.7,163,1.2
0 days 00:58:49.671000,21.4,48.6,1013.6,false,35.7,109,1.4
0 days 00:59:49.670000,21.4,48.6,1013.6,false,35.7,109,1.4
0 days 01:00:49.707000,21.5,48.6,1013.6,false,35.6,4,0.9
0 days 01:01:49.702000,21.4,49.2,1013.5,false,35.6,343,1.2
0 days 01:02:49.704000,21.4,49.7,1013.5,false,35.5,95,1.4
0 days 01:03:49.721000,21.5,49.1,1013.6,false,35.5,312,0.9
0 days 01:04:49.721000,21.6,48.6,1013.5,false,35.5,13,1.6
0 days 01:05:49.724000,21.5,49.2,1013.5,false,35.4,131,0.9
0 days 01:06:49.723000,21.6,49.3,1013.5,false,35.5,101,1.5
0 days 01:07:49.739000,21.8,48.4,1013.5,false,35.5,12,1.1
0 days 01:08:49.748000,21.6,48.4,1013.4,false,35.8,70,1.6
0 days 01:09:49.741000,21.2,49.2,1013.4,false,35.5,87,1.7
0 days 01:10:49.756000,21.1,50.2,1013.5,false,35.2,225,1.1
0 days 01:11:49.761000,21.2,49.8,1013.5,false,35.2,7,1.2
0 days 01:12:49.790000,21.2,49.7,1013.6,false,35.5,20,0.8
0 days 01:13:49.807000,21.3,49.4,1013.5,false,35.5,313,1.2
0 days 01:14:49.810000,21.4,49.1,1013.5,false,35.5,107,1.0
0 days 01:15:49.825000,21.5,49.0,1013.5,false,35.7,88,0.9
0 days 01:16:49.842000,21.4,49.2,1013.5,false,36.1,358,1.1
0 days 01:17:49.863000,21.4,49.7,1013.4,false,35.6,178,0.8
0 days 01:18:49.857000,21.6,49.1,1013.5,false,35.6,121,0.7
0 days 01:19:49.858000,21.6,49.3,1013.4,false,35.9,125,2.0
0 days 01:20:49.898000,21.8,49.0,1013.3,false,35.9,96,1.7
0 days 01:21:49.898000,21.6,49.5,1013.4,false,35.7,97,1.9
0 days 01:22:49.893000,21.6,49.8,1013.5,false,35.7,0,0.4
0 days 01:23:49.880000,21.9,48.6,1013.5,false,35.9,0,0.7
0 days 01:24:49.896000,21.9,49.0,1013.5,false,35.8,0,0.9
0 days 01:25:49.910000,21.9,48.9,1013.5,false,35.8,121,0.8
0 days 01:26:49.951000,22.0,49.0,1013.3,false,35.7,33,0.8
0 days 01:27:49.927000,22.0,48.5,1013.4,false,35.7,83,1.5
0 days 01:28:49.944000,22.1,48.6,1013.5,false,35.9,294,1.0
0 days 01:29:49.966000,22.0,48.8,1013.4,false,36.0,313,1.3
0 days 01:30:49.993000,21.9,48.8,1013.4,false,35.7,266,2.4
0 days 01:31:50.044000,21.8,49.4,1013.4,false,35.6,296,1.7
0 days 01:32:50.069000,21.7,49.6,1013.4,false,35.6,301,2.3
0 days 01:33:50.085000,21.8,49.5,1013.4,false,35.3,304,2.2
0 days 01:34:50.082000,21.6,49.8,1013.4,false,35.3,9,2.3
0 days 01:35:50.125000,21.6,50.2,1013.4,false,35.2,329,1.6
0 days 01:36:50.097000,21.6,50.5,1013.3,false,35.2,251,1.0
0 days 01:37:50.097000,21.6,49.7,1013.4,false,35.2,322,2.1
0 days 01:38:50.090000,21.4,50.2,1013.4,false,35.3,343,2.4
0 days 01:39:50.095000,21.4,50.0,1013.4,false,35.2,350,1.4
0 days 01:40:50.087000,21.2,50.7,1013.4,false,35.2,303,1.8
0 days 01:41:50.114000,21.1,50.9,1013.3,false,35.1,0,1.6
0 days 01:42:50.093000,21.2,51.1,1013.2,false,35.1,0,0.6
0 days 01:43:50.106000,21.3,50.6,1013.3,false,35.0,327,1.4
0 days 01:44:50.099000,21.1,51.2,1013.3,false,35.1,300,1.5
0 days 01:45:50.125000,21.1,51.6,1013.3,false,34.8,232,2.1
0 days 01:46:50.129000,21.2,51.1,1013.3,false,34.8,253,0.9
0 days 01:47:50.107000,21.2,50.2,1013.3,false,35.3,147,0.4
