Time,AirTemp,Humidity,Pressure,Rainfall,TrackTemp,WindDirection,WindSpeed
0 days 00:00:45.030000,12.4,87.2,1008.9,true,14.5,243,0.5
0 days 00:01:45.042000,12.4,87.0,1008.9,true,14.5,279,0.5
0 days 00:02:45.031000,12.3,86.7,1008.8,false,14.7,260,0.8
0 days 00:03:45.041000,12.2,86.5,1008.8,false,14.7,254,0.5
0 days 00:04:45.031000,12.2,86.6,1008.9,false,14.7,253,0.6
0 days 00:05:45.019000,12.1,85.7,1008.9,false,14.8,242,0.7
0 days 00:06:45.038000,12.1,85.6,1009.0,true,14.8,265,0.4
0 days 00:07:45.030000,12.1,85.7,1008.9,true,14.9,244,0.3
0 days 00:08:45.035000,12.2,85.4,1008.8,false,14.9,245,0.5
0 days 00:09:45.042000,12.2,85.1,1008.8,false,14.8,265,0.7
0 days 00:10:45.037000,12.2,85.1,1008.9,false,14.8,207,0.5
0 days 00:11:45.041000,12.2,84.8,1008.8,false,14.9,178,0.3
0 days 00:12:45.039000,12.1,84.4,1008.9,false,15.0,195,0.4
0 days 00:13:45.061000,12.1,84.2,1008.9,false,15.1,0,0.3
0 days 00:14:45.155000,12.2,84.2,1008.9,false,15.1,213,0.0
0 days 00:15:45.091000,12.2,83.5,1008.8,true,15.2,254,0.7
0 days 00:16:45.101000,12.3,84.2,1008.8,true,15.2,168,0.6
0 days 00:17:45.101000,12.4,83.8,1008.8,false,15.2,248,0.6
0 days 00:18:45.116000,12.5,83.8,1008.8,false,15.2,248,0.7
0 days 00:19:45.110000,12.4,83.1,1008.8,false,15.2,224,0.6
0 days 00:20:45.108000,12.3,83.3,1008.8,false,15.2,205,0.6
0 days 00:21:45.112000,12.4,83.5,1008.7,false,15.4,237,0.7
0 days 00:22:45.122000,12.4,83.4,1008.7,false,15.5,241,0.9
0 days 00:23:45.144000,12.4,83.5,1008.7,false,15.5,188,0.7
0 days 00:24:45.170000,12.6,84.1,1008.8,false,15.7,254,0.5
0 days 00:25:45.168000,12.8,84.0,1008.8,false,15.8,164,0.9
0 days 00:26:45.190000,12.6,82.9,1008.7,false,15.8,0,0.5
0 days 00:27:45.189000,12.8,83.7,1008.7,false,15.7,171,0.5
0 days 00:28:45.192000,12.6,83.0,1008.6,false,15.8,233,0.3
0 days 00:29:45.176000,12.8,83.2,1008.6,false,15.8,252,1.0
0 days 00:30:45.182000,12.7,83.2,1008.7,false,15.9,232,1.3
0 days 00:31:45.179000,12.7,82.5,1008.6,false,15.8,223,1.2
0 days 00:32:45.191000,12.7,83.0,1008.7,false,15.8,242,1.2
0 days 00:33:45.192000,12.9,83.1,1008.7,false,15.8,237,1.2
0 days 00:34:45.197000,12.9,82.9,1008.6,false,15.7,215,1.8
0 days 00:35:45.184000,13.0,82.7,1008.6,false,15.7,207,1.2
0 days 00:36:45.202000,13.0,81.7,1008.6,false,15.7,247,1.2
0 days 00:37:45.197000,13.0,81.9,1008.7,false,15.7,283,1.5
0 days 00:38:45.192000,13.1,82.4,1008.6,false,15.7,217,1.2
0 days 00:39:45.224000,13.0,81.8,1008.6,false,15.6,0,1.1
0 days 00:40:45.187000,13.0,81.8,1008.7,false,15.6,192,0.9
0 days 00:41:45.201000,13.0,81.6,1008.6,false,15.6,233,1.1
0 days 00:42:45.192000,13.0,81.3,1008.6,false,15.6,245,1.7
0 days 00:43:45.201000,13.0,81.3,1008.6,false,15.6,213,0.8
0 days 00:44:45.204000,13.1,81.2,1008.6,false,15.7,262,1.0
0 days 00:45:45.192000,13.1,81.6,1008.6,false,15.8,258,1.4
0 days 00:46:45.196000,13.2,81.2,1008.6,false,15.9,258,1.1
0 days 00:47:45.189000,13.2,81.8,1008.6,false,15.9,223,1.3
0 days 00:48:45.193000,13.1,81.2,1008.5,false,15.7,254,1.6
0 days 00:49:45.196000,13.1,81.1,1008.6,false,15.7,238,1.6
0 days 00:50:45.196000,13.2,81.9,1008.5,false,15.9,246,1.6
0 days 00:51:45.191000,13.2,81.9,1008.6,false,16.1,0,1.2
0 days 00:52:45.200000,13.2,81.6,1008.5,false,16.1,243,1.1
0 days 00:53:45.204000,13.3,81.9,1008.5,false,16.1,181,1.1
0 days 00:54:45.204000,13.2,81.6,1008.6,false,16.0,188,1.2
0 days 00:55:45.222000,13.1,80.7,1008.5,false,15.9,209,0.9
0 days 00:56:45.217000,13.1,80.2,1008.4,false,15.8,252,1.0
0 days 00:57:45.224000,13.2,80.5,1008.5,false,15.9,216,0.6
0 days 00:58:45.205000,13.2,80.0,1008.4,false,15.9,201,1.2
0 days 00:59:45.206000,13.2,80.1,1008.5,false,15.9,212,0.9
0 days 01:00:45.211000,13.2,79.8,1008.5,false,16.0,248,1.1
0 days 01:01:45.207000,13.3,79.6,1008.4,false,16.0,266,0.8
0 days 01:02:45.217000,13.3,79.7,1008.5,false,16.1,243,1.4
0 days 01:03:45.225000,13.3,79.0,1008.4,false,16.1,237,0.9
0 days 01:04:45.212000,13.4,79.0,1008.5,false,16.2,250,1.2
0 days 01:05:45.224000,13.4,78.7,1008.5,false,16.3,242,1.2
0 days 01:06:45.220000,13.4,78.8,1008.5,false,16.4,263,0.8
0 days 01:07:45.218000,13.5,78.4,1008.4,false,16.6,196,1.1
0 days 01:08:45.212000,13.4,77.5,1008.4,false,16.8,189,1.1
0 days 01:09:45.237000,13.5,77.3,1008.4,false,16.9,0,0.8
0 days 01:10:45.226000,13.5,77.5,1008.5,false,16.9,0,0.9
0 days 01:11:45.232000,13.6,77.6,1008.4,false,16.5,274,0.4
0 days 01:12:45.256000,13.7,78.1,1008.4,false,16.5,251,0.6
0 days 01:13:45.251000,13.7,77.7,1008.4,false,16.4,213,0.8
0 days 01:14:45.282000,13.8,78.5,1008.5,false,16.4,203,0.9
0 days 01:15:45.276000,13.7,78.0,1008.5,false,16.3,205,0.6
0 days 01:16:45.271000,13.6,77.7,1008.4,false,16.1,240,0.9
0 days 01:17:45.272000,13.5,77.8,1008.4,false,16.1,278,1.0
0 days 01:18:45.274000,13.6,78.5,1008.5,false,16.1,196,0.7
0 days 01:19:45.275000,13.5,78.4,1008.4,false,16.1,249,1.3
0 days 01:20:45.280000,13.5,78.5,1008.4,false,15.9,235,1.0
0 days 01:21:45.281000,13.5,77.8,1008.4,false,15.9,253,1.3
0 days 01:22:45.287000,13.5,77.3,1008.4,false,15.8,194,1.0
0 days 01:23:45.272000,13.5,76.5,1008.4,false,15.7,225,1.8
0 days 01:24:45.280000,13.5,75.9,1008.4,false,15.7,210,0.8
0 days 01:25:45.283000,13.6,76.2,1008.3,false,15.7,268,0.8
0 days 01:26:45.274000,13.6,76.4,1008.4,false,15.6,254,0.7
0 days 01:27:45.275000,13.6,76.1,1008.4,false,15.6,229,1.0
0 days 01:28:45.295000,13.6,75.6,1008.4,false,15.5,224,0.7
0 days 01:29:45.322000,13.6,76.0,1008.3,false,15.5,219,0.8
0 days 01:30:45.325000,13.6,75.9,1008.3,false,15.6,186,0.8
0 days 01:31:45.340000,13.6,75.8,1008.3,false,15.6,243,0.8
0 days 01:32:45.349000,13.6,75.9,1008.3,false,15.6,223,1.0
0 days 01:33:45.377000,13.6,75.9,1008.3,false,15.6,173,1.0
0 days 01:34:45.373000,13.6,75.4,1008.3,false,15.3,201,0.8
0 days 01:35:45.374000,13.6,75.5,1008.3,false,15.3,256,1.0
0 days 01:36:45.361000,13.7,75.7,1008.3,false,15.3,221,1.6
0 days 01:37:45.361000,13.7,75.3,1008.3,false,15.3,245,1.9
0 days 01:38:45.371000,13.8,76.2,1008.3,false,14.8,231,2.1
0 days 01:39:45.364000,13.7,76.5,1008.3,false,14.8,249,2.0
0 days 01:40:45.364000,13.6,76.8,1008.4,false,14.6,183,2.0
0 days 01:41:45.384000,13.6,76.9,1008.4,false,14.5,191,2.5
0 days 01:42:45.378000,13.5,77.7,1008.3,false,14.5,210,1.2
0 days 01:43:45.380000,13.5,77.7,1008.3,false,14.5,210,1.2
0 days 01:44:45.374000,13.5,77.8,1008.3,false,14.5,251,1.8
0 days 01:45:45.369000,13.5,77.8,1008.3,false,14.5,251,1.8
0 days 01:46:45.396000,13.5,78.1,1008.3,false,14.4,0,0.6
0 days 01:47:45.386000,13.4,78.2,1008.2,false,14.3,207,1.5
0 days 01:48:45.354000,13.4,78.2,1008.2,false,14.3,207,1.5
0 days 01:49:45.373000,13.4,78.0,1008.3,false,14.3,190,1.7
0 days 01:50:45.377000,13.3,78.2,1008.3,false,14.1,216,0.5
0 days 01:51:45.380000,13.3,78.2,1008.3,false,14.1,216,0.5
0 days 01:52:45.396000,13.3,78.2,1008.3,false,14.1,230,0.7
0 days 01:53:45.388000,13.3,78.2,1008.3,false,14.1,230,0.7
0 days 01:54:45.397000,13.2,78.3,1008.3,false,14.0,222,2.0
0 days 01:55:45.388000,13.2,78.1,1008.4,false,14.0,232,2.1
0 days 01:56:45.405000,13.2,77.9,1008.3,false,13.9,233,2.7
0 days 01:57:45.422000,13.2,77.7,1008.3,false,13.9,252,1.7
0 days 01:58:45.427000,13.2,77.9,1008.3,false,13.9,200,1.9
0 days 01:59:45.423000,13.2,78.2,1008.3,false,13.9,254,2.0
0 days 02:00:45.437000,13.2,78.5,1008.3,false,13.9,202,1.3
0 days 02:01:45.436000,13.1,78.7,1008.2,false,13.8,247,1.8
0 days 02:02:45.434000,13.2,79.0,1008.3,false,13.9,199,1.8
0 days 02:03:45.446000,13.2,79.0,1008.3,false,13.9,199,1.8
0 days 02:04:45.452000,13.2,79.2,1008.3,false,13.8,251,1.7
0 days 02:05:45.449000,13.2,79.1,1008.3,false,13.9,215,1.6
0 days 02:06:45.451000,13.2,79.1,1008.3,false,13.9,215,1.6
0 days 02:07:45.446000,13.1,79.1,1008.3,false,13.9,201,1.2
0 days 02:08:45.477000,13.1,79.4,1008.3,false,13.9,158,1.0
0 days 02:09:45.483000,13.1,79.4,1008.4,false,13.9,144,0.6
0 days 02:10:45.502000,13.1,79.7,1008.3,false,13.9,246,0.3
0 days 02:11:45.485000,13.1,79.8,1008.3,false,13.9,208,0.5
0 days 02:12:45.508000,13.1,79.6,1008.2,false,13.9,239,0.9
0 days 02:13:45.534000,13.0,79.4,1008.3,false,13.9,229,1.4
0 days 02:14:45.530000,13.0,79.2,1008.3,false,13.8,237,1.2
0 days 02:15:45.537000,13.0,79.3,1008.3,false,13.8,184,1.1
0 days 02:16:45.510000,13.0,79.3,1008.3,false,13.9,217,1.2
0 days 02:17:45.549000,13.0,79.3,1008.3,false,13.9,258,1.0
0 days 02:18:45.528000,13.0,79.3,1008.3,false,14.0,232,1.2
