2020-09-11 12:49:22	BLUE HEAD PADDING MATERIAL MUST BE USED
2020-09-11 13:00:00	GREEN LIGHT - PIT EXIT OPEN
2020-09-11 13:13:44	DOUBLE YELLOW IN TRACK SECTOR 14
2020-09-11 13:13:48	YELLOW IN TRACK SECTOR 14
2020-09-11 13:13:56	CLEAR IN TRACK SECTOR 14
2020-09-11 13:14:12	CAR 16 (LEC) OFF TRACK AND CONTINUED AT TURN 12
2020-09-11 13:37:09	DOUBLE YELLOW IN TRACK SECTOR 4
2020-09-11 13:37:22	YELLOW IN TRACK SECTOR 4
2020-09-11 13:37:24	YELLOW IN TRACK SECTOR 3
2020-09-11 13:37:33	DOUBLE YELLOW IN TRACK SECTOR 5
2020-09-11 13:37:46	CLEAR IN TRACK SECTOR 3
2020-09-11 13:38:07	RED FLAG
2020-09-11 13:38:08	CLEAR IN TRACK SECTOR 4
2020-09-11 13:38:08	CLEAR IN TRACK SECTOR 5
2020-09-11 13:45:48	SESSION WILL RE-START AT 15:47
2020-09-11 13:46:02	TRACK CLEAR
2020-09-11 13:46:04	DRS ENABLED
2020-09-11 13:47:00	GREEN LIGHT - PIT EXIT OPEN
2020-09-11 14:02:23	DOUBLE YELLOW IN TRACK SECTOR 14
2020-09-11 14:02:24	YELLOW IN TRACK SECTOR 15
2020-09-11 14:02:31	CLEAR IN TRACK SECTOR 14
2020-09-11 14:02:38	CLEAR IN TRACK SECTOR 15
2020-09-11 14:02:50	CAR 5 (VET) OFF TRACK AND CONTINUED AT TURN 13
2020-09-11 14:11:18	DOUBLE YELLOW IN TRACK SECTOR 2
2020-09-11 14:11:19	DRS DISABLED IN ZONE 1
2020-09-11 14:11:30	CLEAR IN TRACK SECTOR 2
2020-09-11 14:11:30	DRS ENABLED IN ZONE 1
2020-09-11 14:11:43	CAR 7 (RAI) SPUN AND CONTINUED AT TURN 1
2020-09-11 14:11:54	TRACK SURFACE SLIPPERY IN TRACK SECTOR 2
2020-09-11 14:12:32	RED FLAG
2020-09-11 14:12:32	CLEAR IN TRACK SECTOR 2
2020-09-11 14:12:42	TURN 1 INCIDENT INVOLVING CARS 11 (PER) AND 7 (RAI) NOTED
2020-09-11 14:15:09	SESSION WILL RE-START AT 16:17
2020-09-11 14:16:00	TRACK CLEAR
2020-09-11 14:16:03	DRS ENABLED
2020-09-11 14:16:41	TURN 1 INCIDENT INVOLVING CARS 7 (RAI) AND 11 (PER) WILL BE INVESTIGATED AFTER THE SESSION
2020-09-11 14:17:00	GREEN LIGHT - PIT EXIT OPEN
2020-09-11 14:30:00	CHEQUERED FLAG
2020-09-11 14:32:33	YELLOW IN TRACK SECTOR 15
2020-09-11 14:32:41	YELLOW IN TRACK SECTOR 14
2020-09-11 14:33:26	DOUBLE YELLOW IN TRACK SECTOR 15
2020-09-11 14:36:37	CLEAR IN TRACK SECTOR 14
2020-09-11 14:36:40	CLEAR IN TRACK SECTOR 15
2020-09-11 14:45:02	RISK OF RAIN FOR F2 QUALIFYING SESSION IS 0%
