2020-11-14 08:47:48	RISK OF RAIN FOR THIS SESSION IS 90%
2020-11-14 09:00:00	GREEN LIGHT - PIT EXIT OPEN
2020-11-14 09:02:04	LOW GRIP CONDITIONS
2020-11-14 09:04:02	YELLOW IN TRACK SECTOR 8
2020-11-14 09:04:07	CLEAR IN TRACK SECTOR 8
2020-11-14 09:04:20	CAR 11 (PER) SPUN AND CONTINUED AT TURN 7
2020-11-14 09:08:01	YELLOW IN TRACK SECTOR 18
2020-11-14 09:08:02	DRS DISABLED IN ZONE 1
2020-11-14 09:08:09	YELLOW IN TRACK SECTOR 9
2020-11-14 09:08:13	CLEAR IN TRACK SECTOR 18
2020-11-14 09:08:13	DRS ENABLED IN ZONE 1
2020-11-14 09:08:16	CLEAR IN TRACK SECTOR 9
2020-11-14 09:08:23	CAR 31 (OCO) SPUN AND CONTINUED AT TURN 12
2020-11-14 09:08:32	CAR 4 (NOR) SPUN AND CONTINUED AT TURN 7
2020-11-14 09:09:17	CAR 11 (PER) TIME 1:57.225 DELETED - TRACK LIMITS AT TURN 1
2020-11-14 09:09:59	CAR 33 (VER) TIME 1:49.332 DELETED - TRACK LIMITS AT TURN 1
2020-11-14 09:10:39	YELLOW IN TRACK SECTOR 7
2020-11-14 09:10:41	CLEAR IN TRACK SECTOR 7
2020-11-14 09:10:50	CAR 26 (KVY) SPUN AND CONTINUED AT TURN 6
2020-11-14 09:11:15	TRACK SURFACE SLIPPERY IN TRACK SECTOR 12
2020-11-14 09:11:16	TRACK SURFACE SLIPPERY IN TRACK SECTOR 5
2020-11-14 09:11:17	TRACK SURFACE SLIPPERY IN TRACK SECTOR 13
2020-11-14 09:11:18	CLEAR IN TRACK SECTOR 5
2020-11-14 09:11:25	TRACK SURFACE SLIPPERY IN TRACK SECTOR 20
2020-11-14 09:11:40	CLEAR IN TRACK SECTOR 20
2020-11-14 09:11:41	CLEAR IN TRACK SECTOR 13
2020-11-14 09:11:41	CLEAR IN TRACK SECTOR 12
2020-11-14 09:13:34	YELLOW IN TRACK SECTOR 8
2020-11-14 09:13:36	DOUBLE YELLOW IN TRACK SECTOR 8
2020-11-14 09:13:40	YELLOW IN TRACK SECTOR 7
2020-11-14 09:13:46	YELLOW IN TRACK SECTOR 8
2020-11-14 09:13:48	CLEAR IN TRACK SECTOR 8
2020-11-14 09:13:49	CLEAR IN TRACK SECTOR 7
2020-11-14 09:13:55	CAR 55 (SAI) SPUN AND CONTINUED AT TURN 7
2020-11-14 09:14:42	YELLOW IN TRACK SECTOR 8
2020-11-14 09:14:48	CLEAR IN TRACK SECTOR 8
2020-11-14 09:14:58	CAR 16 (LEC) SPUN AND CONTINUED AT TURN 7
2020-11-14 09:15:00	CAR 10 (GAS) TIME 2:06.944 DELETED - TRACK LIMITS AT TURN 1
2020-11-14 09:15:16	YELLOW IN TRACK SECTOR 8
2020-11-14 09:15:28	CLEAR IN TRACK SECTOR 8
2020-11-14 09:15:31	CAR 26 (KVY) SPUN AND CONTINUED AT TURN 7
2020-11-14 09:20:50	YELLOW IN TRACK SECTOR 3
2020-11-14 09:21:11	CLEAR IN TRACK SECTOR 3
2020-11-14 09:21:20	CAR 16 (LEC) SPUN AND CONTINUED AT TURN 3
2020-11-14 09:21:22	DRS DISABLED
2020-11-14 09:25:26	CAR 5 (VET) TIME 2:03.207 DELETED - TRACK LIMITS AT TURN 1
2020-11-14 09:53:27	YELLOW IN TRACK SECTOR 4
2020-11-14 09:53:46	CLEAR IN TRACK SECTOR 4
2020-11-14 09:53:51	CAR 99 (GIO) SPUN AND CONTINUED AT TURN 3
2020-11-14 09:55:19	YELLOW IN TRACK SECTOR 18
2020-11-14 09:55:27	CLEAR IN TRACK SECTOR 18
2020-11-14 09:55:33	CAR 99 (GIO) SPUN AND CONTINUED AT TURN 12
2020-11-14 10:00:00	CHEQUERED FLAG
