2020-08-08 13:00:00	GREEN LIGHT - PIT EXIT OPEN
2020-08-08 13:09:48	TURN 5 INCIDENT INVOLVING CARS 31 (OCO) AND 63 (RUS) NOTED
2020-08-08 13:11:29	TURN 5 INCIDENT INVOLVING CARS 31 (OCO) AND 63 (RUS) WILL BE INVESTIGATED AFTER THE SESSION
2020-08-08 13:18:00	CHEQUERED FLAG
2020-08-08 13:18:17	CAR 26 (KVY) TIME 1:28.133 DELETED - TRACK LIMITS AT TURN 15
2020-08-08 13:25:00	GREEN LIGHT - PIT EXIT OPEN
2020-08-08 13:40:00	CHEQUERED FLAG
2020-08-08 13:48:00	GREEN LIGHT - PIT EXIT OPEN
2020-08-08 14:00:00	CHEQUERED FLAG
