Time,AirTemp,Humidity,Pressure,Rainfall,TrackTemp,WindDirection,WindSpeed
0 days 00:00:27.876000,18.8,66.1,1018.3,false,26.1,179,1.2
0 days 00:01:27.887000,18.7,66.4,1018.4,false,26.1,0,0.6
0 days 00:02:27.880000,18.9,66.4,1018.4,false,26.3,264,0.3
0 days 00:03:27.877000,19.1,65.1,1018.4,false,26.3,237,0.5
0 days 00:04:27.902000,19.1,65.1,1018.4,false,26.3,214,0.8
0 days 00:05:27.879000,19.2,64.9,1018.4,false,26.5,127,0.8
0 days 00:06:27.899000,19.3,64.8,1018.3,false,26.5,105,0.9
0 days 00:07:27.881000,19.5,64.0,1018.4,false,26.9,286,0.9
0 days 00:08:27.905000,19.5,64.0,1018.4,false,26.9,286,0.9
0 days 00:09:27.884000,19.6,63.9,1018.4,false,26.7,7,1.4
0 days 00:10:27.886000,19.5,64.4,1018.3,false,26.7,310,0.7
0 days 00:11:27.917000,19.7,63.8,1018.3,false,26.8,118,0.6
0 days 00:12:27.927000,19.7,63.8,1018.3,false,26.8,118,0.6
0 days 00:13:27.933000,19.6,63.9,1018.3,false,26.5,286,0.7
0 days 00:14:27.935000,19.6,63.9,1018.2,false,26.2,251,1.3
0 days 00:15:27.931000,19.6,63.6,1018.3,false,26.1,243,1.1
0 days 00:16:27.920000,19.3,64.9,1018.3,false,26.1,125,0.9
0 days 00:17:27.937000,19.3,65.7,1018.3,false,25.9,93,1.5
0 days 00:18:27.925000,19.3,65.7,1018.3,false,25.9,93,1.5
0 days 00:19:27.939000,19.0,65.8,1018.3,false,26.0,55,1.6
0 days 00:20:27.950000,19.0,65.8,1018.3,false,26.0,55,1.6
0 days 00:21:27.963000,19.2,65.0,1018.2,false,26.5,93,2.2
0 days 00:22:27.974000,19.4,65.0,1018.2,false,26.5,75,1.5
0 days 00:23:27.989000,19.4,64.8,1018.2,false,26.4,0,2.1
0 days 00:24:28.015000,19.4,64.8,1018.2,false,26.4,0,2.1
0 days 00:25:27.987000,19.6,63.8,1018.2,false,26.5,77,1.7
0 days 00:26:27.994000,19.5,64.1,1018.1,false,25.8,98,1.4
0 days 00:27:28.020000,19.5,64.8,1018.2,false,25.8,58,1.2
0 days 00:28:28.023000,19.4,64.5,1018.2,false,25.8,0,0.0
0 days 00:29:28.031000,19.5,64.1,1018.2,false,25.6,95,0.4
0 days 00:30:28.046000,19.5,64.0,1018.1,false,25.6,94,0.4
0 days 00:31:28.049000,19.6,64.0,1018.1,false,25.6,73,1.0
0 days 00:32:28.074000,19.6,64.0,1018.1,false,25.6,73,1.0
0 days 00:33:28.072000,19.8,63.6,1018.1,false,25.4,87,1.7
0 days 00:34:28.072000,19.8,64.0,1018.2,false,25.2,303,1.1
0 days 00:35:28.065000,19.8,64.0,1018.2,false,25.2,75,0.8
0 days 00:36:28.063000,19.8,63.9,1018.1,false,25.3,94,1.0
0 days 00:37:28.078000,19.9,63.8,1018.1,false,25.2,93,1.4
0 days 00:38:28.070000,19.7,64.0,1018.1,false,25.0,89,1.7
0 days 00:39:28.080000,19.6,64.5,1018.1,false,24.7,116,1.6
0 days 00:40:28.077000,19.3,65.4,1018.1,false,24.3,337,1.4
0 days 00:41:28.070000,19.3,65.4,1018.1,false,24.3,337,1.4
0 days 00:42:28.076000,19.1,65.9,1018.1,false,24.4,110,0.5
0 days 00:43:28.087000,19.1,65.9,1018.1,false,24.4,110,0.5
0 days 00:44:28.072000,19.2,65.7,1018.1,false,24.7,0,1.0
0 days 00:45:28.089000,19.2,65.7,1018.1,false,24.7,0,1.0
0 days 00:46:28.085000,19.4,64.8,1018.2,false,24.9,88,1.4
0 days 00:47:28.081000,19.4,64.8,1018.2,false,24.9,88,1.4
0 days 00:48:28.076000,19.3,64.6,1018.1,false,24.3,77,1.7
0 days 00:49:28.069000,19.3,64.6,1018.1,false,24.3,77,1.7
0 days 00:50:28.075000,18.9,66.3,1018.1,false,24.0,117,1.0
0 days 00:51:28.088000,19.0,66.3,1018.1,false,24.0,115,1.3
0 days 00:52:28.081000,18.9,66.8,1018.1,false,24.1,109,1.4
0 days 00:53:28.094000,18.9,66.8,1018.1,false,24.1,109,1.4
0 days 00:54:28.091000,19.0,65.7,1018.1,false,24.6,115,1.3
0 days 00:55:28.094000,19.2,65.7,1018.0,false,24.6,72,1.4
0 days 00:56:28.089000,19.2,66.5,1018.1,false,24.5,93,1.6
0 days 00:57:28.086000,19.2,66.5,1018.1,false,24.5,93,1.6
0 days 00:58:28.076000,19.3,66.2,1018.1,false,24.4,71,2.2
0 days 00:59:28.113000,19.3,66.2,1018.1,false,24.4,71,2.2
0 days 01:00:28.116000,19.3,66.2,1018.1,false,24.4,71,2.2
0 days 01:01:28.106000,19.3,66.2,1018.1,false,24.4,71,2.2
0 days 01:02:28.132000,19.3,66.2,1018.1,false,24.4,71,2.2
0 days 01:03:28.145000,19.3,66.2,1018.1,false,24.4,71,2.2
0 days 01:04:28.150000,18.9,67.3,1018.0,false,24.1,90,1.9
0 days 01:05:28.155000,18.9,67.3,1018.0,false,24.0,100,2.4
0 days 01:06:28.156000,18.6,68.3,1018.0,false,24.1,89,2.4
0 days 01:07:28.173000,18.6,68.9,1018.0,false,24.1,83,3.2
0 days 01:08:28.186000,18.7,68.7,1018.1,false,24.2,28,3.0
0 days 01:09:28.187000,18.8,67.9,1018.0,false,24.2,85,1.9
0 days 01:10:28.203000,18.9,67.1,1018.1,false,24.1,67,1.4
0 days 01:11:28.199000,18.9,67.1,1018.2,false,23.9,47,0.9
0 days 01:12:28.197000,18.9,67.7,1018.0,false,24.1,87,1.7
0 days 01:13:28.199000,18.9,67.7,1018.0,false,24.1,87,1.7
0 days 01:14:28.199000,18.8,67.8,1018.1,false,23.9,91,2.3
0 days 01:15:28.209000,18.8,68.2,1018.0,false,23.9,76,2.2
0 days 01:16:28.235000,18.7,67.8,1018.0,false,23.9,91,2.1
