Time,AirTemp,Humidity,Pressure,Rainfall,TrackTemp,WindDirection,WindSpeed
0 days 00:00:23.755000,28.1,48.7,1009.2,false,37.7,191,3.6
0 days 00:01:23.770000,28.1,48.3,1009.2,false,37.4,192,2.8
0 days 00:02:23.756000,28.1,48.7,1009.2,false,37.3,190,3.3
0 days 00:03:23.760000,27.9,49.3,1009.2,false,37.3,175,4.3
0 days 00:04:23.758000,27.9,49.4,1009.2,false,37.4,176,3.6
0 days 00:05:23.775000,27.8,48.8,1009.2,false,37.4,189,3.5
0 days 00:06:23.779000,27.8,48.4,1009.2,false,37.6,191,3.9
0 days 00:07:23.780000,28.0,48.5,1009.1,false,37.6,208,3.4
0 days 00:08:23.793000,28.0,48.9,1009.1,false,37.6,200,3.8
0 days 00:09:23.811000,27.9,49.1,1009.2,false,37.7,177,3.9
0 days 00:10:23.812000,28.0,48.1,1009.2,false,37.9,185,3.3
0 days 00:11:23.832000,27.9,49.3,1009.2,false,37.9,183,3.3
0 days 00:12:23.821000,27.8,49.8,1009.1,false,37.4,208,3.1
0 days 00:13:23.829000,28.0,49.4,1009.1,false,37.6,204,2.3
0 days 00:14:23.833000,28.1,48.6,1009.1,false,37.7,211,2.8
0 days 00:15:23.849000,28.2,48.3,1009.2,false,37.8,201,2.5
0 days 00:16:23.864000,28.3,48.2,1009.1,false,37.9,201,2.2
0 days 00:17:23.864000,28.5,47.6,1009.2,false,37.9,193,2.8
0 days 00:18:23.864000,28.6,47.2,1009.1,false,37.7,196,3.3
0 days 00:19:23.870000,28.4,47.6,1009.1,false,37.7,219,2.6
0 days 00:20:23.880000,28.3,47.8,1009.1,false,37.7,199,2.7
0 days 00:21:23.898000,28.3,47.9,1009.1,false,37.7,180,3.2
0 days 00:22:23.899000,28.2,48.3,1009.2,false,37.5,191,2.5
0 days 00:23:23.905000,28.2,48.5,1009.1,false,37.4,193,2.6
0 days 00:24:23.905000,28.3,48.4,1009.1,false,37.4,199,3.0
0 days 00:25:23.910000,28.1,48.6,1009.1,false,37.2,175,2.8
0 days 00:26:23.902000,28.0,49.6,1009.0,false,37.2,170,2.5
0 days 00:27:23.914000,28.0,48.9,1009.0,false,37.2,181,2.9
0 days 00:28:23.919000,28.1,49.2,1009.0,false,37.2,180,2.7
0 days 00:29:23.919000,28.1,49.0,1009.0,false,37.2,190,2.7
0 days 00:30:23.912000,28.1,49.0,1009.1,false,37.1,208,2.4
0 days 00:31:23.909000,28.2,48.8,1009.1,false,37.3,216,2.0
0 days 00:32:23.916000,28.5,47.9,1009.0,false,37.6,231,2.5
0 days 00:33:23.912000,28.5,47.8,1009.1,false,37.6,207,2.9
0 days 00:34:23.908000,28.5,47.3,1009.1,false,37.2,241,3.3
0 days 00:35:23.923000,28.4,48.3,1009.0,false,37.2,218,2.9
0 days 00:36:23.912000,28.4,48.5,1009.0,false,37.3,211,3.1
0 days 00:37:23.914000,28.4,49.2,1009.0,false,37.3,209,3.4
0 days 00:38:23.912000,28.3,48.5,1009.1,false,37.1,184,2.9
0 days 00:39:23.915000,28.3,49.2,1009.1,false,37.1,165,1.8
0 days 00:40:23.913000,28.3,50.2,1009.0,false,37.3,193,2.8
0 days 00:41:23.923000,28.1,51.4,1009.1,false,37.3,188,3.2
0 days 00:42:23.904000,28.1,50.9,1009.0,false,37.2,184,3.8
0 days 00:43:23.919000,27.9,52.3,1009.0,false,37.2,177,2.8
0 days 00:44:23.920000,28.0,51.3,1009.1,false,37.2,161,2.5
0 days 00:45:23.937000,28.0,51.6,1009.1,false,37.2,200,2.4
0 days 00:46:23.940000,28.1,51.6,1009.1,false,37.2,206,3.0
0 days 00:47:23.967000,28.1,51.5,1009.1,false,37.5,192,3.1
0 days 00:48:23.969000,28.2,51.2,1009.1,false,37.3,199,3.0
0 days 00:49:23.968000,28.2,50.8,1009.0,false,37.2,190,3.8
0 days 00:50:23.989000,28.1,51.5,1009.1,false,37.1,202,2.8
0 days 00:51:23.987000,28.1,50.9,1009.0,false,37.4,214,2.3
0 days 00:52:24.002000,28.3,50.0,1009.1,false,37.4,204,2.7
0 days 00:53:24.019000,28.4,50.1,1009.0,false,37.0,184,3.1
0 days 00:54:24.020000,28.3,50.8,1009.0,false,36.8,181,2.4
0 days 00:55:24.036000,28.3,51.0,1009.0,false,36.8,187,2.7
0 days 00:56:24.054000,28.3,51.3,1009.0,false,36.8,169,3.7
0 days 00:57:24.074000,28.3,52.1,1009.0,false,37.0,183,2.8
0 days 00:58:24.054000,28.1,51.2,1009.0,false,36.8,219,2.1
0 days 00:59:24.055000,28.2,52.6,1009.1,false,36.7,210,2.2
0 days 01:00:24.055000,28.2,52.4,1009.0,false,36.7,198,2.2
0 days 01:01:24.059000,28.3,52.9,1009.1,false,36.7,176,2.8
0 days 01:02:24.062000,28.1,52.5,1009.0,false,36.3,175,3.0
0 days 01:03:24.059000,27.9,53.6,1009.0,false,36.3,178,2.9
0 days 01:04:24.059000,27.8,54.0,1009.0,false,36.4,195,2.9
0 days 01:05:24.064000,28.0,53.2,1009.0,false,36.4,181,3.3
0 days 01:06:24.062000,27.9,53.0,1009.0,false,36.3,192,3.3
0 days 01:07:24.064000,27.8,53.7,1009.0,false,36.1,175,3.0
0 days 01:08:24.064000,27.8,54.9,1009.0,false,36.0,191,2.6
0 days 01:09:24.067000,27.8,54.9,1009.0,false,36.2,204,2.3
0 days 01:10:24.071000,28.0,54.7,1009.0,false,36.3,190,2.6
0 days 01:11:24.067000,28.1,54.6,1009.0,false,36.1,197,3.1
0 days 01:12:24.068000,27.9,55.3,1009.0,false,35.7,177,3.6
0 days 01:13:24.067000,27.8,56.3,1008.9,false,35.8,191,2.9
0 days 01:14:24.079000,27.7,55.5,1009.0,false,35.9,199,3.3
0 days 01:15:24.073000,27.6,54.9,1009.0,false,36.0,188,2.4
0 days 01:16:24.070000,27.6,53.2,1009.0,false,36.0,193,3.3
0 days 01:17:24.090000,27.7,53.1,1009.0,false,36.0,173,3.3
0 days 01:18:24.075000,27.5,54.7,1009.0,false,36.0,215,2.4
0 days 01:19:24.072000,27.6,54.9,1009.0,false,36.0,175,2.6
0 days 01:20:24.072000,27.8,54.7,1009.0,false,35.9,213,2.3
0 days 01:21:24.074000,27.7,54.6,1009.0,false,35.9,195,2.9
0 days 01:22:24.075000,27.8,55.5,1009.0,false,36.1,210,1.7
0 days 01:23:24.077000,27.8,55.4,1009.0,false,36.1,191,2.0
0 days 01:24:24.080000,28.0,55.4,1009.0,false,35.8,177,3.2
0 days 01:25:24.077000,27.9,54.1,1009.0,false,35.6,182,2.9
0 days 01:26:24.079000,27.9,54.1,1009.0,false,35.5,186,3.4
0 days 01:27:24.080000,27.9,54.6,1009.0,false,35.3,206,2.5
0 days 01:28:24.084000,27.8,54.8,1009.0,false,35.5,203,2.4
0 days 01:29:24.084000,27.7,54.1,1009.0,false,35.6,182,2.6
0 days 01:30:24.085000,27.8,54.3,1009.0,false,35.3,190,3.4
0 days 01:31:24.084000,27.8,55.9,1009.0,false,35.1,190,3.5
0 days 01:32:24.082000,27.6,55.9,1009.1,false,35.1,210,2.2
0 days 01:33:24.088000,27.5,55.5,1009.1,false,35.1,185,2.5
0 days 01:34:24.103000,27.7,55.8,1009.0,false,34.9,161,2.3
0 days 01:35:24.088000,27.7,56.4,1009.1,false,34.8,179,2.5
0 days 01:36:24.087000,27.7,55.7,1009.0,false,34.6,184,3.3
0 days 01:37:24.087000,27.5,57.1,1009.0,false,34.2,196,3.0
0 days 01:38:24.089000,27.5,57.4,1009.0,false,34.2,177,2.9
0 days 01:39:24.092000,27.3,57.2,1009.0,false,34.1,197,2.9
0 days 01:40:24.090000,27.3,57.6,1009.0,false,34.0,193,1.9
0 days 01:41:24.103000,27.4,56.5,1008.9,false,34.0,179,2.9
0 days 01:42:24.106000,27.5,56.5,1009.0,false,33.8,180,2.3
0 days 01:43:24.095000,27.5,56.7,1009.0,false,33.8,191,2.4
0 days 01:44:24.095000,27.5,57.5,1009.0,false,33.2,160,2.5
0 days 01:45:24.097000,27.4,56.6,1008.9,false,33.2,206,3.1
0 days 01:46:24.098000,27.3,55.7,1008.9,false,33.3,199,2.8
0 days 01:47:24.100000,27.3,55.7,1009.0,false,33.2,185,2.6
