Time,DriverNumber,LapTime,LapNumber,PitOutTime,PitInTime,Sector1Time,Sector2Time,Sector3Time,SpeedI1,SpeedI2,SpeedFL,SpeedST,Compound,TyreLife
0 days 00:18:36.789000,3,"",1,0 days 00:16:05.078000,"","",0 days 00:00:53.024000,0 days 00:01:15.885000,234.0,226.0,216.0,214.0,test_unknown,1.0
0 days 00:20:17.571000,3,0 days 00:01:40.782000,2,"","",0 days 00:00:17.815000,0 days 00:00:42.849000,0 days 00:00:40.118000,276.0,307.0,217.0,314.0,test_unknown,2.0
0 days 00:23:01.026000,3,"",3,"","",0 days 00:00:28.107000,0 days 00:01:07.200000,0 days 00:01:08.177000,106.0,223.0,206.0,160.0,test_unknown,3.0
0 days 00:24:41.446000,3,0 days 00:01:40.420000,4,"","",0 days 00:00:17.947000,0 days 00:00:42.825000,0 days 00:00:39.648000,277.0,306.0,217.0,311.0,test_unknown,4.0
0 days 00:26:42.460000,3,0 days 00:02:01.014000,5,"","",0 days 00:00:20.330000,0 days 00:00:51.755000,0 days 00:00:48.929000,235.0,245.0,217.0,238.0,test_unknown,5.0
0 days 00:28:22.872000,3,0 days 00:01:40.412000,6,"","",0 days 00:00:17.834000,0 days 00:00:42.948000,0 days 00:00:39.630000,270.0,296.0,218.0,302.0,test_unknown,6.0
0 days 00:30:04.189000,3,0 days 00:01:41.317000,7,"","",0 days 00:00:18.026000,0 days 00:00:43.348000,0 days 00:00:39.943000,267.0,296.0,215.0,299.0,test_unknown,7.0
0 days 00:31:44.908000,3,0 days 00:01:40.719000,8,"","",0 days 00:00:17.857000,0 days 00:00:43.174000,0 days 00:00:39.688000,268.0,297.0,217.0,301.0,test_unknown,8.0
0 days 00:33:25.514000,3,0 days 00:01:40.606000,9,"","",0 days 00:00:17.855000,0 days 00:00:43.148000,0 days 00:00:39.603000,267.0,298.0,217.0,301.0,test_unknown,9.0
0 days 00:35:19.625000,3,0 days 00:01:54.111000,10,"",0 days 00:35:18.578000,0 days 00:00:18.043000,0 days 00:00:46.940000,0 days 00:00:49.128000,256.0,232.0,"",243.0,test_unknown,10.0
0 days 00:44:32.976000,3,"",11,0 days 00:42:32.238000,"","",0 days 00:00:50.870000,0 days 00:00:45.675000,253.0,264.0,222.0,289.0,medium,1.0
0 days 00:46:11.051000,3,0 days 00:01:38.075000,12,"","",0 days 00:00:17.453000,0 days 00:00:42.134000,0 days 00:00:38.488000,280.0,305.0,220.0,315.0,medium,2.0
0 days 00:48:33.529000,3,0 days 00:02:22.478000,13,"","",0 days 00:00:25.567000,0 days 00:01:06.680000,0 days 00:00:50.231000,218.0,220.0,220.0,211.0,medium,3.0
0 days 00:50:12.240000,3,0 days 00:01:38.711000,14,"","",0 days 00:00:17.576000,0 days 00:00:42.390000,0 days 00:00:38.745000,278.0,302.0,218.0,309.0,medium,4.0
0 days 00:52:15.161000,3,0 days 00:02:02.921000,15,"",0 days 00:52:15.173000,0 days 00:00:20.825000,0 days 00:00:54.669000,0 days 00:00:47.427000,230.0,238.0,"",220.0,medium,5.0
0 days 01:08:04.008000,3,"",16,0 days 01:05:56.223000,"","",0 days 00:00:52.521000,0 days 00:00:52.890000,246.0,209.0,224.0,258.0,soft,1.0
0 days 01:09:41.516000,3,0 days 00:01:37.508000,17,"","",0 days 00:00:17.422000,0 days 00:00:41.802000,0 days 00:00:38.284000,285.0,310.0,219.0,319.0,soft,2.0
0 days 01:11:46.676000,3,0 days 00:02:05.160000,18,"",0 days 01:11:45.777000,0 days 00:00:22.576000,0 days 00:00:50.754000,0 days 00:00:51.830000,215.0,208.0,"",258.0,soft,3.0
0 days 01:22:05.933000,3,"",19,0 days 01:20:21.512000,"","",0 days 00:00:45.501000,0 days 00:00:42.399000,265.0,281.0,210.0,290.0,soft,4.0
0 days 01:23:49.852000,3,0 days 00:01:43.919000,20,"","",0 days 00:00:18.427000,0 days 00:00:44.227000,0 days 00:00:41.265000,270.0,284.0,213.0,294.0,soft,5.0
0 days 01:25:33.778000,3,0 days 00:01:43.926000,21,"","",0 days 00:00:18.519000,0 days 00:00:44.275000,0 days 00:00:41.132000,268.0,283.0,212.0,293.0,soft,6.0
0 days 01:27:17.737000,3,0 days 00:01:43.959000,22,"","",0 days 00:00:18.535000,0 days 00:00:44.372000,0 days 00:00:41.052000,266.0,281.0,211.0,291.0,soft,7.0
0 days 01:39:02.844000,3,"",23,"",0 days 01:29:41.755000,"","","","","","","",soft,8.0
0 days 01:40:51.235000,3,"",24,0 days 01:39:02.834000,"","",0 days 00:00:45.677000,0 days 00:00:41.371000,256.0,283.0,212.0,288.0,medium,6.0
0 days 01:42:33.800000,3,0 days 00:01:42.565000,25,"","",0 days 00:00:18.272000,0 days 00:00:43.850000,0 days 00:00:40.443000,272.0,284.0,213.0,289.0,medium,7.0
0 days 01:44:16.572000,3,0 days 00:01:42.772000,26,"","",0 days 00:00:18.293000,0 days 00:00:44.079000,0 days 00:00:40.400000,267.0,281.0,213.0,285.0,medium,8.0
0 days 01:46:12.166000,3,0 days 00:01:55.594000,27,"","",0 days 00:00:18.199000,0 days 00:00:47.664000,0 days 00:00:49.731000,268.0,193.0,183.0,253.0,medium,9.0
0 days 01:48:20.534000,3,0 days 00:02:08.368000,28,"","",0 days 00:00:23.126000,0 days 00:00:48.383000,0 days 00:00:56.859000,225.0,208.0,73.0,233.0,medium,10.0
0 days 01:50:22.948000,3,0 days 00:02:02.414000,29,"",0 days 01:50:21.885000,0 days 00:00:34.745000,0 days 00:00:43.778000,0 days 00:00:43.891000,280.0,288.0,"",293.0,medium,11.0
0 days 00:18:32.702000,63,"",1,0 days 00:15:54.900000,"","",0 days 00:00:58.247000,0 days 00:01:15.058000,241.0,255.0,215.0,259.0,test_unknown,1.0
0 days 00:20:13.022000,63,0 days 00:01:40.320000,2,"","",0 days 00:00:17.703000,0 days 00:00:42.490000,0 days 00:00:40.127000,282.0,318.0,221.0,325.0,test_unknown,2.0
0 days 00:22:52.069000,63,"",3,"","",0 days 00:00:27.256000,0 days 00:01:01.154000,0 days 00:01:10.693000,152.0,134.0,217.0,277.0,test_unknown,3.0
0 days 00:24:32.733000,63,0 days 00:01:40.664000,4,"","",0 days 00:00:17.575000,0 days 00:00:42.588000,0 days 00:00:40.501000,284.0,317.0,218.0,325.0,test_unknown,4.0
0 days 00:26:16.112000,63,0 days 00:01:43.379000,5,"","",0 days 00:00:17.817000,0 days 00:00:44.310000,0 days 00:00:41.252000,281.0,296.0,218.0,304.0,test_unknown,5.0
0 days 00:27:59.276000,63,0 days 00:01:43.164000,6,"","",0 days 00:00:17.690000,0 days 00:00:44.051000,0 days 00:00:41.423000,279.0,295.0,216.0,300.0,test_unknown,6.0
0 days 00:29:42.335000,63,0 days 00:01:43.059000,7,"","",0 days 00:00:17.788000,0 days 00:00:44.096000,0 days 00:00:41.175000,278.0,294.0,217.0,298.0,test_unknown,7.0
0 days 00:31:25.446000,63,0 days 00:01:43.111000,8,"","",0 days 00:00:17.710000,0 days 00:00:44.195000,0 days 00:00:41.206000,277.0,294.0,219.0,300.0,test_unknown,8.0
0 days 00:33:08.253000,63,0 days 00:01:42.807000,9,"","",0 days 00:00:17.728000,0 days 00:00:44.136000,0 days 00:00:40.943000,"",292.0,220.0,297.0,test_unknown,9.0
0 days 00:35:02.252000,63,0 days 00:01:53.999000,10,"",0 days 00:35:02.290000,0 days 00:00:17.706000,0 days 00:00:48.968000,0 days 00:00:47.325000,"",277.0,"",228.0,test_unknown,10.0
0 days 00:52:26.837000,63,"",11,0 days 00:49:59.866000,"","",0 days 00:00:56.556000,0 days 00:01:01.476000,204.0,244.0,222.0,267.0,soft,1.0
0 days 00:54:05.654000,63,0 days 00:01:38.817000,12,"","",0 days 00:00:17.512000,0 days 00:00:42.045000,0 days 00:00:39.260000,290.0,315.0,221.0,323.0,soft,2.0
0 days 00:56:38.754000,63,"",13,"","",0 days 00:00:29.568000,0 days 00:01:01.624000,0 days 00:01:01.957000,183.0,170.0,222.0,226.0,soft,3.0
0 days 00:58:17.849000,63,0 days 00:01:39.095000,14,"","",0 days 00:00:17.428000,0 days 00:00:42.126000,0 days 00:00:39.541000,288.0,314.0,220.0,323.0,soft,4.0
0 days 01:00:51.154000,63,"",15,"","",0 days 00:00:28.767000,0 days 00:01:02.680000,0 days 00:01:01.825000,203.0,199.0,222.0,266.0,soft,5.0
0 days 01:02:30.035000,63,0 days 00:01:38.881000,16,"","",0 days 00:00:17.373000,0 days 00:00:42.145000,0 days 00:00:39.363000,291.0,315.0,219.0,322.0,soft,6.0
0 days 01:04:35.370000,63,0 days 00:02:05.335000,17,"",0 days 01:04:34.804000,0 days 00:00:18.727000,0 days 00:00:52.509000,0 days 00:00:54.099000,250.0,175.0,"",193.0,soft,7.0
0 days 01:14:59.029000,63,"",18,0 days 01:13:00.373000,0 days 01:14:57.934000,"",0 days 00:00:47.313000,0 days 00:00:50.763000,262.0,284.0,"",275.0,soft,8.0
0 days 01:17:07.370000,63,0 days 00:02:08.341000,19,0 days 01:15:21.359000,"",0 days 00:00:40.911000,0 days 00:00:45.459000,0 days 00:00:41.971000,285.0,294.0,214.0,300.0,hard,2.0
0 days 01:18:54.921000,63,0 days 00:01:47.551000,20,"","",0 days 00:00:18.075000,0 days 00:00:43.835000,0 days 00:00:45.641000,279.0,297.0,215.0,319.0,hard,3.0
0 days 01:20:39.190000,63,0 days 00:01:44.269000,21,"","",0 days 00:00:17.997000,0 days 00:00:44.444000,0 days 00:00:41.828000,278.0,289.0,214.0,297.0,hard,4.0
0 days 01:22:23.292000,63,0 days 00:01:44.102000,22,"","",0 days 00:00:18.003000,0 days 00:00:44.379000,0 days 00:00:41.720000,279.0,290.0,214.0,298.0,hard,5.0
0 days 01:24:08.044000,63,0 days 00:01:44.752000,23,"","",0 days 00:00:18.058000,0 days 00:00:44.471000,0 days 00:00:42.223000,"",291.0,213.0,301.0,hard,6.0
0 days 01:26:10.442000,63,0 days 00:02:02.398000,24,"",0 days 01:26:09.406000,0 days 00:00:18.032000,0 days 00:00:44.485000,0 days 00:00:59.881000,281.0,290.0,"",302.0,hard,7.0
0 days 00:18:52.188000,55,"",1,0 days 00:16:35.346000,"","",0 days 00:00:49.933000,0 days 00:01:07.375000,248.0,270.0,218.0,276.0,test_unknown,1.0
0 days 00:20:31.854000,55,0 days 00:01:39.666000,2,"","",0 days 00:00:17.615000,0 days 00:00:42.275000,0 days 00:00:39.776000,276.0,311.0,220.0,316.0,test_unknown,2.0
0 days 00:22:56.886000,55,0 days 00:02:25.032000,3,"","",0 days 00:00:20.350000,0 days 00:00:56.289000,0 days 00:01:08.393000,190.0,253.0,217.0,173.0,test_unknown,3.0
0 days 00:24:36.345000,55,0 days 00:01:39.459000,4,"","",0 days 00:00:17.674000,0 days 00:00:42.084000,0 days 00:00:39.701000,277.0,313.0,214.0,315.0,test_unknown,4.0
0 days 00:26:27.454000,55,0 days 00:01:51.109000,5,"","",0 days 00:00:19.907000,0 days 00:00:47.272000,0 days 00:00:43.930000,234.0,270.0,218.0,287.0,test_unknown,5.0
0 days 00:28:08.591000,55,0 days 00:01:41.137000,6,"","",0 days 00:00:17.852000,0 days 00:00:43.027000,0 days 00:00:40.258000,271.0,300.0,218.0,306.0,test_unknown,6.0
0 days 00:29:49.526000,55,0 days 00:01:40.935000,7,"","",0 days 00:00:17.746000,0 days 00:00:42.979000,0 days 00:00:40.210000,"",298.0,219.0,307.0,test_unknown,7.0
0 days 00:31:35.591000,55,0 days 00:01:46.065000,8,"","",0 days 00:00:17.694000,0 days 00:00:42.944000,0 days 00:00:45.427000,"",303.0,222.0,308.0,test_unknown,8.0
0 days 00:33:15.686000,55,0 days 00:01:40.095000,9,"","",0 days 00:00:17.665000,0 days 00:00:42.801000,0 days 00:00:39.629000,272.0,307.0,219.0,314.0,test_unknown,9.0
0 days 00:35:12.219000,55,0 days 00:01:56.533000,10,"",0 days 00:35:11.176000,0 days 00:00:21.016000,0 days 00:00:49.616000,0 days 00:00:45.901000,203.0,238.0,"",220.0,test_unknown,10.0
0 days 00:43:19.501000,55,"",11,0 days 00:41:23.689000,"","",0 days 00:00:47.472000,0 days 00:00:45.307000,241.0,253.0,224.0,304.0,hard,1.0
0 days 00:44:57.119000,55,0 days 00:01:37.618000,12,"","",0 days 00:00:17.420000,0 days 00:00:41.715000,0 days 00:00:38.483000,285.0,314.0,225.0,320.0,hard,2.0
0 days 00:47:12.512000,55,0 days 00:02:15.393000,13,"","",0 days 00:00:22.578000,0 days 00:00:57.113000,0 days 00:00:55.702000,225.0,217.0,224.0,194.0,hard,3.0
0 days 00:48:51.030000,55,0 days 00:01:38.518000,14,"","",0 days 00:00:17.509000,0 days 00:00:41.938000,0 days 00:00:39.071000,279.0,308.0,219.0,316.0,hard,4.0
0 days 00:50:58.964000,55,0 days 00:02:07.934000,15,"",0 days 00:50:57.911000,0 days 00:00:23.779000,0 days 00:00:53.492000,0 days 00:00:50.663000,213.0,202.0,"",224.0,hard,5.0
0 days 01:02:57.182000,55,"",16,0 days 01:00:41.791000,"","",0 days 00:00:55.627000,0 days 00:00:55.386000,152.0,236.0,226.0,247.0,soft,1.0
0 days 01:04:34.798000,55,0 days 00:01:37.616000,17,"","",0 days 00:00:17.368000,0 days 00:00:41.449000,0 days 00:00:38.799000,286.0,311.0,223.0,320.0,soft,2.0
0 days 01:06:53.016000,55,0 days 00:02:18.218000,18,"",0 days 01:06:51.973000,0 days 00:00:22.775000,0 days 00:00:56.357000,0 days 00:00:59.086000,170.0,171.0,"",197.0,soft,3.0
0 days 01:18:14.813000,55,"",19,0 days 01:16:20.921000,"","",0 days 00:00:47.809000,0 days 00:00:44.901000,240.0,253.0,213.0,278.0,soft,4.0
0 days 01:19:59.324000,55,0 days 00:01:44.511000,20,"","",0 days 00:00:18.437000,0 days 00:00:44.529000,0 days 00:00:41.545000,268.0,272.0,213.0,284.0,soft,5.0
0 days 01:21:43.363000,55,0 days 00:01:44.039000,21,"","",0 days 00:00:18.317000,0 days 00:00:44.607000,0 days 00:00:41.115000,"",272.0,211.0,285.0,soft,6.0
0 days 01:23:27.152000,55,0 days 00:01:43.789000,22,"","",0 days 00:00:18.344000,0 days 00:00:44.252000,0 days 00:00:41.193000,"",282.0,212.0,289.0,soft,7.0
0 days 01:25:11.462000,55,0 days 00:01:44.310000,23,"","",0 days 00:00:18.252000,0 days 00:00:44.570000,0 days 00:00:41.488000,269.0,275.0,211.0,289.0,soft,8.0
0 days 01:26:55.810000,55,0 days 00:01:44.348000,24,"","",0 days 00:00:18.171000,0 days 00:00:44.699000,0 days 00:00:41.478000,271.0,283.0,211.0,290.0,soft,9.0
0 days 01:39:10.067000,55,"",25,"",0 days 01:29:11.257000,0 days 00:00:18.137000,"","",275.0,"","","",soft,10.0
0 days 01:41:05.973000,55,"",26,0 days 01:39:10.067000,"","",0 days 00:00:44.510000,0 days 00:00:52.004000,270.0,308.0,218.0,293.0,hard,6.0
0 days 01:42:48.426000,55,0 days 00:01:42.453000,27,"","",0 days 00:00:17.932000,0 days 00:00:43.662000,0 days 00:00:40.859000,276.0,289.0,215.0,294.0,hard,7.0
0 days 01:44:30.924000,55,0 days 00:01:42.498000,28,"","",0 days 00:00:18.004000,0 days 00:00:43.816000,0 days 00:00:40.678000,271.0,284.0,215.0,287.0,hard,8.0
0 days 01:46:13.573000,55,0 days 00:01:42.649000,29,"","",0 days 00:00:17.977000,0 days 00:00:43.835000,0 days 00:00:40.837000,273.0,287.0,212.0,290.0,hard,9.0
0 days 01:48:08.002000,55,0 days 00:01:54.429000,30,"","",0 days 00:00:17.917000,0 days 00:00:44.115000,0 days 00:00:52.397000,"",269.0,61.0,286.0,hard,10.0
0 days 01:50:15.802000,55,0 days 00:02:07.800000,31,"",0 days 01:50:15.797000,0 days 00:00:39.635000,0 days 00:00:43.933000,0 days 00:00:44.232000,280.0,284.0,"",287.0,hard,11.0
0 days 00:17:49.965000,51,"",1,0 days 00:15:28.483000,"","",0 days 00:00:54.088000,0 days 00:01:03.752000,144.0,241.0,211.0,246.0,test_unknown,1.0
0 days 00:19:31.159000,51,0 days 00:01:41.194000,2,"","",0 days 00:00:18.325000,0 days 00:00:42.542000,0 days 00:00:40.327000,275.0,311.0,218.0,318.0,test_unknown,2.0
0 days 00:21:17.363000,51,0 days 00:01:46.204000,3,"","",0 days 00:00:19.995000,0 days 00:00:44.792000,0 days 00:00:41.417000,259.0,305.0,218.0,312.0,test_unknown,3.0
0 days 00:23:32.051000,51,0 days 00:02:14.688000,4,"","",0 days 00:00:23.327000,0 days 00:00:54.424000,0 days 00:00:56.937000,166.0,225.0,219.0,225.0,test_unknown,4.0
0 days 00:25:12.835000,51,0 days 00:01:40.784000,5,"","",0 days 00:00:17.892000,0 days 00:00:42.711000,0 days 00:00:40.181000,281.0,309.0,221.0,315.0,test_unknown,5.0
0 days 00:27:41.476000,51,0 days 00:02:28.605000,6,"","",0 days 00:00:22.074000,"","",202.0,"",219.0,149.0,test_unknown,6.0
0 days 00:29:22.733000,51,0 days 00:01:41.257000,7,"","",0 days 00:00:17.957000,0 days 00:00:42.795000,0 days 00:00:40.505000,282.0,312.0,219.0,318.0,test_unknown,7.0
0 days 00:31:52.780000,51,"",8,"","",0 days 00:00:26.153000,0 days 00:01:10.630000,0 days 00:00:53.287000,134.0,171.0,220.0,123.0,test_unknown,8.0
0 days 00:33:33.804000,51,0 days 00:01:41.024000,9,"","",0 days 00:00:17.965000,0 days 00:00:42.636000,0 days 00:00:40.423000,279.0,311.0,220.0,317.0,test_unknown,9.0
0 days 00:35:41.266000,51,0 days 00:02:07.462000,10,"",0 days 00:35:40.237000,0 days 00:00:19.861000,0 days 00:00:58.599000,0 days 00:00:49.002000,215.0,218.0,"",179.0,test_unknown,10.0
0 days 00:43:51.809000,51,"",11,0 days 00:41:43.292000,"","",0 days 00:00:52.634000,0 days 00:00:50.104000,203.0,250.0,217.0,265.0,hard,1.0
0 days 00:45:58.963000,51,0 days 00:02:07.154000,12,"",0 days 00:45:57.852000,0 days 00:00:17.997000,0 days 00:00:50.089000,0 days 00:00:59.068000,280.0,194.0,"",315.0,hard,2.0
0 days 01:01:36.023000,51,"",13,0 days 00:59:23.553000,"","",0 days 00:00:53.720000,0 days 00:00:53.134000,193.0,236.0,219.0,239.0,soft,1.0
0 days 01:03:42.452000,51,0 days 00:02:06.429000,14,"","",0 days 00:00:26.749000,0 days 00:00:54.670000,0 days 00:00:45.010000,171.0,256.0,222.0,234.0,soft,2.0
0 days 01:05:21.479000,51,0 days 00:01:39.027000,15,"","",0 days 00:00:17.635000,0 days 00:00:42.194000,0 days 00:00:39.198000,283.0,311.0,214.0,317.0,soft,3.0
0 days 01:07:40.440000,51,0 days 00:02:18.961000,16,"","",0 days 00:00:25.289000,0 days 00:00:56.318000,0 days 00:00:57.354000,178.0,210.0,220.0,194.0,soft,4.0
0 days 01:09:20.629000,51,0 days 00:01:40.189000,17,"","",0 days 00:00:17.674000,0 days 00:00:42.482000,0 days 00:00:40.033000,282.0,309.0,213.0,316.0,soft,5.0
0 days 01:11:33.819000,51,0 days 00:02:13.190000,18,"",0 days 01:11:32.763000,0 days 00:00:22.367000,0 days 00:01:01.022000,0 days 00:00:49.801000,181.0,175.0,"",198.0,soft,6.0
0 days 01:26:40.552000,51,"",19,0 days 01:24:50.152000,"","",0 days 00:00:46.763000,0 days 00:00:43.330000,249.0,284.0,209.0,295.0,soft,7.0
0 days 01:39:47.597000,51,"",20,"",0 days 01:28:48.926000,0 days 00:00:18.440000,"","",260.0,"","","",soft,8.0
0 days 01:41:42.838000,51,"",21,0 days 01:39:47.579000,0 days 01:41:41.752000,"",0 days 00:00:47.862000,0 days 00:00:45.345000,266.0,268.0,"",254.0,test_unknown,11.0
0 days 01:43:52.147000,51,0 days 00:02:09.309000,22,0 days 01:42:04.266000,"",0 days 00:00:40.358000,0 days 00:00:45.487000,0 days 00:00:43.464000,276.0,284.0,210.0,292.0,soft,9.0
0 days 01:45:36.935000,51,0 days 00:01:44.788000,23,"","",0 days 00:00:18.291000,0 days 00:00:44.770000,0 days 00:00:41.727000,"",288.0,211.0,298.0,soft,10.0
0 days 01:47:53.776000,51,0 days 00:02:16.841000,24,"","",0 days 00:00:18.514000,0 days 00:00:47.482000,0 days 00:01:10.845000,273.0,222.0,56.0,259.0,soft,11.0
0 days 01:50:46.103000,51,"",25,"",0 days 01:50:44.818000,0 days 00:00:56.949000,0 days 00:01:00.807000,0 days 00:00:54.566000,207.0,157.0,"",201.0,soft,12.0
0 days 00:18:26.216000,44,"",1,0 days 00:16:02.067000,"","",0 days 00:00:53.390000,0 days 00:01:06.397000,225.0,236.0,216.0,217.0,test_unknown,1.0
0 days 00:20:04.137000,44,0 days 00:01:37.921000,2,"","",0 days 00:00:17.433000,0 days 00:00:41.743000,0 days 00:00:38.745000,281.0,314.0,221.0,318.0,test_unknown,2.0
0 days 00:22:45.538000,44,"",3,"","",0 days 00:00:34.678000,0 days 00:01:09.419000,0 days 00:00:57.318000,134.0,214.0,221.0,229.0,test_unknown,3.0
0 days 00:24:23.442000,44,0 days 00:01:37.904000,4,"","",0 days 00:00:17.463000,0 days 00:00:41.840000,0 days 00:00:38.601000,279.0,310.0,220.0,315.0,test_unknown,4.0
0 days 00:26:13.086000,44,0 days 00:01:49.644000,5,"",0 days 00:26:11.994000,0 days 00:00:18.726000,0 days 00:00:46.446000,0 days 00:00:44.472000,259.0,250.0,"",267.0,test_unknown,5.0
0 days 00:28:41.282000,44,0 days 00:02:28.196000,6,0 days 00:26:45.311000,0 days 00:28:40.979000,0 days 00:00:53.422000,0 days 00:00:48.548000,0 days 00:00:46.226000,171.0,242.0,"",250.0,test_unknown,6.0
0 days 00:37:06.323000,44,"",7,0 days 00:34:40.755000,"","",0 days 00:01:00.031000,0 days 00:00:55.167000,165.0,221.0,222.0,149.0,medium,1.0
0 days 00:38:42.802000,44,0 days 00:01:36.479000,8,"","",0 days 00:00:17.284000,0 days 00:00:41.206000,0 days 00:00:37.989000,283.0,312.0,223.0,317.0,medium,2.0
0 days 00:41:22.014000,44,"",9,"","",0 days 00:00:31.620000,0 days 00:01:06.877000,0 days 00:01:00.772000,173.0,205.0,221.0,230.0,medium,3.0
0 days 00:42:58.859000,44,0 days 00:01:36.845000,10,"","",0 days 00:00:17.447000,0 days 00:00:41.476000,0 days 00:00:37.922000,281.0,309.0,217.0,314.0,medium,4.0
0 days 00:44:51.658000,44,0 days 00:01:52.799000,11,"",0 days 00:44:51.704000,0 days 00:00:18.655000,0 days 00:00:45.278000,0 days 00:00:48.866000,259.0,209.0,"",291.0,medium,5.0
0 days 00:47:15.337000,44,0 days 00:02:23.679000,12,0 days 00:45:23.408000,0 days 00:47:14.308000,0 days 00:00:51.141000,0 days 00:00:46.533000,0 days 00:00:46.005000,250.0,240.0,"",236.0,medium,6.0
0 days 00:57:34.257000,44,"",13,0 days 00:55:05.460000,"","",0 days 00:01:01.934000,0 days 00:00:53.587000,181.0,221.0,221.0,225.0,soft,1.0
0 days 00:59:10.354000,44,0 days 00:01:36.097000,14,"","",0 days 00:00:17.272000,0 days 00:00:41.221000,0 days 00:00:37.604000,284.0,312.0,220.0,315.0,soft,2.0
0 days 01:02:08.581000,44,"",15,"","",0 days 00:00:33.550000,0 days 00:01:19.671000,0 days 00:01:05.039000,117.0,132.0,134.0,142.0,soft,3.0
0 days 01:04:29.541000,44,0 days 00:02:20.960000,16,"","",0 days 00:00:29.067000,0 days 00:00:56.182000,0 days 00:00:55.711000,187.0,209.0,223.0,263.0,soft,4.0
0 days 01:06:06.675000,44,0 days 00:01:37.134000,17,"","",0 days 00:00:17.412000,0 days 00:00:41.560000,0 days 00:00:38.162000,283.0,310.0,220.0,314.0,soft,5.0
0 days 01:08:17.055000,44,0 days 00:02:10.380000,18,"",0 days 01:08:16.062000,0 days 00:00:19.127000,0 days 00:00:58.762000,0 days 00:00:52.491000,244.0,187.0,"",198.0,soft,6.0
0 days 01:10:34.081000,44,0 days 00:02:17.026000,19,0 days 01:08:45.898000,0 days 01:10:33.503000,0 days 00:00:49.303000,0 days 00:00:43.573000,0 days 00:00:44.150000,253.0,237.0,"",314.0,soft,7.0
0 days 01:18:27.354000,44,"",20,0 days 01:16:33.364000,"","",0 days 00:00:47,0 days 00:00:46.475000,244.0,231.0,217.0,283.0,test_unknown,7.0
0 days 01:20:10.765000,44,0 days 00:01:43.411000,21,"","",0 days 00:00:17.990000,0 days 00:00:44.155000,0 days 00:00:41.266000,275.0,280.0,213.0,293.0,test_unknown,8.0
0 days 01:22:00.604000,44,0 days 00:01:49.839000,22,"","",0 days 00:00:18.122000,0 days 00:00:44.042000,0 days 00:00:47.675000,272.0,278.0,217.0,290.0,test_unknown,9.0
0 days 01:23:43.321000,44,0 days 00:01:42.717000,23,"","",0 days 00:00:17.967000,0 days 00:00:44.136000,0 days 00:00:40.614000,271.0,280.0,212.0,286.0,test_unknown,10.0
0 days 01:25:26.212000,44,0 days 00:01:42.891000,24,"","",0 days 00:00:17.977000,0 days 00:00:44.057000,0 days 00:00:40.857000,275.0,282.0,211.0,291.0,test_unknown,11.0
0 days 01:27:09.282000,44,0 days 00:01:43.070000,25,"","",0 days 00:00:17.978000,0 days 00:00:44.142000,0 days 00:00:40.950000,274.0,283.0,210.0,294.0,test_unknown,12.0
0 days 01:40:53.385000,44,"",26,"",0 days 01:29:25.863000,"","","","","","","",test_unknown,13.0
0 days 01:42:47.842000,44,"",27,0 days 01:40:53.358000,0 days 01:42:47.301000,"",0 days 00:00:47.847000,0 days 00:00:44.122000,236.0,253.0,"",249.0,medium,7.0
0 days 01:45:29.469000,44,"",28,0 days 01:43:43.440000,"",0 days 00:01:15.618000,0 days 00:00:45.293000,0 days 00:00:40.750000,231.0,284.0,212.0,287.0,medium,8.0
0 days 01:47:46.973000,44,0 days 00:02:17.504000,29,"","",0 days 00:00:24.063000,0 days 00:00:48.675000,0 days 00:01:04.766000,213.0,231.0,67.0,244.0,medium,9.0
0 days 01:50:11.841000,44,0 days 00:02:24.868000,30,"",0 days 01:50:10.771000,0 days 00:00:44.652000,0 days 00:00:49.432000,0 days 00:00:50.784000,235.0,268.0,"",266.0,medium,10.0
0 days 00:17:16.664000,33,"",1,0 days 00:15:19.962000,"","",0 days 00:00:47.924000,0 days 00:00:44.142000,231.0,296.0,215.0,290.0,test_unknown,1.0
0 days 00:18:57.174000,33,0 days 00:01:40.510000,2,"","",0 days 00:00:17.815000,0 days 00:00:43.090000,0 days 00:00:39.605000,273.0,293.0,221.0,296.0,test_unknown,2.0
0 days 00:20:37.905000,33,0 days 00:01:40.731000,3,"","",0 days 00:00:17.670000,0 days 00:00:43.251000,0 days 00:00:39.810000,271.0,291.0,220.0,292.0,test_unknown,3.0
0 days 00:22:18.980000,33,0 days 00:01:41.075000,4,"","",0 days 00:00:17.726000,0 days 00:00:43.602000,0 days 00:00:39.747000,272.0,290.0,219.0,289.0,test_unknown,4.0
0 days 00:23:59.796000,33,0 days 00:01:40.816000,5,"","",0 days 00:00:17.614000,0 days 00:00:43.437000,0 days 00:00:39.765000,273.0,291.0,220.0,292.0,test_unknown,5.0
0 days 00:25:40.639000,33,0 days 00:01:40.843000,6,"","",0 days 00:00:17.581000,0 days 00:00:43.426000,0 days 00:00:39.836000,"",289.0,219.0,289.0,test_unknown,6.0
0 days 00:27:21.817000,33,0 days 00:01:41.178000,7,"","",0 days 00:00:17.624000,0 days 00:00:43.523000,0 days 00:00:40.031000,272.0,290.0,218.0,289.0,test_unknown,7.0
0 days 00:29:02.904000,33,0 days 00:01:41.087000,8,"","",0 days 00:00:17.572000,0 days 00:00:43.428000,0 days 00:00:40.087000,275.0,295.0,218.0,295.0,test_unknown,8.0
0 days 00:30:45.344000,33,0 days 00:01:42.440000,9,"","",0 days 00:00:17.586000,0 days 00:00:43.002000,0 days 00:00:41.852000,277.0,306.0,216.0,319.0,test_unknown,9.0
0 days 00:32:31.512000,33,0 days 00:01:46.168000,10,"",0 days 00:32:30.467000,0 days 00:00:17.783000,0 days 00:00:43.277000,0 days 00:00:45.108000,285.0,295.0,"",322.0,test_unknown,10.0
0 days 00:48:47.135000,33,"",11,0 days 00:46:42.168000,"","",0 days 00:00:49.556000,0 days 00:00:53.187000,249.0,165.0,223.0,237.0,medium,1.0
0 days 00:50:24.192000,33,0 days 00:01:37.057000,12,"","",0 days 00:00:17.232000,0 days 00:00:41.504000,0 days 00:00:38.321000,282.0,313.0,223.0,317.0,medium,2.0
0 days 00:52:44.018000,33,0 days 00:02:19.826000,13,"","",0 days 00:00:25.567000,0 days 00:00:58.797000,0 days 00:00:55.462000,189.0,202.0,166.0,191.0,medium,3.0
0 days 00:54:46.530000,33,0 days 00:02:02.512000,14,"","",0 days 00:00:24.935000,0 days 00:00:51.599000,0 days 00:00:45.978000,229.0,225.0,227.0,220.0,medium,4.0
0 days 00:56:23.576000,33,0 days 00:01:37.046000,15,"","",0 days 00:00:17.222000,0 days 00:00:41.526000,0 days 00:00:38.298000,282.0,311.0,223.0,313.0,medium,5.0
0 days 00:58:12.125000,33,0 days 00:01:48.549000,16,"",0 days 00:58:12.160000,0 days 00:00:18.440000,0 days 00:00:46.019000,0 days 00:00:44.090000,253.0,247.0,"",258.0,medium,6.0
0 days 01:07:07.925000,33,"",17,0 days 01:05:12.324000,"","",0 days 00:00:48.849000,0 days 00:00:47.775000,269.0,205.0,226.0,241.0,soft,1.0
0 days 01:09:00.811000,33,0 days 00:01:52.886000,18,"","",0 days 00:00:17.173000,0 days 00:00:41.420000,0 days 00:00:54.293000,284.0,315.0,111.0,317.0,soft,2.0
0 days 01:11:28.120000,33,0 days 00:02:27.309000,19,"","",0 days 00:00:35.767000,0 days 00:00:58.883000,0 days 00:00:52.659000,132.0,233.0,224.0,186.0,soft,3.0
0 days 01:13:05.149000,33,0 days 00:01:37.029000,20,"","",0 days 00:00:17.402000,0 days 00:00:41.569000,0 days 00:00:38.058000,282.0,309.0,217.0,312.0,soft,4.0
0 days 01:14:54.726000,33,0 days 00:01:49.577000,21,"",0 days 01:14:54.732000,0 days 00:00:19.696000,0 days 00:00:46.329000,0 days 00:00:43.552000,247.0,249.0,"",243.0,soft,5.0
0 days 01:23:39.784000,33,"",22,0 days 01:21:50.627000,"","",0 days 00:00:45.287000,0 days 00:00:45.559000,243.0,265.0,218.0,260.0,soft,6.0
0 days 01:25:21.301000,33,0 days 00:01:41.517000,23,"","",0 days 00:00:17.937000,0 days 00:00:43.446000,0 days 00:00:40.134000,273.0,278.0,216.0,289.0,soft,7.0
0 days 01:27:03.656000,33,0 days 00:01:42.355000,24,"","",0 days 00:00:17.817000,0 days 00:00:43.777000,0 days 00:00:40.761000,"",278.0,213.0,291.0,soft,8.0
0 days 01:40:21.511000,33,"",25,"",0 days 01:29:16.724000,0 days 00:00:17.918000,"","",275.0,"","","",soft,9.0
0 days 01:42:03.963000,33,"",26,0 days 01:40:21.497000,"","",0 days 00:00:44.222000,0 days 00:00:40.631000,265.0,274.0,217.0,293.0,medium,7.0
0 days 01:43:45.691000,33,0 days 00:01:41.728000,27,"","",0 days 00:00:17.994000,0 days 00:00:43.761000,0 days 00:00:39.973000,271.0,278.0,216.0,278.0,medium,8.0
0 days 01:45:27.788000,33,0 days 00:01:42.097000,28,"","",0 days 00:00:17.941000,0 days 00:00:43.956000,0 days 00:00:40.200000,268.0,276.0,217.0,282.0,medium,9.0
0 days 01:47:40.864000,33,0 days 00:02:13.076000,29,"","",0 days 00:00:21.895000,0 days 00:00:56.401000,0 days 00:00:54.780000,182.0,240.0,80.0,250.0,medium,10.0
0 days 01:49:51.673000,33,0 days 00:02:10.809000,30,"",0 days 01:49:50.642000,0 days 00:00:39.923000,0 days 00:00:46.519000,0 days 00:00:44.367000,220.0,260.0,"",273.0,medium,11.0
0 days 00:17:09.920000,31,"",1,0 days 00:15:03.314000,"","",0 days 00:00:51.291000,0 days 00:00:50.131000,223.0,261.0,218.0,242.0,test_unknown,1.0
0 days 00:18:50.021000,31,0 days 00:01:40.101000,2,"","",0 days 00:00:17.784000,0 days 00:00:42.715000,0 days 00:00:39.602000,277.0,307.0,218.0,312.0,test_unknown,2.0
0 days 00:21:02.947000,31,0 days 00:02:12.926000,3,"","",0 days 00:00:20.902000,0 days 00:00:55.022000,0 days 00:00:57.002000,208.0,212.0,217.0,239.0,test_unknown,3.0
0 days 00:22:42.683000,31,0 days 00:01:39.736000,4,"","",0 days 00:00:17.731000,0 days 00:00:42.573000,0 days 00:00:39.432000,277.0,307.0,220.0,309.0,test_unknown,4.0
0 days 00:24:39.518000,31,0 days 00:01:56.835000,5,"","",0 days 00:00:21.146000,0 days 00:00:51.730000,0 days 00:00:43.959000,171.0,314.0,217.0,228.0,test_unknown,5.0
0 days 00:26:21.566000,31,0 days 00:01:42.048000,6,"","",0 days 00:00:17.884000,0 days 00:00:44.244000,0 days 00:00:39.920000,272.0,287.0,217.0,287.0,test_unknown,6.0
0 days 00:28:03.265000,31,0 days 00:01:41.699000,7,"","",0 days 00:00:17.779000,0 days 00:00:43.775000,0 days 00:00:40.145000,275.0,290.0,216.0,291.0,test_unknown,7.0
0 days 00:29:44.884000,31,0 days 00:01:41.619000,8,"","",0 days 00:00:17.769000,0 days 00:00:43.765000,0 days 00:00:40.085000,271.0,289.0,216.0,290.0,test_unknown,8.0
0 days 00:31:26.966000,31,0 days 00:01:42.082000,9,"","",0 days 00:00:17.722000,0 days 00:00:44.023000,0 days 00:00:40.337000,274.0,291.0,216.0,290.0,test_unknown,9.0
0 days 00:33:23.639000,31,0 days 00:01:56.673000,10,"",0 days 00:33:22.582000,0 days 00:00:21.595000,0 days 00:00:51.307000,0 days 00:00:43.771000,213.0,286.0,"",212.0,test_unknown,10.0
0 days 00:46:46.606000,31,"",11,0 days 00:44:41.942000,"","",0 days 00:00:48.197000,0 days 00:00:54.164000,255.0,281.0,217.0,287.0,hard,1.0
0 days 00:48:38.969000,31,0 days 00:01:52.363000,12,"","",0 days 00:00:20.438000,0 days 00:00:46.580000,0 days 00:00:45.345000,270.0,286.0,221.0,303.0,hard,2.0
0 days 00:50:18.249000,31,0 days 00:01:39.280000,13,"","",0 days 00:00:17.613000,0 days 00:00:42.495000,0 days 00:00:39.172000,281.0,307.0,219.0,315.0,hard,3.0
0 days 00:52:32.300000,31,0 days 00:02:14.051000,14,"","",0 days 00:00:24.231000,0 days 00:01:00.655000,0 days 00:00:49.165000,179.0,171.0,217.0,174.0,hard,4.0
0 days 00:54:11.442000,31,0 days 00:01:39.142000,15,"","",0 days 00:00:17.596000,0 days 00:00:42.297000,0 days 00:00:39.249000,282.0,307.0,220.0,315.0,hard,5.0
0 days 00:56:08.897000,31,0 days 00:01:57.455000,16,"",0 days 00:56:08.875000,0 days 00:00:19.493000,0 days 00:00:51.385000,0 days 00:00:46.577000,259.0,283.0,"",225.0,hard,6.0
0 days 01:07:59.372000,31,"",17,0 days 01:05:57.172000,"","",0 days 00:00:50.283000,0 days 00:00:49.267000,249.0,238.0,222.0,275.0,soft,1.0
0 days 01:09:36.877000,31,0 days 00:01:37.505000,18,"","",0 days 00:00:17.408000,0 days 00:00:41.744000,0 days 00:00:38.353000,285.0,311.0,222.0,318.0,soft,2.0
0 days 01:11:57.409000,31,0 days 00:02:20.532000,19,"","",0 days 00:00:23.700000,0 days 00:00:56.273000,0 days 00:01:00.559000,184.0,214.0,200.0,197.0,soft,3.0
0 days 01:14:01.282000,31,0 days 00:02:03.873000,20,"","",0 days 00:00:23.819000,0 days 00:00:52.492000,0 days 00:00:47.562000,219.0,249.0,222.0,287.0,soft,4.0
0 days 01:15:39.407000,31,0 days 00:01:38.125000,21,"","",0 days 00:00:17.382000,0 days 00:00:41.874000,0 days 00:00:38.869000,281.0,311.0,220.0,314.0,soft,5.0
0 days 01:17:36.374000,31,0 days 00:01:56.967000,22,"",0 days 01:17:36.288000,0 days 00:00:19.620000,0 days 00:00:50.961000,0 days 00:00:46.386000,255.0,275.0,"",215.0,soft,6.0
0 days 01:26:08.052000,31,"",23,0 days 01:24:19.021000,"","",0 days 00:00:45.345000,0 days 00:00:41.995000,258.0,286.0,213.0,290.0,soft,7.0
0 days 01:39:04.956000,31,"",24,"",0 days 01:28:09.907000,0 days 00:00:18.368000,0 days 00:00:44.180000,"",270.0,286.0,"",291.0,soft,8.0
0 days 01:40:53.609000,31,"",25,0 days 01:39:04.940000,"","",0 days 00:00:45.678000,0 days 00:00:41.716000,263.0,284.0,214.0,307.0,hard,7.0
0 days 01:42:36.667000,31,0 days 00:01:43.058000,26,"","",0 days 00:00:18.156000,0 days 00:00:44.107000,0 days 00:00:40.795000,275.0,287.0,214.0,293.0,hard,8.0
0 days 01:44:19.795000,31,0 days 00:01:43.128000,27,"","",0 days 00:00:18.112000,0 days 00:00:44.235000,0 days 00:00:40.781000,274.0,288.0,214.0,292.0,hard,9.0
0 days 01:46:16.986000,31,0 days 00:01:57.191000,28,"","",0 days 00:00:17.987000,0 days 00:00:48.079000,0 days 00:00:51.125000,275.0,140.0,178.0,292.0,hard,10.0
0 days 01:48:23.849000,31,0 days 00:02:06.863000,29,"","",0 days 00:00:21.694000,0 days 00:00:47.196000,0 days 00:00:57.973000,203.0,219.0,59.0,214.0,hard,11.0
0 days 01:50:51.468000,31,0 days 00:02:27.619000,30,"",0 days 01:50:50.414000,0 days 00:00:40.447000,0 days 00:00:49.790000,0 days 00:00:57.382000,181.0,238.0,"",178.0,hard,12.0
0 days 00:17:34.083000,26,"",1,0 days 00:15:18.968000,"","",0 days 00:00:49.358000,0 days 00:01:00.419000,216.0,241.0,218.0,254.0,test_unknown,1.0
0 days 00:19:14.231000,26,0 days 00:01:40.148000,2,"","",0 days 00:00:17.787000,0 days 00:00:42.419000,0 days 00:00:39.942000,281.0,316.0,220.0,320.0,test_unknown,2.0
0 days 00:21:07.155000,26,0 days 00:01:52.924000,3,"","",0 days 00:00:21.556000,0 days 00:00:47.786000,0 days 00:00:43.582000,255.0,283.0,220.0,276.0,test_unknown,3.0
0 days 00:22:49.071000,26,0 days 00:01:41.916000,4,"","",0 days 00:00:17.654000,0 days 00:00:43.501000,0 days 00:00:40.761000,274.0,290.0,220.0,290.0,test_unknown,4.0
0 days 00:24:30.995000,26,0 days 00:01:41.924000,5,"","",0 days 00:00:17.786000,0 days 00:00:43.739000,0 days 00:00:40.399000,275.0,289.0,220.0,291.0,test_unknown,5.0
0 days 00:26:14.104000,26,0 days 00:01:43.109000,6,"","",0 days 00:00:17.801000,0 days 00:00:44.153000,0 days 00:00:41.155000,271.0,284.0,220.0,286.0,test_unknown,6.0
0 days 00:27:56.572000,26,0 days 00:01:42.468000,7,"","",0 days 00:00:17.829000,0 days 00:00:43.942000,0 days 00:00:40.697000,272.0,285.0,219.0,286.0,test_unknown,7.0
0 days 00:29:38.843000,26,0 days 00:01:42.271000,8,"","",0 days 00:00:17.748000,0 days 00:00:44.155000,0 days 00:00:40.368000,274.0,288.0,220.0,289.0,test_unknown,8.0
0 days 00:31:20.867000,26,0 days 00:01:42.024000,9,"","",0 days 00:00:17.701000,0 days 00:00:43.894000,0 days 00:00:40.429000,273.0,285.0,220.0,287.0,test_unknown,9.0
0 days 00:33:06.571000,26,0 days 00:01:45.704000,10,"",0 days 00:33:05.553000,0 days 00:00:17.685000,0 days 00:00:43.714000,0 days 00:00:44.305000,272.0,288.0,"",289.0,test_unknown,10.0
0 days 00:51:39.767000,26,"",11,0 days 00:49:36.935000,"","",0 days 00:00:51.723000,0 days 00:00:49.879000,258.0,277.0,222.0,248.0,hard,1.0
0 days 00:53:18.748000,26,0 days 00:01:38.981000,12,"","",0 days 00:00:17.566000,0 days 00:00:42.190000,0 days 00:00:39.225000,283.0,313.0,220.0,317.0,hard,2.0
0 days 00:55:28.731000,26,0 days 00:02:09.983000,13,"","",0 days 00:00:24.316000,0 days 00:00:54.186000,0 days 00:00:51.481000,208.0,264.0,223.0,281.0,hard,3.0
0 days 00:57:07.152000,26,0 days 00:01:38.421000,14,"","",0 days 00:00:17.530000,0 days 00:00:42.074000,0 days 00:00:38.817000,283.0,311.0,221.0,315.0,hard,4.0
0 days 00:58:58.643000,26,0 days 00:01:51.491000,15,"",0 days 00:58:58.635000,0 days 00:00:20.190000,0 days 00:00:45.911000,0 days 00:00:45.390000,260.0,277.0,"",289.0,hard,5.0
0 days 01:04:33.714000,26,"",16,0 days 01:02:10.353000,"","",0 days 00:00:53.929000,0 days 00:01:05.579000,219.0,241.0,211.0,288.0,soft,1.0
0 days 01:06:11.817000,26,0 days 00:01:38.103000,17,"","",0 days 00:00:17.674000,0 days 00:00:41.857000,0 days 00:00:38.572000,284.0,313.0,222.0,317.0,soft,2.0
0 days 01:08:26.952000,26,0 days 00:02:15.135000,18,"","",0 days 00:00:23.347000,0 days 00:00:53.131000,0 days 00:00:58.657000,224.0,233.0,224.0,287.0,soft,3.0
0 days 01:10:04.548000,26,0 days 00:01:37.596000,19,"","",0 days 00:00:17.359000,0 days 00:00:41.653000,0 days 00:00:38.584000,284.0,312.0,222.0,318.0,soft,4.0
0 days 01:12:13.275000,26,0 days 00:02:08.727000,20,"","",0 days 00:00:22.659000,0 days 00:00:54.977000,0 days 00:00:51.091000,177.0,262.0,223.0,283.0,soft,5.0
0 days 01:13:51.722000,26,0 days 00:01:38.447000,21,"","",0 days 00:00:17.451000,0 days 00:00:41.707000,0 days 00:00:39.289000,283.0,313.0,220.0,319.0,soft,6.0
0 days 01:15:46.662000,26,0 days 00:01:54.940000,22,"",0 days 01:15:46.130000,0 days 00:00:19.184000,0 days 00:00:46.968000,0 days 00:00:48.788000,261.0,282.0,"",277.0,soft,7.0
0 days 01:22:49.690000,26,"",23,0 days 01:21:00.298000,"","",0 days 00:00:46.430000,0 days 00:00:43.191000,261.0,278.0,217.0,281.0,soft,8.0
0 days 01:24:33.222000,26,0 days 00:01:43.532000,24,"","",0 days 00:00:18.264000,0 days 00:00:44.246000,0 days 00:00:41.022000,269.0,281.0,215.0,285.0,soft,9.0
0 days 01:26:17.034000,26,0 days 00:01:43.812000,25,"","",0 days 00:00:18.232000,0 days 00:00:44.532000,0 days 00:00:41.048000,271.0,279.0,214.0,288.0,soft,10.0
0 days 01:39:26.800000,26,"",26,"",0 days 01:28:22.573000,0 days 00:00:18.280000,0 days 00:00:44.503000,"",269.0,281.0,"",286.0,soft,11.0
0 days 01:41:23.208000,26,"",27,0 days 01:39:26.800000,"","",0 days 00:00:45.280000,0 days 00:00:51.771000,280.0,283.0,201.0,305.0,soft,12.0
0 days 01:43:06.912000,26,0 days 00:01:43.704000,28,"","",0 days 00:00:18.323000,0 days 00:00:44.128000,0 days 00:00:41.253000,272.0,282.0,214.0,290.0,soft,13.0
0 days 01:44:50.813000,26,0 days 00:01:43.901000,29,"","",0 days 00:00:18.188000,0 days 00:00:44.346000,0 days 00:00:41.367000,271.0,276.0,215.0,290.0,soft,14.0
0 days 01:46:34.924000,26,0 days 00:01:44.111000,30,"","",0 days 00:00:18.155000,0 days 00:00:44.495000,0 days 00:00:41.461000,274.0,280.0,213.0,291.0,soft,15.0
0 days 01:48:42.144000,26,0 days 00:02:07.220000,31,"","",0 days 00:00:18.102000,0 days 00:00:48.116000,0 days 00:01:01.002000,273.0,218.0,55.0,223.0,soft,16.0
0 days 01:51:07.098000,26,0 days 00:02:24.954000,32,"",0 days 01:51:06.065000,0 days 00:00:39.318000,0 days 00:00:55.354000,0 days 00:00:50.282000,234.0,197.0,"",161.0,soft,17.0
0 days 00:17:03.024000,23,"",1,0 days 00:15:05.225000,"","",0 days 00:00:48.072000,0 days 00:00:45.464000,239.0,266.0,218.0,267.0,test_unknown,1.0
0 days 00:18:45.105000,23,0 days 00:01:42.081000,2,"","",0 days 00:00:18.060000,0 days 00:00:43.678000,0 days 00:00:40.343000,275.0,285.0,217.0,290.0,test_unknown,2.0
0 days 00:20:27.083000,23,0 days 00:01:41.978000,3,"","",0 days 00:00:17.924000,0 days 00:00:43.501000,0 days 00:00:40.553000,276.0,290.0,217.0,295.0,test_unknown,3.0
0 days 00:22:08.803000,23,0 days 00:01:41.720000,4,"","",0 days 00:00:17.813000,0 days 00:00:43.651000,0 days 00:00:40.256000,279.0,287.0,217.0,291.0,test_unknown,4.0
0 days 00:23:50.543000,23,0 days 00:01:41.740000,5,"","",0 days 00:00:17.669000,0 days 00:00:43.489000,0 days 00:00:40.582000,275.0,291.0,217.0,298.0,test_unknown,5.0
0 days 00:25:33.445000,23,0 days 00:01:42.902000,6,"","",0 days 00:00:17.775000,0 days 00:00:43.347000,0 days 00:00:41.780000,277.0,283.0,217.0,310.0,test_unknown,6.0
0 days 00:27:19.551000,23,0 days 00:01:46.106000,7,"","",0 days 00:00:17.802000,0 days 00:00:43.753000,0 days 00:00:44.551000,282.0,298.0,219.0,313.0,test_unknown,7.0
0 days 00:29:01.144000,23,0 days 00:01:41.593000,8,"","",0 days 00:00:17.620000,0 days 00:00:43.475000,0 days 00:00:40.498000,278.0,294.0,219.0,298.0,test_unknown,8.0
0 days 00:30:42.612000,23,0 days 00:01:41.468000,9,"","",0 days 00:00:17.607000,0 days 00:00:43.314000,0 days 00:00:40.547000,280.0,321.0,220.0,332.0,test_unknown,9.0
0 days 00:32:26.235000,23,0 days 00:01:43.623000,10,"",0 days 00:32:25.203000,0 days 00:00:17.627000,0 days 00:00:43.685000,0 days 00:00:42.311000,276.0,290.0,"",296.0,test_unknown,10.0
0 days 00:41:27.146000,23,"",11,0 days 00:39:07.697000,"","",0 days 00:00:55.385000,0 days 00:00:59.430000,223.0,193.0,223.0,249.0,medium,1.0
0 days 00:43:04.161000,23,0 days 00:01:37.015000,12,"","",0 days 00:00:17.368000,0 days 00:00:41.345000,0 days 00:00:38.302000,285.0,316.0,222.0,320.0,medium,2.0
0 days 00:45:39.866000,23,"",13,"","",0 days 00:00:27.698000,0 days 00:01:11.445000,0 days 00:00:56.576000,130.0,210.0,220.0,163.0,medium,3.0
0 days 00:47:17.434000,23,0 days 00:01:37.568000,14,"","",0 days 00:00:17.464000,0 days 00:00:41.539000,0 days 00:00:38.565000,283.0,314.0,223.0,318.0,medium,4.0
0 days 00:49:39.513000,23,0 days 00:02:22.079000,15,"",0 days 00:49:38.775000,0 days 00:00:26.227000,0 days 00:01:00.154000,0 days 00:00:55.698000,148.0,189.0,"",215.0,medium,5.0
0 days 01:00:22.571000,23,"",16,0 days 00:58:00.778000,"","",0 days 00:00:56.836000,0 days 00:00:56.690000,212.0,238.0,221.0,240.0,soft,1.0
0 days 01:01:59.834000,23,0 days 00:01:37.263000,17,"","",0 days 00:00:17.346000,0 days 00:00:41.588000,0 days 00:00:38.329000,286.0,313.0,222.0,317.0,soft,2.0
0 days 01:04:44.240000,23,"",18,"","",0 days 00:00:28.041000,0 days 00:01:10.158000,0 days 00:01:06.222000,124.0,180.0,158.0,125.0,soft,3.0
0 days 01:07:12.772000,23,0 days 00:02:28.532000,19,"","",0 days 00:00:27.859000,0 days 00:00:59.392000,0 days 00:01:01.281000,225.0,247.0,223.0,260.0,soft,4.0
0 days 01:08:50.354000,23,0 days 00:01:37.582000,20,"","",0 days 00:00:17.316000,0 days 00:00:41.517000,0 days 00:00:38.749000,285.0,316.0,220.0,321.0,soft,5.0
0 days 01:11:01.064000,23,0 days 00:02:10.710000,21,"",0 days 01:11:00.710000,0 days 00:00:21.011000,0 days 00:00:55.026000,0 days 00:00:54.673000,220.0,212.0,"",165.0,soft,6.0
0 days 01:20:07.941000,23,"",22,0 days 01:18:15.942000,"","",0 days 00:00:45.444000,0 days 00:00:41.891000,252.0,275.0,218.0,288.0,soft,7.0
0 days 01:21:50.327000,23,0 days 00:01:42.386000,23,"","",0 days 00:00:17.912000,0 days 00:00:43.870000,0 days 00:00:40.604000,271.0,279.0,215.0,288.0,soft,8.0
0 days 01:23:33.081000,23,0 days 00:01:42.754000,24,"","",0 days 00:00:17.989000,0 days 00:00:43.936000,0 days 00:00:40.829000,274.0,283.0,215.0,291.0,soft,9.0
0 days 01:25:16.413000,23,0 days 00:01:43.332000,25,"","",0 days 00:00:18.011000,0 days 00:00:44.252000,0 days 00:00:41.069000,"",280.0,213.0,289.0,soft,10.0
0 days 01:27:00.226000,23,0 days 00:01:43.813000,26,"","",0 days 00:00:18.071000,0 days 00:00:44.364000,0 days 00:00:41.378000,275.0,282.0,212.0,293.0,soft,11.0
0 days 01:39:06.204000,23,"",27,"",0 days 01:29:13.626000,0 days 00:00:18.117000,"","",276.0,"","","",soft,12.0
0 days 01:41:00.006000,23,"",28,0 days 01:39:06.204000,"","",0 days 00:00:45.525000,0 days 00:00:47.477000,258.0,251.0,214.0,250.0,medium,6.0
0 days 01:42:41.943000,23,0 days 00:01:41.937000,29,"","",0 days 00:00:17.992000,0 days 00:00:43.425000,0 days 00:00:40.520000,273.0,276.0,216.0,311.0,medium,7.0
0 days 01:44:24.114000,23,0 days 00:01:42.171000,30,"","",0 days 00:00:17.951000,0 days 00:00:43.727000,0 days 00:00:40.493000,277.0,281.0,215.0,290.0,medium,8.0
0 days 01:46:06.497000,23,0 days 00:01:42.383000,31,"","",0 days 00:00:17.962000,0 days 00:00:43.958000,0 days 00:00:40.463000,273.0,281.0,216.0,289.0,medium,9.0
0 days 01:48:27.764000,23,0 days 00:02:21.267000,32,"","",0 days 00:00:17.847000,0 days 00:01:07.193000,0 days 00:00:56.227000,"",174.0,57.0,274.0,medium,10.0
0 days 01:50:47.905000,23,0 days 00:02:20.141000,33,"",0 days 01:50:46.877000,0 days 00:00:38.085000,0 days 00:00:45.108000,0 days 00:00:56.948000,264.0,224.0,"",281.0,medium,11.0
0 days 00:17:28.918000,20,"",1,0 days 00:15:15.844000,"","",0 days 00:00:49.116000,0 days 00:00:55.998000,239.0,248.0,218.0,230.0,test_unknown,1.0
0 days 00:19:12.895000,20,0 days 00:01:43.977000,2,"","",0 days 00:00:18.011000,0 days 00:00:43.026000,0 days 00:00:42.940000,278.0,308.0,219.0,315.0,test_unknown,2.0
0 days 00:20:55.176000,20,0 days 00:01:42.281000,3,"","",0 days 00:00:17.949000,0 days 00:00:43.271000,0 days 00:00:41.061000,"",306.0,217.0,315.0,test_unknown,3.0
0 days 00:23:17.205000,20,0 days 00:02:22.029000,4,"","",0 days 00:00:25.747000,0 days 00:00:59.582000,0 days 00:00:56.700000,120.0,155.0,218.0,183.0,test_unknown,4.0
0 days 00:24:58.306000,20,0 days 00:01:41.101000,5,"","",0 days 00:00:17.871000,0 days 00:00:42.679000,0 days 00:00:40.551000,278.0,310.0,218.0,315.0,test_unknown,5.0
0 days 00:27:39.219000,20,"",6,"","",0 days 00:00:29.350000,0 days 00:01:17.542000,0 days 00:00:53.993000,125.0,103.0,219.0,171.0,test_unknown,6.0
0 days 00:29:19.509000,20,0 days 00:01:40.290000,7,"","",0 days 00:00:17.804000,0 days 00:00:42.638000,0 days 00:00:39.848000,278.0,308.0,219.0,312.0,test_unknown,7.0
0 days 00:31:49.661000,20,"",8,"","",0 days 00:00:28.721000,0 days 00:01:10.487000,0 days 00:00:50.959000,137.0,190.0,219.0,126.0,test_unknown,8.0
0 days 00:33:29.837000,20,0 days 00:01:40.176000,9,"","",0 days 00:00:17.654000,0 days 00:00:42.638000,0 days 00:00:39.884000,277.0,310.0,215.0,315.0,test_unknown,9.0
0 days 00:35:30.700000,20,0 days 00:02:00.863000,10,"",0 days 00:35:29.873000,0 days 00:00:19.327000,0 days 00:00:56.277000,0 days 00:00:45.259000,230.0,243.0,"",265.0,test_unknown,10.0
0 days 00:43:56.418000,20,"",11,0 days 00:41:51.428000,"","",0 days 00:00:52.836000,0 days 00:00:49.629000,248.0,229.0,219.0,231.0,medium,1.0
0 days 00:45:35.094000,20,0 days 00:01:38.676000,12,"","",0 days 00:00:17.582000,0 days 00:00:41.937000,0 days 00:00:39.157000,281.0,306.0,220.0,317.0,medium,2.0
0 days 00:47:42.360000,20,0 days 00:02:07.266000,13,"","",0 days 00:00:30.493000,0 days 00:00:51.663000,0 days 00:00:45.110000,144.0,258.0,223.0,274.0,medium,3.0
0 days 00:49:21.437000,20,0 days 00:01:39.077000,14,"","",0 days 00:00:17.652000,0 days 00:00:42.267000,0 days 00:00:39.158000,279.0,306.0,217.0,314.0,medium,4.0
0 days 00:51:12.903000,20,0 days 00:01:51.466000,15,"","",0 days 00:00:19.782000,0 days 00:00:47.868000,0 days 00:00:43.816000,256.0,246.0,222.0,275.0,medium,5.0
0 days 00:53:08.863000,20,0 days 00:01:55.960000,16,"",0 days 00:53:07.832000,0 days 00:00:17.483000,0 days 00:00:46.856000,0 days 00:00:51.621000,282.0,256.0,"",289.0,medium,6.0
0 days 01:01:11.110000,20,"",17,0 days 00:59:14.657000,"","",0 days 00:00:51.768000,0 days 00:00:43.551000,195.0,271.0,222.0,267.0,soft,1.0
0 days 01:02:49.614000,20,0 days 00:01:38.504000,18,"","",0 days 00:00:17.460000,0 days 00:00:42.012000,0 days 00:00:39.032000,283.0,302.0,218.0,314.0,soft,2.0
0 days 01:04:47.880000,20,0 days 00:01:58.266000,19,"","",0 days 00:00:21.326000,0 days 00:00:48.542000,0 days 00:00:48.398000,242.0,263.0,220.0,147.0,soft,3.0
0 days 01:06:35.697000,20,0 days 00:01:47.817000,20,"","",0 days 00:00:19.756000,0 days 00:00:45.342000,0 days 00:00:42.719000,265.0,279.0,222.0,280.0,soft,4.0
0 days 01:08:19.334000,20,0 days 00:01:43.637000,21,"","",0 days 00:00:17.435000,0 days 00:00:42.258000,0 days 00:00:43.944000,282.0,308.0,224.0,312.0,soft,5.0
0 days 01:10:18.763000,20,0 days 00:01:59.429000,22,"",0 days 01:10:17.726000,0 days 00:00:17.491000,0 days 00:00:57.805000,0 days 00:00:44.133000,283.0,254.0,"",132.0,soft,6.0
0 days 01:18:50.042000,20,"",23,0 days 01:17:04.736000,"","",0 days 00:00:44.851000,0 days 00:00:41.677000,259.0,282.0,212.0,293.0,medium,7.0
0 days 01:20:34.245000,20,0 days 00:01:44.203000,24,"","",0 days 00:00:18.239000,0 days 00:00:44.384000,0 days 00:00:41.580000,275.0,280.0,211.0,294.0,medium,8.0
0 days 01:22:19.014000,20,0 days 00:01:44.769000,25,"","",0 days 00:00:18.237000,0 days 00:00:44.847000,0 days 00:00:41.685000,276.0,279.0,202.0,294.0,medium,9.0
0 days 01:24:03.941000,20,0 days 00:01:44.927000,26,"","",0 days 00:00:18.315000,0 days 00:00:44.750000,0 days 00:00:41.862000,"",282.0,206.0,296.0,medium,10.0
0 days 01:25:49.591000,20,0 days 00:01:45.650000,27,"","",0 days 00:00:18.300000,0 days 00:00:44.832000,0 days 00:00:42.518000,277.0,291.0,201.0,298.0,medium,11.0
0 days 01:39:33.800000,20,"",28,"",0 days 01:27:43.843000,0 days 00:00:18.474000,0 days 00:00:45.107000,"","",290.0,"",299.0,medium,12.0
0 days 01:41:26.535000,20,"",29,0 days 01:39:33.790000,"","",0 days 00:00:45.090000,0 days 00:00:47.051000,275.0,288.0,213.0,296.0,soft,7.0
0 days 01:43:11.412000,20,0 days 00:01:44.877000,30,"","",0 days 00:00:18.135000,0 days 00:00:44.542000,0 days 00:00:42.200000,278.0,291.0,209.0,299.0,soft,8.0
0 days 01:44:57.128000,20,0 days 00:01:45.716000,31,"","",0 days 00:00:18.493000,0 days 00:00:44.730000,0 days 00:00:42.493000,277.0,290.0,197.0,296.0,soft,9.0
0 days 01:46:45.273000,20,0 days 00:01:48.145000,32,"","",0 days 00:00:18.980000,0 days 00:00:45.342000,0 days 00:00:43.823000,276.0,288.0,209.0,295.0,soft,10.0
0 days 01:48:56.142000,20,0 days 00:02:10.869000,33,"","",0 days 00:00:18.637000,0 days 00:00:47.292000,0 days 00:01:04.940000,275.0,197.0,46.0,274.0,soft,11.0
0 days 01:51:51.384000,20,"",34,"","",0 days 00:00:42.595000,0 days 00:01:01.922000,0 days 00:01:10.667000,271.0,181.0,76.0,154.0,soft,12.0
0 days 01:54:42.762000,20,"",35,"",0 days 01:54:41.182000,0 days 00:00:31.010000,0 days 00:01:13.183000,0 days 00:01:07.248000,160.0,129.0,"",140.0,soft,13.0
0 days 00:18:47.957000,18,"",1,0 days 00:16:24.978000,"","",0 days 00:00:51.134000,0 days 00:01:10.090000,233.0,244.0,216.0,279.0,test_unknown,1.0
0 days 00:20:28.576000,18,0 days 00:01:40.619000,2,"","",0 days 00:00:17.705000,0 days 00:00:42.566000,0 days 00:00:40.348000,280.0,316.0,212.0,322.0,test_unknown,2.0
0 days 00:23:12.130000,18,"",3,"","",0 days 00:00:26.211000,0 days 00:01:14.363000,0 days 00:01:03.022000,114.0,241.0,217.0,117.0,test_unknown,3.0
0 days 00:24:51.460000,18,0 days 00:01:39.330000,4,"","",0 days 00:00:17.617000,0 days 00:00:42.299000,0 days 00:00:39.414000,278.0,311.0,219.0,318.0,test_unknown,4.0
0 days 00:27:11.688000,18,0 days 00:02:20.228000,5,"","",0 days 00:00:25.451000,0 days 00:01:04.243000,0 days 00:00:50.534000,143.0,150.0,219.0,157.0,test_unknown,5.0
0 days 00:28:50.916000,18,0 days 00:01:39.228000,6,"","",0 days 00:00:17.515000,0 days 00:00:42.221000,0 days 00:00:39.492000,279.0,311.0,216.0,318.0,test_unknown,6.0
0 days 00:31:12.271000,18,0 days 00:02:21.355000,7,"","",0 days 00:00:25.080000,0 days 00:01:05.355000,0 days 00:00:50.920000,165.0,230.0,209.0,219.0,test_unknown,7.0
0 days 00:32:51.695000,18,0 days 00:01:39.424000,8,"","",0 days 00:00:17.620000,0 days 00:00:42.318000,0 days 00:00:39.486000,280.0,312.0,219.0,316.0,test_unknown,8.0
0 days 00:34:32.535000,18,0 days 00:01:40.840000,9,"","",0 days 00:00:17.697000,0 days 00:00:42.927000,0 days 00:00:40.216000,273.0,308.0,217.0,310.0,test_unknown,9.0
0 days 00:36:25.227000,18,0 days 00:01:52.692000,10,"",0 days 00:36:24.173000,0 days 00:00:18.867000,0 days 00:00:46.703000,0 days 00:00:47.122000,242.0,216.0,"",266.0,test_unknown,10.0
0 days 00:47:07.782000,18,"",11,0 days 00:45:08.371000,"","",0 days 00:00:51.729000,0 days 00:00:45.961000,176.0,273.0,220.0,267.0,medium,1.0
0 days 00:48:45.869000,18,0 days 00:01:38.087000,12,"","",0 days 00:00:17.404000,0 days 00:00:41.830000,0 days 00:00:38.853000,282.0,312.0,219.0,319.0,medium,2.0
0 days 00:51:06.642000,18,0 days 00:02:20.773000,13,"","",0 days 00:00:24.829000,0 days 00:00:59.551000,0 days 00:00:56.393000,88.0,159.0,200.0,180.0,medium,3.0
0 days 00:53:13.385000,18,0 days 00:02:06.743000,14,"","",0 days 00:00:21.267000,0 days 00:00:50.857000,0 days 00:00:54.619000,257.0,224.0,219.0,296.0,medium,4.0
0 days 00:54:51.832000,18,0 days 00:01:38.447000,15,"","",0 days 00:00:17.485000,0 days 00:00:41.894000,0 days 00:00:39.068000,283.0,310.0,218.0,316.0,medium,5.0
0 days 00:56:47.860000,18,0 days 00:01:56.028000,16,"",0 days 00:56:47.088000,0 days 00:00:19.583000,0 days 00:00:46.953000,0 days 00:00:49.492000,236.0,245.0,"",266.0,medium,6.0
0 days 01:11:11.274000,18,"",17,0 days 01:08:59.242000,"","",0 days 00:00:54.243000,0 days 00:00:51.025000,161.0,265.0,220.0,276.0,soft,1.0
0 days 01:12:48.834000,18,0 days 00:01:37.560000,18,"","",0 days 00:00:17.401000,0 days 00:00:41.616000,0 days 00:00:38.543000,281.0,313.0,218.0,318.0,soft,2.0
0 days 01:14:51.920000,18,0 days 00:02:03.086000,19,"",0 days 01:14:51.143000,0 days 00:00:21.480000,0 days 00:00:47.683000,0 days 00:00:53.923000,244.0,213.0,"",258.0,soft,3.0
0 days 01:23:17.629000,18,"",20,0 days 01:21:23.884000,"","",0 days 00:00:47.868000,0 days 00:00:43.716000,226.0,239.0,213.0,255.0,medium,7.0
0 days 01:25:01.397000,18,0 days 00:01:43.768000,21,"","",0 days 00:00:18.444000,0 days 00:00:44.348000,0 days 00:00:40.976000,270.0,279.0,213.0,288.0,medium,8.0
0 days 01:26:45.873000,18,0 days 00:01:44.476000,22,"","",0 days 00:00:18.494000,0 days 00:00:44.602000,0 days 00:00:41.380000,"",278.0,211.0,290.0,medium,9.0
0 days 01:39:12.122000,18,"",23,"",0 days 01:28:56.860000,0 days 00:00:18.588000,"","","","","","",medium,10.0
0 days 01:41:14.654000,18,"",24,0 days 01:39:12.104000,"","",0 days 00:00:45.727000,0 days 00:00:57.308000,249.0,251.0,210.0,285.0,medium,11.0
0 days 01:43:01.010000,18,0 days 00:01:46.356000,25,"","",0 days 00:00:18.665000,0 days 00:00:44.220000,0 days 00:00:43.471000,274.0,191.0,214.0,314.0,medium,12.0
0 days 01:44:45.001000,18,0 days 00:01:43.991000,26,"","",0 days 00:00:18.493000,0 days 00:00:44.239000,0 days 00:00:41.259000,264.0,287.0,213.0,294.0,medium,13.0
0 days 01:46:28.988000,18,0 days 00:01:43.987000,27,"","",0 days 00:00:18.087000,0 days 00:00:44.319000,0 days 00:00:41.581000,269.0,289.0,211.0,296.0,medium,14.0
0 days 01:48:48.056000,18,0 days 00:02:19.068000,28,"","",0 days 00:00:20.128000,0 days 00:00:54.020000,0 days 00:01:04.920000,190.0,152.0,73.0,188.0,medium,15.0
0 days 01:51:09.588000,18,0 days 00:02:21.532000,29,"",0 days 01:51:09.221000,0 days 00:00:44.723000,0 days 00:00:47.676000,0 days 00:00:49.133000,215.0,228.0,"",224.0,medium,16.0
0 days 00:17:40.836000,16,"",1,0 days 00:15:24.277000,"","",0 days 00:00:50.568000,0 days 00:01:04.130000,195.0,204.0,215.0,195.0,test_unknown,1.0
0 days 00:19:20.801000,16,0 days 00:01:39.965000,2,"","",0 days 00:00:17.777000,0 days 00:00:42.444000,0 days 00:00:39.744000,277.0,307.0,218.0,312.0,test_unknown,2.0
0 days 00:21:48.266000,16,0 days 00:02:27.465000,3,"","",0 days 00:00:24.514000,0 days 00:00:59.743000,0 days 00:01:03.208000,169.0,177.0,220.0,216.0,test_unknown,3.0
0 days 00:23:27.937000,16,0 days 00:01:39.671000,4,"","",0 days 00:00:17.685000,0 days 00:00:42.489000,0 days 00:00:39.497000,280.0,306.0,218.0,312.0,test_unknown,4.0
0 days 00:25:49.623000,16,0 days 00:02:21.686000,5,"","",0 days 00:00:21.535000,0 days 00:00:58.293000,0 days 00:01:01.858000,123.0,153.0,220.0,178.0,test_unknown,5.0
0 days 00:27:29.205000,16,0 days 00:01:39.582000,6,"","",0 days 00:00:17.661000,0 days 00:00:42.323000,0 days 00:00:39.598000,279.0,307.0,221.0,312.0,test_unknown,6.0
0 days 00:29:09.940000,16,0 days 00:01:40.735000,7,"","",0 days 00:00:17.605000,0 days 00:00:42.993000,0 days 00:00:40.137000,278.0,307.0,218.0,310.0,test_unknown,7.0
0 days 00:30:51.223000,16,0 days 00:01:41.283000,8,"","",0 days 00:00:17.662000,0 days 00:00:43.043000,0 days 00:00:40.578000,280.0,308.0,216.0,313.0,test_unknown,8.0
0 days 00:32:33.018000,16,0 days 00:01:41.795000,9,"","",0 days 00:00:17.894000,0 days 00:00:43.159000,0 days 00:00:40.742000,279.0,308.0,214.0,314.0,test_unknown,9.0
0 days 00:34:19.324000,16,0 days 00:01:46.306000,10,"",0 days 00:34:18.311000,0 days 00:00:17.808000,0 days 00:00:43.645000,0 days 00:00:44.853000,283.0,306.0,"",311.0,test_unknown,10.0
0 days 00:44:41.901000,16,"",11,0 days 00:42:39.033000,"","",0 days 00:00:48.912000,0 days 00:00:53.640000,248.0,221.0,222.0,244.0,medium,1.0
0 days 00:46:19.885000,16,0 days 00:01:37.984000,12,"","",0 days 00:00:17.425000,0 days 00:00:41.659000,0 days 00:00:38.900000,283.0,309.0,219.0,317.0,medium,2.0
0 days 00:48:53.788000,16,"",13,"","",0 days 00:00:24.790000,0 days 00:01:06.886000,0 days 00:01:02.268000,89.0,98.0,221.0,135.0,medium,3.0
0 days 00:50:32.690000,16,0 days 00:01:38.902000,14,"","",0 days 00:00:17.523000,0 days 00:00:42.248000,0 days 00:00:39.131000,284.0,307.0,219.0,315.0,medium,4.0
0 days 00:52:33.360000,16,0 days 00:02:00.670000,15,"",0 days 00:52:31.916000,0 days 00:00:20.064000,0 days 00:00:51.819000,0 days 00:00:48.787000,241.0,200.0,"",208.0,medium,5.0
0 days 00:55:04.146000,16,"",16,0 days 00:53:05.541000,0 days 00:55:03.788000,0 days 00:00:51.180000,0 days 00:00:51.422000,0 days 00:00:48.159000,274.0,266.0,"",198.0,medium,6.0
0 days 01:05:05.472000,16,"",17,0 days 01:03:06.367000,"","",0 days 00:00:49.066000,0 days 00:00:47.768000,218.0,234.0,227.0,220.0,soft,1.0
0 days 01:06:42.980000,16,0 days 00:01:37.508000,18,"","",0 days 00:00:17.311000,0 days 00:00:41.529000,0 days 00:00:38.668000,285.0,308.0,221.0,318.0,soft,2.0
0 days 01:08:59.639000,16,0 days 00:02:16.659000,19,"","",0 days 00:00:21.424000,0 days 00:00:54.353000,0 days 00:01:00.882000,207.0,143.0,196.0,280.0,soft,3.0
0 days 01:11:03.278000,16,0 days 00:02:03.639000,20,"","",0 days 00:00:19.863000,0 days 00:00:49.260000,0 days 00:00:54.516000,256.0,212.0,224.0,241.0,soft,4.0
0 days 01:19:07.567000,16,0 days 00:01:44.518000,21,"",0 days 01:12:46.765000,0 days 00:00:17.465000,"","",282.0,"","",313.0,soft,5.0
0 days 01:21:03.774000,16,"",22,0 days 01:19:07.550000,0 days 01:21:03.776000,"",0 days 00:00:48.687000,0 days 00:00:48.059000,249.0,225.0,"",240.0,soft,6.0
0 days 01:23:23.276000,16,0 days 00:02:19.502000,23,0 days 01:21:39.422000,"",0 days 00:00:53.422000,0 days 00:00:44.859000,0 days 00:00:41.221000,277.0,286.0,213.0,298.0,soft,7.0
0 days 01:25:07.075000,16,0 days 00:01:43.799000,24,"","",0 days 00:00:18.357000,0 days 00:00:44.006000,0 days 00:00:41.436000,276.0,292.0,214.0,299.0,soft,8.0
0 days 01:26:51.030000,16,0 days 00:01:43.955000,25,"","",0 days 00:00:18.230000,0 days 00:00:44.258000,0 days 00:00:41.467000,274.0,289.0,211.0,296.0,soft,9.0
0 days 01:40:01.616000,16,"",26,"",0 days 01:29:01.449000,0 days 00:00:18.222000,"","",276.0,"","","",soft,10.0
0 days 01:41:52.487000,16,"",27,0 days 01:40:01.604000,"","",0 days 00:00:45.555000,0 days 00:00:46.796000,266.0,255.0,216.0,283.0,soft,11.0
0 days 01:43:35.452000,16,0 days 00:01:42.965000,28,"","",0 days 00:00:18.062000,0 days 00:00:43.770000,0 days 00:00:41.133000,280.0,293.0,206.0,298.0,soft,12.0
0 days 01:45:19.111000,16,0 days 00:01:43.659000,29,"","",0 days 00:00:18.203000,0 days 00:00:44.132000,0 days 00:00:41.324000,277.0,289.0,214.0,295.0,soft,13.0
0 days 01:47:13.075000,16,0 days 00:01:53.964000,30,"","",0 days 00:00:18.246000,0 days 00:00:44.707000,0 days 00:00:51.011000,274.0,284.0,85.0,291.0,soft,14.0
0 days 01:49:39.751000,16,0 days 00:02:26.676000,31,"",0 days 01:49:38.771000,0 days 00:00:47.772000,0 days 00:00:49.587000,0 days 00:00:49.317000,221.0,264.0,"",244.0,soft,15.0
0 days 00:18:05.895000,11,"",1,0 days 00:15:58.461000,"","",0 days 00:00:48.061000,0 days 00:00:57.957000,220.0,268.0,218.0,293.0,test_unknown,1.0
0 days 00:19:45.124000,11,0 days 00:01:39.229000,2,"","",0 days 00:00:17.552000,0 days 00:00:42.120000,0 days 00:00:39.557000,279.0,314.0,220.0,320.0,test_unknown,2.0
0 days 00:22:26.182000,11,"",3,"","",0 days 00:00:26.935000,0 days 00:01:18.645000,0 days 00:00:55.558000,144.0,99.0,220.0,148.0,test_unknown,3.0
0 days 00:24:05.312000,11,0 days 00:01:39.130000,4,"","",0 days 00:00:17.481000,0 days 00:00:42.111000,0 days 00:00:39.538000,279.0,312.0,220.0,317.0,test_unknown,4.0
0 days 00:26:36.715000,11,"",5,"","",0 days 00:00:22.012000,0 days 00:01:11.425000,0 days 00:00:57.966000,191.0,96.0,220.0,171.0,test_unknown,5.0
0 days 00:28:37.661000,11,0 days 00:02:00.946000,6,"","",0 days 00:00:19.305000,0 days 00:00:55.206000,0 days 00:00:46.435000,263.0,188.0,223.0,206.0,test_unknown,6.0
0 days 00:30:17.069000,11,0 days 00:01:39.408000,7,"","",0 days 00:00:17.458000,0 days 00:00:42.270000,0 days 00:00:39.680000,281.0,313.0,216.0,319.0,test_unknown,7.0
0 days 00:32:46.065000,11,0 days 00:02:28.996000,8,"","",0 days 00:00:19.593000,0 days 00:01:03.522000,0 days 00:01:05.881000,152.0,213.0,220.0,193.0,test_unknown,8.0
0 days 00:34:25.047000,11,0 days 00:01:38.982000,9,"","",0 days 00:00:17.466000,0 days 00:00:42.266000,0 days 00:00:39.250000,281.0,313.0,221.0,319.0,test_unknown,9.0
0 days 00:36:23.127000,11,0 days 00:01:58.080000,10,"",0 days 00:36:22.526000,0 days 00:00:18.763000,0 days 00:00:53.302000,0 days 00:00:46.015000,250.0,199.0,"",196.0,test_unknown,10.0
0 days 00:43:42.064000,11,"",11,0 days 00:41:35.490000,"","",0 days 00:00:51.605000,0 days 00:00:48.978000,160.0,188.0,222.0,304.0,medium,1.0
0 days 00:45:19.570000,11,0 days 00:01:37.506000,12,"","",0 days 00:00:17.283000,0 days 00:00:41.680000,0 days 00:00:38.543000,283.0,314.0,223.0,319.0,medium,2.0
0 days 00:47:10.711000,11,0 days 00:01:51.141000,13,"",0 days 00:47:09.688000,0 days 00:00:18.944000,0 days 00:00:47.887000,0 days 00:00:44.310000,253.0,277.0,"",294.0,medium,3.0
0 days 01:00:07.242000,11,"",14,0 days 00:58:05.664000,"","",0 days 00:00:50.364000,0 days 00:00:47.066000,205.0,227.0,214.0,281.0,medium,4.0
0 days 01:01:50.185000,11,0 days 00:01:42.943000,15,"","",0 days 00:00:18.138000,0 days 00:00:43.718000,0 days 00:00:41.087000,272.0,281.0,214.0,287.0,medium,5.0
0 days 01:03:33.349000,11,0 days 00:01:43.164000,16,"","",0 days 00:00:18.074000,0 days 00:00:44.350000,0 days 00:00:40.740000,271.0,279.0,214.0,283.0,medium,6.0
0 days 01:05:16.737000,11,0 days 00:01:43.388000,17,"","",0 days 00:00:18.164000,0 days 00:00:44.202000,0 days 00:00:41.022000,"",281.0,213.0,291.0,medium,7.0
0 days 01:07:01.338000,11,0 days 00:01:44.601000,18,"","",0 days 00:00:18.358000,0 days 00:00:44.650000,0 days 00:00:41.593000,274.0,282.0,212.0,297.0,medium,8.0
0 days 01:08:45.978000,11,0 days 00:01:44.640000,19,"","",0 days 00:00:18.299000,0 days 00:00:44.604000,0 days 00:00:41.737000,272.0,281.0,210.0,289.0,medium,9.0
0 days 01:10:31.575000,11,0 days 00:01:45.597000,20,"","",0 days 00:00:18.344000,0 days 00:00:45.209000,0 days 00:00:42.044000,270.0,281.0,209.0,271.0,medium,10.0
0 days 01:12:17.584000,11,0 days 00:01:46.009000,21,"","",0 days 00:00:18.322000,0 days 00:00:44.999000,0 days 00:00:42.688000,273.0,264.0,211.0,288.0,medium,11.0
0 days 01:14:06.186000,11,0 days 00:01:48.602000,22,"",0 days 01:14:05.971000,0 days 00:00:18.532000,0 days 00:00:45.207000,0 days 00:00:44.863000,"",273.0,"",286.0,medium,12.0
0 days 01:16:10.251000,11,0 days 00:02:04.065000,23,0 days 01:14:27.299000,"",0 days 00:00:38.901000,0 days 00:00:44.156000,0 days 00:00:41.008000,267.0,271.0,218.0,286.0,hard,1.0
0 days 01:17:52.540000,11,0 days 00:01:42.289000,24,"","",0 days 00:00:18.079000,0 days 00:00:43.804000,0 days 00:00:40.406000,272.0,280.0,216.0,284.0,hard,2.0
0 days 01:19:34.965000,11,0 days 00:01:42.425000,25,"","",0 days 00:00:18.069000,0 days 00:00:43.680000,0 days 00:00:40.676000,270.0,281.0,215.0,286.0,hard,3.0
0 days 01:21:18.067000,11,0 days 00:01:43.102000,26,"","",0 days 00:00:18.070000,0 days 00:00:44.052000,0 days 00:00:40.980000,274.0,283.0,215.0,294.0,hard,4.0
0 days 01:23:01.187000,11,0 days 00:01:43.120000,27,"","",0 days 00:00:18.152000,0 days 00:00:43.880000,0 days 00:00:41.088000,273.0,293.0,215.0,293.0,hard,5.0
0 days 01:24:44.014000,11,0 days 00:01:42.827000,28,"","",0 days 00:00:17.870000,0 days 00:00:43.348000,0 days 00:00:41.609000,277.0,263.0,216.0,314.0,hard,6.0
0 days 01:26:27.482000,11,0 days 00:01:43.468000,29,"","",0 days 00:00:17.922000,0 days 00:00:43.398000,0 days 00:00:42.148000,"",296.0,215.0,320.0,hard,7.0
0 days 01:39:59.939000,11,"",30,"",0 days 01:28:37.862000,0 days 00:00:17.948000,"","",275.0,"","",310.0,hard,8.0
0 days 01:41:44.031000,11,"",31,0 days 01:39:59.939000,"","",0 days 00:00:44.586000,0 days 00:00:40.629000,262.0,278.0,215.0,281.0,hard,9.0
0 days 01:43:26.400000,11,0 days 00:01:42.369000,32,"","",0 days 00:00:17.890000,0 days 00:00:43.890000,0 days 00:00:40.589000,272.0,280.0,216.0,284.0,hard,10.0
0 days 01:45:08.722000,11,0 days 00:01:42.322000,33,"","",0 days 00:00:17.887000,0 days 00:00:43.805000,0 days 00:00:40.630000,270.0,290.0,216.0,296.0,hard,11.0
0 days 01:47:31.920000,11,0 days 00:02:23.198000,34,"","",0 days 00:00:23.834000,0 days 00:01:01.549000,0 days 00:00:57.815000,150.0,178.0,56.0,167.0,hard,12.0
0 days 01:49:56.051000,11,0 days 00:02:24.131000,35,"",0 days 01:49:56.362000,0 days 00:00:49.876000,0 days 00:00:47.827000,0 days 00:00:46.428000,232.0,252.0,"",247.0,hard,13.0
0 days 00:17:14.331000,10,"",1,0 days 00:15:09.387000,"","",0 days 00:00:50.797000,0 days 00:00:47.545000,235.0,274.0,220.0,292.0,test_unknown,1.0
0 days 00:18:53.549000,10,0 days 00:01:39.218000,2,"","",0 days 00:00:17.719000,0 days 00:00:42.121000,0 days 00:00:39.378000,281.0,315.0,221.0,320.0,test_unknown,2.0
0 days 00:21:16.415000,10,0 days 00:02:22.866000,3,"","",0 days 00:00:22.245000,0 days 00:01:01.621000,0 days 00:00:59,181.0,250.0,153.0,185.0,test_unknown,3.0
0 days 00:23:26.299000,10,0 days 00:02:09.884000,4,"","",0 days 00:00:25.886000,0 days 00:00:50.747000,0 days 00:00:53.251000,221.0,274.0,222.0,295.0,test_unknown,4.0
0 days 00:25:05.220000,10,0 days 00:01:38.921000,5,"","",0 days 00:00:17.532000,0 days 00:00:42.168000,0 days 00:00:39.221000,282.0,314.0,221.0,317.0,test_unknown,5.0
0 days 00:26:49.476000,10,0 days 00:01:44.256000,6,"","",0 days 00:00:19.308000,0 days 00:00:43.863000,0 days 00:00:41.085000,259.0,285.0,220.0,290.0,test_unknown,6.0
0 days 00:28:30.071000,10,0 days 00:01:40.595000,7,"","",0 days 00:00:17.654000,0 days 00:00:43.238000,0 days 00:00:39.703000,275.0,288.0,220.0,290.0,test_unknown,7.0
0 days 00:30:11.716000,10,0 days 00:01:41.645000,8,"","",0 days 00:00:17.711000,0 days 00:00:43.633000,0 days 00:00:40.301000,270.0,284.0,218.0,287.0,test_unknown,8.0
0 days 00:31:53.615000,10,0 days 00:01:41.899000,9,"","",0 days 00:00:17.693000,0 days 00:00:43.698000,0 days 00:00:40.508000,"",282.0,217.0,286.0,test_unknown,9.0
0 days 00:33:37.379000,10,0 days 00:01:43.764000,10,"",0 days 00:33:36.366000,0 days 00:00:17.821000,0 days 00:00:43.405000,0 days 00:00:42.538000,278.0,295.0,"",304.0,test_unknown,10.0
0 days 00:42:35.469000,10,"",11,0 days 00:40:28.988000,"","",0 days 00:00:48.720000,0 days 00:00:55.476000,244.0,282.0,211.0,294.0,hard,1.0
0 days 00:44:14.007000,10,0 days 00:01:38.538000,12,"","",0 days 00:00:17.614000,0 days 00:00:42.072000,0 days 00:00:38.852000,282.0,314.0,222.0,319.0,hard,2.0
0 days 00:46:26.849000,10,0 days 00:02:12.842000,13,"","",0 days 00:00:25.866000,0 days 00:00:53.249000,0 days 00:00:53.727000,227.0,249.0,223.0,289.0,hard,3.0
0 days 00:48:05.174000,10,0 days 00:01:38.325000,14,"","",0 days 00:00:17.652000,0 days 00:00:41.904000,0 days 00:00:38.769000,283.0,312.0,221.0,316.0,hard,4.0
0 days 00:50:03.784000,10,0 days 00:01:58.610000,15,"",0 days 00:50:02.671000,0 days 00:00:20.600000,0 days 00:00:50.581000,0 days 00:00:47.429000,90.0,267.0,"",276.0,hard,5.0
0 days 01:01:28.203000,10,"",16,0 days 00:59:09.161000,"","",0 days 00:01:01.429000,0 days 00:00:50.454000,157.0,274.0,223.0,297.0,soft,1.0
0 days 01:03:51.240000,10,0 days 00:02:23.037000,17,"","",0 days 00:00:34.135000,0 days 00:01:00.431000,0 days 00:00:48.471000,170.0,256.0,222.0,237.0,soft,2.0
0 days 01:05:29.289000,10,0 days 00:01:38.049000,18,"","",0 days 00:00:17.617000,0 days 00:00:41.662000,0 days 00:00:38.770000,282.0,314.0,220.0,317.0,soft,3.0
0 days 01:08:11.489000,10,"",19,"","",0 days 00:00:24.557000,0 days 00:01:18.696000,0 days 00:00:58.946000,129.0,130.0,176.0,128.0,soft,4.0
0 days 01:10:13.024000,10,0 days 00:02:01.535000,20,"","",0 days 00:00:21.874000,0 days 00:00:54.274000,0 days 00:00:45.387000,245.0,266.0,226.0,297.0,soft,5.0
0 days 01:11:50.924000,10,0 days 00:01:37.900000,21,"","",0 days 00:00:17.507000,0 days 00:00:41.674000,0 days 00:00:38.719000,284.0,312.0,220.0,315.0,soft,6.0
0 days 01:13:52.502000,10,0 days 00:02:01.578000,22,"",0 days 01:13:51.764000,0 days 00:00:20.834000,0 days 00:00:47.540000,0 days 00:00:53.204000,248.0,284.0,"",272.0,soft,7.0
0 days 01:22:12.300000,10,"",23,0 days 01:20:24.137000,"","",0 days 00:00:46.090000,0 days 00:00:42.261000,277.0,283.0,217.0,292.0,hard,6.0
0 days 01:23:55.440000,10,0 days 00:01:43.140000,24,"","",0 days 00:00:18.177000,0 days 00:00:44.012000,0 days 00:00:40.951000,274.0,280.0,217.0,290.0,hard,7.0
0 days 01:25:38.511000,10,0 days 00:01:43.071000,25,"","",0 days 00:00:18.103000,0 days 00:00:43.906000,0 days 00:00:41.062000,276.0,281.0,214.0,293.0,hard,8.0
0 days 01:27:21.760000,10,0 days 00:01:43.249000,26,"","",0 days 00:00:18.136000,0 days 00:00:43.982000,0 days 00:00:41.131000,274.0,280.0,214.0,292.0,hard,9.0
0 days 01:39:46.170000,10,"",27,"",0 days 01:29:46.006000,"","","","","","","",hard,10.0
0 days 01:41:36.376000,10,"",28,0 days 01:39:46.170000,"","",0 days 00:00:45.535000,0 days 00:00:43.101000,272.0,280.0,219.0,294.0,hard,11.0
0 days 01:43:19.414000,10,0 days 00:01:43.038000,29,"","",0 days 00:00:18.130000,0 days 00:00:43.982000,0 days 00:00:40.926000,274.0,278.0,216.0,289.0,hard,12.0
0 days 01:45:01.710000,10,0 days 00:01:42.296000,30,"","",0 days 00:00:18.065000,0 days 00:00:43.307000,0 days 00:00:40.924000,"",303.0,217.0,314.0,hard,13.0
0 days 01:47:09.221000,10,0 days 00:02:07.511000,31,"","",0 days 00:00:17.917000,0 days 00:00:50.118000,0 days 00:00:59.476000,271.0,258.0,50.0,234.0,hard,14.0
0 days 01:49:45.645000,10,"",32,"",0 days 01:49:44.630000,0 days 00:00:38.644000,0 days 00:01:03.254000,0 days 00:00:54.530000,253.0,212.0,"",146.0,hard,15.0
0 days 00:17:24.452000,7,"",1,0 days 00:15:11.458000,"","",0 days 00:00:53.085000,0 days 00:00:51.973000,200.0,271.0,222.0,214.0,test_unknown,1.0
0 days 00:19:03.395000,7,0 days 00:01:38.943000,2,"","",0 days 00:00:17.609000,0 days 00:00:42.169000,0 days 00:00:39.165000,281.0,313.0,218.0,320.0,test_unknown,2.0
0 days 00:21:41.097000,7,"",3,"","",0 days 00:00:25.035000,0 days 00:01:10.608000,0 days 00:01:02.088000,175.0,131.0,224.0,148.0,test_unknown,3.0
0 days 00:23:20.464000,7,0 days 00:01:39.367000,4,"","",0 days 00:00:17.570000,0 days 00:00:42.360000,0 days 00:00:39.437000,281.0,313.0,217.0,317.0,test_unknown,4.0
0 days 00:25:43.466000,7,0 days 00:02:23.002000,5,"","",0 days 00:00:23.747000,0 days 00:01:02.164000,0 days 00:00:57.091000,123.0,181.0,222.0,174.0,test_unknown,5.0
0 days 00:27:24.128000,7,0 days 00:01:40.662000,6,"","",0 days 00:00:17.575000,0 days 00:00:43.138000,0 days 00:00:39.949000,281.0,297.0,216.0,301.0,test_unknown,6.0
0 days 00:29:05.549000,7,0 days 00:01:41.421000,7,"","",0 days 00:00:17.701000,0 days 00:00:43.511000,0 days 00:00:40.209000,280.0,297.0,217.0,299.0,test_unknown,7.0
0 days 00:30:47.588000,7,0 days 00:01:42.039000,8,"","",0 days 00:00:17.796000,0 days 00:00:43.652000,0 days 00:00:40.591000,282.0,299.0,219.0,304.0,test_unknown,8.0
0 days 00:32:30.988000,7,0 days 00:01:43.400000,9,"","",0 days 00:00:17.653000,0 days 00:00:43.671000,0 days 00:00:42.076000,281.0,302.0,218.0,305.0,test_unknown,9.0
0 days 00:34:20.537000,7,0 days 00:01:49.549000,10,"",0 days 00:34:19.454000,0 days 00:00:18.701000,0 days 00:00:46.418000,0 days 00:00:44.430000,259.0,282.0,"",290.0,test_unknown,10.0
0 days 00:42:20.749000,7,"",11,0 days 00:40:11.234000,"","",0 days 00:00:52.546000,0 days 00:00:49.988000,212.0,217.0,224.0,248.0,hard,1.0
0 days 00:43:59.384000,7,0 days 00:01:38.635000,12,"","",0 days 00:00:17.483000,0 days 00:00:41.976000,0 days 00:00:39.176000,282.0,315.0,215.0,320.0,hard,2.0
0 days 00:46:31.522000,7,"",13,"","",0 days 00:00:23.689000,0 days 00:01:10.599000,0 days 00:00:57.901000,185.0,116.0,224.0,230.0,hard,3.0
0 days 00:48:10.702000,7,0 days 00:01:39.180000,14,"","",0 days 00:00:17.601000,0 days 00:00:42.215000,0 days 00:00:39.364000,283.0,315.0,219.0,321.0,hard,4.0
0 days 00:50:41.132000,7,"",15,"","",0 days 00:00:24.686000,0 days 00:01:13.701000,0 days 00:00:52.021000,147.0,139.0,224.0,93.0,hard,5.0
0 days 00:52:20.292000,7,0 days 00:01:39.160000,16,"","",0 days 00:00:17.513000,0 days 00:00:42.202000,0 days 00:00:39.445000,285.0,312.0,214.0,320.0,hard,6.0
0 days 00:54:22.174000,7,0 days 00:02:01.882000,17,"",0 days 00:54:21.145000,0 days 00:00:20.596000,0 days 00:00:55.503000,0 days 00:00:45.783000,191.0,258.0,"",173.0,hard,7.0
0 days 00:56:53.060000,7,"",18,0 days 00:54:56.504000,0 days 00:56:53.098000,0 days 00:00:53.112000,0 days 00:00:50.043000,0 days 00:00:47.738000,251.0,251.0,"",269.0,hard,8.0
0 days 01:05:56.619000,7,"",19,0 days 01:03:30.549000,"","",0 days 00:01:04.949000,0 days 00:00:50.665000,119.0,150.0,224.0,155.0,soft,1.0
0 days 01:07:34.687000,7,0 days 00:01:38.068000,20,"","",0 days 00:00:17.425000,0 days 00:00:41.828000,0 days 00:00:38.815000,283.0,311.0,219.0,318.0,soft,2.0
0 days 01:10:24.775000,7,"",21,"","",0 days 00:00:26.152000,0 days 00:01:19.807000,0 days 00:01:04.146000,136.0,168.0,221.0,201.0,soft,3.0
0 days 01:12:03.351000,7,0 days 00:01:38.576000,22,"","",0 days 00:00:17.485000,0 days 00:00:41.881000,0 days 00:00:39.210000,283.0,310.0,221.0,319.0,soft,4.0
0 days 01:14:15.111000,7,0 days 00:02:11.760000,23,"",0 days 01:14:14.055000,0 days 00:00:20.682000,0 days 00:00:54.176000,0 days 00:00:56.902000,204.0,213.0,"",270.0,soft,5.0
0 days 01:21:22.671000,7,"",24,0 days 01:19:25.303000,"","",0 days 00:00:49.188000,0 days 00:00:45.026000,223.0,233.0,218.0,242.0,soft,6.0
0 days 01:23:05.047000,7,0 days 00:01:42.376000,25,"","",0 days 00:00:17.870000,0 days 00:00:43.666000,0 days 00:00:40.840000,280.0,293.0,215.0,299.0,soft,7.0
0 days 01:24:48.214000,7,0 days 00:01:43.167000,26,"","",0 days 00:00:17.939000,0 days 00:00:44.128000,0 days 00:00:41.100000,279.0,288.0,214.0,299.0,soft,8.0
0 days 01:26:32.274000,7,0 days 00:01:44.060000,27,"","",0 days 00:00:17.946000,0 days 00:00:44.666000,0 days 00:00:41.448000,281.0,289.0,211.0,304.0,soft,9.0
0 days 01:37:28.755000,7,"",28,"",0 days 01:37:28.755000,0 days 00:00:24.560000,"","",155.0,"","","",soft,10.0
0 days 00:17:57.897000,6,"",1,0 days 00:15:39.503000,"","",0 days 00:00:54.599000,0 days 00:00:59.430000,247.0,167.0,217.0,233.0,test_unknown,1.0
0 days 00:19:38.796000,6,0 days 00:01:40.899000,2,"","",0 days 00:00:17.883000,0 days 00:00:42.551000,0 days 00:00:40.465000,281.0,313.0,219.0,324.0,test_unknown,2.0
0 days 00:22:06.572000,6,0 days 00:02:27.776000,3,"","",0 days 00:00:27.138000,0 days 00:01:00.503000,0 days 00:01:00.135000,199.0,222.0,220.0,253.0,test_unknown,3.0
0 days 00:23:47.970000,6,0 days 00:01:41.398000,4,"","",0 days 00:00:17.948000,0 days 00:00:42.864000,0 days 00:00:40.586000,278.0,310.0,220.0,319.0,test_unknown,4.0
0 days 00:25:32.598000,6,0 days 00:01:44.628000,5,"","",0 days 00:00:18.045000,0 days 00:00:44.702000,0 days 00:00:41.881000,272.0,286.0,216.0,288.0,test_unknown,5.0
0 days 00:27:16.215000,6,0 days 00:01:43.617000,6,"","",0 days 00:00:18.069000,0 days 00:00:43.935000,0 days 00:00:41.613000,"",290.0,218.0,298.0,test_unknown,6.0
0 days 00:28:59.772000,6,0 days 00:01:43.557000,7,"","",0 days 00:00:18.022000,0 days 00:00:44.459000,0 days 00:00:41.076000,274.0,286.0,218.0,292.0,test_unknown,7.0
0 days 00:30:44.639000,6,0 days 00:01:44.867000,8,"","",0 days 00:00:18.145000,0 days 00:00:44.122000,0 days 00:00:42.600000,"",297.0,217.0,309.0,test_unknown,8.0
0 days 00:32:29.151000,6,0 days 00:01:44.512000,9,"","",0 days 00:00:18.115000,0 days 00:00:44.398000,0 days 00:00:41.999000,275.0,304.0,217.0,294.0,test_unknown,9.0
0 days 00:34:40.462000,6,0 days 00:02:11.311000,10,"",0 days 00:34:39.427000,0 days 00:00:20.884000,0 days 00:00:57.750000,0 days 00:00:52.677000,111.0,240.0,"",238.0,test_unknown,10.0
0 days 00:53:43.668000,6,"",11,0 days 00:51:13.978000,"","",0 days 00:01:00.189000,0 days 00:01:04.434000,262.0,99.0,220.0,289.0,soft,1.0
0 days 00:55:22.800000,6,0 days 00:01:39.132000,12,"","",0 days 00:00:17.624000,0 days 00:00:42.160000,0 days 00:00:39.348000,283.0,310.0,222.0,319.0,soft,2.0
0 days 00:58:08.495000,6,"",13,"","",0 days 00:00:32.263000,0 days 00:01:05.875000,0 days 00:01:07.552000,130.0,145.0,223.0,89.0,soft,3.0
0 days 00:59:47.594000,6,0 days 00:01:39.099000,14,"","",0 days 00:00:17.548000,0 days 00:00:42.323000,0 days 00:00:39.228000,283.0,309.0,220.0,319.0,soft,4.0
0 days 01:01:50.351000,6,0 days 00:02:02.757000,15,"",0 days 01:01:49.842000,0 days 00:00:22.332000,0 days 00:00:53.041000,0 days 00:00:47.384000,254.0,272.0,"",238.0,soft,5.0
0 days 01:11:19.674000,6,"",16,0 days 01:09:05.765000,0 days 01:11:19.732000,"",0 days 00:00:54.863000,0 days 00:00:55.477000,253.0,246.0,"",238.0,test_unknown,11.0
0 days 01:13:33.121000,6,0 days 00:02:13.447000,17,0 days 01:11:45.180000,"",0 days 00:00:43.797000,0 days 00:00:45.619000,0 days 00:00:44.031000,274.0,170.0,216.0,288.0,medium,1.0
0 days 01:15:16.999000,6,0 days 00:01:43.878000,18,"","",0 days 00:00:18.323000,0 days 00:00:44.258000,0 days 00:00:41.297000,277.0,281.0,215.0,289.0,medium,2.0
0 days 01:17:01.253000,6,0 days 00:01:44.254000,19,"","",0 days 00:00:18.179000,0 days 00:00:44.700000,0 days 00:00:41.375000,272.0,281.0,215.0,285.0,medium,3.0
0 days 01:18:45.394000,6,0 days 00:01:44.141000,20,"","",0 days 00:00:18.118000,0 days 00:00:44.598000,0 days 00:00:41.425000,275.0,282.0,216.0,288.0,medium,4.0
0 days 01:20:30.071000,6,0 days 00:01:44.677000,21,"","",0 days 00:00:18.182000,0 days 00:00:44.898000,0 days 00:00:41.597000,273.0,282.0,214.0,288.0,medium,5.0
0 days 01:22:15.434000,6,0 days 00:01:45.363000,22,"","",0 days 00:00:18.431000,0 days 00:00:44.942000,0 days 00:00:41.990000,275.0,285.0,213.0,295.0,medium,6.0
0 days 01:24:00.853000,6,0 days 00:01:45.419000,23,"","",0 days 00:00:18.317000,0 days 00:00:44.982000,0 days 00:00:42.120000,278.0,287.0,213.0,298.0,medium,7.0
0 days 01:25:47.106000,6,0 days 00:01:46.253000,24,"","",0 days 00:00:18.447000,0 days 00:00:45.274000,0 days 00:00:42.532000,"",285.0,213.0,295.0,medium,8.0
0 days 01:39:20.254000,6,"",25,"",0 days 01:27:39.006000,0 days 00:00:18.469000,0 days 00:00:45.301000,"",276.0,278.0,"",295.0,medium,9.0
0 days 01:41:14.215000,6,"",26,0 days 01:39:20.243000,"","",0 days 00:00:46.916000,0 days 00:00:44.985000,268.0,273.0,209.0,278.0,soft,6.0
0 days 01:42:58.183000,6,0 days 00:01:43.968000,27,"","",0 days 00:00:18.353000,0 days 00:00:43.900000,0 days 00:00:41.715000,276.0,304.0,214.0,300.0,soft,7.0
0 days 01:44:42.435000,6,0 days 00:01:44.252000,28,"","",0 days 00:00:18.106000,0 days 00:00:44.445000,0 days 00:00:41.701000,271.0,290.0,217.0,300.0,soft,8.0
0 days 01:46:26.879000,6,0 days 00:01:44.444000,29,"","",0 days 00:00:18.089000,0 days 00:00:44.469000,0 days 00:00:41.886000,274.0,295.0,215.0,300.0,soft,9.0
0 days 01:48:41.847000,6,0 days 00:02:14.968000,30,"","",0 days 00:00:21.844000,0 days 00:00:49.204000,0 days 00:01:03.920000,181.0,224.0,100.0,177.0,soft,10.0
0 days 01:51:16.266000,6,"",31,"",0 days 01:51:15.188000,0 days 00:00:42.798000,0 days 00:00:53.556000,0 days 00:00:57.970000,198.0,194.0,"",235.0,soft,11.0
0 days 00:18:18.179000,5,"",1,0 days 00:15:59.340000,"","",0 days 00:00:49.774000,0 days 00:01:07.581000,235.0,213.0,209.0,264.0,test_unknown,1.0
0 days 00:19:58.529000,5,0 days 00:01:40.350000,2,"","",0 days 00:00:18.066000,0 days 00:00:42.385000,0 days 00:00:39.899000,278.0,308.0,216.0,314.0,test_unknown,2.0
0 days 00:22:39.249000,5,"",3,"","",0 days 00:00:27.341000,0 days 00:01:13.410000,0 days 00:00:59.993000,124.0,124.0,218.0,141.0,test_unknown,3.0
0 days 00:24:19.276000,5,0 days 00:01:40.027000,4,"","",0 days 00:00:17.794000,0 days 00:00:42.655000,0 days 00:00:39.578000,279.0,306.0,219.0,311.0,test_unknown,4.0
0 days 00:27:06.617000,5,"",5,"","",0 days 00:00:24.768000,0 days 00:01:16.797000,0 days 00:01:05.797000,196.0,169.0,217.0,110.0,test_unknown,5.0
0 days 00:28:46.468000,5,0 days 00:01:39.851000,6,"","",0 days 00:00:17.748000,0 days 00:00:42.588000,0 days 00:00:39.515000,279.0,306.0,219.0,310.0,test_unknown,6.0
0 days 00:30:39.355000,5,0 days 00:01:52.887000,7,"","",0 days 00:00:21.007000,0 days 00:00:50.841000,0 days 00:00:41.039000,239.0,267.0,219.0,259.0,test_unknown,7.0
0 days 00:32:19.744000,5,0 days 00:01:40.389000,8,"","",0 days 00:00:17.658000,0 days 00:00:42.756000,0 days 00:00:39.975000,278.0,304.0,218.0,312.0,test_unknown,8.0
0 days 00:34:01.399000,5,0 days 00:01:41.655000,9,"","",0 days 00:00:17.815000,0 days 00:00:43.509000,0 days 00:00:40.331000,277.0,303.0,220.0,310.0,test_unknown,9.0
0 days 00:35:52.113000,5,0 days 00:01:50.714000,10,"",0 days 00:35:51.118000,0 days 00:00:17.807000,0 days 00:00:48.796000,0 days 00:00:44.111000,278.0,308.0,"",220.0,test_unknown,10.0
0 days 00:44:10.710000,5,"",11,0 days 00:42:05.252000,"","",0 days 00:00:52.198000,0 days 00:00:50.439000,240.0,172.0,222.0,234.0,hard,1.0
0 days 00:45:49.499000,5,0 days 00:01:38.789000,12,"","",0 days 00:00:17.514000,0 days 00:00:42.043000,0 days 00:00:39.232000,284.0,308.0,214.0,315.0,hard,2.0
0 days 00:48:09.133000,5,0 days 00:02:19.634000,13,"","",0 days 00:00:24.250000,0 days 00:01:04.280000,0 days 00:00:51.104000,188.0,170.0,223.0,192.0,hard,3.0
0 days 00:49:48.351000,5,0 days 00:01:39.218000,14,"","",0 days 00:00:17.644000,0 days 00:00:42.364000,0 days 00:00:39.210000,283.0,306.0,219.0,313.0,hard,4.0
0 days 00:52:00.930000,5,0 days 00:02:12.579000,15,"","",0 days 00:00:22.009000,0 days 00:00:57.668000,0 days 00:00:52.902000,187.0,230.0,221.0,181.0,hard,5.0
0 days 00:53:57.283000,5,0 days 00:01:56.353000,16,"","",0 days 00:00:22.382000,0 days 00:00:48.649000,0 days 00:00:45.322000,250.0,241.0,221.0,285.0,hard,6.0
0 days 00:55:36.517000,5,0 days 00:01:39.234000,17,"","",0 days 00:00:17.589000,0 days 00:00:42.232000,0 days 00:00:39.413000,285.0,310.0,215.0,316.0,hard,7.0
0 days 00:57:38.306000,5,0 days 00:02:01.789000,18,"",0 days 00:57:38.318000,0 days 00:00:21.225000,0 days 00:00:50.202000,0 days 00:00:50.362000,206.0,200.0,"",201.0,hard,8.0
0 days 01:05:27.754000,5,"",19,0 days 01:03:12.475000,"","",0 days 00:00:55.793000,0 days 00:00:57.351000,241.0,203.0,222.0,213.0,soft,1.0
0 days 01:07:32.102000,5,0 days 00:02:04.348000,20,"","",0 days 00:00:17.495000,0 days 00:00:55.708000,0 days 00:00:51.145000,284.0,228.0,221.0,137.0,soft,2.0
0 days 01:09:10.300000,5,0 days 00:01:38.198000,21,"","",0 days 00:00:17.438000,0 days 00:00:41.858000,0 days 00:00:38.902000,285.0,312.0,218.0,318.0,soft,3.0
0 days 01:12:01.933000,5,"",22,"","",0 days 00:00:24.275000,0 days 00:01:20.881000,0 days 00:01:06.467000,198.0,87.0,221.0,137.0,soft,4.0
0 days 01:13:40.865000,5,0 days 00:01:38.932000,23,"","",0 days 00:00:17.563000,0 days 00:00:42.016000,0 days 00:00:39.353000,284.0,309.0,219.0,315.0,soft,5.0
0 days 01:15:34.616000,5,0 days 00:01:53.751000,24,"",0 days 01:15:33.586000,0 days 00:00:19.229000,0 days 00:00:48.916000,0 days 00:00:45.606000,251.0,260.0,"",251.0,soft,6.0
0 days 01:18:03.854000,5,0 days 00:02:29.238000,25,0 days 01:16:13.262000,0 days 01:18:02.818000,0 days 00:00:57.807000,0 days 00:00:46.462000,0 days 00:00:44.969000,238.0,255.0,"",270.0,soft,7.0
0 days 01:26:47.081000,5,"",26,0 days 01:24:53.716000,0 days 01:26:45.170000,"",0 days 00:00:46.948000,0 days 00:00:45.969000,258.0,271.0,"",290.0,hard,9.0
0 days 01:41:30.049000,5,"",27,0 days 01:39:40.518000,"","",0 days 00:00:45.208000,0 days 00:00:44.150000,272.0,284.0,215.0,296.0,hard,10.0
0 days 01:43:15.602000,5,0 days 00:01:45.553000,28,"","",0 days 00:00:18.227000,0 days 00:00:45.613000,0 days 00:00:41.713000,280.0,293.0,212.0,299.0,hard,11.0
0 days 01:44:59.690000,5,0 days 00:01:44.088000,29,"","",0 days 00:00:18.209000,0 days 00:00:44.193000,0 days 00:00:41.686000,278.0,292.0,212.0,297.0,hard,12.0
0 days 01:46:54.400000,5,0 days 00:01:54.710000,30,"","",0 days 00:00:18.144000,0 days 00:00:44.043000,0 days 00:00:52.523000,281.0,283.0,214.0,301.0,hard,13.0
0 days 01:49:03.715000,5,0 days 00:02:09.315000,31,"","",0 days 00:00:18.197000,0 days 00:00:44.310000,0 days 00:01:06.808000,276.0,289.0,60.0,293.0,hard,14.0
0 days 01:51:21.003000,5,0 days 00:02:17.288000,32,"",0 days 01:51:19.978000,0 days 00:00:44.043000,0 days 00:00:45.307000,0 days 00:00:47.938000,278.0,290.0,"",296.0,hard,15.0
0 days 00:18:12.797000,4,"",1,0 days 00:15:48.607000,"","",0 days 00:00:53.910000,0 days 00:01:04.848000,230.0,209.0,216.0,292.0,test_unknown,1.0
0 days 00:19:52.707000,4,0 days 00:01:39.910000,2,"","",0 days 00:00:17.877000,0 days 00:00:42.244000,0 days 00:00:39.789000,272.0,306.0,219.0,311.0,test_unknown,2.0
0 days 00:22:15.295000,4,0 days 00:02:22.588000,3,"","",0 days 00:00:25.976000,0 days 00:01:00.184000,0 days 00:00:56.428000,155.0,171.0,220.0,214.0,test_unknown,3.0
0 days 00:23:54.965000,4,0 days 00:01:39.670000,4,"","",0 days 00:00:17.741000,0 days 00:00:42.312000,0 days 00:00:39.617000,273.0,306.0,217.0,310.0,test_unknown,4.0
0 days 00:26:19.836000,4,0 days 00:02:24.871000,5,"","",0 days 00:00:23.519000,0 days 00:01:02.571000,0 days 00:00:58.781000,155.0,199.0,219.0,231.0,test_unknown,5.0
0 days 00:28:00.337000,4,0 days 00:01:40.501000,6,"","",0 days 00:00:17.663000,0 days 00:00:42.366000,0 days 00:00:40.472000,274.0,308.0,217.0,312.0,test_unknown,6.0
0 days 00:30:16.109000,4,0 days 00:02:15.772000,7,"","",0 days 00:00:21.907000,0 days 00:01:03.072000,0 days 00:00:50.793000,169.0,199.0,219.0,205.0,test_unknown,7.0
0 days 00:31:55.839000,4,0 days 00:01:39.730000,8,"","",0 days 00:00:17.660000,0 days 00:00:42.399000,0 days 00:00:39.671000,273.0,308.0,215.0,312.0,test_unknown,8.0
0 days 00:34:13.857000,4,0 days 00:02:18.018000,9,"","",0 days 00:00:24.592000,0 days 00:01:03.611000,0 days 00:00:49.815000,151.0,236.0,219.0,175.0,test_unknown,9.0
0 days 00:35:53.264000,4,0 days 00:01:39.407000,10,"","",0 days 00:00:17.662000,0 days 00:00:42.447000,0 days 00:00:39.298000,272.0,304.0,220.0,308.0,test_unknown,10.0
0 days 00:37:39.878000,4,0 days 00:01:46.614000,11,"",0 days 00:37:39.935000,0 days 00:00:18.984000,0 days 00:00:43.500000,0 days 00:00:44.130000,269.0,295.0,"",282.0,test_unknown,11.0
0 days 00:49:44.959000,4,"",12,0 days 00:47:42.786000,"","",0 days 00:00:51.319000,0 days 00:00:50.360000,251.0,263.0,221.0,291.0,hard,1.0
0 days 00:51:23.001000,4,0 days 00:01:38.042000,13,"","",0 days 00:00:17.424000,0 days 00:00:42.111000,0 days 00:00:38.507000,284.0,310.0,223.0,317.0,hard,2.0
0 days 00:53:51.130000,4,0 days 00:02:28.129000,14,"","",0 days 00:00:26.770000,0 days 00:01:01.386000,0 days 00:00:59.973000,187.0,207.0,216.0,194.0,hard,3.0
0 days 00:55:34.280000,4,0 days 00:01:43.150000,15,"",0 days 00:55:34.298000,0 days 00:00:17.672000,0 days 00:00:42.219000,0 days 00:00:43.259000,277.0,303.0,"",310.0,hard,4.0
0 days 01:05:36.649000,4,"",16,0 days 01:03:18.290000,"","",0 days 00:00:56.565000,0 days 00:00:59.553000,200.0,210.0,224.0,278.0,soft,1.0
0 days 01:07:14.087000,4,0 days 00:01:37.438000,17,"","",0 days 00:00:17.385000,0 days 00:00:41.587000,0 days 00:00:38.466000,285.0,312.0,218.0,318.0,soft,2.0
0 days 01:09:16.438000,4,0 days 00:02:02.351000,18,"",0 days 01:09:15.542000,0 days 00:00:23.115000,0 days 00:00:50.311000,0 days 00:00:48.925000,196.0,219.0,"",252.0,soft,3.0
0 days 01:20:48.598000,4,"",19,0 days 01:19:04.715000,"","",0 days 00:00:44.506000,0 days 00:00:41.337000,265.0,284.0,218.0,288.0,soft,4.0
0 days 01:22:31.441000,4,0 days 00:01:42.843000,20,"","",0 days 00:00:17.977000,0 days 00:00:43.797000,0 days 00:00:41.069000,273.0,285.0,216.0,289.0,soft,5.0
0 days 01:24:14.702000,4,0 days 00:01:43.261000,21,"","",0 days 00:00:18.104000,0 days 00:00:44.185000,0 days 00:00:40.972000,272.0,283.0,215.0,289.0,soft,6.0
0 days 01:25:58.722000,4,0 days 00:01:44.020000,22,"","",0 days 00:00:18.058000,0 days 00:00:44.395000,0 days 00:00:41.567000,"",276.0,214.0,289.0,soft,7.0
0 days 01:39:31.838000,4,"",23,"",0 days 01:27:54.774000,0 days 00:00:18.153000,0 days 00:00:44.496000,"",270.0,277.0,"",287.0,soft,8.0
0 days 01:41:18.717000,4,"",24,0 days 01:39:31.803000,"","",0 days 00:00:44.662000,0 days 00:00:42.446000,272.0,287.0,210.0,291.0,hard,5.0
0 days 01:43:02.539000,4,0 days 00:01:43.822000,25,"","",0 days 00:00:18.141000,0 days 00:00:44.063000,0 days 00:00:41.618000,276.0,290.0,215.0,295.0,hard,6.0
0 days 01:44:46.498000,4,0 days 00:01:43.959000,26,"","",0 days 00:00:18.149000,0 days 00:00:44.152000,0 days 00:00:41.658000,273.0,293.0,215.0,291.0,hard,7.0
0 days 01:46:30.163000,4,0 days 00:01:43.665000,27,"","",0 days 00:00:18.055000,0 days 00:00:44.069000,0 days 00:00:41.541000,274.0,288.0,214.0,292.0,hard,8.0
0 days 01:48:44.879000,4,0 days 00:02:14.716000,28,"","",0 days 00:00:20.236000,0 days 00:00:49.275000,0 days 00:01:05.205000,180.0,189.0,58.0,225.0,hard,9.0
0 days 01:51:04.447000,4,0 days 00:02:19.568000,29,"",0 days 01:51:03.426000,0 days 00:00:39.065000,0 days 00:00:48.851000,0 days 00:00:51.652000,281.0,178.0,"",192.0,hard,10.0
0 days 00:18:42.712000,77,"",1,0 days 00:16:07.710000,"","",0 days 00:00:59.803000,0 days 00:01:10.636000,234.0,245.0,213.0,253.0,test_unknown,1.0
0 days 00:20:20.530000,77,0 days 00:01:37.818000,2,"","",0 days 00:00:17.546000,0 days 00:00:41.596000,0 days 00:00:38.676000,278.0,315.0,220.0,318.0,test_unknown,2.0
0 days 00:23:07.032000,77,"",3,"","",0 days 00:00:26.251000,0 days 00:01:09.613000,0 days 00:01:10.669000,83.0,252.0,219.0,129.0,test_unknown,3.0
0 days 00:24:44.865000,77,0 days 00:01:37.833000,4,"","",0 days 00:00:17.380000,0 days 00:00:41.795000,0 days 00:00:38.658000,279.0,315.0,220.0,317.0,test_unknown,4.0
0 days 00:26:47.021000,77,0 days 00:02:02.156000,5,"",0 days 00:26:46.717000,0 days 00:00:20.565000,0 days 00:00:52.068000,0 days 00:00:49.523000,250.0,230.0,"",269.0,test_unknown,5.0
0 days 00:42:28.941000,77,"",6,0 days 00:40:07.806000,"","",0 days 00:00:57.747000,0 days 00:00:55.732000,226.0,211.0,221.0,268.0,medium,1.0
0 days 00:44:05.217000,77,0 days 00:01:36.276000,7,"","",0 days 00:00:17.289000,0 days 00:00:41.279000,0 days 00:00:37.708000,284.0,316.0,224.0,320.0,medium,2.0
0 days 00:46:39.952000,77,"",8,"","",0 days 00:00:22.567000,0 days 00:01:07.543000,0 days 00:01:04.644000,111.0,150.0,220.0,154.0,medium,3.0
0 days 00:49:03.515000,77,0 days 00:02:23.563000,9,"","",0 days 00:00:20.991000,0 days 00:01:09.874000,0 days 00:00:52.698000,249.0,51.0,224.0,192.0,medium,4.0
0 days 00:50:50.662000,77,0 days 00:01:47.147000,10,"",0 days 00:50:49.610000,0 days 00:00:17.323000,0 days 00:00:41.563000,0 days 00:00:48.261000,282.0,314.0,"",319.0,medium,5.0
0 days 01:00:16.436000,77,"",11,0 days 00:57:44.830000,"","",0 days 00:01:05.773000,0 days 00:00:57.660000,203.0,204.0,218.0,140.0,soft,1.0
0 days 01:02:37.801000,77,0 days 00:02:21.365000,12,"","",0 days 00:00:23.418000,0 days 00:00:59.104000,0 days 00:00:58.843000,139.0,243.0,222.0,273.0,soft,2.0
0 days 01:04:42.810000,77,0 days 00:02:05.009000,13,"","",0 days 00:00:17.327000,0 days 00:00:41.420000,0 days 00:01:06.262000,283.0,314.0,140.0,319.0,soft,3.0
0 days 01:06:57.707000,77,0 days 00:02:14.897000,14,"","",0 days 00:00:27.873000,0 days 00:00:54.694000,0 days 00:00:52.330000,249.0,228.0,222.0,274.0,soft,4.0
0 days 01:08:34.991000,77,0 days 00:01:37.284000,15,"","",0 days 00:00:17.332000,0 days 00:00:41.584000,0 days 00:00:38.368000,283.0,311.0,224.0,318.0,soft,5.0
0 days 01:10:44.080000,77,0 days 00:02:09.089000,16,"",0 days 01:10:43.060000,0 days 00:00:22.939000,0 days 00:00:57.664000,0 days 00:00:48.486000,189.0,214.0,"",177.0,soft,6.0
0 days 01:19:33.115000,77,"",17,0 days 01:17:32.655000,"","",0 days 00:00:50.286000,0 days 00:00:46.176000,243.0,236.0,214.0,258.0,test_unknown,6.0
0 days 01:21:16.054000,77,0 days 00:01:42.939000,18,"","",0 days 00:00:18.028000,0 days 00:00:44.354000,0 days 00:00:40.557000,279.0,278.0,213.0,290.0,test_unknown,7.0
0 days 01:22:59.421000,77,0 days 00:01:43.367000,19,"","",0 days 00:00:18.121000,0 days 00:00:44.383000,0 days 00:00:40.863000,274.0,274.0,212.0,287.0,test_unknown,8.0
0 days 01:24:42.821000,77,0 days 00:01:43.400000,20,"","",0 days 00:00:18.052000,0 days 00:00:44.470000,0 days 00:00:40.878000,"",273.0,214.0,287.0,test_unknown,9.0
0 days 01:26:25.989000,77,0 days 00:01:43.168000,21,"","",0 days 00:00:18.029000,0 days 00:00:44.284000,0 days 00:00:40.855000,277.0,277.0,215.0,290.0,test_unknown,10.0
0 days 01:39:13.704000,77,"",22,"",0 days 01:28:30.256000,0 days 00:00:17.931000,"","",274.0,"","",290.0,test_unknown,11.0
0 days 01:41:18.937000,77,"",23,0 days 01:39:13.704000,"","",0 days 00:00:47.825000,0 days 00:00:56.996000,248.0,219.0,216.0,282.0,medium,6.0
0 days 01:43:03.577000,77,0 days 00:01:44.640000,24,"","",0 days 00:00:18.463000,0 days 00:00:44.051000,0 days 00:00:42.126000,281.0,272.0,211.0,317.0,medium,7.0
0 days 01:44:47.285000,77,0 days 00:01:43.708000,25,"","",0 days 00:00:17.872000,0 days 00:00:43.759000,0 days 00:00:42.077000,288.0,289.0,212.0,310.0,medium,8.0
0 days 01:46:30.956000,77,0 days 00:01:43.671000,26,"","",0 days 00:00:17.919000,0 days 00:00:43.859000,0 days 00:00:41.893000,278.0,293.0,213.0,323.0,medium,9.0
0 days 01:48:51.910000,77,0 days 00:02:20.954000,27,"","",0 days 00:00:22.320000,0 days 00:00:50.401000,0 days 00:01:08.233000,207.0,188.0,73.0,250.0,medium,10.0
0 days 01:51:07.691000,77,0 days 00:02:15.781000,28,"",0 days 01:51:06.673000,0 days 00:00:39.404000,0 days 00:00:47.977000,0 days 00:00:48.400000,244.0,201.0,"",204.0,medium,11.0
0 days 00:17:45.809000,99,"",1,0 days 00:15:14.814000,"","",0 days 00:00:56.751000,0 days 00:01:05.404000,158.0,150.0,218.0,166.0,test_unknown,1.0
0 days 00:19:27.947000,99,0 days 00:01:42.138000,2,"","",0 days 00:00:18.106000,0 days 00:00:43.209000,0 days 00:00:40.823000,282.0,310.0,220.0,321.0,test_unknown,2.0
0 days 00:21:56.383000,99,0 days 00:02:28.436000,3,"","",0 days 00:00:25.684000,0 days 00:01:04.299000,0 days 00:00:58.453000,133.0,133.0,222.0,160.0,test_unknown,3.0
0 days 00:23:37.646000,99,0 days 00:01:41.263000,4,"","",0 days 00:00:17.856000,0 days 00:00:42.933000,0 days 00:00:40.474000,282.0,310.0,216.0,319.0,test_unknown,4.0
0 days 00:26:02.550000,99,0 days 00:02:24.904000,5,"","",0 days 00:00:23.400000,0 days 00:01:00.674000,0 days 00:01:00.830000,165.0,158.0,221.0,167.0,test_unknown,5.0
0 days 00:27:43.183000,99,0 days 00:01:40.633000,6,"","",0 days 00:00:17.769000,0 days 00:00:42.602000,0 days 00:00:40.262000,283.0,312.0,215.0,318.0,test_unknown,6.0
0 days 00:30:21.797000,99,"",7,"","",0 days 00:00:26.038000,0 days 00:01:08.824000,0 days 00:01:03.720000,122.0,155.0,222.0,144.0,test_unknown,7.0
0 days 00:32:02.165000,99,0 days 00:01:40.368000,8,"","",0 days 00:00:17.666000,0 days 00:00:42.642000,0 days 00:00:40.060000,283.0,314.0,218.0,320.0,test_unknown,8.0
0 days 00:34:29.814000,99,0 days 00:02:27.649000,9,"","",0 days 00:00:25.209000,0 days 00:01:04.531000,0 days 00:00:57.909000,133.0,200.0,223.0,145.0,test_unknown,9.0
0 days 00:36:14.772000,99,0 days 00:01:44.958000,10,"",0 days 00:36:13.689000,0 days 00:00:17.575000,0 days 00:00:42.487000,0 days 00:00:44.896000,283.0,311.0,"",318.0,test_unknown,10.0
0 days 00:42:57.238000,99,"",11,0 days 00:40:41.834000,"","",0 days 00:00:57.162000,0 days 00:00:55.973000,164.0,154.0,222.0,224.0,medium,1.0
0 days 00:44:36.345000,99,0 days 00:01:39.107000,12,"","",0 days 00:00:17.528000,0 days 00:00:41.981000,0 days 00:00:39.598000,283.0,314.0,212.0,319.0,medium,2.0
0 days 00:47:00.331000,99,0 days 00:02:23.986000,13,"","",0 days 00:00:23.811000,0 days 00:01:01.772000,0 days 00:00:58.403000,155.0,147.0,224.0,147.0,medium,3.0
0 days 00:48:40.792000,99,0 days 00:01:40.461000,14,"","",0 days 00:00:17.502000,0 days 00:00:42.089000,0 days 00:00:40.870000,284.0,314.0,214.0,321.0,medium,4.0
0 days 00:50:55.992000,99,0 days 00:02:15.200000,15,"","",0 days 00:00:24.020000,0 days 00:00:59.470000,0 days 00:00:51.710000,153.0,146.0,224.0,209.0,medium,5.0
0 days 00:52:35.691000,99,0 days 00:01:39.699000,16,"","",0 days 00:00:17.523000,0 days 00:00:42.201000,0 days 00:00:39.975000,285.0,314.0,213.0,318.0,medium,6.0
0 days 00:55:02.203000,99,0 days 00:02:26.512000,17,"","",0 days 00:00:24.993000,0 days 00:01:05.082000,0 days 00:00:56.437000,129.0,147.0,224.0,151.0,medium,7.0
0 days 00:56:41.924000,99,0 days 00:01:39.721000,18,"","",0 days 00:00:17.502000,0 days 00:00:42.179000,0 days 00:00:40.040000,286.0,315.0,212.0,320.0,medium,8.0
0 days 00:58:49.855000,99,0 days 00:02:07.931000,19,"",0 days 00:58:49.619000,0 days 00:00:21.659000,0 days 00:00:52.514000,0 days 00:00:53.758000,217.0,178.0,"",209.0,medium,9.0
0 days 01:11:49.757000,99,"",20,0 days 01:09:32.765000,"","",0 days 00:00:57.567000,0 days 00:00:55.594000,159.0,225.0,223.0,156.0,soft,1.0
0 days 01:13:28.321000,99,0 days 00:01:38.564000,21,"","",0 days 00:00:17.557000,0 days 00:00:41.935000,0 days 00:00:39.072000,286.0,312.0,216.0,323.0,soft,2.0
0 days 01:16:06.500000,99,"",22,"","",0 days 00:00:24.789000,0 days 00:01:10.185000,0 days 00:01:03.240000,131.0,126.0,223.0,124.0,soft,3.0
0 days 01:18:31.828000,99,0 days 00:02:25.328000,23,"","",0 days 00:00:20.996000,0 days 00:01:04.337000,0 days 00:00:59.995000,159.0,141.0,223.0,162.0,soft,4.0
0 days 01:20:18.651000,99,0 days 00:01:46.823000,24,"",0 days 01:20:17.673000,0 days 00:00:17.515000,0 days 00:00:42.174000,0 days 00:00:47.134000,287.0,316.0,"",321.0,soft,5.0
0 days 01:39:08.846000,99,"",25,0 days 01:26:20.389000,0 days 01:28:40.930000,"","","",205.0,"","",183.0,soft,6.0
0 days 01:41:10.708000,99,"",26,0 days 01:39:08.835000,"","",0 days 00:00:47.295000,0 days 00:00:53.989000,250.0,288.0,214.0,197.0,medium,10.0
0 days 01:42:54.336000,99,0 days 00:01:43.628000,27,"","",0 days 00:00:18.091000,0 days 00:00:44.119000,0 days 00:00:41.418000,281.0,292.0,212.0,299.0,medium,11.0
0 days 01:44:38.770000,99,0 days 00:01:44.434000,28,"","",0 days 00:00:18.140000,0 days 00:00:44.490000,0 days 00:00:41.804000,278.0,289.0,214.0,296.0,medium,12.0
0 days 01:46:24.067000,99,0 days 00:01:45.297000,29,"","",0 days 00:00:18.551000,0 days 00:00:44.754000,0 days 00:00:41.992000,277.0,291.0,213.0,296.0,medium,13.0
0 days 01:48:32.093000,99,0 days 00:02:08.026000,30,"","",0 days 00:00:22.233000,0 days 00:00:48.649000,0 days 00:00:57.144000,239.0,223.0,46.0,187.0,medium,14.0
0 days 01:50:53.392000,99,0 days 00:02:21.299000,31,"",0 days 01:50:52.485000,0 days 00:00:46.957000,0 days 00:00:47.318000,0 days 00:00:47.024000,253.0,251.0,"",245.0,medium,15.0
