2020-09-25 12:00:00	GREEN LIGHT - PIT EXIT OPEN
2020-09-25 12:09:27	CAR 4 (NOR) MISSED THE APEX OF TURN 2
2020-09-25 12:11:11	CAR 4 (NOR) TIME 2:15.706 DELETED - TRACK LIMITS AT TURN 2
2020-09-25 12:14:11	YELLOW IN TRACK SECTOR 15
2020-09-25 12:14:12	DRS DISABLED IN ZONE 2
2020-09-25 12:14:12	DOUBLE YELLOW IN TRACK SECTOR 15
2020-09-25 12:14:17	CLEAR IN TRACK SECTOR 15
2020-09-25 12:14:18	DRS ENABLED IN ZONE 2
2020-09-25 12:14:31	CAR 18 (STR) SPUN AND CONTINUED AT TURN 13
2020-09-25 12:28:48	CAR 77 (BOT) MISSED THE APEX OF TURN 2
2020-09-25 12:30:42	CAR 77 (BOT) OFF TRACK AND CONTINUED AT TURN 13
2020-09-25 12:30:54	CAR 77 (BOT) TIME 2:03.260 DELETED - TRACK LIMITS AT TURN 2
2020-09-25 12:32:09	CORRECTION - CAR 44 (HAM) OFF TRACK AND CONTINUED AT TURN 13
2020-09-25 12:42:08	CAR 8 (GRO) MISSED THE APEX OF TURN 2
2020-09-25 12:44:45	YELLOW IN TRACK SECTOR 16
2020-09-25 12:44:50	DOUBLE YELLOW IN TRACK SECTOR 16
2020-09-25 12:44:56	CLEAR IN TRACK SECTOR 16
2020-09-25 12:45:05	CAR 33 (VER) SPUN AND CONTINUED AT TURN 14
2020-09-25 13:00:17	CAR 77 (BOT) OFF TRACK AND CONTINUED AT TURN 14
2020-09-25 13:01:18	CAR 44 (HAM) OFF TRACK AND CONTINUED AT TURN 13
2020-09-25 13:18:13	CAR 16 (LEC) OFF TRACK AND CONTINUED AT TURN 17
2020-09-25 13:30:00	CHEQUERED FLAG
2020-09-25 13:36:30	DOUBLE YELLOW IN TRACK SECTOR 3
2020-09-25 13:39:02	CLEAR IN TRACK SECTOR 3
2020-09-25 13:39:10	YELLOW IN TRACK SECTOR 6
2020-09-25 13:39:32	DOUBLE YELLOW IN TRACK SECTOR 6
2020-09-25 13:39:42	YELLOW IN TRACK SECTOR 4
