Time,AirTemp,Humidity,Pressure,Rainfall,TrackTemp,WindDirection,WindSpeed
0 days 00:00:14.085000,19.4,67.9,998.0,false,29.0,195,3.4
0 days 00:01:14.080000,19.5,68.1,998.0,false,29.6,212,3.2
0 days 00:02:14.092000,19.6,67.5,998.0,false,30.1,199,3.3
0 days 00:03:14.089000,19.6,67.5,998.0,false,30.1,199,3.3
0 days 00:04:14.100000,19.6,66.5,998.0,false,30.0,234,4.6
0 days 00:05:14.141000,19.6,66.6,998.0,false,29.0,198,3.8
0 days 00:06:14.070000,19.5,67.1,998.0,false,28.8,225,3.6
0 days 00:07:14.096000,19.5,67.1,998.0,false,29.0,219,3.9
0 days 00:09:14.115000,19.5,67.3,997.9,false,29.8,216,3.0
0 days 00:10:14.119000,19.7,66.9,997.9,false,30.7,231,2.6
0 days 00:11:14.110000,19.7,66.9,997.9,false,30.7,231,2.6
0 days 00:12:14.120000,19.8,67.5,998.0,false,30.7,200,2.4
0 days 00:13:14.148000,20.0,66.3,998.0,false,31.6,224,3.1
0 days 00:14:14.155000,20.0,66.3,998.0,false,31.6,224,3.1
0 days 00:15:14.129000,19.9,66.8,998.1,false,31.2,201,4.0
0 days 00:16:14.147000,19.9,66.0,998.0,false,30.1,220,4.0
0 days 00:17:14.139000,19.8,66.3,998.0,false,29.4,216,3.8
0 days 00:18:14.143000,19.7,66.3,998.0,false,29.0,194,4.1
0 days 00:19:14.147000,19.7,66.3,998.0,false,29.0,194,4.1
0 days 00:20:14.174000,19.5,66.6,997.9,false,28.2,195,3.6
0 days 00:21:14.176000,19.5,67.1,998.0,false,28.2,194,4.0
0 days 00:22:14.188000,19.5,67.2,997.9,false,27.8,226,3.7
0 days 00:23:14.172000,19.7,66.6,998.1,false,29.0,201,4.0
0 days 00:24:14.204000,19.7,67.0,998.0,false,30.4,210,3.2
0 days 00:25:14.227000,19.6,66.8,998.0,false,30.4,205,3.0
0 days 00:26:14.242000,19.7,66.8,997.9,false,30.2,214,3.0
0 days 00:27:14.240000,19.9,66.1,997.9,false,30.2,223,3.4
0 days 00:28:14.241000,19.9,66.1,997.9,false,30.2,223,3.4
0 days 00:29:14.231000,20.4,64.0,997.9,false,32.8,200,2.7
0 days 00:30:14.223000,20.6,63.6,997.8,false,33.5,227,4.2
0 days 00:31:14.246000,20.7,63.3,997.9,false,33.7,202,4.9
0 days 00:32:14.215000,20.7,62.0,997.8,false,33.5,200,4.3
0 days 00:33:14.237000,20.7,62.0,997.8,false,33.5,200,4.3
0 days 00:34:14.248000,20.4,63.6,997.9,false,31.8,200,4.1
0 days 00:35:14.245000,20.3,63.1,997.9,false,31.2,205,3.6
0 days 00:36:14.247000,20.3,63.5,997.8,false,31.2,209,3.5
0 days 00:37:14.232000,20.4,63.3,997.9,false,33.4,224,4.1
0 days 00:38:14.248000,20.4,63.3,997.9,false,33.4,224,4.1
0 days 00:39:14.238000,20.5,61.7,998.0,false,32.8,219,3.5
0 days 00:40:14.241000,20.6,61.1,997.9,false,33.0,219,3.4
0 days 00:41:14.226000,20.6,61.1,997.9,false,33.0,219,3.4
0 days 00:42:14.254000,20.7,61.6,997.8,false,33.8,201,2.9
0 days 00:43:14.237000,20.7,61.6,997.8,false,33.8,201,2.9
0 days 00:44:14.254000,20.9,59.9,997.9,false,34.7,210,4.2
0 days 00:45:14.241000,21.1,60.1,997.9,false,35.0,228,4.5
0 days 00:46:14.239000,21.1,59.5,997.8,false,34.9,193,3.4
0 days 00:47:14.251000,21.1,59.5,997.8,false,34.9,193,3.4
0 days 00:48:14.237000,21.1,60.2,997.8,false,34.9,215,2.3
0 days 00:49:14.258000,21.2,59.1,997.8,false,34.9,208,5.0
0 days 00:50:14.260000,20.9,60.3,997.8,false,33.9,193,3.2
0 days 00:51:14.234000,20.9,60.8,997.8,false,34.1,209,3.1
0 days 00:52:14.260000,21.0,61.1,997.8,false,34.8,198,2.6
0 days 00:53:14.248000,21.1,59.9,997.8,false,35.1,205,4.2
0 days 00:54:14.261000,21.0,59.7,997.7,false,34.1,206,4.5
0 days 00:55:14.237000,21.0,59.7,997.7,false,34.1,206,4.5
0 days 00:56:14.275000,21.0,59.5,997.7,false,33.7,209,3.8
0 days 00:57:14.261000,20.9,60.2,997.8,false,35.0,223,2.9
0 days 00:58:14.255000,21.3,59.1,997.8,false,36.4,202,4.0
0 days 00:59:14.250000,21.3,58.0,997.8,false,36.7,227,3.9
0 days 01:00:14.265000,21.2,59.1,997.8,false,36.7,223,3.3
0 days 01:01:14.268000,21.3,58.7,997.8,false,37.0,211,3.6
0 days 01:02:14.269000,21.2,59.0,997.8,false,36.4,210,2.6
0 days 01:03:14.275000,21.2,59.0,997.8,false,36.4,210,2.6
0 days 01:04:14.253000,21.3,59.2,997.8,false,35.2,219,3.8
0 days 01:05:14.243000,21.3,59.2,997.8,false,35.2,219,3.8
0 days 01:06:14.257000,21.4,59.3,997.9,false,34.1,201,4.1
0 days 01:07:14.278000,21.1,59.9,997.8,false,33.2,197,4.9
0 days 01:08:14.261000,20.9,60.1,997.8,false,33.3,208,5.5
0 days 01:09:14.261000,20.9,60.5,997.8,false,33.3,206,4.8
0 days 01:10:14.266000,20.9,60.4,997.9,false,35.4,206,4.4
0 days 01:11:14.269000,20.9,60.4,997.9,false,35.4,206,4.4
0 days 01:12:14.275000,21.1,59.1,997.9,false,36.1,203,3.5
0 days 01:13:14.279000,21.1,59.1,997.9,false,36.1,203,3.5
0 days 01:14:14.273000,21.4,58.1,997.9,false,35.7,209,3.6
0 days 01:15:14.277000,21.6,57.4,997.9,false,35.7,223,4.5
0 days 01:16:14.264000,21.5,58.0,997.8,false,35.7,225,4.5
0 days 01:17:14.268000,21.6,57.9,997.8,false,35.7,207,3.0
0 days 01:18:14.281000,21.7,57.7,997.9,false,35.8,210,5.4
0 days 01:19:14.253000,21.7,58.1,997.9,false,35.9,209,5.0
0 days 01:20:14.276000,21.7,56.9,997.8,false,37.0,216,5.2
0 days 01:21:14.277000,21.6,57.7,997.9,false,37.4,203,4.1
