Time,DriverNumber,LapTime,LapNumber,PitOutTime,PitInTime,Sector1Time,Sector2Time,Sector3Time,SpeedI1,SpeedI2,SpeedFL,SpeedST,Compound,TyreLife
0 days 00:18:34.995000,3,"",1,0 days 00:16:45.199000,"","",0 days 00:00:46.934000,0 days 00:00:31.270000,267.0,228.0,248.0,280.0,hard,1.0
0 days 00:20:05.513000,3,0 days 00:01:30.518000,2,"","",0 days 00:00:28.413000,0 days 00:00:36.902000,0 days 00:00:25.203000,314.0,261.0,249.0,310.0,hard,2.0
0 days 00:22:26.816000,3,0 days 00:02:21.303000,3,"","",0 days 00:00:46.340000,0 days 00:00:58.038000,0 days 00:00:36.925000,139.0,193.0,250.0,196.0,hard,3.0
0 days 00:23:56.604000,3,0 days 00:01:29.788000,4,"","",0 days 00:00:28.237000,0 days 00:00:36.791000,0 days 00:00:24.760000,316.0,264.0,253.0,316.0,hard,4.0
0 days 00:25:51.824000,3,0 days 00:01:55.220000,5,"",0 days 00:25:45.750000,0 days 00:00:34.928000,0 days 00:00:53.428000,0 days 00:00:26.864000,264.0,223.0,"",287.0,hard,5.0
0 days 00:37:16.479000,3,"",6,0 days 00:35:34.495000,"","",0 days 00:00:42.820000,0 days 00:00:27.733000,283.0,235.0,250.0,290.0,hard,6.0
0 days 00:38:45.966000,3,0 days 00:01:29.487000,7,"","",0 days 00:00:28.189000,0 days 00:00:36.528000,0 days 00:00:24.770000,314.0,262.0,250.0,313.0,hard,7.0
0 days 00:40:53.331000,3,0 days 00:02:07.365000,8,"","",0 days 00:00:39.045000,0 days 00:00:53.158000,0 days 00:00:35.162000,258.0,193.0,254.0,198.0,hard,8.0
0 days 00:42:22.396000,3,0 days 00:01:29.065000,9,"","",0 days 00:00:27.868000,0 days 00:00:36.494000,0 days 00:00:24.703000,317.0,262.0,252.0,316.0,hard,9.0
0 days 00:44:15.436000,3,0 days 00:01:53.040000,10,"",0 days 00:44:12.192000,0 days 00:00:35.999000,0 days 00:00:48.998000,0 days 00:00:28.043000,237.0,228.0,"",288.0,hard,10.0
0 days 01:08:15.522000,3,"",11,0 days 00:57:27.147000,0 days 00:59:34.064000,"","","","","","","",soft,1.0
0 days 01:10:15.837000,3,"",12,0 days 01:08:15.522000,"","",0 days 00:00:47.504000,0 days 00:00:37.110000,236.0,204.0,255.0,281.0,soft,2.0
0 days 01:11:43.949000,3,0 days 00:01:28.112000,13,"","",0 days 00:00:27.569000,0 days 00:00:36.136000,0 days 00:00:24.407000,324.0,263.0,254.0,319.0,soft,3.0
0 days 01:13:34.434000,3,0 days 00:01:50.485000,14,"",0 days 01:13:28.333000,0 days 00:00:34.717000,0 days 00:00:46.683000,0 days 00:00:29.085000,265.0,219.0,"",277.0,soft,4.0
0 days 01:23:34.137000,3,"",15,0 days 01:21:51.222000,0 days 01:23:28.005000,"",0 days 00:00:43.109000,0 days 00:00:27.851000,272.0,224.0,"",286.0,soft,5.0
0 days 01:25:37.321000,3,0 days 00:02:03.184000,16,0 days 01:24:02.985000,"",0 days 00:00:57.098000,0 days 00:00:39.973000,0 days 00:00:26.113000,296.0,249.0,244.0,292.0,soft,6.0
0 days 01:27:10.891000,3,0 days 00:01:33.570000,17,"","",0 days 00:00:29.096000,0 days 00:00:38.503000,0 days 00:00:25.971000,300.0,253.0,245.0,296.0,soft,7.0
0 days 01:28:49.186000,3,0 days 00:01:38.295000,18,"","",0 days 00:00:29.298000,0 days 00:00:38.823000,0 days 00:00:30.174000,"",251.0,234.0,299.0,soft,8.0
0 days 01:30:23.006000,3,0 days 00:01:33.820000,19,"","",0 days 00:00:29.285000,0 days 00:00:38.602000,0 days 00:00:25.933000,"",252.0,245.0,296.0,soft,9.0
0 days 01:31:57.677000,3,0 days 00:01:34.671000,20,"","",0 days 00:00:29.538000,0 days 00:00:38.751000,0 days 00:00:26.382000,301.0,251.0,244.0,300.0,soft,10.0
0 days 01:33:31.129000,3,0 days 00:01:33.452000,21,"","",0 days 00:00:29.436000,0 days 00:00:38.220000,0 days 00:00:25.796000,"",253.0,245.0,301.0,soft,11.0
0 days 01:35:04.805000,3,0 days 00:01:33.676000,22,"","",0 days 00:00:29.257000,0 days 00:00:38.314000,0 days 00:00:26.105000,302.0,252.0,243.0,302.0,soft,12.0
0 days 01:36:37.982000,3,0 days 00:01:33.177000,23,"","",0 days 00:00:29.329000,0 days 00:00:38.041000,0 days 00:00:25.807000,298.0,253.0,243.0,296.0,soft,13.0
0 days 01:38:11.414000,3,0 days 00:01:33.432000,24,"","",0 days 00:00:29.340000,0 days 00:00:38.106000,0 days 00:00:25.986000,"",253.0,244.0,299.0,soft,14.0
0 days 01:39:45.097000,3,0 days 00:01:33.683000,25,"","",0 days 00:00:29.397000,0 days 00:00:37.994000,0 days 00:00:26.292000,295.0,252.0,243.0,298.0,soft,15.0
0 days 01:41:19.077000,3,0 days 00:01:33.980000,26,"","",0 days 00:00:29.516000,0 days 00:00:38.313000,0 days 00:00:26.151000,296.0,251.0,242.0,300.0,soft,16.0
0 days 01:42:52.250000,3,0 days 00:01:33.173000,27,"","",0 days 00:00:29.408000,0 days 00:00:37.893000,0 days 00:00:25.872000,295.0,252.0,244.0,295.0,soft,17.0
0 days 01:44:36.884000,3,0 days 00:01:44.634000,28,"","",0 days 00:00:33.401000,0 days 00:00:41.654000,0 days 00:00:29.579000,262.0,238.0,226.0,277.0,soft,18.0
0 days 01:46:57.274000,3,0 days 00:02:20.390000,29,"","",0 days 00:00:31.644000,0 days 00:00:42.689000,0 days 00:01:06.057000,258.0,228.0,5.0,243.0,soft,19.0
0 days 01:49:15.490000,3,0 days 00:02:18.216000,30,"",0 days 01:49:09.452000,0 days 00:00:53.950000,0 days 00:00:53.274000,0 days 00:00:30.992000,256.0,178.0,"",236.0,soft,20.0
0 days 00:29:15.144000,63,"",1,0 days 00:27:24.881000,"","",0 days 00:00:43.715000,0 days 00:00:36.634000,312.0,238.0,249.0,295.0,hard,1.0
0 days 00:30:45.688000,63,0 days 00:01:30.544000,2,"","",0 days 00:00:28.343000,0 days 00:00:37.166000,0 days 00:00:25.035000,318.0,257.0,247.0,310.0,hard,2.0
0 days 00:32:43.892000,63,0 days 00:01:58.204000,3,"","",0 days 00:00:34.336000,0 days 00:00:49.843000,0 days 00:00:34.025000,291.0,191.0,251.0,237.0,hard,3.0
0 days 00:34:20.526000,63,0 days 00:01:36.634000,4,"",0 days 00:34:15.662000,0 days 00:00:28.660000,0 days 00:00:38.446000,0 days 00:00:29.528000,315.0,220.0,"",247.0,hard,4.0
0 days 00:52:10.469000,63,"",5,0 days 00:50:08.138000,"","",0 days 00:00:51.136000,0 days 00:00:35.519000,284.0,205.0,253.0,212.0,soft,1.0
0 days 00:53:39.240000,63,0 days 00:01:28.771000,6,"","",0 days 00:00:27.979000,0 days 00:00:36.304000,0 days 00:00:24.488000,316.0,263.0,250.0,315.0,soft,2.0
0 days 00:55:59.900000,63,0 days 00:02:20.660000,7,"","",0 days 00:00:46.965000,0 days 00:01:01.048000,0 days 00:00:32.647000,147.0,191.0,252.0,257.0,soft,3.0
0 days 00:57:29.505000,63,0 days 00:01:29.605000,8,"","",0 days 00:00:27.973000,0 days 00:00:36.431000,0 days 00:00:25.201000,315.0,262.0,226.0,315.0,soft,4.0
0 days 01:19:55.347000,63,"",9,"",0 days 00:59:41.857000,"","","","","","","",soft,5.0
0 days 01:21:28.444000,63,"",10,0 days 01:19:55.343000,"","",0 days 00:00:38.948000,0 days 00:00:25.964000,295.0,248.0,242.0,287.0,hard,5.0
0 days 01:23:01.977000,63,0 days 00:01:33.533000,11,"","",0 days 00:00:29.250000,0 days 00:00:38.191000,0 days 00:00:26.092000,287.0,252.0,244.0,283.0,hard,6.0
0 days 01:24:35.349000,63,0 days 00:01:33.372000,12,"","",0 days 00:00:29.264000,0 days 00:00:38.024000,0 days 00:00:26.084000,286.0,251.0,242.0,283.0,hard,7.0
0 days 01:26:08.632000,63,0 days 00:01:33.283000,13,"","",0 days 00:00:29.295000,0 days 00:00:38.038000,0 days 00:00:25.950000,290.0,250.0,245.0,283.0,hard,8.0
0 days 01:27:42.608000,63,0 days 00:01:33.976000,14,"","",0 days 00:00:29.349000,0 days 00:00:38.145000,0 days 00:00:26.482000,291.0,253.0,241.0,283.0,hard,9.0
0 days 01:29:16.644000,63,0 days 00:01:34.036000,15,"","",0 days 00:00:29.527000,0 days 00:00:38.275000,0 days 00:00:26.234000,286.0,251.0,243.0,282.0,hard,10.0
0 days 01:30:50.592000,63,0 days 00:01:33.948000,16,"","",0 days 00:00:29.463000,0 days 00:00:38.345000,0 days 00:00:26.140000,289.0,251.0,244.0,284.0,hard,11.0
0 days 01:32:23.947000,63,0 days 00:01:33.355000,17,"","",0 days 00:00:29.459000,0 days 00:00:37.904000,0 days 00:00:25.992000,287.0,253.0,245.0,282.0,hard,12.0
0 days 01:33:56.949000,63,0 days 00:01:33.002000,18,"","",0 days 00:00:29.289000,0 days 00:00:37.672000,0 days 00:00:26.041000,291.0,253.0,243.0,287.0,hard,13.0
0 days 01:35:30.318000,63,0 days 00:01:33.369000,19,"","",0 days 00:00:29.369000,0 days 00:00:37.977000,0 days 00:00:26.023000,"",253.0,244.0,284.0,hard,14.0
0 days 01:37:10.186000,63,0 days 00:01:39.868000,20,"","",0 days 00:00:29.382000,0 days 00:00:42.859000,0 days 00:00:27.627000,290.0,202.0,246.0,295.0,hard,15.0
0 days 01:38:43.105000,63,0 days 00:01:32.919000,21,"","",0 days 00:00:29.295000,0 days 00:00:37.617000,0 days 00:00:26.007000,283.0,254.0,246.0,278.0,hard,16.0
0 days 01:40:20.200000,63,0 days 00:01:37.095000,22,"","",0 days 00:00:33.443000,0 days 00:00:37.629000,0 days 00:00:26.023000,296.0,253.0,244.0,289.0,hard,17.0
0 days 01:42:10.040000,63,0 days 00:01:49.840000,23,"",0 days 01:42:07.282000,0 days 00:00:34.727000,0 days 00:00:44.030000,0 days 00:00:31.083000,180.0,223.0,"",118.0,hard,18.0
0 days 01:44:14.675000,63,0 days 00:02:04.635000,24,0 days 01:42:32.037000,"",0 days 00:00:52.050000,0 days 00:00:42.506000,0 days 00:00:30.079000,294.0,212.0,217.0,262.0,soft,6.0
0 days 01:46:27.817000,63,0 days 00:02:13.142000,25,"","",0 days 00:00:36.157000,0 days 00:00:50.713000,0 days 00:00:46.272000,230.0,184.0,65.0,156.0,soft,7.0
0 days 01:48:37.863000,63,0 days 00:02:10.046000,26,"",0 days 01:48:31.969000,0 days 00:00:54.613000,0 days 00:00:46.712000,0 days 00:00:28.721000,212.0,236.0,"",250.0,soft,8.0
0 days 00:25:27.961000,55,"",1,0 days 00:23:39.494000,"","",0 days 00:00:43.749000,0 days 00:00:34.872000,275.0,232.0,251.0,283.0,medium,1.0
0 days 00:26:57.271000,55,0 days 00:01:29.310000,2,"","",0 days 00:00:27.952000,0 days 00:00:36.404000,0 days 00:00:24.954000,311.0,263.0,247.0,309.0,medium,2.0
0 days 00:29:11.061000,55,0 days 00:02:13.790000,3,"","",0 days 00:00:38.321000,0 days 00:00:54.165000,0 days 00:00:41.304000,213.0,174.0,249.0,278.0,medium,3.0
0 days 00:30:40.571000,55,0 days 00:01:29.510000,4,"","",0 days 00:00:28.360000,0 days 00:00:36.260000,0 days 00:00:24.890000,313.0,263.0,250.0,312.0,medium,4.0
0 days 00:32:40.415000,55,0 days 00:01:59.844000,5,"","",0 days 00:00:33.235000,0 days 00:00:47.951000,0 days 00:00:38.658000,231.0,232.0,252.0,303.0,medium,5.0
0 days 00:34:19.255000,55,0 days 00:01:38.840000,6,"","",0 days 00:00:28.050000,0 days 00:00:40.633000,0 days 00:00:30.157000,313.0,228.0,252.0,238.0,medium,6.0
0 days 00:35:50.078000,55,0 days 00:01:30.823000,7,"","",0 days 00:00:28.105000,0 days 00:00:36.633000,0 days 00:00:26.085000,312.0,263.0,219.0,309.0,medium,7.0
0 days 00:37:38.066000,55,0 days 00:01:47.988000,8,"",0 days 00:37:32.164000,0 days 00:00:33.451000,0 days 00:00:46.660000,0 days 00:00:27.877000,238.0,211.0,"",270.0,medium,8.0
0 days 00:53:15.051000,55,"",9,0 days 00:51:26.902000,"","",0 days 00:00:45.947000,0 days 00:00:29.685000,292.0,219.0,255.0,289.0,soft,1.0
0 days 00:54:42.871000,55,0 days 00:01:27.820000,10,"","",0 days 00:00:27.644000,0 days 00:00:35.680000,0 days 00:00:24.496000,320.0,266.0,251.0,318.0,soft,2.0
0 days 00:56:39.912000,55,0 days 00:01:57.041000,11,"","",0 days 00:00:36.406000,0 days 00:00:50.163000,0 days 00:00:30.472000,253.0,192.0,250.0,238.0,soft,3.0
0 days 01:10:46.767000,55,"",12,"",0 days 00:58:23.634000,0 days 00:00:28.008000,"","",311.0,"","","",soft,4.0
0 days 01:12:22.486000,55,"",13,0 days 01:10:46.759000,"","",0 days 00:00:39.765000,0 days 00:00:27.119000,281.0,236.0,246.0,277.0,soft,5.0
0 days 01:13:55.703000,55,0 days 00:01:33.217000,14,"","",0 days 00:00:29.133000,0 days 00:00:38.066000,0 days 00:00:26.018000,293.0,255.0,243.0,290.0,soft,6.0
0 days 01:15:29.141000,55,0 days 00:01:33.438000,15,"","",0 days 00:00:29.057000,0 days 00:00:38.153000,0 days 00:00:26.228000,"",252.0,243.0,290.0,soft,7.0
0 days 01:17:04.796000,55,0 days 00:01:35.655000,16,"","",0 days 00:00:29.322000,0 days 00:00:38.154000,0 days 00:00:28.179000,296.0,253.0,242.0,292.0,soft,8.0
0 days 01:18:38.627000,55,0 days 00:01:33.831000,17,"","",0 days 00:00:29.444000,0 days 00:00:38.079000,0 days 00:00:26.308000,292.0,253.0,243.0,290.0,soft,9.0
0 days 01:20:12.281000,55,0 days 00:01:33.654000,18,"","",0 days 00:00:29.393000,0 days 00:00:38.100000,0 days 00:00:26.161000,291.0,253.0,243.0,289.0,soft,10.0
0 days 01:21:45.529000,55,0 days 00:01:33.248000,19,"","",0 days 00:00:29.293000,0 days 00:00:37.883000,0 days 00:00:26.072000,295.0,253.0,244.0,293.0,soft,11.0
0 days 01:23:18.860000,55,0 days 00:01:33.331000,20,"","",0 days 00:00:29.259000,0 days 00:00:37.995000,0 days 00:00:26.077000,"",256.0,244.0,293.0,soft,12.0
0 days 01:24:52.629000,55,0 days 00:01:33.769000,21,"","",0 days 00:00:29.318000,0 days 00:00:38.061000,0 days 00:00:26.390000,"",255.0,242.0,292.0,soft,13.0
0 days 01:26:26.401000,55,0 days 00:01:33.772000,22,"","",0 days 00:00:29.422000,0 days 00:00:37.986000,0 days 00:00:26.364000,290.0,254.0,243.0,290.0,soft,14.0
0 days 01:27:59.847000,55,0 days 00:01:33.446000,23,"",0 days 01:27:53.985000,0 days 00:00:29.528000,0 days 00:00:38.576000,0 days 00:00:25.342000,292.0,254.0,"",291.0,soft,15.0
0 days 01:29:53.731000,55,0 days 00:01:53.884000,24,0 days 01:28:22.745000,"",0 days 00:00:49.518000,0 days 00:00:38.357000,0 days 00:00:26.009000,303.0,256.0,247.0,323.0,medium,9.0
0 days 01:31:26.274000,55,0 days 00:01:32.543000,25,"","",0 days 00:00:29.085000,0 days 00:00:37.551000,0 days 00:00:25.907000,285.0,257.0,247.0,289.0,medium,10.0
0 days 01:32:59.463000,55,0 days 00:01:33.189000,26,"","",0 days 00:00:29.308000,0 days 00:00:37.861000,0 days 00:00:26.020000,284.0,259.0,248.0,285.0,medium,11.0
0 days 01:34:36.485000,55,0 days 00:01:37.022000,27,"","",0 days 00:00:29.247000,0 days 00:00:38.347000,0 days 00:00:29.428000,292.0,257.0,248.0,288.0,medium,12.0
0 days 01:36:08.851000,55,0 days 00:01:32.366000,28,"","",0 days 00:00:28.963000,0 days 00:00:37.539000,0 days 00:00:25.864000,290.0,256.0,246.0,288.0,medium,13.0
0 days 01:37:41.524000,55,0 days 00:01:32.673000,29,"","",0 days 00:00:29.143000,0 days 00:00:37.620000,0 days 00:00:25.910000,288.0,257.0,245.0,286.0,medium,14.0
0 days 01:39:14.400000,55,0 days 00:01:32.876000,30,"","",0 days 00:00:29.161000,0 days 00:00:37.829000,0 days 00:00:25.886000,290.0,254.0,247.0,304.0,medium,15.0
0 days 01:40:57.456000,55,0 days 00:01:43.056000,31,"","",0 days 00:00:28.979000,0 days 00:00:43.714000,0 days 00:00:30.363000,307.0,223.0,250.0,273.0,medium,16.0
0 days 01:42:29.056000,55,0 days 00:01:31.600000,32,"","",0 days 00:00:28.777000,0 days 00:00:37.122000,0 days 00:00:25.701000,298.0,258.0,246.0,294.0,medium,17.0
0 days 01:44:04.106000,55,0 days 00:01:35.050000,33,"","",0 days 00:00:29.191000,0 days 00:00:37.629000,0 days 00:00:28.230000,292.0,256.0,245.0,239.0,medium,18.0
0 days 01:45:58.855000,55,0 days 00:01:54.749000,34,"","",0 days 00:00:32.167000,0 days 00:00:43.725000,0 days 00:00:38.857000,243.0,242.0,48.0,261.0,medium,19.0
0 days 01:48:32.127000,55,"",35,"",0 days 01:48:26.717000,0 days 00:00:57.961000,0 days 00:00:55.739000,0 days 00:00:39.564000,235.0,114.0,"",128.0,medium,20.0
0 days 00:31:01.693000,44,"",1,0 days 00:29:09.610000,"","",0 days 00:00:44.306000,0 days 00:00:35.114000,219.0,240.0,252.0,297.0,hard,1.0
0 days 00:32:55.935000,44,0 days 00:01:54.242000,2,"","",0 days 00:00:29.814000,0 days 00:00:46.755000,0 days 00:00:37.673000,263.0,233.0,250.0,296.0,hard,2.0
0 days 00:34:24.817000,44,0 days 00:01:28.882000,3,"","",0 days 00:00:27.967000,0 days 00:00:36.221000,0 days 00:00:24.694000,316.0,264.0,248.0,312.0,hard,3.0
0 days 00:36:32.475000,44,0 days 00:02:07.658000,4,"","",0 days 00:00:38.090000,0 days 00:00:51.698000,0 days 00:00:37.870000,238.0,234.0,251.0,283.0,hard,4.0
0 days 00:38:00.726000,44,0 days 00:01:28.251000,5,"","",0 days 00:00:27.932000,0 days 00:00:35.990000,0 days 00:00:24.329000,318.0,267.0,252.0,316.0,hard,5.0
0 days 00:40:12.528000,44,0 days 00:02:11.802000,6,"","",0 days 00:00:44.191000,0 days 00:00:59.360000,0 days 00:00:28.251000,129.0,212.0,252.0,284.0,hard,6.0
0 days 00:41:48.527000,44,0 days 00:01:35.999000,7,"",0 days 00:41:46.600000,0 days 00:00:27.884000,0 days 00:00:36.191000,0 days 00:00:31.924000,316.0,263.0,"",180.0,hard,7.0
0 days 00:44:08.213000,44,0 days 00:02:19.686000,8,0 days 00:42:21.055000,0 days 00:44:03.210000,0 days 00:01:06.090000,0 days 00:00:46.731000,0 days 00:00:26.865000,258.0,228.0,"",290.0,hard,8.0
0 days 00:53:33.856000,44,"",9,0 days 00:51:33.594000,"","",0 days 00:00:52.564000,0 days 00:00:33.092000,277.0,198.0,255.0,272.0,soft,1.0
0 days 00:55:01.437000,44,0 days 00:01:27.581000,10,"","",0 days 00:00:27.734000,0 days 00:00:35.550000,0 days 00:00:24.297000,317.0,267.0,250.0,318.0,soft,2.0
0 days 00:57:21.726000,44,0 days 00:02:20.289000,11,"",0 days 00:57:15.788000,0 days 00:00:46.806000,0 days 00:01:00.952000,0 days 00:00:32.531000,163.0,169.0,"",236.0,soft,3.0
0 days 01:10:02.283000,44,"",12,0 days 01:08:13.306000,"","",0 days 00:00:48.959000,0 days 00:00:26.961000,273.0,233.0,252.0,297.0,soft,4.0
0 days 01:11:38.229000,44,0 days 00:01:35.946000,13,"",0 days 01:11:32.290000,0 days 00:00:27.745000,0 days 00:00:42.047000,0 days 00:00:26.154000,316.0,237.0,"",288.0,soft,5.0
0 days 01:19:25.291000,44,"",14,0 days 01:17:50.778000,"","",0 days 00:00:38.931000,0 days 00:00:26.282000,295.0,252.0,248.0,297.0,soft,6.0
0 days 01:20:56.659000,44,0 days 00:01:31.368000,15,"","",0 days 00:00:28.900000,0 days 00:00:37.087000,0 days 00:00:25.381000,300.0,256.0,245.0,297.0,soft,7.0
0 days 01:22:28.738000,44,0 days 00:01:32.079000,16,"","",0 days 00:00:29.210000,0 days 00:00:37.347000,0 days 00:00:25.522000,296.0,255.0,244.0,296.0,soft,8.0
0 days 01:24:00.950000,44,0 days 00:01:32.212000,17,"",0 days 01:23:55.348000,0 days 00:00:29.249000,0 days 00:00:37.519000,0 days 00:00:25.444000,288.0,257.0,"",286.0,soft,9.0
0 days 01:26:02.205000,44,0 days 00:02:01.255000,18,0 days 01:24:28.549000,"",0 days 00:00:54.371000,0 days 00:00:37.456000,0 days 00:00:29.428000,294.0,257.0,249.0,288.0,hard,9.0
0 days 01:27:34.266000,44,0 days 00:01:32.061000,19,"","",0 days 00:00:28.945000,0 days 00:00:37.405000,0 days 00:00:25.711000,292.0,256.0,244.0,286.0,hard,10.0
0 days 01:29:06.774000,44,0 days 00:01:32.508000,20,"","",0 days 00:00:29.091000,0 days 00:00:37.284000,0 days 00:00:26.133000,294.0,254.0,242.0,297.0,hard,11.0
0 days 01:30:39.867000,44,0 days 00:01:33.093000,21,"","",0 days 00:00:29.298000,0 days 00:00:38.341000,0 days 00:00:25.454000,298.0,256.0,247.0,293.0,hard,12.0
0 days 01:32:12.266000,44,0 days 00:01:32.399000,22,"","",0 days 00:00:29.078000,0 days 00:00:37.784000,0 days 00:00:25.537000,292.0,255.0,245.0,288.0,hard,13.0
0 days 01:33:44.003000,44,0 days 00:01:31.737000,23,"","",0 days 00:00:29.052000,0 days 00:00:37.313000,0 days 00:00:25.372000,294.0,257.0,246.0,292.0,hard,14.0
0 days 01:35:15.417000,44,0 days 00:01:31.414000,24,"",0 days 01:35:11.405000,0 days 00:00:28.920000,0 days 00:00:37.347000,0 days 00:00:25.147000,299.0,255.0,"",292.0,hard,15.0
0 days 01:43:06.025000,44,"",25,0 days 01:41:32.252000,"","",0 days 00:00:38.413000,0 days 00:00:26.534000,279.0,249.0,244.0,294.0,soft,10.0
0 days 01:45:27.616000,44,0 days 00:02:21.591000,26,"","",0 days 00:00:41.122000,0 days 00:00:53.095000,0 days 00:00:47.374000,150.0,233.0,49.0,239.0,soft,11.0
0 days 01:47:36.988000,44,0 days 00:02:09.372000,27,"",0 days 01:47:29.615000,0 days 00:00:56.392000,0 days 00:00:44.774000,0 days 00:00:28.206000,243.0,192.0,"",274.0,soft,12.0
0 days 00:29:01.660000,33,"",1,0 days 00:27:12.658000,"","",0 days 00:00:42.685000,0 days 00:00:36.407000,286.0,242.0,257.0,290.0,medium,1.0
0 days 00:30:30.050000,33,0 days 00:01:28.390000,2,"","",0 days 00:00:27.808000,0 days 00:00:35.920000,0 days 00:00:24.662000,318.0,269.0,253.0,314.0,medium,2.0
0 days 00:32:33.930000,33,0 days 00:02:03.880000,3,"","",0 days 00:00:39.296000,0 days 00:00:52.057000,0 days 00:00:32.527000,226.0,230.0,256.0,290.0,medium,3.0
0 days 00:34:02.398000,33,0 days 00:01:28.468000,4,"","",0 days 00:00:27.689000,0 days 00:00:36.144000,0 days 00:00:24.635000,319.0,269.0,252.0,316.0,medium,4.0
0 days 00:35:44.199000,33,0 days 00:01:41.801000,5,"",0 days 00:35:38.515000,0 days 00:00:30.299000,0 days 00:00:45.044000,0 days 00:00:26.458000,282.0,243.0,"",281.0,medium,5.0
0 days 00:52:26.449000,33,"",6,0 days 00:50:35.248000,"","",0 days 00:00:48.808000,0 days 00:00:30.009000,259.0,191.0,259.0,277.0,soft,1.0
0 days 00:54:17.252000,33,0 days 00:01:50.803000,7,"","",0 days 00:00:27.469000,0 days 00:00:40.058000,0 days 00:00:43.276000,314.0,122.0,180.0,156.0,soft,2.0
0 days 00:56:20.396000,33,0 days 00:02:03.144000,8,"","",0 days 00:00:38,0 days 00:00:52.945000,0 days 00:00:32.199000,218.0,224.0,257.0,231.0,soft,3.0
0 days 01:20:59.647000,33,"",9,"",0 days 00:57:48.493000,0 days 00:00:27.492000,0 days 00:00:35.697000,"",318.0,268.0,"",283.0,soft,4.0
0 days 01:22:33.651000,33,"",10,0 days 01:20:59.647000,"","",0 days 00:00:38.913000,0 days 00:00:26.862000,295.0,253.0,247.0,287.0,soft,5.0
0 days 01:24:05.781000,33,0 days 00:01:32.130000,11,"","",0 days 00:00:28.764000,0 days 00:00:37.611000,0 days 00:00:25.755000,293.0,257.0,245.0,292.0,soft,6.0
0 days 01:25:38.534000,33,0 days 00:01:32.753000,12,"",0 days 01:25:32.805000,0 days 00:00:29.024000,0 days 00:00:38.113000,0 days 00:00:25.616000,294.0,255.0,"",292.0,soft,7.0
0 days 01:31:15.497000,33,"",13,0 days 01:29:43.330000,"","",0 days 00:00:38.057000,0 days 00:00:26.037000,292.0,257.0,249.0,288.0,medium,6.0
0 days 01:32:46.861000,33,0 days 00:01:31.364000,14,"","",0 days 00:00:28.680000,0 days 00:00:37.194000,0 days 00:00:25.490000,295.0,258.0,249.0,294.0,medium,7.0
0 days 01:34:18.463000,33,0 days 00:01:31.602000,15,"","",0 days 00:00:28.715000,0 days 00:00:37.389000,0 days 00:00:25.498000,294.0,258.0,248.0,291.0,medium,8.0
0 days 01:36:00.121000,33,0 days 00:01:41.658000,16,"","",0 days 00:00:28.850000,0 days 00:00:37.539000,0 days 00:00:35.269000,297.0,256.0,248.0,285.0,medium,9.0
0 days 01:37:32.142000,33,0 days 00:01:32.021000,17,"","",0 days 00:00:28.942000,0 days 00:00:37.455000,0 days 00:00:25.624000,295.0,257.0,248.0,289.0,medium,10.0
0 days 01:39:04.366000,33,0 days 00:01:32.224000,18,"","",0 days 00:00:29.099000,0 days 00:00:37.485000,0 days 00:00:25.640000,292.0,258.0,247.0,289.0,medium,11.0
0 days 01:40:36.298000,33,0 days 00:01:31.932000,19,"","",0 days 00:00:28.983000,0 days 00:00:37.300000,0 days 00:00:25.649000,"",258.0,247.0,290.0,medium,12.0
0 days 01:42:14.128000,33,0 days 00:01:37.830000,20,"","",0 days 00:00:28.989000,0 days 00:00:37.484000,0 days 00:00:31.357000,296.0,255.0,249.0,291.0,medium,13.0
0 days 01:43:45.992000,33,0 days 00:01:31.864000,21,"","",0 days 00:00:28.986000,0 days 00:00:37.208000,0 days 00:00:25.670000,295.0,258.0,248.0,290.0,medium,14.0
0 days 01:46:23.685000,33,"",22,"","",0 days 00:00:43.184000,0 days 00:01:04.240000,0 days 00:00:50.219000,163.0,139.0,67.0,152.0,medium,15.0
0 days 01:48:26.732000,33,0 days 00:02:03.047000,23,"",0 days 01:48:20.804000,0 days 00:00:56.797000,0 days 00:00:38.845000,0 days 00:00:27.405000,277.0,255.0,"",276.0,medium,16.0
0 days 00:26:31.902000,31,"",1,0 days 00:24:39.627000,"","",0 days 00:00:45.539000,0 days 00:00:34.312000,286.0,242.0,253.0,308.0,hard,1.0
0 days 00:28:26.813000,31,0 days 00:01:54.911000,2,"","",0 days 00:00:30.622000,0 days 00:00:50.541000,0 days 00:00:33.748000,279.0,186.0,253.0,226.0,hard,2.0
0 days 00:29:56.541000,31,0 days 00:01:29.728000,3,"","",0 days 00:00:28.269000,0 days 00:00:36.763000,0 days 00:00:24.696000,315.0,263.0,254.0,313.0,hard,3.0
0 days 00:31:53.332000,31,0 days 00:01:56.791000,4,"",0 days 00:31:47.262000,0 days 00:00:38.986000,0 days 00:00:49.151000,0 days 00:00:28.654000,194.0,238.0,"",287.0,hard,4.0
0 days 00:34:09.317000,31,0 days 00:02:15.985000,5,0 days 00:32:20.462000,"",0 days 00:00:57.294000,0 days 00:00:46.148000,0 days 00:00:32.543000,236.0,235.0,253.0,244.0,hard,5.0
0 days 00:35:38.509000,31,0 days 00:01:29.192000,6,"","",0 days 00:00:27.927000,0 days 00:00:36.521000,0 days 00:00:24.744000,316.0,265.0,251.0,313.0,hard,6.0
0 days 00:37:50.248000,31,0 days 00:02:11.739000,7,"","",0 days 00:00:36.037000,0 days 00:00:58.783000,0 days 00:00:36.919000,174.0,193.0,252.0,151.0,hard,7.0
0 days 00:39:19.514000,31,0 days 00:01:29.266000,8,"","",0 days 00:00:28.115000,0 days 00:00:36.478000,0 days 00:00:24.673000,313.0,262.0,249.0,312.0,hard,8.0
0 days 00:40:59.334000,31,0 days 00:01:39.820000,9,"",0 days 00:40:53.231000,0 days 00:00:29.737000,0 days 00:00:40.670000,0 days 00:00:29.413000,298.0,198.0,"",234.0,hard,9.0
0 days 00:54:57.276000,31,"",10,0 days 00:52:57.227000,"","",0 days 00:00:53.918000,0 days 00:00:32.533000,219.0,234.0,250.0,293.0,soft,1.0
0 days 00:56:25.495000,31,0 days 00:01:28.219000,11,"","",0 days 00:00:27.568000,0 days 00:00:36.076000,0 days 00:00:24.575000,319.0,265.0,251.0,322.0,soft,2.0
0 days 01:10:48.669000,31,"",12,"",0 days 00:58:38.427000,0 days 00:00:38.616000,"","",274.0,"","","",soft,3.0
0 days 01:12:30.222000,31,"",13,0 days 01:10:48.669000,0 days 01:12:24.683000,"",0 days 00:00:43.314000,0 days 00:00:27.444000,284.0,235.0,"",288.0,hard,10.0
0 days 01:14:24.685000,31,0 days 00:01:54.463000,14,0 days 01:12:54.278000,"",0 days 00:00:50.734000,0 days 00:00:37.933000,0 days 00:00:25.796000,296.0,254.0,247.0,292.0,hard,10.0
0 days 01:15:56.940000,31,0 days 00:01:32.255000,15,"","",0 days 00:00:28.777000,0 days 00:00:37.832000,0 days 00:00:25.646000,298.0,255.0,246.0,295.0,hard,11.0
0 days 01:17:29.469000,31,0 days 00:01:32.529000,16,"","",0 days 00:00:28.990000,0 days 00:00:37.762000,0 days 00:00:25.777000,297.0,255.0,245.0,296.0,hard,12.0
0 days 01:19:02.262000,31,0 days 00:01:32.793000,17,"","",0 days 00:00:29.132000,0 days 00:00:37.743000,0 days 00:00:25.918000,299.0,256.0,244.0,300.0,hard,13.0
0 days 01:20:35.446000,31,0 days 00:01:33.184000,18,"","",0 days 00:00:29.254000,0 days 00:00:37.907000,0 days 00:00:26.023000,298.0,254.0,244.0,298.0,hard,14.0
0 days 01:22:15.630000,31,0 days 00:01:40.184000,19,"","",0 days 00:00:32.918000,0 days 00:00:40.336000,0 days 00:00:26.930000,296.0,199.0,246.0,291.0,hard,15.0
0 days 01:23:48.255000,31,0 days 00:01:32.625000,20,"","",0 days 00:00:29.165000,0 days 00:00:37.721000,0 days 00:00:25.739000,298.0,257.0,245.0,298.0,hard,16.0
0 days 01:25:21.398000,31,0 days 00:01:33.143000,21,"","",0 days 00:00:29.217000,0 days 00:00:37.951000,0 days 00:00:25.975000,293.0,254.0,244.0,290.0,hard,17.0
0 days 01:26:54.505000,31,0 days 00:01:33.107000,22,"","",0 days 00:00:29.140000,0 days 00:00:38.006000,0 days 00:00:25.961000,298.0,253.0,243.0,295.0,hard,18.0
0 days 01:28:30.461000,31,0 days 00:01:35.956000,23,"","","",0 days 00:00:38.255000,0 days 00:00:28.561000,"",252.0,246.0,294.0,hard,19.0
0 days 01:30:03.364000,31,0 days 00:01:32.903000,24,"","",0 days 00:00:29.126000,0 days 00:00:37.885000,0 days 00:00:25.892000,293.0,253.0,245.0,293.0,hard,20.0
0 days 01:31:37.048000,31,0 days 00:01:33.684000,25,"","",0 days 00:00:29.369000,0 days 00:00:38.325000,0 days 00:00:25.990000,296.0,254.0,248.0,292.0,hard,21.0
0 days 01:33:09.953000,31,0 days 00:01:32.905000,26,"","",0 days 00:00:29.120000,0 days 00:00:37.856000,0 days 00:00:25.929000,"",255.0,247.0,295.0,hard,22.0
0 days 01:34:42.356000,31,0 days 00:01:32.403000,27,"","",0 days 00:00:28.934000,0 days 00:00:37.751000,0 days 00:00:25.718000,298.0,257.0,247.0,294.0,hard,23.0
0 days 01:36:14.942000,31,0 days 00:01:32.586000,28,"","",0 days 00:00:29.031000,0 days 00:00:37.679000,0 days 00:00:25.876000,297.0,255.0,245.0,293.0,hard,24.0
0 days 01:37:47.497000,31,0 days 00:01:32.555000,29,"",0 days 01:37:41.434000,0 days 00:00:29.233000,0 days 00:00:37.946000,0 days 00:00:25.376000,295.0,253.0,"",292.0,hard,25.0
0 days 01:39:43.306000,31,0 days 00:01:55.809000,30,0 days 01:38:10.451000,"",0 days 00:00:50.144000,0 days 00:00:37.963000,0 days 00:00:27.702000,292.0,254.0,247.0,296.0,soft,4.0
0 days 01:41:17.832000,31,0 days 00:01:34.526000,31,"","",0 days 00:00:28.831000,0 days 00:00:39.921000,0 days 00:00:25.774000,295.0,254.0,246.0,292.0,soft,5.0
0 days 01:42:49.972000,31,0 days 00:01:32.140000,32,"","",0 days 00:00:29.093000,0 days 00:00:37.406000,0 days 00:00:25.641000,292.0,253.0,247.0,292.0,soft,6.0
0 days 01:44:42.156000,31,0 days 00:01:52.184000,33,"","",0 days 00:00:35.227000,0 days 00:00:47.097000,0 days 00:00:29.860000,194.0,235.0,239.0,233.0,soft,7.0
0 days 01:46:44.355000,31,0 days 00:02:02.199000,34,"","",0 days 00:00:31.422000,0 days 00:00:41.628000,0 days 00:00:49.149000,242.0,241.0,62.0,222.0,soft,8.0
0 days 01:48:53.608000,31,0 days 00:02:09.253000,35,"",0 days 01:48:47.498000,0 days 00:01:04.795000,0 days 00:00:39.117000,0 days 00:00:25.341000,249.0,247.0,"",296.0,soft,9.0
0 days 00:31:27.549000,27,"",1,0 days 00:29:43.513000,"","",0 days 00:00:43.621000,0 days 00:00:28.406000,249.0,237.0,253.0,299.0,hard,1.0
0 days 00:32:57.455000,27,0 days 00:01:29.906000,2,"","",0 days 00:00:28.271000,0 days 00:00:36.801000,0 days 00:00:24.834000,318.0,259.0,250.0,315.0,hard,2.0
0 days 00:35:15.874000,27,0 days 00:02:18.419000,3,"","",0 days 00:00:41.749000,0 days 00:00:59.723000,0 days 00:00:36.947000,163.0,164.0,250.0,173.0,hard,3.0
0 days 00:36:44.915000,27,0 days 00:01:29.041000,4,"","",0 days 00:00:27.953000,0 days 00:00:36.466000,0 days 00:00:24.622000,318.0,264.0,250.0,318.0,hard,4.0
0 days 00:38:30.834000,27,0 days 00:01:45.919000,5,"",0 days 00:38:24.952000,0 days 00:00:32.217000,0 days 00:00:42.905000,0 days 00:00:30.797000,275.0,198.0,"",230.0,hard,5.0
0 days 00:52:34.256000,27,"",6,0 days 00:50:29.942000,"","",0 days 00:00:54.030000,0 days 00:00:34.696000,178.0,173.0,251.0,134.0,soft,1.0
0 days 00:54:02.166000,27,0 days 00:01:27.910000,7,"","",0 days 00:00:27.848000,0 days 00:00:35.833000,0 days 00:00:24.229000,320.0,267.0,254.0,320.0,soft,2.0
0 days 00:55:52.622000,27,0 days 00:01:50.456000,8,"",0 days 00:55:48.246000,0 days 00:00:37.423000,0 days 00:00:44.378000,0 days 00:00:28.655000,188.0,228.0,"",267.0,soft,3.0
0 days 01:15:51.853000,27,"",9,0 days 01:14:14.159000,"","",0 days 00:00:41.836000,0 days 00:00:26.929000,267.0,239.0,246.0,280.0,soft,4.0
0 days 01:17:24.948000,27,0 days 00:01:33.095000,10,"","",0 days 00:00:29.159000,0 days 00:00:38.176000,0 days 00:00:25.760000,290.0,250.0,246.0,288.0,soft,5.0
0 days 01:18:59.019000,27,0 days 00:01:34.071000,11,"","",0 days 00:00:29.517000,0 days 00:00:38.486000,0 days 00:00:26.068000,283.0,250.0,243.0,281.0,soft,6.0
0 days 01:20:32.784000,27,0 days 00:01:33.765000,12,"","",0 days 00:00:29.477000,0 days 00:00:38.279000,0 days 00:00:26.009000,284.0,251.0,244.0,283.0,soft,7.0
0 days 01:22:06.937000,27,0 days 00:01:34.153000,13,"","",0 days 00:00:29.523000,0 days 00:00:38.608000,0 days 00:00:26.022000,286.0,250.0,244.0,283.0,soft,8.0
0 days 01:23:40.355000,27,0 days 00:01:33.418000,14,"","",0 days 00:00:29.522000,0 days 00:00:37.957000,0 days 00:00:25.939000,289.0,251.0,244.0,286.0,soft,9.0
0 days 01:25:18.752000,27,0 days 00:01:38.397000,15,"","",0 days 00:00:29.490000,0 days 00:00:38.139000,0 days 00:00:30.768000,"",252.0,239.0,289.0,soft,10.0
0 days 01:26:52.617000,27,0 days 00:01:33.865000,16,"","",0 days 00:00:29.370000,0 days 00:00:38.132000,0 days 00:00:26.363000,286.0,252.0,242.0,277.0,soft,11.0
0 days 01:28:25.498000,27,0 days 00:01:32.881000,17,"","",0 days 00:00:29.213000,0 days 00:00:37.834000,0 days 00:00:25.834000,292.0,252.0,243.0,291.0,soft,12.0
0 days 01:30:00.840000,27,0 days 00:01:35.342000,18,"",0 days 01:29:54.992000,0 days 00:00:29.486000,0 days 00:00:39.433000,0 days 00:00:26.423000,287.0,247.0,"",287.0,soft,13.0
0 days 01:31:55.208000,27,0 days 00:01:54.368000,19,0 days 01:30:24.533000,"",0 days 00:00:50.714000,0 days 00:00:37.843000,0 days 00:00:25.811000,286.0,253.0,246.0,285.0,hard,6.0
0 days 01:33:28.263000,27,0 days 00:01:33.055000,20,"","",0 days 00:00:29.055000,0 days 00:00:37.774000,0 days 00:00:26.226000,"",255.0,235.0,312.0,hard,7.0
0 days 01:35:01.729000,27,0 days 00:01:33.466000,21,"","",0 days 00:00:29.248000,0 days 00:00:38.176000,0 days 00:00:26.042000,323.0,251.0,244.0,280.0,hard,8.0
0 days 01:36:34.487000,27,0 days 00:01:32.758000,22,"","",0 days 00:00:29.241000,0 days 00:00:37.727000,0 days 00:00:25.790000,286.0,253.0,246.0,281.0,hard,9.0
0 days 01:38:10.102000,27,0 days 00:01:35.615000,23,"","",0 days 00:00:29.574000,0 days 00:00:39.404000,0 days 00:00:26.637000,290.0,250.0,248.0,287.0,hard,10.0
0 days 01:39:43.916000,27,0 days 00:01:33.814000,24,"","",0 days 00:00:29.242000,0 days 00:00:37.621000,0 days 00:00:26.951000,282.0,254.0,239.0,281.0,hard,11.0
0 days 01:41:28.775000,27,0 days 00:01:44.859000,25,"","",0 days 00:00:31.640000,0 days 00:00:39.903000,0 days 00:00:33.316000,267.0,247.0,244.0,282.0,hard,12.0
0 days 01:43:02.320000,27,0 days 00:01:33.545000,26,"","",0 days 00:00:29.288000,0 days 00:00:37.933000,0 days 00:00:26.324000,279.0,253.0,246.0,274.0,hard,13.0
0 days 01:44:58.349000,27,0 days 00:01:56.029000,27,"","",0 days 00:00:33.941000,0 days 00:00:42.992000,0 days 00:00:39.096000,271.0,228.0,64.0,238.0,hard,14.0
0 days 01:47:19.614000,27,0 days 00:02:21.265000,28,"",0 days 01:47:16.789000,0 days 00:01:07.244000,0 days 00:00:44.047000,0 days 00:00:29.974000,228.0,197.0,"",236.0,hard,15.0
0 days 00:19:25.601000,26,"",1,0 days 00:17:39.986000,"","",0 days 00:00:44.297000,0 days 00:00:29.583000,301.0,229.0,249.0,286.0,hard,1.0
0 days 00:20:56.450000,26,0 days 00:01:30.849000,2,"","",0 days 00:00:28.458000,0 days 00:00:36.894000,0 days 00:00:25.497000,317.0,264.0,249.0,317.0,hard,2.0
0 days 00:23:01.899000,26,0 days 00:02:05.449000,3,"","",0 days 00:00:40.577000,0 days 00:00:54.235000,0 days 00:00:30.637000,254.0,174.0,250.0,284.0,hard,3.0
0 days 00:24:32.073000,26,0 days 00:01:30.174000,4,"","",0 days 00:00:28.402000,0 days 00:00:36.919000,0 days 00:00:24.853000,314.0,262.0,250.0,311.0,hard,4.0
0 days 00:26:17.339000,26,0 days 00:01:45.266000,5,"",0 days 00:26:13.350000,0 days 00:00:33.977000,0 days 00:00:44.150000,0 days 00:00:27.139000,287.0,239.0,"",290.0,hard,5.0
0 days 00:41:58.324000,26,"",6,0 days 00:40:11.372000,"","",0 days 00:00:44.998000,0 days 00:00:27.980000,303.0,235.0,252.0,289.0,hard,6.0
0 days 00:43:28.066000,26,0 days 00:01:29.742000,7,"","",0 days 00:00:28.316000,0 days 00:00:36.638000,0 days 00:00:24.788000,318.0,264.0,252.0,318.0,hard,7.0
0 days 00:45:29.243000,26,0 days 00:02:01.177000,8,"","",0 days 00:00:35.134000,0 days 00:00:55.643000,0 days 00:00:30.400000,263.0,203.0,250.0,268.0,hard,8.0
0 days 00:46:58.961000,26,0 days 00:01:29.718000,9,"","",0 days 00:00:28.280000,0 days 00:00:36.665000,0 days 00:00:24.773000,313.0,262.0,249.0,315.0,hard,9.0
0 days 00:48:36.723000,26,0 days 00:01:37.762000,10,"",0 days 00:48:30.839000,0 days 00:00:32.085000,0 days 00:00:39.934000,0 days 00:00:25.743000,289.0,251.0,"",292.0,hard,10.0
0 days 00:56:24.333000,26,"",11,0 days 00:54:31.267000,"","",0 days 00:00:50.316000,0 days 00:00:29.404000,297.0,213.0,255.0,282.0,soft,1.0
0 days 01:08:12.089000,26,"",12,"",0 days 00:58:00.917000,0 days 00:00:27.716000,0 days 00:00:36.162000,"",319.0,261.0,"","",soft,2.0
0 days 01:10:21.140000,26,"",13,0 days 01:08:12.084000,"","",0 days 00:00:54.642000,0 days 00:00:38.920000,277.0,215.0,253.0,288.0,soft,3.0
0 days 01:11:49.566000,26,0 days 00:01:28.426000,14,"","",0 days 00:00:27.684000,0 days 00:00:36.111000,0 days 00:00:24.631000,320.0,264.0,252.0,318.0,soft,4.0
0 days 01:14:10.425000,26,0 days 00:02:20.859000,15,"","",0 days 00:00:39.326000,0 days 00:01:00.200000,0 days 00:00:41.333000,258.0,178.0,252.0,180.0,soft,5.0
0 days 01:15:39.277000,26,0 days 00:01:28.852000,16,"","",0 days 00:00:27.954000,0 days 00:00:36.384000,0 days 00:00:24.514000,315.0,261.0,250.0,314.0,soft,6.0
0 days 01:17:18.678000,26,0 days 00:01:39.401000,17,"",0 days 01:17:14.864000,0 days 00:00:31.688000,0 days 00:00:39.765000,0 days 00:00:27.948000,291.0,249.0,"",296.0,soft,7.0
0 days 01:25:32.789000,26,"",18,0 days 01:23:55.457000,"","",0 days 00:00:39.741000,0 days 00:00:26.167000,308.0,252.0,245.0,295.0,hard,11.0
0 days 01:27:06.681000,26,0 days 00:01:33.892000,19,"","",0 days 00:00:29.045000,0 days 00:00:38.200000,0 days 00:00:26.647000,290.0,255.0,243.0,284.0,hard,12.0
0 days 01:28:40.176000,26,0 days 00:01:33.495000,20,"","",0 days 00:00:29.261000,0 days 00:00:38.301000,0 days 00:00:25.933000,"",253.0,246.0,286.0,hard,13.0
0 days 01:30:13.736000,26,0 days 00:01:33.560000,21,"","",0 days 00:00:29.381000,0 days 00:00:38.302000,0 days 00:00:25.877000,291.0,252.0,246.0,286.0,hard,14.0
0 days 01:31:47.326000,26,0 days 00:01:33.590000,22,"","",0 days 00:00:29.439000,0 days 00:00:38.120000,0 days 00:00:26.031000,292.0,255.0,247.0,293.0,hard,15.0
0 days 01:33:20.565000,26,0 days 00:01:33.239000,23,"","",0 days 00:00:29.159000,0 days 00:00:38.200000,0 days 00:00:25.880000,"",254.0,246.0,289.0,hard,16.0
0 days 01:34:53.727000,26,0 days 00:01:33.162000,24,"","",0 days 00:00:29.154000,0 days 00:00:38.037000,0 days 00:00:25.971000,295.0,253.0,245.0,289.0,hard,17.0
0 days 01:36:27.719000,26,0 days 00:01:33.992000,25,"","",0 days 00:00:29.202000,0 days 00:00:38.602000,0 days 00:00:26.188000,307.0,252.0,246.0,283.0,hard,18.0
0 days 01:38:01.428000,26,0 days 00:01:33.709000,26,"","",0 days 00:00:29.358000,0 days 00:00:38.317000,0 days 00:00:26.034000,302.0,256.0,247.0,304.0,hard,19.0
0 days 01:39:49.677000,26,0 days 00:01:48.249000,27,"","",0 days 00:00:29.477000,0 days 00:00:38.248000,0 days 00:00:40.524000,300.0,255.0,215.0,320.0,hard,20.0
0 days 01:41:23.249000,26,0 days 00:01:33.572000,28,"","",0 days 00:00:29.613000,0 days 00:00:37.805000,0 days 00:00:26.154000,285.0,254.0,246.0,282.0,hard,21.0
0 days 01:43:10.908000,26,0 days 00:01:47.659000,29,"",0 days 01:43:06.052000,0 days 00:00:33.798000,0 days 00:00:48.160000,0 days 00:00:25.701000,149.0,218.0,"",277.0,hard,22.0
0 days 00:27:30.864000,23,"",1,0 days 00:25:45.098000,"","",0 days 00:00:45.416000,0 days 00:00:28.346000,292.0,229.0,256.0,270.0,medium,1.0
0 days 00:29:19.480000,23,0 days 00:01:48.616000,2,"","",0 days 00:00:27.639000,0 days 00:00:37.325000,0 days 00:00:43.652000,319.0,203.0,255.0,260.0,medium,2.0
0 days 00:31:18.694000,23,0 days 00:01:59.214000,3,"","",0 days 00:00:29.311000,0 days 00:00:54.087000,0 days 00:00:35.816000,241.0,180.0,256.0,238.0,medium,3.0
0 days 00:32:46.868000,23,0 days 00:01:28.174000,4,"","",0 days 00:00:27.658000,0 days 00:00:35.843000,0 days 00:00:24.673000,319.0,268.0,252.0,316.0,medium,4.0
0 days 00:34:53.820000,23,0 days 00:02:06.952000,5,"","",0 days 00:00:38.520000,0 days 00:00:52.678000,0 days 00:00:35.754000,223.0,189.0,257.0,226.0,medium,5.0
0 days 00:36:22.398000,23,0 days 00:01:28.578000,6,"","",0 days 00:00:27.622000,0 days 00:00:35.876000,0 days 00:00:25.080000,320.0,262.0,252.0,322.0,medium,6.0
0 days 00:38:12.870000,23,0 days 00:01:50.472000,7,"",0 days 00:38:06.962000,0 days 00:00:35.527000,0 days 00:00:45.796000,0 days 00:00:29.149000,271.0,234.0,"",275.0,medium,7.0
0 days 00:48:30.078000,23,"",8,0 days 00:46:40.751000,"","",0 days 00:00:45.378000,0 days 00:00:31.321000,290.0,222.0,256.0,198.0,soft,1.0
0 days 00:49:57.442000,23,0 days 00:01:27.364000,9,"","",0 days 00:00:27.586000,0 days 00:00:35.512000,0 days 00:00:24.266000,320.0,269.0,253.0,319.0,soft,2.0
0 days 00:52:01.831000,23,0 days 00:02:04.389000,10,"","",0 days 00:00:36.985000,0 days 00:00:51.748000,0 days 00:00:35.656000,260.0,185.0,184.0,258.0,soft,3.0
0 days 00:54:11.757000,23,0 days 00:02:09.926000,11,"","",0 days 00:00:37.893000,0 days 00:00:56.736000,0 days 00:00:35.297000,228.0,180.0,256.0,156.0,soft,4.0
0 days 00:56:05.039000,23,0 days 00:01:53.282000,12,"","",0 days 00:00:27.680000,0 days 00:00:51.203000,0 days 00:00:34.399000,321.0,162.0,256.0,214.0,soft,5.0
0 days 01:06:13.387000,23,"",13,"",0 days 01:06:13.387000,0 days 00:00:27.550000,0 days 00:00:35.936000,"",320.0,269.0,"",320.0,soft,6.0
0 days 00:20:52.262000,20,"",1,0 days 00:19:08.222000,"","",0 days 00:00:40.910000,0 days 00:00:33.331000,273.0,234.0,248.0,271.0,hard,1.0
0 days 00:22:24.295000,20,0 days 00:01:32.033000,2,"","",0 days 00:00:28.589000,0 days 00:00:37.393000,0 days 00:00:26.051000,308.0,255.0,244.0,310.0,hard,2.0
0 days 00:24:15.386000,20,0 days 00:01:51.091000,3,"","",0 days 00:00:36.716000,0 days 00:00:41.357000,0 days 00:00:33.018000,276.0,239.0,249.0,230.0,hard,3.0
0 days 00:25:45.908000,20,0 days 00:01:30.522000,4,"","",0 days 00:00:28.303000,0 days 00:00:37.006000,0 days 00:00:25.213000,313.0,257.0,249.0,310.0,hard,4.0
0 days 00:27:59.393000,20,0 days 00:02:13.485000,5,"","",0 days 00:00:38.908000,0 days 00:01:01.728000,0 days 00:00:32.849000,183.0,210.0,247.0,240.0,hard,5.0
0 days 00:29:30.288000,20,0 days 00:01:30.895000,6,"","",0 days 00:00:28.424000,0 days 00:00:37.238000,0 days 00:00:25.233000,309.0,256.0,247.0,308.0,hard,6.0
0 days 00:31:28.848000,20,0 days 00:01:58.560000,7,"",0 days 00:31:24.693000,0 days 00:00:39.800000,0 days 00:00:46.584000,0 days 00:00:32.176000,148.0,196.0,"",198.0,hard,7.0
0 days 00:50:51.215000,20,"",8,0 days 00:49:07.131000,"","",0 days 00:00:44.200000,0 days 00:00:27.351000,271.0,234.0,251.0,271.0,soft,1.0
0 days 00:52:20.113000,20,0 days 00:01:28.898000,9,"","",0 days 00:00:27.840000,0 days 00:00:36.251000,0 days 00:00:24.807000,312.0,258.0,248.0,312.0,soft,2.0
0 days 00:55:00.492000,20,"",10,"","",0 days 00:00:39.374000,0 days 00:01:16.723000,0 days 00:00:44.254000,112.0,123.0,248.0,184.0,soft,3.0
0 days 00:56:54.840000,20,0 days 00:01:54.348000,11,"","",0 days 00:00:28.064000,0 days 00:00:47.509000,0 days 00:00:38.775000,311.0,156.0,251.0,197.0,soft,4.0
0 days 01:22:47.484000,20,"",12,"",0 days 00:58:48.265000,0 days 00:00:27.928000,"","",312.0,"","","",soft,5.0
0 days 01:24:22.271000,20,"",13,0 days 01:22:47.484000,"","",0 days 00:00:38.680000,0 days 00:00:27.727000,286.0,246.0,243.0,288.0,soft,6.0
0 days 01:25:56.103000,20,0 days 00:01:33.832000,14,"","",0 days 00:00:29.210000,0 days 00:00:38.431000,0 days 00:00:26.191000,296.0,247.0,240.0,293.0,soft,7.0
0 days 01:27:31.012000,20,0 days 00:01:34.909000,15,"","",0 days 00:00:29.564000,0 days 00:00:38.790000,0 days 00:00:26.555000,299.0,245.0,237.0,294.0,soft,8.0
0 days 01:29:06.195000,20,0 days 00:01:35.183000,16,"","",0 days 00:00:29.682000,0 days 00:00:39.001000,0 days 00:00:26.500000,295.0,245.0,238.0,295.0,soft,9.0
0 days 01:30:42.427000,20,0 days 00:01:36.232000,17,"","",0 days 00:00:29.739000,0 days 00:00:40.026000,0 days 00:00:26.467000,297.0,243.0,238.0,295.0,soft,10.0
0 days 01:32:18.135000,20,0 days 00:01:35.708000,18,"","",0 days 00:00:29.785000,0 days 00:00:39.509000,0 days 00:00:26.414000,296.0,240.0,238.0,294.0,soft,11.0
0 days 01:33:52.675000,20,0 days 00:01:34.540000,19,"",0 days 01:33:46.797000,0 days 00:00:29.619000,0 days 00:00:39.244000,0 days 00:00:25.677000,297.0,245.0,"",294.0,soft,12.0
0 days 01:35:49.827000,20,0 days 00:01:57.152000,20,0 days 01:34:16.265000,"",0 days 00:00:51.680000,0 days 00:00:39.085000,0 days 00:00:26.387000,295.0,247.0,241.0,285.0,hard,8.0
0 days 01:37:24.249000,20,0 days 00:01:34.422000,21,"","",0 days 00:00:29.677000,0 days 00:00:38.374000,0 days 00:00:26.371000,289.0,247.0,241.0,285.0,hard,9.0
0 days 01:38:59.121000,20,0 days 00:01:34.872000,22,"","",0 days 00:00:29.456000,0 days 00:00:39.198000,0 days 00:00:26.218000,295.0,246.0,240.0,293.0,hard,10.0
0 days 01:40:33.108000,20,0 days 00:01:33.987000,23,"","",0 days 00:00:29.476000,0 days 00:00:38.285000,0 days 00:00:26.226000,"",245.0,241.0,293.0,hard,11.0
0 days 01:42:07.620000,20,0 days 00:01:34.512000,24,"","",0 days 00:00:29.505000,0 days 00:00:38.534000,0 days 00:00:26.473000,"",244.0,241.0,292.0,hard,12.0
0 days 01:43:43.073000,20,0 days 00:01:35.453000,25,"","",0 days 00:00:29.732000,0 days 00:00:39.055000,0 days 00:00:26.666000,"",241.0,236.0,291.0,hard,13.0
0 days 01:45:43.929000,20,0 days 00:02:00.856000,26,"","",0 days 00:00:35.763000,0 days 00:00:46.441000,0 days 00:00:38.652000,243.0,213.0,70.0,256.0,hard,14.0
0 days 01:48:17.942000,20,"",27,"",0 days 01:48:12.020000,0 days 00:01:05.739000,0 days 00:00:57.736000,0 days 00:00:30.493000,148.0,198.0,"",201.0,hard,15.0
0 days 00:23:45.153000,18,"",1,0 days 00:22:07.307000,"","",0 days 00:00:39.873000,0 days 00:00:28.713000,296.0,249.0,252.0,299.0,hard,1.0
0 days 00:25:14.873000,18,0 days 00:01:29.720000,2,"","",0 days 00:00:28.062000,0 days 00:00:36.939000,0 days 00:00:24.719000,321.0,263.0,252.0,318.0,hard,2.0
0 days 00:27:44.495000,18,0 days 00:02:29.622000,3,"","",0 days 00:00:37.583000,0 days 00:01:18.802000,0 days 00:00:33.237000,192.0,173.0,252.0,285.0,hard,3.0
0 days 00:29:13.390000,18,0 days 00:01:28.895000,4,"","",0 days 00:00:27.945000,0 days 00:00:36.485000,0 days 00:00:24.465000,320.0,265.0,252.0,317.0,hard,4.0
0 days 00:31:24.740000,18,0 days 00:02:11.350000,5,"",0 days 00:31:18.811000,0 days 00:00:42.093000,0 days 00:00:59.091000,0 days 00:00:30.166000,130.0,229.0,"",231.0,hard,5.0
0 days 00:50:03.496000,18,"",6,0 days 00:48:00.361000,"","",0 days 00:00:53.185000,0 days 00:00:35.172000,145.0,231.0,253.0,280.0,soft,1.0
0 days 00:51:30.770000,18,0 days 00:01:27.274000,7,"","",0 days 00:00:27.532000,0 days 00:00:35.698000,0 days 00:00:24.044000,318.0,270.0,253.0,319.0,soft,2.0
0 days 00:53:20.920000,18,0 days 00:01:50.150000,8,"",0 days 00:53:14.966000,0 days 00:00:35.016000,0 days 00:00:46.781000,0 days 00:00:28.353000,233.0,229.0,"",262.0,soft,3.0
0 days 01:14:47.664000,18,"",9,0 days 01:13:07.633000,"","",0 days 00:00:43.209000,0 days 00:00:27.638000,264.0,234.0,246.0,280.0,soft,4.0
0 days 01:16:20.146000,18,0 days 00:01:32.482000,10,"","",0 days 00:00:28.735000,0 days 00:00:38.285000,0 days 00:00:25.462000,294.0,254.0,245.0,296.0,soft,5.0
0 days 01:17:53.564000,18,0 days 00:01:33.418000,11,"","",0 days 00:00:29.182000,0 days 00:00:38.460000,0 days 00:00:25.776000,286.0,252.0,245.0,286.0,soft,6.0
0 days 01:19:27.258000,18,0 days 00:01:33.694000,12,"",0 days 01:19:25.310000,0 days 00:00:29.416000,0 days 00:00:38.573000,0 days 00:00:25.705000,291.0,250.0,"",293.0,soft,7.0
0 days 01:21:18.049000,18,0 days 00:01:50.791000,13,0 days 01:19:46.012000,0 days 01:21:12.141000,0 days 00:00:46.234000,0 days 00:00:39.395000,0 days 00:00:25.162000,295.0,249.0,"",294.0,soft,8.0
0 days 01:23:14.345000,18,0 days 00:01:56.296000,14,0 days 01:21:43.416000,"",0 days 00:00:52.488000,0 days 00:00:38.147000,0 days 00:00:25.661000,293.0,255.0,244.0,290.0,soft,9.0
0 days 01:24:47.580000,18,0 days 00:01:33.235000,15,"","",0 days 00:00:29.065000,0 days 00:00:38.071000,0 days 00:00:26.099000,292.0,253.0,243.0,291.0,soft,10.0
0 days 01:26:20.585000,18,0 days 00:01:33.005000,16,"","",0 days 00:00:29.212000,0 days 00:00:38.007000,0 days 00:00:25.786000,291.0,254.0,245.0,294.0,soft,11.0
0 days 01:27:54.774000,18,0 days 00:01:34.189000,17,"","",0 days 00:00:29.355000,0 days 00:00:38.445000,0 days 00:00:26.389000,286.0,251.0,243.0,273.0,soft,12.0
0 days 01:29:29.214000,18,0 days 00:01:34.440000,18,"","",0 days 00:00:29.744000,0 days 00:00:38.375000,0 days 00:00:26.321000,283.0,250.0,245.0,281.0,soft,13.0
0 days 01:31:03.499000,18,0 days 00:01:34.285000,19,"","",0 days 00:00:29.546000,0 days 00:00:38.579000,0 days 00:00:26.160000,287.0,252.0,247.0,284.0,soft,14.0
0 days 01:32:37.186000,18,0 days 00:01:33.687000,20,"",0 days 01:32:31.444000,0 days 00:00:29.625000,0 days 00:00:38.508000,0 days 00:00:25.554000,290.0,251.0,"",288.0,soft,15.0
0 days 01:34:31.890000,18,0 days 00:01:54.704000,21,0 days 01:33:01.010000,"",0 days 00:00:50.928000,0 days 00:00:38.141000,0 days 00:00:25.635000,295.0,254.0,247.0,308.0,hard,6.0
0 days 01:36:04.374000,18,0 days 00:01:32.484000,22,"","",0 days 00:00:28.804000,0 days 00:00:37.901000,0 days 00:00:25.779000,308.0,256.0,246.0,307.0,hard,7.0
0 days 01:37:39.962000,18,0 days 00:01:35.588000,23,"","",0 days 00:00:28.997000,0 days 00:00:38.011000,0 days 00:00:28.580000,307.0,254.0,248.0,318.0,hard,8.0
0 days 01:39:13.562000,18,0 days 00:01:33.600000,24,"","",0 days 00:00:29.199000,0 days 00:00:38.341000,0 days 00:00:26.060000,294.0,252.0,247.0,282.0,hard,9.0
0 days 01:40:46.350000,18,0 days 00:01:32.788000,25,"","",0 days 00:00:29.024000,0 days 00:00:37.917000,0 days 00:00:25.847000,305.0,255.0,245.0,299.0,hard,10.0
0 days 01:42:24.881000,18,0 days 00:01:38.531000,26,"","",0 days 00:00:29.410000,0 days 00:00:39.260000,0 days 00:00:29.861000,287.0,238.0,247.0,261.0,hard,11.0
0 days 01:43:58.226000,18,0 days 00:01:33.345000,27,"","",0 days 00:00:29.231000,0 days 00:00:38.042000,0 days 00:00:26.072000,282.0,252.0,247.0,277.0,hard,12.0
0 days 01:46:09.637000,18,0 days 00:02:11.411000,28,"","",0 days 00:00:36.815000,0 days 00:00:48.916000,0 days 00:00:45.680000,217.0,215.0,53.0,198.0,hard,13.0
0 days 01:48:24.947000,18,0 days 00:02:15.310000,29,"",0 days 01:48:19.044000,0 days 00:00:57.265000,0 days 00:00:47.825000,0 days 00:00:30.220000,246.0,192.0,"",199.0,hard,14.0
0 days 00:22:50.209000,16,"",1,0 days 00:21:09.740000,"","",0 days 00:00:41.568000,0 days 00:00:27.135000,286.0,240.0,252.0,283.0,medium,1.0
0 days 00:24:18.982000,16,0 days 00:01:28.773000,2,"","",0 days 00:00:27.908000,0 days 00:00:36.245000,0 days 00:00:24.620000,315.0,262.0,252.0,318.0,medium,2.0
0 days 00:26:25.638000,16,0 days 00:02:06.656000,3,"","",0 days 00:00:41.136000,0 days 00:00:56.932000,0 days 00:00:28.588000,211.0,232.0,253.0,292.0,medium,3.0
0 days 00:28:38.692000,16,0 days 00:02:13.054000,4,"","",0 days 00:00:51.819000,0 days 00:00:46.026000,0 days 00:00:35.209000,172.0,230.0,251.0,277.0,medium,4.0
0 days 00:30:07.764000,16,0 days 00:01:29.072000,5,"","",0 days 00:00:27.910000,0 days 00:00:36.571000,0 days 00:00:24.591000,318.0,262.0,252.0,318.0,medium,5.0
0 days 00:31:57.287000,16,0 days 00:01:49.523000,6,"",0 days 00:31:51.405000,0 days 00:00:30.874000,0 days 00:00:47.766000,0 days 00:00:30.883000,247.0,199.0,"",198.0,medium,6.0
0 days 00:50:25.562000,16,"",7,0 days 00:48:41.084000,"","",0 days 00:00:44.535000,0 days 00:00:28.793000,291.0,230.0,256.0,291.0,soft,1.0
0 days 00:51:53.132000,16,0 days 00:01:27.570000,8,"","",0 days 00:00:27.443000,0 days 00:00:35.815000,0 days 00:00:24.312000,322.0,266.0,254.0,321.0,soft,2.0
0 days 00:54:00.101000,16,0 days 00:02:06.969000,9,"","",0 days 00:00:37.121000,0 days 00:00:55.125000,0 days 00:00:34.723000,234.0,185.0,160.0,273.0,soft,3.0
0 days 00:56:14.075000,16,0 days 00:02:13.974000,10,"","",0 days 00:00:43.580000,0 days 00:00:51.250000,0 days 00:00:39.144000,259.0,208.0,253.0,285.0,soft,4.0
0 days 01:15:27.640000,16,"",11,"",0 days 00:58:02.895000,0 days 00:00:27.434000,0 days 00:00:46.819000,"",322.0,180.0,"","",soft,5.0
0 days 01:17:14.745000,16,"",12,0 days 01:15:27.632000,0 days 01:17:09.485000,"",0 days 00:00:46.225000,0 days 00:00:28.437000,285.0,232.0,"",270.0,medium,7.0
0 days 01:19:35.713000,16,0 days 00:02:20.968000,13,0 days 01:17:56.513000,"",0 days 00:01:15.469000,0 days 00:00:39.078000,0 days 00:00:26.421000,297.0,253.0,247.0,301.0,medium,8.0
0 days 01:21:08.159000,16,0 days 00:01:32.446000,14,"","",0 days 00:00:28.986000,0 days 00:00:37.748000,0 days 00:00:25.712000,293.0,256.0,244.0,293.0,medium,9.0
0 days 01:22:41.120000,16,0 days 00:01:32.961000,15,"","",0 days 00:00:29.192000,0 days 00:00:37.924000,0 days 00:00:25.845000,298.0,253.0,242.0,300.0,medium,10.0
0 days 01:24:16.584000,16,0 days 00:01:35.464000,16,"","",0 days 00:00:29.099000,0 days 00:00:40.275000,0 days 00:00:26.090000,301.0,253.0,244.0,302.0,medium,11.0
0 days 01:25:50.107000,16,0 days 00:01:33.523000,17,"","",0 days 00:00:29.108000,0 days 00:00:38.133000,0 days 00:00:26.282000,304.0,253.0,236.0,302.0,medium,12.0
0 days 01:27:23.793000,16,0 days 00:01:33.686000,18,"","",0 days 00:00:29.349000,0 days 00:00:38.453000,0 days 00:00:25.884000,305.0,252.0,241.0,300.0,medium,13.0
0 days 01:28:58.023000,16,0 days 00:01:34.230000,19,"","",0 days 00:00:29.181000,0 days 00:00:38.392000,0 days 00:00:26.657000,301.0,252.0,235.0,301.0,medium,14.0
0 days 01:30:32.708000,16,0 days 00:01:34.685000,20,"","",0 days 00:00:29.591000,0 days 00:00:39.035000,0 days 00:00:26.059000,304.0,252.0,243.0,300.0,medium,15.0
0 days 01:32:07.006000,16,0 days 00:01:34.298000,21,"","",0 days 00:00:29.357000,0 days 00:00:38.718000,0 days 00:00:26.223000,"",253.0,242.0,301.0,medium,16.0
0 days 01:33:40.619000,16,0 days 00:01:33.613000,22,"","",0 days 00:00:29.373000,0 days 00:00:38.325000,0 days 00:00:25.915000,302.0,253.0,243.0,301.0,medium,17.0
0 days 01:35:13.950000,16,0 days 00:01:33.331000,23,"","",0 days 00:00:29.288000,0 days 00:00:38.124000,0 days 00:00:25.919000,306.0,253.0,242.0,299.0,medium,18.0
0 days 01:36:46.981000,16,0 days 00:01:33.031000,24,"","",0 days 00:00:29.179000,0 days 00:00:38.026000,0 days 00:00:25.826000,302.0,254.0,243.0,299.0,medium,19.0
0 days 01:38:20.057000,16,0 days 00:01:33.076000,25,"","",0 days 00:00:29.223000,0 days 00:00:37.969000,0 days 00:00:25.884000,"",253.0,243.0,298.0,medium,20.0
0 days 01:39:52.598000,16,0 days 00:01:32.541000,26,"",0 days 01:39:47.096000,0 days 00:00:29.268000,0 days 00:00:37.903000,0 days 00:00:25.370000,"",254.0,"",299.0,medium,21.0
0 days 01:41:50.950000,16,0 days 00:01:58.352000,27,0 days 01:40:15.519000,"",0 days 00:00:50.734000,0 days 00:00:38.982000,0 days 00:00:28.636000,303.0,241.0,245.0,287.0,soft,6.0
0 days 01:43:22.785000,16,0 days 00:01:31.835000,28,"","",0 days 00:00:28.974000,0 days 00:00:37.316000,0 days 00:00:25.545000,291.0,253.0,246.0,295.0,soft,7.0
0 days 01:45:28.783000,16,0 days 00:02:05.998000,29,"","",0 days 00:00:29.324000,0 days 00:00:51.722000,0 days 00:00:44.952000,268.0,202.0,46.0,211.0,soft,8.0
0 days 01:47:37.868000,16,0 days 00:02:09.085000,30,"",0 days 01:47:30.833000,0 days 00:00:59.883000,0 days 00:00:40.418000,0 days 00:00:28.784000,301.0,196.0,"",273.0,soft,9.0
0 days 00:21:40.124000,10,"",1,0 days 00:19:46.612000,"","",0 days 00:00:48.718000,0 days 00:00:32.252000,288.0,219.0,252.0,249.0,medium,1.0
0 days 00:23:09.084000,10,0 days 00:01:28.960000,2,"","",0 days 00:00:28.006000,0 days 00:00:36.136000,0 days 00:00:24.818000,318.0,264.0,250.0,318.0,medium,2.0
0 days 00:25:19.078000,10,0 days 00:02:09.994000,3,"","",0 days 00:00:41.833000,0 days 00:00:54.809000,0 days 00:00:33.352000,151.0,224.0,253.0,250.0,medium,3.0
0 days 00:26:52.917000,10,0 days 00:01:33.839000,4,"","",0 days 00:00:27.848000,0 days 00:00:36.242000,0 days 00:00:29.749000,320.0,268.0,200.0,317.0,medium,4.0
0 days 00:29:05.343000,10,0 days 00:02:12.426000,5,"","",0 days 00:00:37.694000,0 days 00:00:54.746000,0 days 00:00:39.986000,264.0,202.0,251.0,254.0,medium,5.0
0 days 00:30:34.932000,10,0 days 00:01:29.589000,6,"","",0 days 00:00:28.279000,0 days 00:00:36.532000,0 days 00:00:24.778000,317.0,260.0,248.0,312.0,medium,6.0
0 days 00:32:26.537000,10,0 days 00:01:51.605000,7,"",0 days 00:32:20.661000,0 days 00:00:33.118000,0 days 00:00:49.776000,0 days 00:00:28.711000,272.0,221.0,"",269.0,medium,7.0
0 days 00:42:09.128000,10,"",8,0 days 00:40:16.837000,"","",0 days 00:00:49.452000,0 days 00:00:30.499000,290.0,224.0,251.0,248.0,medium,8.0
0 days 00:43:38.443000,10,0 days 00:01:29.315000,9,"","",0 days 00:00:28.112000,0 days 00:00:36.489000,0 days 00:00:24.714000,314.0,263.0,248.0,315.0,medium,9.0
0 days 00:45:28.714000,10,0 days 00:01:50.271000,10,"",0 days 00:45:22.810000,0 days 00:00:36.172000,0 days 00:00:46.212000,0 days 00:00:27.887000,261.0,221.0,"",273.0,medium,10.0
0 days 01:10:05.257000,10,"",11,0 days 01:08:07.524000,"","",0 days 00:00:49.345000,0 days 00:00:35.010000,292.0,234.0,253.0,252.0,soft,1.0
0 days 01:11:33.254000,10,0 days 00:01:27.997000,12,"","",0 days 00:00:27.562000,0 days 00:00:36.112000,0 days 00:00:24.323000,322.0,267.0,253.0,318.0,soft,2.0
0 days 01:13:48.535000,10,0 days 00:02:15.281000,13,"","",0 days 00:00:39.532000,0 days 00:01:03.799000,0 days 00:00:31.950000,247.0,191.0,252.0,253.0,soft,3.0
0 days 01:15:17.232000,10,0 days 00:01:28.697000,14,"","",0 days 00:00:27.924000,0 days 00:00:36.101000,0 days 00:00:24.672000,313.0,264.0,247.0,315.0,soft,4.0
0 days 01:17:16.889000,10,0 days 00:01:59.657000,15,"",0 days 01:17:10.663000,0 days 00:00:37.239000,0 days 00:00:51.694000,0 days 00:00:30.724000,141.0,146.0,"",278.0,soft,5.0
0 days 01:23:37.380000,10,"",16,0 days 01:22:02.266000,"","",0 days 00:00:38.858000,0 days 00:00:26.663000,296.0,254.0,245.0,297.0,soft,6.0
0 days 01:25:10.933000,10,0 days 00:01:33.553000,17,"","",0 days 00:00:29.281000,0 days 00:00:38.264000,0 days 00:00:26.008000,293.0,254.0,242.0,287.0,soft,7.0
0 days 01:26:44.996000,10,0 days 00:01:34.063000,18,"","",0 days 00:00:29.434000,0 days 00:00:38.461000,0 days 00:00:26.168000,292.0,252.0,242.0,285.0,soft,8.0
0 days 01:28:18.998000,10,0 days 00:01:34.002000,19,"","",0 days 00:00:29.494000,0 days 00:00:38.453000,0 days 00:00:26.055000,294.0,251.0,242.0,289.0,soft,9.0
0 days 01:29:53.736000,10,0 days 00:01:34.738000,20,"",0 days 01:29:47.915000,0 days 00:00:29.544000,0 days 00:00:38.571000,0 days 00:00:26.623000,292.0,250.0,"",292.0,soft,10.0
0 days 01:31:51.429000,10,0 days 00:01:57.693000,21,0 days 01:30:16.315000,"",0 days 00:00:49.846000,0 days 00:00:38.333000,0 days 00:00:29.514000,298.0,253.0,245.0,322.0,medium,11.0
0 days 01:33:23.789000,10,0 days 00:01:32.360000,22,"","",0 days 00:00:28.942000,0 days 00:00:37.609000,0 days 00:00:25.809000,296.0,256.0,246.0,295.0,medium,12.0
0 days 01:34:56.781000,10,0 days 00:01:32.992000,23,"","",0 days 00:00:29.027000,0 days 00:00:37.934000,0 days 00:00:26.031000,309.0,254.0,246.0,311.0,medium,13.0
0 days 01:36:32.994000,10,0 days 00:01:36.213000,24,"","",0 days 00:00:29.167000,0 days 00:00:37.852000,0 days 00:00:29.194000,308.0,256.0,246.0,311.0,medium,14.0
0 days 01:38:05.745000,10,0 days 00:01:32.751000,25,"","",0 days 00:00:29.253000,0 days 00:00:37.643000,0 days 00:00:25.855000,293.0,255.0,245.0,287.0,medium,15.0
0 days 01:39:41.239000,10,0 days 00:01:35.494000,26,"","",0 days 00:00:29.323000,0 days 00:00:37.799000,0 days 00:00:28.372000,"",249.0,245.0,316.0,medium,16.0
0 days 01:41:14.205000,10,0 days 00:01:32.966000,27,"","",0 days 00:00:29.156000,0 days 00:00:37.879000,0 days 00:00:25.931000,288.0,251.0,243.0,284.0,medium,17.0
0 days 01:42:47.384000,10,0 days 00:01:33.179000,28,"","",0 days 00:00:29.456000,0 days 00:00:37.804000,0 days 00:00:25.919000,291.0,252.0,243.0,319.0,medium,18.0
0 days 01:44:22.198000,10,0 days 00:01:34.814000,29,"","",0 days 00:00:29.473000,0 days 00:00:38.591000,0 days 00:00:26.750000,309.0,257.0,242.0,328.0,medium,19.0
0 days 01:46:31.081000,10,0 days 00:02:08.883000,30,"","",0 days 00:00:34.770000,0 days 00:00:49.341000,0 days 00:00:44.772000,209.0,215.0,62.0,178.0,medium,20.0
0 days 01:48:29.094000,10,0 days 00:01:58.013000,31,"",0 days 01:48:24.950000,0 days 00:00:50.629000,0 days 00:00:38.653000,0 days 00:00:28.731000,298.0,250.0,"",281.0,medium,21.0
0 days 00:20:33.129000,8,"",1,0 days 00:18:48.474000,"","",0 days 00:00:44.954000,0 days 00:00:29.679000,288.0,226.0,250.0,283.0,medium,1.0
0 days 00:22:03.408000,8,0 days 00:01:30.279000,2,"","",0 days 00:00:28.235000,0 days 00:00:37.030000,0 days 00:00:25.014000,311.0,257.0,250.0,313.0,medium,2.0
0 days 00:24:23.429000,8,0 days 00:02:20.021000,3,"","",0 days 00:00:42.712000,0 days 00:01:02.198000,0 days 00:00:35.111000,126.0,204.0,249.0,281.0,medium,3.0
0 days 00:25:52.987000,8,0 days 00:01:29.558000,4,"","",0 days 00:00:28.140000,0 days 00:00:36.625000,0 days 00:00:24.793000,312.0,258.0,248.0,311.0,medium,4.0
0 days 00:28:18.694000,8,0 days 00:02:25.707000,5,"","",0 days 00:00:45.273000,0 days 00:01:05.422000,0 days 00:00:35.012000,137.0,172.0,248.0,267.0,medium,5.0
0 days 00:29:48.822000,8,0 days 00:01:30.128000,6,"","",0 days 00:00:28.329000,0 days 00:00:36.846000,0 days 00:00:24.953000,309.0,254.0,248.0,309.0,medium,6.0
0 days 00:31:43.396000,8,0 days 00:01:54.574000,7,"",0 days 00:31:37.503000,0 days 00:00:38.396000,0 days 00:00:45.507000,0 days 00:00:30.671000,148.0,165.0,"",198.0,medium,7.0
0 days 00:50:10.095000,8,"",8,0 days 00:48:17.887000,"","",0 days 00:00:49.971000,0 days 00:00:30.659000,263.0,225.0,251.0,285.0,soft,1.0
0 days 00:51:38.659000,8,0 days 00:01:28.564000,9,"","",0 days 00:00:27.704000,0 days 00:00:36.161000,0 days 00:00:24.699000,315.0,262.0,249.0,315.0,soft,2.0
0 days 00:54:21.072000,8,"",10,"","",0 days 00:00:46.294000,0 days 00:01:08.974000,0 days 00:00:47.134000,202.0,135.0,249.0,122.0,soft,3.0
0 days 00:56:09.471000,8,0 days 00:01:48.399000,11,"","",0 days 00:00:31.799000,0 days 00:00:43.546000,0 days 00:00:33.054000,255.0,235.0,252.0,296.0,soft,4.0
0 days 01:22:23.401000,8,"",12,"",0 days 00:59:54.732000,0 days 00:00:27.784000,0 days 00:00:36.328000,"",314.0,262.0,"",316.0,soft,5.0
0 days 01:24:00.431000,8,"",13,0 days 01:22:23.401000,"","",0 days 00:00:39.746000,0 days 00:00:26.504000,283.0,247.0,241.0,289.0,soft,6.0
0 days 01:25:34.390000,8,0 days 00:01:33.959000,14,"","",0 days 00:00:29.368000,0 days 00:00:38.391000,0 days 00:00:26.200000,299.0,249.0,240.0,297.0,soft,7.0
0 days 01:27:08.866000,8,0 days 00:01:34.476000,15,"","",0 days 00:00:29.312000,0 days 00:00:38.599000,0 days 00:00:26.565000,"",248.0,240.0,295.0,soft,8.0
0 days 01:28:43.673000,8,0 days 00:01:34.807000,16,"","",0 days 00:00:29.848000,0 days 00:00:38.756000,0 days 00:00:26.203000,298.0,247.0,241.0,297.0,soft,9.0
0 days 01:30:18.137000,8,0 days 00:01:34.464000,17,"","",0 days 00:00:29.541000,0 days 00:00:38.492000,0 days 00:00:26.431000,"",247.0,240.0,296.0,soft,10.0
0 days 01:31:53.018000,8,0 days 00:01:34.881000,18,"","",0 days 00:00:29.713000,0 days 00:00:38.783000,0 days 00:00:26.385000,297.0,248.0,240.0,297.0,soft,11.0
0 days 01:33:27.773000,8,0 days 00:01:34.755000,19,"","",0 days 00:00:29.690000,0 days 00:00:38.485000,0 days 00:00:26.580000,"",248.0,239.0,298.0,soft,12.0
0 days 01:35:03.079000,8,0 days 00:01:35.306000,20,"",0 days 01:34:57.173000,0 days 00:00:29.713000,0 days 00:00:39.982000,0 days 00:00:25.611000,301.0,246.0,"",296.0,soft,13.0
0 days 01:36:58.948000,8,0 days 00:01:55.869000,21,0 days 01:35:26.553000,"",0 days 00:00:51.147000,0 days 00:00:38.548000,0 days 00:00:26.174000,298.0,248.0,243.0,288.0,medium,8.0
0 days 01:38:32.325000,8,0 days 00:01:33.377000,22,"","",0 days 00:00:29.378000,0 days 00:00:37.975000,0 days 00:00:26.024000,290.0,250.0,244.0,289.0,medium,9.0
0 days 01:40:05.534000,8,0 days 00:01:33.209000,23,"","",0 days 00:00:29.243000,0 days 00:00:37.797000,0 days 00:00:26.169000,291.0,252.0,243.0,291.0,medium,10.0
0 days 01:41:39.732000,8,0 days 00:01:34.198000,24,"","",0 days 00:00:29.355000,0 days 00:00:38.104000,0 days 00:00:26.739000,292.0,247.0,241.0,288.0,medium,11.0
0 days 01:43:14.096000,8,0 days 00:01:34.364000,25,"","",0 days 00:00:30.082000,0 days 00:00:38.107000,0 days 00:00:26.175000,294.0,249.0,242.0,295.0,medium,12.0
0 days 01:45:19.037000,8,0 days 00:02:04.941000,26,"","",0 days 00:00:31.067000,0 days 00:00:53.671000,0 days 00:00:40.203000,199.0,213.0,82.0,249.0,medium,13.0
0 days 01:47:42.875000,8,0 days 00:02:23.838000,27,"",0 days 01:47:37.089000,0 days 00:01:00.024000,0 days 00:00:49.883000,0 days 00:00:33.931000,148.0,153.0,"",198.0,medium,14.0
0 days 00:21:25.822000,7,"",1,0 days 00:19:41.021000,"","",0 days 00:00:44.628000,0 days 00:00:30.768000,283.0,233.0,251.0,276.0,medium,1.0
0 days 00:22:55.146000,7,0 days 00:01:29.324000,2,"","",0 days 00:00:28.136000,0 days 00:00:36.473000,0 days 00:00:24.715000,315.0,259.0,249.0,316.0,medium,2.0
0 days 00:25:01.466000,7,0 days 00:02:06.320000,3,"","",0 days 00:00:39.411000,0 days 00:00:53.744000,0 days 00:00:33.165000,243.0,222.0,252.0,238.0,medium,3.0
0 days 00:26:45.016000,7,0 days 00:01:43.550000,4,"","",0 days 00:00:28.004000,0 days 00:00:41.012000,0 days 00:00:34.534000,317.0,211.0,224.0,197.0,medium,4.0
0 days 00:28:49.375000,7,0 days 00:02:04.359000,5,"","",0 days 00:00:35.952000,0 days 00:00:54.520000,0 days 00:00:33.887000,250.0,201.0,252.0,238.0,medium,5.0
0 days 00:30:18.468000,7,0 days 00:01:29.093000,6,"","",0 days 00:00:27.981000,0 days 00:00:36.475000,0 days 00:00:24.637000,317.0,261.0,250.0,315.0,medium,6.0
0 days 00:32:07.801000,7,0 days 00:01:49.333000,7,"",0 days 00:32:01.973000,0 days 00:00:35.563000,0 days 00:00:45.500000,0 days 00:00:28.270000,157.0,234.0,"",276.0,medium,7.0
0 days 00:34:23.784000,7,0 days 00:02:15.983000,8,0 days 00:32:43.990000,0 days 00:34:18.155000,0 days 00:01:07,0 days 00:00:41.399000,0 days 00:00:27.584000,262.0,242.0,"",289.0,medium,8.0
0 days 00:49:02.085000,7,"",9,0 days 00:47:11.148000,"","",0 days 00:00:50.786000,0 days 00:00:29.924000,246.0,220.0,253.0,277.0,soft,1.0
0 days 00:50:30.244000,7,0 days 00:01:28.159000,10,"","",0 days 00:00:27.840000,0 days 00:00:35.805000,0 days 00:00:24.514000,317.0,265.0,250.0,317.0,soft,2.0
0 days 00:52:38.281000,7,0 days 00:02:08.037000,11,"","",0 days 00:00:40.926000,0 days 00:00:55.632000,0 days 00:00:31.479000,215.0,204.0,197.0,200.0,soft,3.0
0 days 00:54:47.444000,7,0 days 00:02:09.163000,12,"","",0 days 00:00:39.258000,0 days 00:00:56.351000,0 days 00:00:33.554000,171.0,185.0,252.0,111.0,soft,4.0
0 days 00:56:19.169000,7,0 days 00:01:31.725000,13,"",0 days 00:56:13.330000,0 days 00:00:27.816000,0 days 00:00:36.106000,0 days 00:00:27.803000,317.0,257.0,"",317.0,soft,5.0
0 days 01:12:14.702000,7,"",14,0 days 00:56:52.702000,0 days 00:58:54.918000,0 days 00:01:04.219000,"","",221.0,"","","",soft,6.0
0 days 01:13:52.766000,7,"",15,0 days 01:12:14.702000,"","",0 days 00:00:41.158000,0 days 00:00:27.378000,287.0,231.0,245.0,285.0,medium,9.0
0 days 01:15:25.711000,7,0 days 00:01:32.945000,16,"","",0 days 00:00:28.941000,0 days 00:00:37.905000,0 days 00:00:26.099000,296.0,246.0,243.0,294.0,medium,10.0
0 days 01:16:58.963000,7,0 days 00:01:33.252000,17,"","",0 days 00:00:29.303000,0 days 00:00:37.900000,0 days 00:00:26.049000,"",247.0,242.0,295.0,medium,11.0
0 days 01:18:32.265000,7,0 days 00:01:33.302000,18,"","",0 days 00:00:29.406000,0 days 00:00:37.925000,0 days 00:00:25.971000,295.0,249.0,242.0,294.0,medium,12.0
0 days 01:20:05.810000,7,0 days 00:01:33.545000,19,"","",0 days 00:00:29.497000,0 days 00:00:37.901000,0 days 00:00:26.147000,293.0,248.0,243.0,293.0,medium,13.0
0 days 01:21:38.952000,7,0 days 00:01:33.142000,20,"",0 days 01:21:33.092000,0 days 00:00:29.437000,0 days 00:00:38.261000,0 days 00:00:25.444000,"",246.0,"",292.0,medium,14.0
0 days 01:23:39.412000,7,0 days 00:02:00.460000,21,0 days 01:22:04.573000,"",0 days 00:00:53.526000,0 days 00:00:39.369000,0 days 00:00:27.565000,291.0,245.0,245.0,303.0,medium,15.0
0 days 01:25:12.861000,7,0 days 00:01:33.449000,22,"","",0 days 00:00:29.210000,0 days 00:00:37.951000,0 days 00:00:26.288000,294.0,249.0,242.0,291.0,medium,16.0
0 days 01:26:46.836000,7,0 days 00:01:33.975000,23,"","",0 days 00:00:29.313000,0 days 00:00:38.434000,0 days 00:00:26.228000,298.0,249.0,242.0,292.0,medium,17.0
0 days 01:28:20.858000,7,0 days 00:01:34.022000,24,"","",0 days 00:00:29.468000,0 days 00:00:38.387000,0 days 00:00:26.167000,296.0,247.0,243.0,295.0,medium,18.0
0 days 01:29:55.376000,7,0 days 00:01:34.518000,25,"","",0 days 00:00:29.529000,0 days 00:00:38.577000,0 days 00:00:26.412000,303.0,247.0,242.0,303.0,medium,19.0
0 days 01:31:28.989000,7,0 days 00:01:33.613000,26,"",0 days 01:31:23.150000,0 days 00:00:29.512000,0 days 00:00:38.459000,0 days 00:00:25.642000,299.0,248.0,"",297.0,medium,20.0
0 days 01:33:23.093000,7,0 days 00:01:54.104000,27,0 days 01:31:51.935000,"",0 days 00:00:49.395000,0 days 00:00:37.812000,0 days 00:00:26.897000,310.0,252.0,246.0,301.0,soft,7.0
0 days 01:34:56.143000,7,0 days 00:01:33.050000,28,"","",0 days 00:00:29.055000,0 days 00:00:37.800000,0 days 00:00:26.195000,292.0,248.0,244.0,292.0,soft,8.0
0 days 01:36:28.784000,7,0 days 00:01:32.641000,29,"","",0 days 00:00:29.130000,0 days 00:00:37.721000,0 days 00:00:25.790000,306.0,249.0,244.0,306.0,soft,9.0
0 days 01:38:04.795000,7,0 days 00:01:36.011000,30,"","",0 days 00:00:29.321000,0 days 00:00:38.250000,0 days 00:00:28.440000,307.0,250.0,246.0,316.0,soft,10.0
0 days 01:39:38.101000,7,0 days 00:01:33.306000,31,"","",0 days 00:00:29.267000,0 days 00:00:38.003000,0 days 00:00:26.036000,291.0,247.0,241.0,303.0,soft,11.0
0 days 01:41:12.703000,7,0 days 00:01:34.602000,32,"","",0 days 00:00:29.535000,0 days 00:00:38.751000,0 days 00:00:26.316000,"",247.0,242.0,291.0,soft,12.0
0 days 01:42:46.815000,7,0 days 00:01:34.112000,33,"","",0 days 00:00:29.605000,0 days 00:00:38.500000,0 days 00:00:26.007000,294.0,245.0,244.0,309.0,soft,13.0
0 days 01:44:24.203000,7,0 days 00:01:37.388000,34,"","",0 days 00:00:29.401000,0 days 00:00:38.833000,0 days 00:00:29.154000,312.0,248.0,234.0,315.0,soft,14.0
0 days 01:46:19.455000,7,0 days 00:01:55.252000,35,"",0 days 01:48:27.814000,0 days 00:00:48.990000,0 days 00:00:38.704000,0 days 00:00:27.558000,307.0,248.0,51.0,280.0,soft,15.0
0 days 00:25:07.775000,6,"",1,0 days 00:23:15.695000,"","",0 days 00:00:44.946000,0 days 00:00:32.753000,267.0,227.0,250.0,140.0,medium,1.0
0 days 00:26:38.574000,6,0 days 00:01:30.799000,2,"","",0 days 00:00:28.339000,0 days 00:00:37.189000,0 days 00:00:25.271000,314.0,259.0,246.0,313.0,medium,2.0
0 days 00:28:43.542000,6,0 days 00:02:04.968000,3,"","",0 days 00:00:37.761000,0 days 00:00:50.977000,0 days 00:00:36.230000,238.0,222.0,251.0,248.0,medium,3.0
0 days 00:30:44.002000,6,0 days 00:02:00.460000,4,"","",0 days 00:00:34.989000,0 days 00:00:50.097000,0 days 00:00:35.374000,200.0,233.0,248.0,253.0,medium,4.0
0 days 00:32:15.005000,6,0 days 00:01:31.003000,5,"","",0 days 00:00:28.416000,0 days 00:00:37.594000,0 days 00:00:24.993000,314.0,259.0,250.0,310.0,medium,5.0
0 days 00:34:09.098000,6,0 days 00:01:54.093000,6,"",0 days 00:34:03.258000,0 days 00:00:33.302000,0 days 00:00:46.693000,0 days 00:00:34.098000,215.0,239.0,"",242.0,medium,6.0
0 days 00:51:28.441000,6,"",7,0 days 00:49:28.577000,"","",0 days 00:00:54.179000,0 days 00:00:31.451000,246.0,229.0,249.0,239.0,soft,1.0
0 days 00:52:58.399000,6,0 days 00:01:29.958000,8,"","",0 days 00:00:28.062000,0 days 00:00:36.675000,0 days 00:00:25.221000,312.0,260.0,246.0,313.0,soft,2.0
0 days 00:55:11.895000,6,0 days 00:02:13.496000,9,"","",0 days 00:00:35.033000,0 days 00:01:02.359000,0 days 00:00:36.104000,211.0,237.0,253.0,264.0,soft,3.0
0 days 00:56:42.155000,6,0 days 00:01:30.260000,10,"","",0 days 00:00:28.258000,0 days 00:00:36.747000,0 days 00:00:25.255000,312.0,261.0,247.0,310.0,soft,4.0
0 days 01:08:19.593000,6,"",11,"",0 days 00:58:43.238000,0 days 00:00:33.563000,"","",224.0,"","","",soft,5.0
0 days 01:10:18.434000,6,"",12,0 days 01:08:19.588000,0 days 01:10:14.481000,"",0 days 00:00:50.834000,0 days 00:00:31.670000,210.0,232.0,"",227.0,soft,6.0
0 days 01:12:25.919000,6,0 days 00:02:07.485000,13,0 days 01:10:51.351000,"",0 days 00:01:01.136000,0 days 00:00:39.583000,0 days 00:00:26.766000,296.0,250.0,240.0,290.0,soft,7.0
0 days 01:14:00.298000,6,0 days 00:01:34.379000,14,"","",0 days 00:00:29.503000,0 days 00:00:38.573000,0 days 00:00:26.303000,298.0,251.0,243.0,282.0,soft,8.0
0 days 01:15:34.804000,6,0 days 00:01:34.506000,15,"","",0 days 00:00:29.508000,0 days 00:00:38.351000,0 days 00:00:26.647000,297.0,251.0,242.0,278.0,soft,9.0
0 days 01:17:09.474000,6,0 days 00:01:34.670000,16,"","",0 days 00:00:29.598000,0 days 00:00:38.576000,0 days 00:00:26.496000,291.0,251.0,242.0,284.0,soft,10.0
0 days 01:18:45.110000,6,0 days 00:01:35.636000,17,"","",0 days 00:00:30.014000,0 days 00:00:38.754000,0 days 00:00:26.868000,286.0,250.0,240.0,284.0,soft,11.0
0 days 01:20:20.972000,6,0 days 00:01:35.862000,18,"","",0 days 00:00:30.031000,0 days 00:00:39.138000,0 days 00:00:26.693000,280.0,249.0,242.0,281.0,soft,12.0
0 days 01:21:55.760000,6,0 days 00:01:34.788000,19,"",0 days 01:21:49.958000,0 days 00:00:29.954000,0 days 00:00:39.153000,0 days 00:00:25.681000,281.0,247.0,"",284.0,soft,13.0
0 days 01:23:52.411000,6,0 days 00:01:56.651000,20,0 days 01:22:20.290000,"",0 days 00:00:52.128000,0 days 00:00:38.176000,0 days 00:00:26.347000,291.0,250.0,244.0,285.0,medium,7.0
0 days 01:25:26.174000,6,0 days 00:01:33.763000,21,"","",0 days 00:00:29.338000,0 days 00:00:37.912000,0 days 00:00:26.513000,287.0,252.0,244.0,281.0,medium,8.0
0 days 01:27:00.169000,6,0 days 00:01:33.995000,22,"","",0 days 00:00:29.310000,0 days 00:00:38.093000,0 days 00:00:26.592000,289.0,251.0,242.0,284.0,medium,9.0
0 days 01:28:34.513000,6,0 days 00:01:34.344000,23,"","",0 days 00:00:29.517000,0 days 00:00:38.420000,0 days 00:00:26.407000,288.0,251.0,245.0,284.0,medium,10.0
0 days 01:30:08.325000,6,0 days 00:01:33.812000,24,"","",0 days 00:00:29.440000,0 days 00:00:38.164000,0 days 00:00:26.208000,291.0,251.0,245.0,291.0,medium,11.0
0 days 01:31:43.164000,6,0 days 00:01:34.839000,25,"","",0 days 00:00:29.852000,0 days 00:00:38.506000,0 days 00:00:26.481000,298.0,251.0,244.0,293.0,medium,12.0
0 days 01:33:18.002000,6,0 days 00:01:34.838000,26,"","",0 days 00:00:29.577000,0 days 00:00:38.451000,0 days 00:00:26.810000,"",252.0,242.0,277.0,medium,13.0
0 days 01:34:52.427000,6,0 days 00:01:34.425000,27,"","",0 days 00:00:29.557000,0 days 00:00:38.323000,0 days 00:00:26.545000,299.0,253.0,244.0,277.0,medium,14.0
0 days 01:36:26.440000,6,0 days 00:01:34.013000,28,"","",0 days 00:00:29.528000,0 days 00:00:38.168000,0 days 00:00:26.317000,298.0,252.0,245.0,281.0,medium,15.0
0 days 01:38:00.645000,6,0 days 00:01:34.205000,29,"","",0 days 00:00:29.761000,0 days 00:00:38.062000,0 days 00:00:26.382000,"",252.0,242.0,277.0,medium,16.0
0 days 01:39:34.962000,6,0 days 00:01:34.317000,30,"","",0 days 00:00:29.531000,0 days 00:00:38.150000,0 days 00:00:26.636000,296.0,250.0,241.0,290.0,medium,17.0
0 days 01:41:10.142000,6,0 days 00:01:35.180000,31,"","",0 days 00:00:29.959000,0 days 00:00:38.456000,0 days 00:00:26.765000,288.0,250.0,238.0,279.0,medium,18.0
0 days 01:42:45.375000,6,0 days 00:01:35.233000,32,"","",0 days 00:00:29.787000,0 days 00:00:38.768000,0 days 00:00:26.678000,290.0,247.0,239.0,287.0,medium,19.0
0 days 01:45:00.540000,6,0 days 00:02:15.165000,33,"","",0 days 00:00:30.017000,0 days 00:00:38.694000,0 days 00:01:06.454000,287.0,246.0,91.0,280.0,medium,20.0
0 days 01:47:09.416000,6,0 days 00:02:08.876000,34,"","",0 days 00:00:41.313000,0 days 00:00:49.163000,0 days 00:00:38.400000,239.0,223.0,62.0,180.0,medium,21.0
0 days 01:49:30.228000,6,0 days 00:02:20.812000,35,"",0 days 01:49:27.904000,0 days 00:00:56.138000,0 days 00:00:53.934000,0 days 00:00:30.740000,210.0,221.0,"",242.0,medium,22.0
0 days 00:23:08.382000,5,"",1,0 days 00:21:32.884000,"","",0 days 00:00:39.271000,0 days 00:00:27.050000,284.0,242.0,247.0,293.0,hard,1.0
0 days 00:24:40.097000,5,0 days 00:01:31.715000,2,"","",0 days 00:00:28.735000,0 days 00:00:37.712000,0 days 00:00:25.268000,315.0,258.0,248.0,315.0,hard,2.0
0 days 00:26:48.473000,5,0 days 00:02:08.376000,3,"","",0 days 00:00:35.468000,0 days 00:00:49.728000,0 days 00:00:43.180000,227.0,161.0,245.0,136.0,hard,3.0
0 days 00:28:33.342000,5,0 days 00:01:44.869000,4,"","",0 days 00:00:29.044000,0 days 00:00:43.467000,0 days 00:00:32.358000,319.0,230.0,251.0,277.0,hard,4.0
0 days 00:30:04.297000,5,0 days 00:01:30.955000,5,"","",0 days 00:00:28.339000,0 days 00:00:37.470000,0 days 00:00:25.146000,317.0,258.0,250.0,316.0,hard,5.0
0 days 00:32:00.597000,5,0 days 00:01:56.300000,6,"","",0 days 00:00:36.220000,0 days 00:00:48.836000,0 days 00:00:31.244000,202.0,180.0,252.0,266.0,hard,6.0
0 days 00:33:34.069000,5,0 days 00:01:33.472000,7,"","",0 days 00:00:28.482000,0 days 00:00:37.235000,0 days 00:00:27.755000,314.0,231.0,185.0,308.0,hard,7.0
0 days 00:35:27.389000,5,0 days 00:01:53.320000,8,"",0 days 00:35:21.417000,0 days 00:00:36.302000,0 days 00:00:46.294000,0 days 00:00:30.724000,195.0,222.0,"",255.0,hard,8.0
0 days 01:16:56.638000,5,"",9,0 days 01:15:13.269000,"","",0 days 00:00:43.689000,0 days 00:00:27.941000,266.0,234.0,255.0,290.0,soft,1.0
0 days 01:18:25.498000,5,0 days 00:01:28.860000,10,"","",0 days 00:00:27.835000,0 days 00:00:36.245000,0 days 00:00:24.780000,319.0,261.0,251.0,320.0,soft,2.0
0 days 01:20:30.905000,5,0 days 00:02:05.407000,11,"","",0 days 00:00:39.958000,0 days 00:00:55.715000,0 days 00:00:29.734000,197.0,219.0,253.0,173.0,soft,3.0
0 days 01:21:59.871000,5,0 days 00:01:28.966000,12,"","",0 days 00:00:27.905000,0 days 00:00:36.404000,0 days 00:00:24.657000,318.0,256.0,252.0,319.0,soft,4.0
0 days 01:23:43.528000,5,0 days 00:01:43.657000,13,"",0 days 01:23:39.430000,0 days 00:00:32.104000,0 days 00:00:44.438000,0 days 00:00:27.115000,266.0,239.0,"",283.0,soft,5.0
0 days 01:31:39.245000,5,"",14,0 days 01:30:01.273000,0 days 01:31:33.354000,"",0 days 00:00:41.349000,0 days 00:00:26.739000,281.0,235.0,"",277.0,soft,6.0
0 days 01:33:33.297000,5,0 days 00:01:54.052000,15,0 days 01:31:59.531000,0 days 01:33:27.815000,0 days 00:00:49.432000,0 days 00:00:39.383000,0 days 00:00:25.237000,298.0,249.0,"",300.0,soft,7.0
0 days 01:35:40.080000,5,0 days 00:02:06.783000,16,0 days 01:34:08.494000,"",0 days 00:01:01.932000,0 days 00:00:38.859000,0 days 00:00:25.992000,300.0,251.0,244.0,298.0,soft,8.0
0 days 01:37:16.725000,5,0 days 00:01:36.645000,17,"","",0 days 00:00:30.124000,0 days 00:00:38.076000,0 days 00:00:28.445000,"",250.0,243.0,298.0,soft,9.0
0 days 01:38:50.646000,5,0 days 00:01:33.921000,18,"","",0 days 00:00:29.345000,0 days 00:00:38.440000,0 days 00:00:26.136000,298.0,248.0,242.0,298.0,soft,10.0
0 days 01:40:25.390000,5,0 days 00:01:34.744000,19,"","",0 days 00:00:29.744000,0 days 00:00:38.151000,0 days 00:00:26.849000,"",250.0,240.0,299.0,soft,11.0
0 days 01:41:59.830000,5,0 days 00:01:34.440000,20,"","",0 days 00:00:29.709000,0 days 00:00:38.433000,0 days 00:00:26.298000,304.0,248.0,241.0,298.0,soft,12.0
0 days 01:43:35.162000,5,0 days 00:01:35.332000,21,"","",0 days 00:00:30.073000,0 days 00:00:38.712000,0 days 00:00:26.547000,296.0,248.0,239.0,298.0,soft,13.0
0 days 01:45:36.374000,5,0 days 00:02:01.212000,22,"","",0 days 00:00:30.271000,0 days 00:00:44.533000,0 days 00:00:46.408000,299.0,158.0,74.0,191.0,soft,14.0
0 days 01:47:55.684000,5,0 days 00:02:19.310000,23,"",0 days 01:47:49.791000,0 days 00:01:02.640000,0 days 00:00:44.819000,0 days 00:00:31.851000,275.0,199.0,"",199.0,soft,15.0
0 days 00:25:13.379000,4,"",1,0 days 00:23:20.307000,"","",0 days 00:00:44.062000,0 days 00:00:35.662000,231.0,229.0,250.0,263.0,hard,1.0
0 days 00:26:43.040000,4,0 days 00:01:29.661000,2,"","",0 days 00:00:28.068000,0 days 00:00:36.788000,0 days 00:00:24.805000,314.0,263.0,251.0,311.0,hard,2.0
0 days 00:28:55.866000,4,0 days 00:02:12.826000,3,"","",0 days 00:00:38.455000,0 days 00:00:58.177000,0 days 00:00:36.194000,152.0,207.0,249.0,168.0,hard,3.0
0 days 00:30:48.528000,4,0 days 00:01:52.662000,4,"","",0 days 00:00:29.818000,0 days 00:00:48.500000,0 days 00:00:34.344000,279.0,212.0,249.0,183.0,hard,4.0
0 days 00:32:28.782000,4,0 days 00:01:40.254000,5,"","",0 days 00:00:28.027000,0 days 00:00:36.616000,0 days 00:00:35.611000,315.0,243.0,212.0,305.0,hard,5.0
0 days 00:34:21.664000,4,0 days 00:01:52.882000,6,"",0 days 00:34:16.326000,0 days 00:00:34.351000,0 days 00:00:48.964000,0 days 00:00:29.567000,197.0,226.0,"",236.0,hard,6.0
0 days 00:36:24.270000,4,0 days 00:02:02.606000,7,0 days 00:34:45.573000,"",0 days 00:00:52.748000,0 days 00:00:40.473000,0 days 00:00:29.385000,297.0,234.0,250.0,293.0,hard,7.0
0 days 00:37:53.983000,4,0 days 00:01:29.713000,8,"","",0 days 00:00:28.151000,0 days 00:00:36.740000,0 days 00:00:24.822000,311.0,261.0,252.0,310.0,hard,8.0
0 days 00:39:49.366000,4,0 days 00:01:55.383000,9,"","",0 days 00:00:31.168000,0 days 00:00:49.265000,0 days 00:00:34.950000,215.0,207.0,250.0,197.0,hard,9.0
0 days 00:41:18.716000,4,0 days 00:01:29.350000,10,"","",0 days 00:00:28.006000,0 days 00:00:36.638000,0 days 00:00:24.706000,311.0,263.0,251.0,311.0,hard,10.0
0 days 00:43:00.245000,4,0 days 00:01:41.529000,11,"",0 days 00:42:51.867000,0 days 00:00:31.527000,0 days 00:00:40.247000,0 days 00:00:29.755000,249.0,228.0,"",249.0,hard,11.0
0 days 00:56:31.173000,4,"",12,0 days 00:54:35.266000,"","",0 days 00:00:51.108000,0 days 00:00:32.763000,268.0,204.0,254.0,147.0,soft,1.0
0 days 01:08:17.224000,4,"",13,"",0 days 00:58:17.698000,0 days 00:00:27.617000,"","",321.0,"","","",soft,2.0
0 days 01:10:11.429000,4,"",14,0 days 01:08:17.224000,"","",0 days 00:00:46.385000,0 days 00:00:34.489000,280.0,215.0,253.0,251.0,soft,3.0
0 days 01:11:39.598000,4,0 days 00:01:28.169000,15,"","",0 days 00:00:27.533000,0 days 00:00:36.026000,0 days 00:00:24.610000,322.0,264.0,250.0,319.0,soft,4.0
0 days 01:13:23.643000,4,0 days 00:01:44.045000,16,"",0 days 01:13:19.755000,0 days 00:00:32.362000,0 days 00:00:43.062000,0 days 00:00:28.621000,256.0,228.0,"",251.0,soft,5.0
0 days 01:32:35.542000,4,"",17,0 days 01:31:02.182000,0 days 01:32:31.179000,"",0 days 00:00:38.526000,0 days 00:00:26.305000,291.0,255.0,"",293.0,hard,12.0
0 days 01:34:30.640000,4,0 days 00:01:55.098000,18,0 days 01:33:00.079000,"",0 days 00:00:51.229000,0 days 00:00:37.911000,0 days 00:00:25.958000,294.0,256.0,247.0,289.0,soft,6.0
0 days 01:36:03.456000,4,0 days 00:01:32.816000,19,"","",0 days 00:00:28.982000,0 days 00:00:37.820000,0 days 00:00:26.014000,295.0,255.0,246.0,288.0,soft,7.0
0 days 01:37:36.886000,4,0 days 00:01:33.430000,20,"","",0 days 00:00:29.188000,0 days 00:00:38.153000,0 days 00:00:26.089000,297.0,255.0,246.0,304.0,soft,8.0
0 days 01:39:10.587000,4,0 days 00:01:33.701000,21,"","",0 days 00:00:29.443000,0 days 00:00:38.200000,0 days 00:00:26.058000,296.0,255.0,244.0,294.0,soft,9.0
0 days 01:40:44.392000,4,0 days 00:01:33.805000,22,"","",0 days 00:00:29.402000,0 days 00:00:38.239000,0 days 00:00:26.164000,295.0,255.0,245.0,293.0,soft,10.0
0 days 01:42:18.425000,4,0 days 00:01:34.033000,23,"","",0 days 00:00:29.521000,0 days 00:00:38.227000,0 days 00:00:26.285000,"",254.0,244.0,291.0,soft,11.0
0 days 01:43:51.905000,4,0 days 00:01:33.480000,24,"","",0 days 00:00:29.376000,0 days 00:00:37.993000,0 days 00:00:26.111000,"",254.0,245.0,291.0,soft,12.0
0 days 01:46:07.211000,4,0 days 00:02:15.306000,25,"","",0 days 00:00:36.672000,0 days 00:00:50.095000,0 days 00:00:48.539000,174.0,222.0,77.0,149.0,soft,13.0
0 days 01:48:10.633000,4,0 days 00:02:03.422000,26,"",0 days 01:48:05.520000,0 days 00:00:43.126000,0 days 00:00:51.697000,0 days 00:00:28.599000,270.0,225.0,"",248.0,soft,14.0
0 days 00:31:49.047000,77,"",1,0 days 00:29:49.611000,"","",0 days 00:00:50.927000,0 days 00:00:32.729000,288.0,177.0,252.0,111.0,medium,1.0
0 days 00:33:17.086000,77,0 days 00:01:28.039000,2,"","",0 days 00:00:27.709000,0 days 00:00:36.042000,0 days 00:00:24.288000,316.0,264.0,249.0,312.0,medium,2.0
0 days 00:35:12.869000,77,0 days 00:01:55.783000,3,"",0 days 00:35:11.399000,0 days 00:00:37.134000,0 days 00:00:48.362000,0 days 00:00:30.287000,224.0,231.0,"",285.0,medium,3.0
0 days 00:37:43.175000,77,"",4,0 days 00:35:50.193000,"",0 days 00:01:12.991000,0 days 00:00:47.803000,0 days 00:00:29.517000,262.0,224.0,254.0,294.0,medium,4.0
0 days 00:39:10.906000,77,0 days 00:01:27.731000,5,"","",0 days 00:00:27.605000,0 days 00:00:35.778000,0 days 00:00:24.348000,319.0,265.0,251.0,317.0,medium,5.0
0 days 00:41:02.366000,77,0 days 00:01:51.460000,6,"",0 days 00:40:56.394000,0 days 00:00:38.281000,0 days 00:00:46.831000,0 days 00:00:26.348000,108.0,228.0,"",281.0,medium,6.0
0 days 00:53:25.617000,77,"",7,0 days 00:51:28.295000,"","",0 days 00:00:51.510000,0 days 00:00:30.252000,266.0,182.0,253.0,288.0,soft,1.0
0 days 00:54:53.048000,77,0 days 00:01:27.431000,8,"","",0 days 00:00:27.629000,0 days 00:00:35.546000,0 days 00:00:24.256000,318.0,265.0,251.0,319.0,soft,2.0
0 days 00:56:56.556000,77,0 days 00:02:03.508000,9,"",0 days 00:56:52.043000,0 days 00:00:41.094000,0 days 00:00:51.408000,0 days 00:00:31.006000,238.0,187.0,"",271.0,soft,3.0
0 days 01:07:59.673000,77,"",10,0 days 00:57:31.756000,0 days 00:59:39.146000,"","","","","","","",soft,4.0
0 days 01:09:53.881000,77,"",11,0 days 01:07:59.673000,"","",0 days 00:00:49.124000,0 days 00:00:30.207000,250.0,200.0,252.0,290.0,soft,5.0
0 days 01:11:21.974000,77,0 days 00:01:28.093000,12,"","",0 days 00:00:27.597000,0 days 00:00:36.171000,0 days 00:00:24.325000,317.0,264.0,249.0,316.0,soft,6.0
0 days 01:13:14.375000,77,0 days 00:01:52.401000,13,"",0 days 01:13:09.745000,0 days 00:00:34.230000,0 days 00:00:45.840000,0 days 00:00:32.331000,212.0,197.0,"",214.0,soft,7.0
0 days 01:20:22.309000,77,"",14,0 days 01:18:30.764000,0 days 01:20:16.384000,"",0 days 00:00:46.714000,0 days 00:00:29.431000,202.0,238.0,"",162.0,soft,8.0
0 days 01:22:39.631000,77,0 days 00:02:17.322000,15,0 days 01:20:54.771000,"",0 days 00:01:03.825000,0 days 00:00:40.335000,0 days 00:00:33.162000,200.0,243.0,245.0,213.0,soft,9.0
0 days 01:24:11.348000,77,0 days 00:01:31.717000,16,"","",0 days 00:00:28.711000,0 days 00:00:37.471000,0 days 00:00:25.535000,297.0,253.0,245.0,297.0,soft,10.0
0 days 01:25:43.761000,77,0 days 00:01:32.413000,17,"","",0 days 00:00:29.089000,0 days 00:00:37.618000,0 days 00:00:25.706000,292.0,250.0,245.0,289.0,soft,11.0
0 days 01:27:24.406000,77,0 days 00:01:40.645000,18,"",0 days 01:27:18.493000,0 days 00:00:28.915000,0 days 00:00:37.534000,0 days 00:00:34.196000,296.0,252.0,"",245.0,soft,12.0
0 days 01:29:26.254000,77,0 days 00:02:01.848000,19,0 days 01:27:47.234000,"",0 days 00:00:49.132000,0 days 00:00:45.553000,0 days 00:00:27.163000,297.0,235.0,249.0,281.0,medium,7.0
0 days 01:30:57.497000,77,0 days 00:01:31.243000,20,"","",0 days 00:00:28.703000,0 days 00:00:37.228000,0 days 00:00:25.312000,"",254.0,248.0,292.0,medium,8.0
0 days 01:32:29.050000,77,0 days 00:01:31.553000,21,"","",0 days 00:00:28.844000,0 days 00:00:37.295000,0 days 00:00:25.414000,295.0,255.0,247.0,291.0,medium,9.0
0 days 01:34:00.669000,77,0 days 00:01:31.619000,22,"","",0 days 00:00:28.936000,0 days 00:00:37.302000,0 days 00:00:25.381000,"",255.0,247.0,293.0,medium,10.0
0 days 01:35:32.791000,77,0 days 00:01:32.122000,23,"","",0 days 00:00:28.901000,0 days 00:00:37.639000,0 days 00:00:25.582000,298.0,256.0,247.0,292.0,medium,11.0
0 days 01:37:04.803000,77,0 days 00:01:32.012000,24,"","",0 days 00:00:29.078000,0 days 00:00:37.335000,0 days 00:00:25.599000,296.0,256.0,246.0,288.0,medium,12.0
0 days 01:38:40.903000,77,0 days 00:01:36.100000,25,"","",0 days 00:00:29.137000,0 days 00:00:37.372000,0 days 00:00:29.591000,"",255.0,244.0,295.0,medium,13.0
0 days 01:40:12.785000,77,0 days 00:01:31.882000,26,"","",0 days 00:00:29.015000,0 days 00:00:37.219000,0 days 00:00:25.648000,293.0,256.0,247.0,292.0,medium,14.0
0 days 01:41:45.093000,77,0 days 00:01:32.308000,27,"","",0 days 00:00:29.075000,0 days 00:00:37.597000,0 days 00:00:25.636000,296.0,253.0,246.0,291.0,medium,15.0
0 days 01:43:21.059000,77,0 days 00:01:35.966000,28,"","",0 days 00:00:30.503000,0 days 00:00:39.739000,0 days 00:00:25.724000,291.0,248.0,239.0,299.0,medium,16.0
0 days 01:45:31.815000,77,0 days 00:02:10.756000,29,"","",0 days 00:00:34.419000,0 days 00:00:50.675000,0 days 00:00:45.662000,230.0,182.0,58.0,164.0,medium,17.0
0 days 01:48:00.381000,77,0 days 00:02:28.566000,30,"",0 days 01:47:54.745000,0 days 00:01:08.049000,0 days 00:00:53.228000,0 days 00:00:27.289000,201.0,200.0,"",275.0,medium,18.0
0 days 00:20:47.345000,99,"",1,0 days 00:19:02.861000,"","",0 days 00:00:44.487000,0 days 00:00:29.973000,289.0,239.0,253.0,288.0,medium,1.0
0 days 00:22:17.391000,99,0 days 00:01:30.046000,2,"","",0 days 00:00:28.148000,0 days 00:00:37.156000,0 days 00:00:24.742000,318.0,262.0,250.0,319.0,medium,2.0
0 days 00:24:29.444000,99,0 days 00:02:12.053000,3,"","",0 days 00:00:39.240000,0 days 00:00:55.189000,0 days 00:00:37.624000,190.0,222.0,253.0,187.0,medium,3.0
0 days 00:25:58.316000,99,0 days 00:01:28.872000,4,"","",0 days 00:00:27.851000,0 days 00:00:36.365000,0 days 00:00:24.656000,321.0,264.0,251.0,317.0,medium,4.0
0 days 00:28:11.932000,99,0 days 00:02:13.616000,5,"","",0 days 00:00:38.519000,0 days 00:00:59.117000,0 days 00:00:35.980000,192.0,205.0,253.0,131.0,medium,5.0
0 days 00:29:41.600000,99,0 days 00:01:29.668000,6,"","",0 days 00:00:28.093000,0 days 00:00:36.689000,0 days 00:00:24.886000,318.0,264.0,250.0,316.0,medium,6.0
0 days 00:31:27.170000,99,0 days 00:01:45.570000,7,"",0 days 00:31:22.877000,0 days 00:00:32.932000,0 days 00:00:43.393000,0 days 00:00:29.245000,193.0,234.0,"",291.0,medium,7.0
0 days 00:33:45.720000,99,0 days 00:02:18.550000,8,0 days 00:32:00.722000,0 days 00:33:39.880000,0 days 00:01:07.078000,0 days 00:00:44.029000,0 days 00:00:27.443000,195.0,233.0,"",288.0,medium,8.0
0 days 00:49:26.096000,99,"",9,0 days 00:47:37.620000,"","",0 days 00:00:46.479000,0 days 00:00:31.736000,277.0,229.0,254.0,209.0,soft,1.0
0 days 00:50:54.352000,99,0 days 00:01:28.256000,10,"","",0 days 00:00:27.772000,0 days 00:00:35.877000,0 days 00:00:24.607000,319.0,265.0,250.0,319.0,soft,2.0
0 days 00:53:01.030000,99,0 days 00:02:06.678000,11,"","",0 days 00:00:39.122000,0 days 00:00:54.247000,0 days 00:00:33.309000,169.0,224.0,221.0,247.0,soft,3.0
0 days 00:55:04.510000,99,0 days 00:02:03.480000,12,"","",0 days 00:00:38.322000,0 days 00:00:49.865000,0 days 00:00:35.293000,221.0,214.0,253.0,190.0,soft,4.0
0 days 00:56:33.635000,99,0 days 00:01:29.125000,13,"","",0 days 00:00:27.802000,0 days 00:00:36.448000,0 days 00:00:24.875000,319.0,261.0,252.0,320.0,soft,5.0
0 days 01:19:42.098000,99,"",14,"",0 days 00:58:30.476000,0 days 00:00:32.930000,"","",268.0,"","","",soft,6.0
0 days 01:21:24.458000,99,"",15,0 days 01:19:42.098000,"","",0 days 00:00:44.407000,0 days 00:00:28.375000,281.0,227.0,246.0,273.0,medium,9.0
0 days 01:22:57.745000,99,0 days 00:01:33.287000,16,"","",0 days 00:00:29.248000,0 days 00:00:38.280000,0 days 00:00:25.759000,297.0,252.0,244.0,296.0,medium,10.0
0 days 01:24:30.733000,99,0 days 00:01:32.988000,17,"","",0 days 00:00:29.192000,0 days 00:00:37.876000,0 days 00:00:25.920000,"",252.0,243.0,301.0,medium,11.0
0 days 01:26:03.972000,99,0 days 00:01:33.239000,18,"","",0 days 00:00:29.281000,0 days 00:00:38.038000,0 days 00:00:25.920000,296.0,252.0,243.0,290.0,medium,12.0
0 days 01:27:38.184000,99,0 days 00:01:34.212000,19,"","",0 days 00:00:29.408000,0 days 00:00:38.559000,0 days 00:00:26.245000,301.0,250.0,241.0,296.0,medium,13.0
0 days 01:29:12.150000,99,0 days 00:01:33.966000,20,"","",0 days 00:00:29.563000,0 days 00:00:38.304000,0 days 00:00:26.099000,299.0,250.0,242.0,298.0,medium,14.0
0 days 01:30:46.242000,99,0 days 00:01:34.092000,21,"","",0 days 00:00:29.427000,0 days 00:00:38.489000,0 days 00:00:26.176000,300.0,250.0,243.0,301.0,medium,15.0
0 days 01:32:20.448000,99,0 days 00:01:34.206000,22,"","",0 days 00:00:29.528000,0 days 00:00:38.316000,0 days 00:00:26.362000,299.0,251.0,242.0,298.0,medium,16.0
0 days 01:33:54.451000,99,0 days 00:01:34.003000,23,"","",0 days 00:00:29.442000,0 days 00:00:38.371000,0 days 00:00:26.190000,300.0,250.0,243.0,311.0,medium,17.0
0 days 01:35:27.984000,99,0 days 00:01:33.533000,24,"","",0 days 00:00:29.255000,0 days 00:00:38.255000,0 days 00:00:26.023000,301.0,251.0,244.0,296.0,medium,18.0
0 days 01:37:01.459000,99,0 days 00:01:33.475000,25,"","",0 days 00:00:29.371000,0 days 00:00:38.091000,0 days 00:00:26.013000,"",251.0,244.0,298.0,medium,19.0
0 days 01:38:35.103000,99,0 days 00:01:33.644000,26,"","",0 days 00:00:29.465000,0 days 00:00:38.218000,0 days 00:00:25.961000,299.0,251.0,245.0,299.0,medium,20.0
0 days 01:40:08.350000,99,0 days 00:01:33.247000,27,"","",0 days 00:00:29.315000,0 days 00:00:37.888000,0 days 00:00:26.044000,297.0,253.0,245.0,297.0,medium,21.0
0 days 01:41:41.723000,99,0 days 00:01:33.373000,28,"","",0 days 00:00:29.320000,0 days 00:00:38.002000,0 days 00:00:26.051000,298.0,252.0,243.0,294.0,medium,22.0
0 days 01:43:15.530000,99,0 days 00:01:33.807000,29,"","",0 days 00:00:29.489000,0 days 00:00:38.501000,0 days 00:00:25.817000,302.0,252.0,244.0,312.0,medium,23.0
0 days 01:45:21.799000,99,0 days 00:02:06.269000,30,"","",0 days 00:00:33.112000,0 days 00:00:51.330000,0 days 00:00:41.827000,238.0,222.0,42.0,261.0,medium,24.0
0 days 01:47:34.506000,99,0 days 00:02:12.707000,31,"",0 days 01:47:28.603000,0 days 00:00:56.083000,0 days 00:00:45.384000,0 days 00:00:31.240000,"",226.0,"",272.0,medium,25.0
