Time,AirTemp,Humidity,Pressure,Rainfall,TrackTemp,WindDirection,WindSpeed
0 days 00:00:46.441000,17.7,52.3,938.7,false,32.2,277,0.1
0 days 00:01:46.429000,17.6,53.4,938.7,false,31.8,253,0.2
0 days 00:02:46.441000,17.6,54.2,938.7,false,31.8,228,0.3
0 days 00:03:46.455000,17.6,54.5,938.6,false,31.7,260,0.1
0 days 00:04:46.462000,17.5,54.1,938.6,false,31.4,231,0.1
0 days 00:05:46.497000,17.5,55.0,938.6,false,31.3,283,0.3
0 days 00:06:46.489000,17.6,55.1,938.6,false,31.3,247,0.2
0 days 00:07:46.487000,17.6,55.2,938.7,false,31.0,251,0.2
0 days 00:08:46.476000,17.7,53.7,938.7,false,31.3,248,0.2
0 days 00:09:46.488000,17.7,53.5,938.8,false,31.3,339,0.1
0 days 00:10:46.487000,17.7,53.1,938.7,false,31.3,336,0.2
0 days 00:11:46.488000,17.7,52.1,938.8,false,31.2,246,0.1
0 days 00:12:46.503000,17.9,51.5,938.7,false,31.3,259,0.3
0 days 00:13:46.500000,17.9,51.6,938.8,false,31.2,252,0.1
0 days 00:14:46.519000,18.1,51.2,938.8,false,31.2,353,0.1
0 days 00:15:46.534000,18.1,50.3,938.8,false,31.5,253,0.1
0 days 00:16:46.549000,17.9,51.4,938.8,false,31.5,0,0.2
0 days 00:17:46.538000,17.9,51.9,938.7,false,31.7,0,0.0
0 days 00:18:46.536000,18.0,52.2,938.7,false,31.7,268,0.1
0 days 00:19:46.540000,18.0,51.9,938.7,false,31.8,54,0.3
0 days 00:20:46.535000,18.0,51.6,938.8,false,31.9,91,0.3
0 days 00:21:46.534000,18.2,51.4,938.7,false,32.1,77,0.4
0 days 00:22:46.535000,18.3,51.0,938.8,false,32.3,48,0.1
0 days 00:23:46.534000,18.3,50.8,938.8,false,32.3,108,0.2
0 days 00:24:46.540000,18.5,50.3,938.8,false,32.4,30,0.4
0 days 00:25:46.550000,18.5,50.8,938.7,false,32.2,71,0.4
0 days 00:26:46.564000,18.4,51.4,938.8,false,31.9,70,0.3
0 days 00:27:46.566000,18.4,51.0,938.8,false,31.8,48,0.3
0 days 00:28:46.565000,18.4,50.4,938.8,false,31.8,83,0.3
0 days 00:29:46.565000,18.3,50.3,938.8,false,31.9,81,0.7
0 days 00:30:46.585000,18.1,51.1,938.8,false,31.9,113,0.3
0 days 00:31:46.587000,18.1,52.2,938.7,false,31.3,58,0.2
0 days 00:32:46.598000,18.1,52.4,938.8,false,31.1,99,0.2
0 days 00:33:46.621000,18.2,51.5,938.7,false,31.3,102,0.3
0 days 00:34:46.613000,18.2,50.4,938.7,false,31.5,100,0.4
0 days 00:35:46.620000,18.2,50.7,938.8,false,31.5,115,0.2
0 days 00:36:46.614000,18.3,50.4,938.8,false,31.2,263,0.1
0 days 00:37:46.629000,18.3,50.8,938.8,false,30.8,116,0.1
0 days 00:38:46.650000,18.3,50.5,938.8,false,30.7,98,0.1
0 days 00:39:46.658000,18.3,50.2,938.7,false,30.8,58,0.1
0 days 00:40:46.674000,18.3,50.3,938.8,false,30.8,92,0.2
0 days 00:41:46.673000,18.3,49.9,938.7,false,30.7,65,0.3
0 days 00:42:46.681000,18.3,49.5,938.7,false,30.7,0,0.2
0 days 00:43:46.690000,18.4,50.5,938.7,false,30.4,46,0.0
0 days 00:44:46.693000,18.3,50.9,938.8,false,30.5,76,0.1
0 days 00:45:46.691000,18.4,50.9,938.7,false,30.5,188,0.2
0 days 00:46:46.692000,18.4,51.6,938.8,false,30.4,0,0.1
0 days 00:47:46.706000,18.3,51.6,938.7,false,30.4,89,0.1
0 days 00:48:46.697000,18.4,51.4,938.7,false,30.4,99,0.2
0 days 00:49:46.690000,18.4,49.5,938.7,false,30.7,64,0.4
0 days 00:50:46.692000,18.5,49.7,938.7,false,31.0,38,0.5
0 days 00:51:46.691000,18.4,50.7,938.6,false,30.8,64,0.4
0 days 00:52:46.692000,18.5,49.9,938.8,false,30.8,29,0.3
0 days 00:53:46.691000,18.5,50.8,938.7,false,30.8,20,0.2
0 days 00:54:46.691000,18.5,51.4,938.7,false,30.8,79,0.2
0 days 00:55:46.692000,18.7,50.6,938.7,false,30.9,109,0.5
0 days 00:56:46.689000,18.8,49.2,938.7,false,31.5,76,0.5
0 days 00:57:46.690000,18.9,48.8,938.7,false,31.5,82,0.6
0 days 00:58:46.690000,18.9,48.6,938.6,false,31.6,81,0.5
0 days 00:59:46.690000,18.8,49.3,938.6,false,31.3,73,0.4
0 days 01:00:46.690000,18.8,49.7,938.7,false,31.3,72,0.3
0 days 01:01:46.691000,18.8,49.8,938.7,false,31.5,68,0.2
0 days 01:02:46.696000,18.9,49.0,938.6,false,31.6,74,0.4
0 days 01:03:46.693000,19.0,49.5,938.6,false,31.7,51,0.5
0 days 01:04:46.692000,19.0,48.9,938.6,false,31.8,66,0.3
0 days 01:05:46.697000,19.0,47.9,938.7,true,32.0,77,0.6
0 days 01:06:46.691000,19.0,47.9,938.6,false,32.0,88,0.8
0 days 01:07:46.691000,19.0,47.9,938.6,false,32.5,82,0.7
0 days 01:08:46.696000,19.2,47.5,938.6,false,32.5,83,0.7
0 days 01:09:46.693000,19.3,47.1,938.6,false,32.5,90,0.7
0 days 01:10:46.690000,19.4,47.1,938.6,false,32.9,81,0.8
0 days 01:11:46.828000,19.5,44.3,938.6,false,33.4,70,0.7
0 days 01:12:46.826000,19.5,44.5,938.6,false,34.3,86,0.6
0 days 01:13:46.816000,19.5,46.0,938.6,false,34.3,77,0.8
0 days 01:14:46.832000,19.6,46.0,938.5,false,34.0,73,0.7
0 days 01:15:46.848000,19.7,45.6,938.5,false,33.9,84,0.6
0 days 01:16:46.861000,19.7,46.2,938.5,false,33.7,85,0.8
0 days 01:17:46.863000,19.7,45.2,938.5,false,33.4,71,0.5
0 days 01:18:46.865000,19.7,44.0,938.5,false,33.4,81,0.6
0 days 01:19:46.879000,19.6,44.1,938.5,false,33.4,63,0.6
