Time,AirTemp,Humidity,Pressure,Rainfall,TrackTemp,WindDirection,WindSpeed
0 days 00:00:25.082000,29.4,54.6,991.9,false,37.5,103,1.3
0 days 00:01:25.067000,29.4,53.9,992.1,false,37.3,105,1.2
0 days 00:02:25.058000,29.5,53.5,992.1,false,37.3,116,1.0
0 days 00:03:25.067000,29.6,52.5,992.1,false,37.6,110,1.0
0 days 00:04:25.067000,29.8,52.2,992.0,false,38.4,103,0.9
0 days 00:05:25.068000,29.8,52.7,992.0,false,38.4,109,1.1
0 days 00:06:25.074000,29.9,52.9,992.0,false,38.3,93,0.9
0 days 00:07:25.068000,29.9,52.9,992.0,false,38.3,93,0.9
0 days 00:08:25.067000,29.8,53.0,992.0,false,37.9,113,1.3
0 days 00:09:25.067000,29.8,53.2,991.9,false,37.5,106,1.1
0 days 00:10:25.067000,29.7,54.1,991.9,false,37.3,106,1.5
0 days 00:11:25.068000,29.7,54.7,991.9,false,37.2,114,1.5
0 days 00:12:25.072000,29.7,54.9,991.8,false,37.1,108,1.4
0 days 00:13:25.081000,29.7,54.9,991.8,false,37.1,108,1.4
0 days 00:14:25.076000,29.9,54.6,991.9,false,37.6,107,1.3
0 days 00:15:25.081000,29.9,55.1,991.9,false,37.8,104,1.3
0 days 00:16:25.067000,29.9,55.2,991.8,false,37.8,115,1.0
0 days 00:17:25.067000,29.9,54.9,991.8,false,37.6,91,1.3
0 days 00:18:25.067000,29.8,55.0,991.8,false,36.7,105,1.2
0 days 00:19:25.068000,29.8,55.6,991.8,false,36.7,121,1.1
0 days 00:20:25.067000,29.7,54.2,992.0,false,36.4,118,1.2
0 days 00:21:25.067000,29.7,54.3,991.8,false,36.2,103,1.0
0 days 00:22:25.069000,29.6,55.0,991.8,false,36.1,105,1.1
0 days 00:23:25.067000,29.6,55.5,991.8,false,36.0,106,1.3
0 days 00:24:25.073000,29.7,54.9,991.9,false,36.1,111,1.0
0 days 00:25:25.069000,29.8,55.1,991.7,false,36.9,117,1.0
0 days 00:26:25.068000,29.9,54.9,991.8,false,37.3,108,1.5
0 days 00:27:25.069000,29.9,54.7,991.8,false,37.4,103,0.8
0 days 00:28:25.068000,30.1,54.4,991.8,false,37.4,94,1.3
0 days 00:29:25.072000,30.1,54.6,991.8,false,37.3,116,1.2
0 days 00:30:25.069000,30.0,55.0,991.9,false,37.2,133,1.1
0 days 00:31:25.072000,30.1,54.6,991.7,false,37.2,102,1.0
0 days 00:32:25.072000,30.1,54.3,991.8,false,37.5,149,1.3
0 days 00:33:25.068000,30.1,54.2,991.7,false,37.6,105,1.0
0 days 00:34:25.068000,30.0,53.9,991.7,false,37.7,106,1.2
0 days 00:35:25.078000,30.0,54.3,991.6,false,37.7,94,1.2
0 days 00:36:25.071000,29.9,54.4,991.6,false,37.5,92,1.6
0 days 00:37:25.067000,29.9,55.2,991.7,false,37.4,107,1.1
0 days 00:38:25.071000,29.7,55.1,991.7,false,36.9,112,0.9
0 days 00:39:25.071000,29.7,54.8,991.7,false,36.4,93,1.1
0 days 00:40:25.070000,29.6,55.7,991.7,false,36.3,102,1.3
0 days 00:41:25.087000,29.6,55.5,991.7,false,36.3,106,0.9
0 days 00:42:25.085000,29.6,55.2,991.6,false,36.7,106,0.7
0 days 00:43:25.105000,29.6,55.3,991.7,false,36.8,82,0.7
0 days 00:44:25.133000,29.6,55.4,991.5,false,36.7,112,0.8
0 days 00:45:25.137000,29.6,55.7,991.6,false,36.4,114,0.9
0 days 00:46:25.133000,29.7,56.0,991.7,false,36.5,105,0.9
0 days 00:47:25.147000,29.8,56.0,991.6,false,36.5,101,0.6
0 days 00:48:25.166000,29.9,56.0,991.7,false,37.2,102,0.6
0 days 00:49:25.163000,30.0,55.2,991.7,false,37.2,0,0.4
0 days 00:50:25.162000,30.0,53.8,991.6,false,37.3,138,0.2
0 days 00:51:25.163000,29.9,53.4,991.6,false,37.3,118,1.0
0 days 00:52:25.181000,30.0,53.0,991.8,false,37.3,113,1.2
0 days 00:53:25.204000,29.9,53.9,991.7,false,37.0,124,1.2
0 days 00:54:25.217000,30.1,53.6,991.7,false,37.0,107,1.0
0 days 00:55:25.234000,30.1,53.6,991.8,false,37.2,124,1.1
0 days 00:56:25.240000,30.2,53.5,991.6,false,37.7,114,1.1
0 days 00:57:25.243000,30.2,53.4,991.6,false,37.7,106,1.3
0 days 00:58:25.244000,30.2,53.6,991.7,false,37.7,116,1.4
0 days 00:59:25.252000,30.2,53.9,991.7,false,37.4,115,1.2
0 days 01:00:25.245000,30.1,55.0,991.3,false,37.7,90,1.1
0 days 01:01:25.243000,30.0,56.7,991.7,false,37.4,117,1.2
0 days 01:02:25.277000,29.7,57.5,991.7,false,36.4,113,1.2
0 days 01:03:25.271000,29.6,58.1,991.8,false,35.8,131,1.5
0 days 01:04:25.283000,29.2,59.0,991.7,false,35.5,117,1.3
0 days 01:05:25.304000,29.2,58.6,991.7,false,35.2,110,1.3
0 days 01:06:25.291000,29.0,58.0,991.9,false,34.7,113,1.3
0 days 01:07:25.301000,28.7,57.8,991.8,false,34.6,110,1.2
0 days 01:08:25.291000,28.6,58.4,991.8,false,34.6,114,1.3
0 days 01:09:25.288000,28.6,58.2,991.8,false,34.7,104,1.3
0 days 01:10:25.290000,28.5,58.5,991.7,false,34.6,111,1.1
0 days 01:11:25.288000,28.6,59.0,991.7,false,34.4,104,1.0
0 days 01:12:25.290000,28.7,58.6,991.8,false,34.4,111,1.0
0 days 01:13:25.288000,28.7,58.4,991.8,false,34.4,116,1.1
0 days 01:14:25.289000,28.6,58.4,991.8,false,34.6,107,1.0
0 days 01:15:25.288000,28.5,57.8,991.8,false,34.5,110,1.0
0 days 01:16:25.289000,28.5,57.9,991.6,false,34.3,115,1.0
0 days 01:17:25.290000,28.4,57.4,991.8,false,34.3,119,0.9
0 days 01:18:25.303000,28.4,57.6,991.7,true,34.2,103,0.8
