Time,DriverNumber,LapTime,LapNumber,PitOutTime,PitInTime,Sector1Time,Sector2Time,Sector3Time,SpeedI1,SpeedI2,SpeedFL,SpeedST,Compound,TyreLife
0 days 00:32:28.328000,3,"",1,0 days 00:30:58.554000,"","",0 days 00:00:38.547000,0 days 00:00:31.260000,275.0,215.0,275.0,277.0,medium,1.0
0 days 00:33:49.372000,3,0 days 00:01:21.044000,2,"","",0 days 00:00:17.035000,0 days 00:00:36.526000,0 days 00:00:27.483000,308.0,138.0,280.0,309.0,medium,2.0
0 days 00:34:56.546000,3,0 days 00:01:07.174000,3,"","",0 days 00:00:16.880000,0 days 00:00:29.707000,0 days 00:00:20.587000,309.0,240.0,282.0,309.0,medium,3.0
0 days 00:36:35.123000,3,0 days 00:01:38.577000,4,"",0 days 00:36:31.962000,0 days 00:00:27.448000,0 days 00:00:42.580000,0 days 00:00:28.549000,150.0,206.0,"",248.0,medium,4.0
0 days 00:38:28.031000,3,0 days 00:01:52.908000,5,0 days 00:36:57.082000,"",0 days 00:00:42.418000,0 days 00:00:42.543000,0 days 00:00:27.947000,107.0,212.0,282.0,173.0,medium,5.0
0 days 00:39:34.915000,3,0 days 00:01:06.884000,6,"","",0 days 00:00:16.814000,0 days 00:00:29.679000,0 days 00:00:20.391000,316.0,242.0,282.0,308.0,medium,6.0
0 days 00:41:29.302000,3,0 days 00:01:54.387000,7,"","",0 days 00:00:27.802000,0 days 00:00:53.163000,0 days 00:00:33.422000,207.0,208.0,279.0,90.0,medium,7.0
0 days 00:42:35.824000,3,0 days 00:01:06.522000,8,"","",0 days 00:00:16.859000,0 days 00:00:29.521000,0 days 00:00:20.142000,312.0,241.0,283.0,310.0,medium,8.0
0 days 00:44:11.903000,3,0 days 00:01:36.079000,9,"","",0 days 00:00:21.569000,0 days 00:00:45.337000,0 days 00:00:29.173000,254.0,179.0,286.0,158.0,medium,9.0
0 days 00:45:19.700000,3,0 days 00:01:07.797000,10,"","",0 days 00:00:16.534000,0 days 00:00:29.430000,0 days 00:00:21.833000,315.0,243.0,259.0,313.0,medium,10.0
0 days 00:46:37.253000,3,0 days 00:01:17.553000,11,"",0 days 00:46:34.015000,0 days 00:00:17.909000,0 days 00:00:33.507000,0 days 00:00:26.137000,275.0,214.0,"",277.0,medium,11.0
0 days 00:58:45.093000,3,"",12,0 days 00:57:08.279000,"","",0 days 00:00:46.979000,0 days 00:00:27.615000,272.0,133.0,280.0,254.0,soft,1.0
0 days 01:00:19.329000,3,0 days 00:01:34.236000,13,"","",0 days 00:00:16.818000,0 days 00:00:42.863000,0 days 00:00:34.555000,311.0,175.0,273.0,151.0,soft,2.0
0 days 01:01:32.759000,3,0 days 00:01:13.430000,14,"","",0 days 00:00:16.915000,0 days 00:00:29.443000,0 days 00:00:27.072000,306.0,242.0,143.0,309.0,soft,3.0
0 days 01:03:24.201000,3,0 days 00:01:51.442000,15,"","",0 days 00:00:31.490000,0 days 00:00:49.825000,0 days 00:00:30.127000,201.0,180.0,280.0,113.0,soft,4.0
0 days 01:04:30.317000,3,0 days 00:01:06.116000,16,"","",0 days 00:00:16.727000,0 days 00:00:29.305000,0 days 00:00:20.084000,310.0,244.0,282.0,310.0,soft,5.0
0 days 01:05:48.758000,3,0 days 00:01:18.441000,17,"",0 days 01:05:45.487000,0 days 00:00:18.348000,0 days 00:00:34.094000,0 days 00:00:25.999000,288.0,214.0,"",269.0,soft,6.0
0 days 01:15:19.704000,3,"",18,0 days 01:14:01.084000,"","",0 days 00:00:33.313000,0 days 00:00:26.125000,277.0,211.0,241.0,282.0,soft,7.0
0 days 01:17:09.957000,3,0 days 00:01:50.253000,19,"","",0 days 00:00:24.704000,0 days 00:00:38.314000,0 days 00:00:47.235000,211.0,193.0,72.0,204.0,soft,8.0
0 days 01:18:56.532000,3,0 days 00:01:46.575000,20,"",0 days 01:18:53.242000,0 days 00:00:46.573000,0 days 00:00:34.133000,0 days 00:00:25.869000,273.0,228.0,"",289.0,soft,9.0
0 days 00:33:38.057000,63,"",1,0 days 00:32:15.664000,"","",0 days 00:00:37.724000,0 days 00:00:25.879000,288.0,219.0,286.0,131.0,medium,1.0
0 days 00:34:44.511000,63,0 days 00:01:06.454000,2,"","",0 days 00:00:16.623000,0 days 00:00:29.648000,0 days 00:00:20.183000,318.0,242.0,285.0,315.0,medium,2.0
0 days 00:36:17.626000,63,0 days 00:01:33.115000,3,"","",0 days 00:00:20.826000,0 days 00:00:43.691000,0 days 00:00:28.598000,278.0,106.0,281.0,198.0,medium,3.0
0 days 00:37:48.803000,63,0 days 00:01:31.177000,4,"","",0 days 00:00:16.804000,0 days 00:00:35.919000,0 days 00:00:38.454000,314.0,171.0,279.0,310.0,medium,4.0
0 days 00:38:55.719000,63,0 days 00:01:06.916000,5,"","",0 days 00:00:16.889000,0 days 00:00:29.774000,0 days 00:00:20.253000,315.0,244.0,283.0,311.0,medium,5.0
0 days 00:40:49.870000,63,0 days 00:01:54.151000,6,"","",0 days 00:00:28.469000,0 days 00:00:50.729000,0 days 00:00:34.953000,232.0,78.0,279.0,271.0,medium,6.0
0 days 00:41:56.535000,63,0 days 00:01:06.665000,7,"","",0 days 00:00:16.883000,0 days 00:00:29.845000,0 days 00:00:19.937000,312.0,244.0,283.0,309.0,medium,7.0
0 days 00:43:44.397000,63,0 days 00:01:47.862000,8,"","",0 days 00:00:22.662000,0 days 00:00:49.986000,0 days 00:00:35.214000,282.0,158.0,279.0,224.0,medium,8.0
0 days 00:44:50.761000,63,0 days 00:01:06.364000,9,"","",0 days 00:00:16.860000,0 days 00:00:29.487000,0 days 00:00:20.017000,310.0,245.0,283.0,311.0,medium,9.0
0 days 00:46:10.195000,63,0 days 00:01:19.434000,10,"",0 days 00:46:06.955000,0 days 00:00:19.246000,0 days 00:00:35.089000,0 days 00:00:25.099000,149.0,219.0,"",294.0,medium,10.0
0 days 00:48:01.276000,63,0 days 00:01:51.081000,11,0 days 00:46:34.347000,0 days 00:47:58.859000,0 days 00:00:42.600000,0 days 00:00:42.407000,0 days 00:00:26.074000,273.0,221.0,"",177.0,medium,11.0
0 days 00:59:17.152000,63,"",12,0 days 00:57:38.740000,"","",0 days 00:00:45.294000,0 days 00:00:31.984000,285.0,129.0,278.0,273.0,soft,1.0
0 days 01:00:23.313000,63,0 days 00:01:06.161000,13,"","",0 days 00:00:16.856000,0 days 00:00:29.275000,0 days 00:00:20.030000,309.0,245.0,284.0,311.0,soft,2.0
0 days 01:02:12.483000,63,0 days 00:01:49.170000,14,"","",0 days 00:00:23.878000,0 days 00:00:50.253000,0 days 00:00:35.039000,263.0,125.0,215.0,260.0,soft,3.0
0 days 01:03:54.805000,63,0 days 00:01:42.322000,15,"","",0 days 00:00:23.697000,0 days 00:00:50.358000,0 days 00:00:28.267000,130.0,116.0,281.0,108.0,soft,4.0
0 days 01:05:00.670000,63,0 days 00:01:05.865000,16,"","",0 days 00:00:16.586000,0 days 00:00:29.376000,0 days 00:00:19.903000,315.0,239.0,283.0,313.0,soft,5.0
0 days 01:06:51.814000,63,0 days 00:01:51.144000,17,"","",0 days 00:00:25.183000,0 days 00:00:49.955000,0 days 00:00:36.006000,271.0,125.0,195.0,187.0,soft,6.0
0 days 01:08:40.478000,63,0 days 00:01:48.664000,18,"","",0 days 00:00:26.091000,0 days 00:00:48.517000,0 days 00:00:34.056000,91.0,142.0,283.0,134.0,soft,7.0
0 days 01:09:46.341000,63,0 days 00:01:05.863000,19,"","",0 days 00:00:16.647000,0 days 00:00:29.330000,0 days 00:00:19.886000,313.0,246.0,283.0,312.0,soft,8.0
0 days 01:11:09.151000,63,0 days 00:01:22.810000,20,"",0 days 01:11:06.585000,0 days 00:00:21.799000,0 days 00:00:36.155000,0 days 00:00:24.856000,264.0,202.0,"",240.0,soft,9.0
0 days 01:15:16.625000,63,"",21,0 days 01:13:54.667000,"","",0 days 00:00:36.361000,0 days 00:00:26.627000,286.0,207.0,185.0,245.0,soft,10.0
0 days 01:16:58.332000,63,0 days 00:01:41.707000,22,"","",0 days 00:00:21.399000,0 days 00:00:36.203000,0 days 00:00:44.105000,258.0,210.0,70.0,299.0,soft,11.0
0 days 01:18:31.740000,63,0 days 00:01:33.408000,23,"",0 days 01:18:28.480000,0 days 00:00:35.357000,0 days 00:00:32.435000,0 days 00:00:25.616000,294.0,211.0,"",296.0,soft,12.0
0 days 00:34:42.272000,55,"",1,0 days 00:33:12.241000,"","",0 days 00:00:39.431000,0 days 00:00:29.921000,265.0,182.0,275.0,276.0,medium,1.0
0 days 00:35:49.089000,55,0 days 00:01:06.817000,2,"","",0 days 00:00:16.941000,0 days 00:00:29.672000,0 days 00:00:20.204000,309.0,243.0,279.0,303.0,medium,2.0
0 days 00:37:43.858000,55,0 days 00:01:54.769000,3,"","",0 days 00:00:27.845000,0 days 00:00:55.022000,0 days 00:00:31.902000,121.0,168.0,276.0,239.0,medium,3.0
0 days 00:38:50.124000,55,0 days 00:01:06.266000,4,"","",0 days 00:00:16.849000,0 days 00:00:29.412000,0 days 00:00:20.005000,309.0,243.0,281.0,305.0,medium,4.0
0 days 00:40:37.952000,55,0 days 00:01:47.828000,5,"",0 days 00:40:34.673000,0 days 00:00:31.096000,0 days 00:00:43.583000,0 days 00:00:33.149000,188.0,200.0,"",246.0,medium,5.0
0 days 00:42:40.369000,55,0 days 00:02:02.417000,6,0 days 00:41:15.550000,"",0 days 00:00:53.869000,0 days 00:00:43.805000,0 days 00:00:24.743000,240.0,92.0,279.0,199.0,medium,6.0
0 days 00:43:52.198000,55,0 days 00:01:11.829000,7,"","",0 days 00:00:16.895000,0 days 00:00:29.278000,0 days 00:00:25.656000,308.0,243.0,225.0,308.0,medium,7.0
0 days 00:45:32.991000,55,0 days 00:01:40.793000,8,"","",0 days 00:00:28.021000,0 days 00:00:46.922000,0 days 00:00:25.850000,219.0,197.0,276.0,185.0,medium,8.0
0 days 00:46:39.275000,55,0 days 00:01:06.284000,9,"","",0 days 00:00:16.829000,0 days 00:00:29.299000,0 days 00:00:20.156000,308.0,236.0,281.0,308.0,medium,9.0
0 days 00:48:17.668000,55,0 days 00:01:38.393000,10,"",0 days 00:48:14.400000,0 days 00:00:27.341000,0 days 00:00:41.334000,0 days 00:00:29.718000,134.0,188.0,"",198.0,medium,10.0
0 days 00:57:36.066000,55,"",11,0 days 00:56:05.612000,"","",0 days 00:00:40.729000,0 days 00:00:29.014000,218.0,189.0,278.0,273.0,soft,1.0
0 days 00:58:41.764000,55,0 days 00:01:05.698000,12,"","",0 days 00:00:16.597000,0 days 00:00:28.979000,0 days 00:00:20.122000,311.0,244.0,281.0,309.0,soft,2.0
0 days 01:00:42.809000,55,0 days 00:02:01.045000,13,"","",0 days 00:00:28.458000,0 days 00:00:57.623000,"",126.0,145.0,"",199.0,soft,3.0
0 days 01:02:21.359000,55,0 days 00:01:38.550000,14,"","",0 days 00:00:27.481000,0 days 00:00:45.538000,0 days 00:00:25.531000,171.0,185.0,276.0,258.0,soft,4.0
0 days 01:03:27.532000,55,0 days 00:01:06.173000,15,"","",0 days 00:00:16.772000,0 days 00:00:29.229000,0 days 00:00:20.172000,309.0,241.0,280.0,308.0,soft,5.0
0 days 01:05:21.150000,55,0 days 00:01:53.618000,16,"",0 days 01:05:17.828000,0 days 00:00:31.120000,0 days 00:00:50.059000,0 days 00:00:32.439000,179.0,161.0,"",179.0,soft,6.0
0 days 01:07:31.245000,55,0 days 00:02:10.095000,17,0 days 01:05:46.024000,"",0 days 00:00:51.922000,0 days 00:00:44.405000,0 days 00:00:33.768000,221.0,88.0,279.0,275.0,soft,7.0
0 days 01:08:36.989000,55,0 days 00:01:05.744000,18,"","",0 days 00:00:16.675000,0 days 00:00:29.090000,0 days 00:00:19.979000,310.0,242.0,281.0,308.0,soft,8.0
0 days 01:10:07.660000,55,0 days 00:01:30.671000,19,"",0 days 01:10:04.360000,0 days 00:00:25.518000,0 days 00:00:36.766000,0 days 00:00:28.387000,219.0,183.0,"",258.0,soft,9.0
0 days 01:15:11.363000,55,"",20,0 days 01:13:51.377000,"","",0 days 00:00:32.210000,0 days 00:00:29.568000,274.0,188.0,139.0,284.0,soft,10.0
0 days 01:16:41.722000,55,0 days 00:01:30.359000,21,"","",0 days 00:00:19.092000,0 days 00:00:31.261000,0 days 00:00:40.006000,304.0,221.0,94.0,301.0,soft,11.0
0 days 01:18:30.705000,55,0 days 00:01:48.983000,22,"",0 days 01:18:27.392000,0 days 00:00:47.672000,0 days 00:00:35.367000,0 days 00:00:25.944000,191.0,190.0,"",266.0,soft,12.0
0 days 00:16:25.959000,47,"",1,0 days 00:15:05.598000,"","",0 days 00:00:36.716000,0 days 00:00:22.372000,204.0,222.0,265.0,273.0,hard,1.0
0 days 00:17:37.746000,47,0 days 00:01:11.787000,2,"","",0 days 00:00:18.134000,0 days 00:00:31.686000,0 days 00:00:21.967000,288.0,231.0,266.0,286.0,hard,2.0
0 days 00:18:49.054000,47,0 days 00:01:11.308000,3,"","",0 days 00:00:18.072000,0 days 00:00:31.451000,0 days 00:00:21.785000,289.0,231.0,266.0,288.0,hard,3.0
0 days 00:20:00.342000,47,0 days 00:01:11.288000,4,"","",0 days 00:00:18.028000,0 days 00:00:31.474000,0 days 00:00:21.786000,290.0,231.0,265.0,287.0,hard,4.0
0 days 00:21:11.580000,47,0 days 00:01:11.238000,5,"","",0 days 00:00:17.885000,0 days 00:00:31.639000,0 days 00:00:21.714000,291.0,230.0,266.0,287.0,hard,5.0
0 days 00:22:22.989000,47,0 days 00:01:11.409000,6,"","",0 days 00:00:17.916000,0 days 00:00:31.665000,0 days 00:00:21.828000,"",225.0,265.0,288.0,hard,6.0
0 days 00:23:45.854000,47,0 days 00:01:22.865000,7,"",0 days 00:23:42.508000,0 days 00:00:22.417000,0 days 00:00:34.268000,0 days 00:00:26.180000,204.0,215.0,"",262.0,hard,7.0
0 days 00:37:00.716000,47,"",8,0 days 00:35:19.510000,"","",0 days 00:00:45.268000,0 days 00:00:34.123000,253.0,99.0,279.0,191.0,soft,1.0
0 days 00:38:07.437000,47,0 days 00:01:06.721000,9,"","",0 days 00:00:16.800000,0 days 00:00:29.634000,0 days 00:00:20.287000,315.0,240.0,284.0,307.0,soft,2.0
0 days 00:39:56.527000,47,0 days 00:01:49.090000,10,"","",0 days 00:00:24.735000,0 days 00:00:52.220000,0 days 00:00:32.135000,174.0,127.0,283.0,132.0,soft,3.0
0 days 00:41:03.599000,47,0 days 00:01:07.072000,11,"","",0 days 00:00:16.661000,0 days 00:00:29.840000,0 days 00:00:20.571000,315.0,234.0,280.0,308.0,soft,4.0
0 days 00:43:06.601000,47,0 days 00:02:03.002000,12,"","",0 days 00:00:23.748000,0 days 00:01:02.148000,0 days 00:00:37.106000,123.0,120.0,279.0,109.0,soft,5.0
0 days 00:44:13.145000,47,0 days 00:01:06.544000,13,"","",0 days 00:00:16.757000,0 days 00:00:29.474000,0 days 00:00:20.313000,312.0,238.0,284.0,310.0,soft,6.0
0 days 00:45:38.014000,47,0 days 00:01:24.869000,14,"",0 days 00:45:34.676000,0 days 00:00:21.318000,0 days 00:00:34.141000,0 days 00:00:29.410000,196.0,218.0,"",282.0,soft,7.0
0 days 00:56:49.565000,47,"",15,0 days 00:55:12.914000,"","",0 days 00:00:45.278000,0 days 00:00:29.168000,185.0,175.0,279.0,219.0,soft,1.0
0 days 00:58:27.908000,47,0 days 00:01:38.343000,16,"","",0 days 00:00:16.858000,0 days 00:00:46.703000,0 days 00:00:34.782000,311.0,130.0,278.0,137.0,soft,2.0
0 days 00:59:34.024000,47,0 days 00:01:06.116000,17,"","",0 days 00:00:16.747000,0 days 00:00:29.259000,0 days 00:00:20.110000,312.0,243.0,282.0,310.0,soft,3.0
0 days 01:01:38.811000,47,0 days 00:02:04.787000,18,"","",0 days 00:00:26.024000,0 days 00:00:56.135000,0 days 00:00:42.628000,143.0,106.0,141.0,175.0,soft,4.0
0 days 01:03:31.753000,47,0 days 00:01:52.942000,19,"","",0 days 00:00:36.224000,0 days 00:00:49.381000,0 days 00:00:27.337000,125.0,196.0,282.0,152.0,soft,5.0
0 days 01:04:37.745000,47,0 days 00:01:05.992000,20,"","",0 days 00:00:16.642000,0 days 00:00:29.232000,0 days 00:00:20.118000,312.0,240.0,281.0,310.0,soft,6.0
0 days 01:06:11.619000,47,0 days 00:01:33.874000,21,"",0 days 01:06:08.304000,0 days 00:00:21.379000,0 days 00:00:43.443000,0 days 00:00:29.052000,189.0,103.0,"",278.0,soft,7.0
0 days 01:15:21.903000,47,"",22,0 days 01:14:05.167000,"","",0 days 00:00:35.275000,0 days 00:00:22.893000,293.0,223.0,267.0,295.0,soft,8.0
0 days 01:17:08.927000,47,0 days 00:01:47.024000,23,"","",0 days 00:00:19.736000,0 days 00:00:33.887000,0 days 00:00:53.401000,303.0,157.0,30.0,306.0,soft,9.0
0 days 01:19:04.619000,47,0 days 00:01:55.692000,24,"",0 days 01:19:01.425000,0 days 00:00:50.639000,0 days 00:00:36.810000,0 days 00:00:28.243000,205.0,178.0,"",272.0,soft,10.0
0 days 00:37:57.761000,44,"",1,0 days 00:36:31.548000,"","",0 days 00:00:38.054000,0 days 00:00:26.304000,226.0,203.0,278.0,258.0,soft,1.0
0 days 00:39:04.225000,44,0 days 00:01:06.464000,2,"","",0 days 00:00:16.885000,0 days 00:00:29.553000,0 days 00:00:20.026000,313.0,243.0,280.0,304.0,soft,2.0
0 days 00:41:11.686000,44,0 days 00:02:07.461000,3,"","",0 days 00:00:31.211000,0 days 00:00:58.700000,0 days 00:00:37.550000,120.0,95.0,278.0,178.0,soft,3.0
0 days 00:42:17.586000,44,0 days 00:01:05.900000,4,"","",0 days 00:00:16.767000,0 days 00:00:29.249000,0 days 00:00:19.884000,305.0,243.0,281.0,303.0,soft,4.0
0 days 00:44:35.046000,44,0 days 00:02:17.460000,5,"",0 days 00:44:31.626000,0 days 00:00:28.365000,0 days 00:01:03.374000,0 days 00:00:45.721000,118.0,96.0,"",121.0,soft,5.0
0 days 00:46:47.457000,44,0 days 00:02:12.411000,6,0 days 00:44:59.439000,"",0 days 00:00:52.814000,0 days 00:00:47.061000,0 days 00:00:32.536000,174.0,155.0,279.0,135.0,soft,6.0
0 days 00:47:52.824000,44,0 days 00:01:05.367000,7,"","",0 days 00:00:16.632000,0 days 00:00:29.062000,0 days 00:00:19.673000,311.0,245.0,282.0,308.0,soft,7.0
0 days 00:49:08.473000,44,0 days 00:01:15.649000,8,"",0 days 00:49:05.126000,0 days 00:00:18.504000,0 days 00:00:32.615000,0 days 00:00:24.530000,274.0,227.0,"",285.0,soft,8.0
0 days 00:58:09.233000,44,"",9,0 days 00:56:53.040000,"","",0 days 00:00:33.654000,0 days 00:00:23.405000,292.0,214.0,284.0,293.0,soft,1.0
0 days 00:59:13.602000,44,0 days 00:01:04.369000,10,"","",0 days 00:00:16.273000,0 days 00:00:28.543000,0 days 00:00:19.553000,313.0,250.0,284.0,310.0,soft,2.0
0 days 01:01:35.366000,44,0 days 00:02:21.764000,11,"",0 days 01:01:32.044000,0 days 00:00:31.186000,0 days 00:01:08.979000,0 days 00:00:41.599000,103.0,90.0,"",95.0,soft,3.0
0 days 01:03:41.123000,44,0 days 00:02:05.757000,12,0 days 01:01:59.594000,"",0 days 00:00:51.195000,0 days 00:00:50.771000,0 days 00:00:23.791000,231.0,96.0,283.0,91.0,soft,4.0
0 days 01:05:13.690000,44,0 days 00:01:32.567000,13,"","",0 days 00:00:16.842000,0 days 00:00:44.653000,0 days 00:00:31.072000,276.0,115.0,275.0,213.0,soft,5.0
0 days 01:06:33.777000,44,0 days 00:01:20.087000,14,"","",0 days 00:00:16.606000,0 days 00:00:37.221000,0 days 00:00:26.260000,307.0,190.0,282.0,267.0,soft,6.0
0 days 01:07:51.349000,44,0 days 00:01:17.572000,15,"","",0 days 00:00:16.503000,0 days 00:00:30.441000,0 days 00:00:30.628000,308.0,171.0,283.0,307.0,soft,7.0
0 days 01:09:04.104000,44,0 days 00:01:12.755000,16,"",0 days 01:09:00.775000,0 days 00:00:16.316000,0 days 00:00:30.644000,0 days 00:00:25.795000,314.0,221.0,"",309.0,soft,8.0
0 days 01:16:22.786000,44,"",17,0 days 01:14:46.533000,"","",0 days 00:00:40.554000,0 days 00:00:31.828000,208.0,153.0,168.0,201.0,soft,9.0
0 days 01:18:18.453000,44,0 days 00:01:55.667000,18,"","",0 days 00:00:27.171000,0 days 00:00:41.584000,0 days 00:00:46.912000,189.0,152.0,57.0,207.0,soft,10.0
0 days 01:20:08.376000,44,0 days 00:01:49.923000,19,"",0 days 01:20:05.072000,0 days 00:00:50.774000,0 days 00:00:34.470000,0 days 00:00:24.679000,273.0,187.0,"",251.0,soft,11.0
0 days 00:40:21.299000,33,"",1,0 days 00:38:48.150000,"","",0 days 00:00:42.972000,0 days 00:00:30.841000,172.0,135.0,281.0,267.0,soft,1.0
0 days 00:41:26.870000,33,0 days 00:01:05.571000,2,"","",0 days 00:00:16.723000,0 days 00:00:29.098000,0 days 00:00:19.750000,310.0,243.0,286.0,309.0,soft,2.0
0 days 00:43:10.348000,33,0 days 00:01:43.478000,3,"",0 days 00:43:07.169000,0 days 00:00:19.828000,0 days 00:00:49.994000,0 days 00:00:33.656000,160.0,158.0,"",185.0,soft,3.0
0 days 00:44:54.927000,33,0 days 00:01:44.579000,4,0 days 00:43:23.333000,"",0 days 00:00:35.760000,0 days 00:00:39.790000,0 days 00:00:29.029000,236.0,155.0,283.0,222.0,soft,1.0
0 days 00:45:59.898000,33,0 days 00:01:04.971000,5,"","",0 days 00:00:16.428000,0 days 00:00:28.805000,0 days 00:00:19.738000,314.0,246.0,285.0,310.0,soft,2.0
0 days 00:47:24.435000,33,0 days 00:01:24.537000,6,"",0 days 00:47:21.252000,0 days 00:00:19.799000,0 days 00:00:35.644000,0 days 00:00:29.094000,161.0,219.0,"",231.0,soft,3.0
0 days 00:48:56.581000,33,0 days 00:01:32.146000,7,0 days 00:47:37.786000,0 days 00:48:53.420000,0 days 00:00:31.280000,0 days 00:00:34.979000,0 days 00:00:25.887000,249.0,229.0,"",213.0,soft,7.0
0 days 00:50:36.854000,33,0 days 00:01:40.273000,8,0 days 00:49:17.639000,0 days 00:50:34.385000,0 days 00:00:39.113000,0 days 00:00:36.328000,0 days 00:00:24.832000,241.0,242.0,"",192.0,soft,8.0
0 days 01:07:54.261000,33,"",9,0 days 01:06:07.395000,"","",0 days 00:00:44.570000,0 days 00:00:43.804000,247.0,73.0,283.0,265.0,soft,1.0
0 days 01:08:58.834000,33,0 days 00:01:04.573000,10,"","",0 days 00:00:16.434000,0 days 00:00:28.596000,0 days 00:00:19.543000,317.0,247.0,284.0,314.0,soft,2.0
0 days 01:10:33.138000,33,0 days 00:01:34.304000,11,"",0 days 01:10:29.908000,0 days 00:00:19.462000,0 days 00:00:42.689000,0 days 00:00:32.153000,218.0,154.0,"",186.0,soft,3.0
0 days 01:12:30.259000,33,0 days 00:01:57.121000,12,0 days 01:10:46.092000,"",0 days 00:00:33.412000,0 days 00:00:53.202000,0 days 00:00:30.507000,225.0,166.0,284.0,142.0,soft,4.0
0 days 01:13:34.829000,33,0 days 00:01:04.570000,13,"","",0 days 00:00:16.433000,0 days 00:00:28.576000,0 days 00:00:19.561000,312.0,247.0,289.0,312.0,soft,5.0
0 days 01:15:16.033000,33,0 days 00:01:41.204000,14,"","",0 days 00:00:24.675000,0 days 00:00:47.332000,0 days 00:00:29.197000,151.0,185.0,212.0,151.0,soft,6.0
0 days 01:16:49.953000,33,0 days 00:01:33.920000,15,"","",0 days 00:00:20.841000,0 days 00:00:37.010000,0 days 00:00:36.069000,210.0,164.0,61.0,230.0,soft,7.0
0 days 01:18:24.457000,33,0 days 00:01:34.504000,16,"",0 days 01:18:23.838000,0 days 00:00:38.813000,0 days 00:00:30.881000,0 days 00:00:24.810000,282.0,237.0,"",274.0,soft,8.0
0 days 00:26:02.832000,31,"",1,0 days 00:24:29.179000,"","",0 days 00:00:42.652000,0 days 00:00:30.719000,270.0,140.0,274.0,283.0,medium,1.0
0 days 00:27:10.185000,31,0 days 00:01:07.353000,2,"","",0 days 00:00:17.160000,0 days 00:00:29.828000,0 days 00:00:20.365000,306.0,242.0,277.0,304.0,medium,2.0
0 days 00:28:57.952000,31,0 days 00:01:47.767000,3,"","",0 days 00:00:25.560000,0 days 00:00:49.046000,0 days 00:00:33.161000,168.0,122.0,278.0,158.0,medium,3.0
0 days 00:30:04.791000,31,0 days 00:01:06.839000,4,"","",0 days 00:00:16.884000,0 days 00:00:29.602000,0 days 00:00:20.353000,308.0,242.0,279.0,305.0,medium,4.0
0 days 00:31:46.329000,31,0 days 00:01:41.538000,5,"","",0 days 00:00:23.540000,0 days 00:00:47.889000,0 days 00:00:30.109000,179.0,139.0,275.0,154.0,medium,5.0
0 days 00:32:53.444000,31,0 days 00:01:07.115000,6,"","",0 days 00:00:16.975000,0 days 00:00:29.734000,0 days 00:00:20.406000,306.0,237.0,277.0,304.0,medium,6.0
0 days 00:34:18.647000,31,0 days 00:01:25.203000,7,"",0 days 00:34:15.331000,0 days 00:00:21.690000,0 days 00:00:37.151000,0 days 00:00:26.362000,165.0,210.0,"",236.0,medium,7.0
0 days 00:46:36.365000,31,"",8,0 days 00:45:15.380000,"","",0 days 00:00:37.648000,0 days 00:00:26.821000,293.0,207.0,276.0,229.0,medium,8.0
0 days 00:47:42.991000,31,0 days 00:01:06.626000,9,"","",0 days 00:00:16.701000,0 days 00:00:29.673000,0 days 00:00:20.252000,319.0,240.0,278.0,307.0,medium,9.0
0 days 00:49:23.557000,31,0 days 00:01:40.566000,10,"","",0 days 00:00:23.017000,0 days 00:00:47.753000,0 days 00:00:29.796000,177.0,158.0,276.0,153.0,medium,10.0
0 days 00:50:30.085000,31,0 days 00:01:06.528000,11,"","",0 days 00:00:16.846000,0 days 00:00:29.473000,0 days 00:00:20.209000,313.0,241.0,278.0,307.0,medium,11.0
0 days 00:51:49.191000,31,0 days 00:01:19.106000,12,"",0 days 00:51:46.466000,0 days 00:00:18.995000,0 days 00:00:34.448000,0 days 00:00:25.663000,283.0,212.0,"",278.0,medium,12.0
0 days 01:05:25.155000,31,"",13,0 days 01:03:53.365000,"","",0 days 00:00:39.807000,0 days 00:00:31.669000,270.0,149.0,281.0,294.0,soft,1.0
0 days 01:06:30.831000,31,0 days 00:01:05.676000,14,"","",0 days 00:00:16.626000,0 days 00:00:29.052000,0 days 00:00:19.998000,311.0,244.0,279.0,310.0,soft,2.0
0 days 01:08:23.019000,31,0 days 00:01:52.188000,15,"","",0 days 00:00:24.689000,0 days 00:00:49.805000,0 days 00:00:37.694000,152.0,72.0,165.0,152.0,soft,3.0
0 days 01:10:08.314000,31,0 days 00:01:45.295000,16,"","",0 days 00:00:29.772000,0 days 00:00:45.678000,0 days 00:00:29.845000,179.0,160.0,281.0,167.0,soft,4.0
0 days 01:11:14.281000,31,0 days 00:01:05.967000,17,"","",0 days 00:00:16.725000,0 days 00:00:29.204000,0 days 00:00:20.038000,309.0,243.0,281.0,307.0,soft,5.0
0 days 01:12:53.203000,31,0 days 00:01:38.922000,18,"","",0 days 00:00:19.227000,0 days 00:00:43.025000,0 days 00:00:36.670000,236.0,152.0,155.0,155.0,soft,6.0
0 days 01:14:49.430000,31,0 days 00:01:56.227000,19,"","",0 days 00:00:30.593000,0 days 00:00:47.474000,0 days 00:00:38.160000,146.0,157.0,157.0,159.0,soft,7.0
0 days 01:16:22.295000,31,0 days 00:01:32.865000,20,"","",0 days 00:00:28.693000,0 days 00:00:38.616000,0 days 00:00:25.556000,175.0,208.0,224.0,175.0,soft,8.0
0 days 01:18:18.055000,31,0 days 00:01:55.760000,21,"","",0 days 00:00:21.688000,0 days 00:00:36.376000,0 days 00:00:57.696000,239.0,154.0,86.0,241.0,soft,9.0
0 days 01:19:41.142000,31,0 days 00:01:23.087000,22,"",0 days 01:19:37.839000,0 days 00:00:19.397000,0 days 00:00:33.965000,0 days 00:00:29.725000,270.0,164.0,"",291.0,soft,10.0
0 days 00:34:16.097000,22,"",1,0 days 00:32:38.116000,"","",0 days 00:00:41.496000,0 days 00:00:35.619000,269.0,131.0,276.0,272.0,medium,1.0
0 days 00:35:22.985000,22,0 days 00:01:06.888000,2,"","",0 days 00:00:17,0 days 00:00:29.589000,0 days 00:00:20.299000,307.0,241.0,279.0,305.0,medium,2.0
0 days 00:37:06.078000,22,0 days 00:01:43.093000,3,"","",0 days 00:00:24.719000,0 days 00:00:45.589000,0 days 00:00:32.785000,257.0,154.0,280.0,262.0,medium,3.0
0 days 00:38:12.465000,22,0 days 00:01:06.387000,4,"","",0 days 00:00:16.775000,0 days 00:00:29.577000,0 days 00:00:20.035000,312.0,243.0,282.0,308.0,medium,4.0
0 days 00:40:01.244000,22,0 days 00:01:48.779000,5,"","",0 days 00:00:23.654000,0 days 00:00:50.561000,0 days 00:00:34.564000,236.0,127.0,193.0,133.0,medium,5.0
0 days 00:41:37.031000,22,0 days 00:01:35.787000,6,"","",0 days 00:00:23.331000,0 days 00:00:45.813000,0 days 00:00:26.643000,269.0,157.0,283.0,249.0,medium,6.0
0 days 00:42:42.850000,22,0 days 00:01:05.819000,7,"","",0 days 00:00:16.601000,0 days 00:00:29.302000,0 days 00:00:19.916000,312.0,244.0,286.0,312.0,medium,7.0
0 days 00:44:24.699000,22,0 days 00:01:41.849000,8,"","",0 days 00:00:24.081000,0 days 00:00:45.137000,0 days 00:00:32.631000,186.0,91.0,202.0,255.0,medium,8.0
0 days 00:46:03.829000,22,0 days 00:01:39.130000,9,"","",0 days 00:00:24.792000,0 days 00:00:45.225000,0 days 00:00:29.113000,191.0,148.0,286.0,282.0,medium,9.0
0 days 00:47:09.642000,22,0 days 00:01:05.813000,10,"","",0 days 00:00:16.527000,0 days 00:00:29.380000,0 days 00:00:19.906000,314.0,241.0,284.0,311.0,medium,10.0
0 days 00:48:37.292000,22,0 days 00:01:27.650000,11,"",0 days 00:48:35.610000,0 days 00:00:20.646000,0 days 00:00:39.705000,0 days 00:00:27.299000,248.0,175.0,"",266.0,medium,11.0
0 days 00:57:48.752000,22,"",12,0 days 00:56:18.117000,"","",0 days 00:00:41.472000,0 days 00:00:27.909000,276.0,154.0,281.0,275.0,soft,1.0
0 days 00:58:54.271000,22,0 days 00:01:05.519000,13,"","",0 days 00:00:16.663000,0 days 00:00:28.897000,0 days 00:00:19.959000,313.0,246.0,272.0,315.0,soft,2.0
0 days 01:00:49.281000,22,0 days 00:01:55.010000,14,"","",0 days 00:00:27.465000,0 days 00:00:51.677000,0 days 00:00:35.868000,148.0,125.0,191.0,146.0,soft,3.0
0 days 01:02:39.897000,22,0 days 00:01:50.616000,15,"","",0 days 00:00:25.909000,0 days 00:00:45.072000,0 days 00:00:39.635000,253.0,157.0,279.0,242.0,soft,4.0
0 days 01:03:45.875000,22,0 days 00:01:05.978000,16,"","",0 days 00:00:16.698000,0 days 00:00:29.278000,0 days 00:00:20.002000,312.0,245.0,284.0,311.0,soft,5.0
0 days 01:05:32.752000,22,0 days 00:01:46.877000,17,"","",0 days 00:00:25.511000,0 days 00:00:46.435000,0 days 00:00:34.931000,142.0,143.0,196.0,220.0,soft,6.0
0 days 01:07:10.467000,22,0 days 00:01:37.715000,18,"","",0 days 00:00:26.992000,0 days 00:00:41.495000,0 days 00:00:29.228000,253.0,133.0,285.0,291.0,soft,7.0
0 days 01:08:15.617000,22,0 days 00:01:05.150000,19,"","",0 days 00:00:16.484000,0 days 00:00:29.017000,0 days 00:00:19.649000,315.0,246.0,287.0,316.0,soft,8.0
0 days 01:09:43.157000,22,0 days 00:01:27.540000,20,"",0 days 01:09:39.863000,0 days 00:00:20.183000,0 days 00:00:41.153000,0 days 00:00:26.204000,271.0,174.0,"",270.0,soft,9.0
0 days 01:15:07.071000,22,"",21,0 days 01:13:43.389000,"","",0 days 00:00:31.328000,0 days 00:00:34.346000,285.0,236.0,98.0,292.0,soft,10.0
0 days 01:16:37.582000,22,0 days 00:01:30.511000,22,"","",0 days 00:00:22.866000,0 days 00:00:33.483000,0 days 00:00:34.162000,298.0,220.0,94.0,287.0,soft,11.0
0 days 01:18:12.200000,22,0 days 00:01:34.618000,23,"",0 days 01:18:08.961000,0 days 00:00:35.193000,0 days 00:00:33.029000,0 days 00:00:26.396000,290.0,163.0,"",293.0,soft,12.0
0 days 00:34:10.607000,18,"",1,0 days 00:32:51.524000,"","",0 days 00:00:32.872000,0 days 00:00:28.400000,281.0,226.0,277.0,286.0,medium,1.0
0 days 00:35:18.007000,18,0 days 00:01:07.400000,2,"","",0 days 00:00:17.077000,0 days 00:00:29.646000,0 days 00:00:20.677000,307.0,240.0,279.0,305.0,medium,2.0
0 days 00:36:54.643000,18,0 days 00:01:36.636000,3,"","",0 days 00:00:20.581000,0 days 00:00:39.949000,0 days 00:00:36.106000,220.0,156.0,278.0,240.0,medium,3.0
0 days 00:38:01.580000,18,0 days 00:01:06.937000,4,"","",0 days 00:00:16.944000,0 days 00:00:29.567000,0 days 00:00:20.426000,307.0,240.0,284.0,305.0,medium,4.0
0 days 00:39:50.282000,18,0 days 00:01:48.693000,5,"","",0 days 00:00:23.384000,"","",242.0,"",241.0,237.0,medium,5.0
0 days 00:41:23.634000,18,0 days 00:01:33.352000,6,"","",0 days 00:00:19.907000,0 days 00:00:39.384000,0 days 00:00:34.061000,253.0,204.0,278.0,280.0,medium,6.0
0 days 00:42:30.058000,18,0 days 00:01:06.424000,7,"","",0 days 00:00:16.793000,0 days 00:00:29.388000,0 days 00:00:20.243000,313.0,238.0,281.0,312.0,medium,7.0
0 days 00:43:57.118000,18,0 days 00:01:27.060000,8,"",0 days 00:43:54.128000,0 days 00:00:18.770000,0 days 00:00:36.138000,0 days 00:00:32.152000,274.0,182.0,"",237.0,medium,8.0
0 days 00:45:36.828000,18,0 days 00:01:39.710000,9,0 days 00:44:15.297000,0 days 00:45:33.555000,0 days 00:00:36.032000,0 days 00:00:34.472000,0 days 00:00:29.206000,280.0,178.0,"",267.0,medium,9.0
0 days 01:02:30.274000,18,"",10,0 days 01:00:59.769000,"","",0 days 00:00:35.932000,0 days 00:00:32.817000,258.0,209.0,283.0,259.0,soft,1.0
0 days 01:03:35.719000,18,0 days 00:01:05.445000,11,"","",0 days 00:00:16.492000,0 days 00:00:28.977000,0 days 00:00:19.976000,311.0,241.0,283.0,314.0,soft,2.0
0 days 01:05:31.901000,18,0 days 00:01:56.182000,12,"","",0 days 00:00:26.715000,0 days 00:00:52.053000,0 days 00:00:37.414000,126.0,125.0,189.0,182.0,soft,3.0
0 days 01:07:23.830000,18,0 days 00:01:51.929000,13,"","",0 days 00:00:27.135000,0 days 00:00:53.956000,0 days 00:00:30.838000,309.0,128.0,"",310.0,soft,4.0
0 days 01:08:30.093000,18,0 days 00:01:06.243000,14,"","","",0 days 00:00:29.108000,0 days 00:00:20.266000,"",242.0,277.0,"",soft,5.0
0 days 01:09:48.612000,18,0 days 00:01:18.519000,15,"",0 days 01:09:46.385000,0 days 00:00:18.359000,0 days 00:00:33.538000,0 days 00:00:26.622000,236.0,223.0,"",269.0,soft,6.0
0 days 01:15:23.506000,18,"",16,0 days 01:14:10.776000,"","",0 days 00:00:33.871000,0 days 00:00:23.253000,205.0,211.0,266.0,271.0,soft,7.0
0 days 01:17:03.173000,18,0 days 00:01:39.667000,17,"","",0 days 00:00:18.722000,0 days 00:00:32.151000,0 days 00:00:45.304000,254.0,230.0,"",289.0,soft,8.0
0 days 00:35:02.720000,16,"",1,0 days 00:33:28.537000,"","",0 days 00:00:41.600000,0 days 00:00:30.902000,273.0,187.0,277.0,224.0,medium,1.0
0 days 00:36:09.396000,16,0 days 00:01:06.676000,2,"","",0 days 00:00:16.984000,0 days 00:00:29.407000,0 days 00:00:20.285000,305.0,237.0,281.0,304.0,medium,2.0
0 days 00:38:00.909000,16,0 days 00:01:51.513000,3,"","",0 days 00:00:27.677000,0 days 00:00:51.897000,0 days 00:00:31.939000,140.0,116.0,278.0,165.0,medium,3.0
0 days 00:39:07.250000,16,0 days 00:01:06.341000,4,"","",0 days 00:00:16.880000,0 days 00:00:29.277000,0 days 00:00:20.184000,313.0,242.0,277.0,307.0,medium,4.0
0 days 00:41:16.749000,16,0 days 00:02:09.499000,5,"",0 days 00:41:15.550000,0 days 00:00:33.184000,0 days 00:00:58.976000,0 days 00:00:37.339000,102.0,119.0,"",103.0,medium,5.0
0 days 00:43:18.136000,16,0 days 00:02:01.387000,6,0 days 00:41:48.014000,"",0 days 00:00:50.946000,0 days 00:00:34.814000,0 days 00:00:35.627000,274.0,208.0,279.0,278.0,medium,6.0
0 days 00:44:46.441000,16,0 days 00:01:28.305000,7,"","",0 days 00:00:18.773000,0 days 00:00:33.203000,0 days 00:00:36.329000,265.0,216.0,278.0,281.0,medium,7.0
0 days 00:45:52.420000,16,0 days 00:01:05.979000,8,"","",0 days 00:00:16.785000,0 days 00:00:29.212000,0 days 00:00:19.982000,308.0,243.0,275.0,307.0,medium,8.0
0 days 00:47:21.288000,16,0 days 00:01:28.868000,9,"",0 days 00:47:17.980000,0 days 00:00:19.811000,0 days 00:00:40.537000,0 days 00:00:28.520000,207.0,204.0,"",222.0,medium,9.0
0 days 00:57:42.503000,16,"",10,0 days 00:56:13.270000,"","",0 days 00:00:40.947000,0 days 00:00:28.208000,257.0,193.0,269.0,280.0,soft,1.0
0 days 00:58:47.843000,16,0 days 00:01:05.340000,11,"","",0 days 00:00:16.724000,0 days 00:00:28.821000,0 days 00:00:19.795000,311.0,247.0,282.0,309.0,soft,2.0
0 days 01:00:46.779000,16,0 days 00:01:58.936000,12,"","",0 days 00:00:27.426000,0 days 00:00:55.821000,0 days 00:00:35.689000,102.0,141.0,162.0,165.0,soft,3.0
0 days 01:02:36.155000,16,0 days 00:01:49.376000,13,"","",0 days 00:00:28.438000,0 days 00:00:43.048000,0 days 00:00:37.890000,200.0,161.0,278.0,228.0,soft,4.0
0 days 01:03:42.251000,16,0 days 00:01:06.096000,14,"","",0 days 00:00:16.671000,0 days 00:00:28.871000,0 days 00:00:20.554000,309.0,246.0,277.0,309.0,soft,5.0
0 days 01:05:28.562000,16,0 days 00:01:46.311000,15,"",0 days 01:05:24.470000,0 days 00:00:23.561000,0 days 00:00:44.133000,0 days 00:00:38.617000,149.0,186.0,"",193.0,soft,6.0
0 days 01:07:37.834000,16,0 days 00:02:09.272000,16,0 days 01:05:51.407000,"",0 days 00:00:47.796000,0 days 00:00:47.016000,0 days 00:00:34.460000,249.0,146.0,280.0,226.0,soft,7.0
0 days 01:08:43.232000,16,0 days 00:01:05.398000,17,"","",0 days 00:00:16.677000,0 days 00:00:28.930000,0 days 00:00:19.791000,311.0,244.0,279.0,307.0,soft,8.0
0 days 01:10:15.834000,16,0 days 00:01:32.602000,18,"",0 days 01:10:12.508000,0 days 00:00:21.434000,0 days 00:00:43.949000,0 days 00:00:27.219000,222.0,180.0,"",180.0,soft,9.0
0 days 01:15:29.258000,16,"",19,0 days 01:14:15.753000,"","",0 days 00:00:32.462000,0 days 00:00:22.134000,277.0,225.0,267.0,295.0,soft,10.0
0 days 01:17:14.832000,16,0 days 00:01:45.574000,20,"","",0 days 00:00:17.733000,0 days 00:00:36.338000,0 days 00:00:51.503000,289.0,189.0,39.0,199.0,soft,11.0
0 days 01:18:58.309000,16,0 days 00:01:43.477000,21,"",0 days 01:18:54.966000,0 days 00:00:44.746000,0 days 00:00:31.840000,0 days 00:00:26.891000,293.0,224.0,"",298.0,soft,12.0
0 days 00:26:22.561000,14,"",1,0 days 00:24:53.162000,"","",0 days 00:00:40.112000,0 days 00:00:28.121000,233.0,158.0,276.0,282.0,medium,1.0
0 days 00:27:29.592000,14,0 days 00:01:07.031000,2,"","",0 days 00:00:16.992000,0 days 00:00:29.619000,0 days 00:00:20.420000,307.0,239.0,278.0,306.0,medium,2.0
0 days 00:29:17.367000,14,0 days 00:01:47.775000,3,"","",0 days 00:00:24.675000,0 days 00:00:45.723000,0 days 00:00:37.377000,216.0,105.0,278.0,248.0,medium,3.0
0 days 00:30:24.347000,14,0 days 00:01:06.980000,4,"","",0 days 00:00:16.841000,0 days 00:00:29.528000,0 days 00:00:20.611000,307.0,240.0,272.0,305.0,medium,4.0
0 days 00:32:16.147000,14,0 days 00:01:51.800000,5,"","",0 days 00:00:27.592000,0 days 00:00:45.153000,0 days 00:00:39.055000,208.0,133.0,276.0,262.0,medium,5.0
0 days 00:33:22.833000,14,0 days 00:01:06.686000,6,"","",0 days 00:00:16.924000,0 days 00:00:29.527000,0 days 00:00:20.235000,307.0,241.0,278.0,305.0,medium,6.0
0 days 00:34:47.747000,14,0 days 00:01:24.914000,7,"",0 days 00:34:44.592000,0 days 00:00:19.564000,0 days 00:00:36.141000,0 days 00:00:29.209000,271.0,186.0,"",248.0,medium,7.0
0 days 00:46:42.342000,14,"",8,0 days 00:45:10.979000,"","",0 days 00:00:40.590000,0 days 00:00:32.502000,283.0,168.0,279.0,201.0,medium,8.0
0 days 00:47:48.710000,14,0 days 00:01:06.368000,9,"","",0 days 00:00:16.789000,0 days 00:00:29.415000,0 days 00:00:20.164000,311.0,241.0,280.0,308.0,medium,9.0
0 days 00:49:42.965000,14,0 days 00:01:54.255000,10,"","",0 days 00:00:26.723000,0 days 00:00:53.737000,0 days 00:00:33.795000,123.0,174.0,277.0,206.0,medium,10.0
0 days 00:50:49.279000,14,0 days 00:01:06.314000,11,"","",0 days 00:00:16.707000,0 days 00:00:29.362000,0 days 00:00:20.245000,312.0,241.0,278.0,304.0,medium,11.0
0 days 00:52:37.283000,14,0 days 00:01:48.004000,12,"","",0 days 00:00:21.847000,0 days 00:00:51.368000,0 days 00:00:34.789000,208.0,106.0,276.0,192.0,medium,12.0
0 days 00:53:56.702000,14,0 days 00:01:19.419000,13,"",0 days 00:53:53.382000,0 days 00:00:16.779000,0 days 00:00:33.825000,0 days 00:00:28.815000,309.0,229.0,"",223.0,medium,13.0
0 days 01:03:39.232000,14,"",14,0 days 01:02:04.497000,"","",0 days 00:00:40.173000,0 days 00:00:35.453000,286.0,166.0,284.0,290.0,soft,1.0
0 days 01:04:44.632000,14,0 days 00:01:05.400000,15,"","",0 days 00:00:16.531000,0 days 00:00:28.887000,0 days 00:00:19.982000,314.0,244.0,282.0,311.0,soft,2.0
0 days 01:06:38.961000,14,0 days 00:01:54.329000,16,"","",0 days 00:00:29.311000,0 days 00:00:52.646000,0 days 00:00:32.372000,177.0,78.0,237.0,156.0,soft,3.0
0 days 01:08:12.993000,14,0 days 00:01:34.032000,17,"","",0 days 00:00:22.845000,0 days 00:00:40.145000,0 days 00:00:31.042000,268.0,164.0,282.0,263.0,soft,4.0
0 days 01:09:21.695000,14,0 days 00:01:08.702000,18,"","",0 days 00:00:16.534000,0 days 00:00:29.420000,0 days 00:00:22.748000,317.0,239.0,247.0,316.0,soft,5.0
0 days 01:11:10.609000,14,0 days 00:01:48.914000,19,"","",0 days 00:00:30.563000,0 days 00:00:52.711000,0 days 00:00:25.640000,194.0,172.0,282.0,237.0,soft,6.0
0 days 01:12:16.627000,14,0 days 00:01:06.018000,20,"","",0 days 00:00:16.722000,0 days 00:00:29.206000,0 days 00:00:20.090000,310.0,243.0,282.0,308.0,soft,7.0
0 days 01:14:06.044000,14,0 days 00:01:49.417000,21,"","",0 days 00:00:32.208000,0 days 00:00:46.474000,0 days 00:00:30.735000,120.0,178.0,260.0,159.0,soft,8.0
0 days 01:15:20.924000,14,0 days 00:01:14.880000,22,"","",0 days 00:00:19.083000,0 days 00:00:32.873000,0 days 00:00:22.924000,239.0,233.0,265.0,242.0,soft,9.0
0 days 01:16:53.601000,14,0 days 00:01:32.677000,23,"","",0 days 00:00:19.036000,0 days 00:00:35.040000,0 days 00:00:38.601000,210.0,177.0,55.0,215.0,soft,10.0
0 days 01:18:36.660000,14,0 days 00:01:43.059000,24,"",0 days 01:18:33.845000,0 days 00:00:41.733000,0 days 00:00:32.209000,0 days 00:00:29.117000,234.0,222.0,"",233.0,soft,11.0
0 days 00:35:41.097000,11,"",1,0 days 00:34:27.520000,"","",0 days 00:00:32.645000,0 days 00:00:22.613000,270.0,228.0,277.0,285.0,medium,1.0
0 days 00:36:48.273000,11,0 days 00:01:07.176000,2,"","",0 days 00:00:17.012000,0 days 00:00:29.746000,0 days 00:00:20.418000,304.0,240.0,277.0,305.0,medium,2.0
0 days 00:38:25.545000,11,0 days 00:01:37.272000,3,"","",0 days 00:00:22.648000,0 days 00:00:47.478000,0 days 00:00:27.146000,157.0,198.0,280.0,168.0,medium,3.0
0 days 00:39:32.290000,11,0 days 00:01:06.745000,4,"","",0 days 00:00:16.974000,0 days 00:00:29.489000,0 days 00:00:20.282000,309.0,241.0,280.0,304.0,medium,4.0
0 days 00:41:18.549000,11,0 days 00:01:46.259000,5,"","",0 days 00:00:22.294000,0 days 00:00:48.672000,0 days 00:00:35.293000,160.0,104.0,278.0,145.0,medium,5.0
0 days 00:42:24.975000,11,0 days 00:01:06.426000,6,"","",0 days 00:00:16.996000,0 days 00:00:29.323000,0 days 00:00:20.107000,309.0,242.0,280.0,305.0,medium,6.0
0 days 00:44:06.823000,11,0 days 00:01:41.848000,7,"","",0 days 00:00:23.683000,0 days 00:00:50.894000,0 days 00:00:27.271000,142.0,153.0,282.0,151.0,medium,7.0
0 days 00:45:12.617000,11,0 days 00:01:05.794000,8,"","",0 days 00:00:16.653000,0 days 00:00:29.072000,0 days 00:00:20.069000,310.0,243.0,281.0,309.0,medium,8.0
0 days 00:46:35.538000,11,0 days 00:01:22.921000,9,"",0 days 00:46:31.753000,0 days 00:00:20.008000,0 days 00:00:30.996000,0 days 00:00:31.917000,300.0,236.0,"",305.0,medium,9.0
0 days 00:49:12.088000,11,"",10,0 days 00:47:50.985000,0 days 00:49:09.232000,0 days 00:01:37.080000,0 days 00:00:33.772000,0 days 00:00:25.677000,258.0,220.0,"",267.0,medium,10.0
0 days 01:02:49.956000,11,"",11,0 days 01:01:05.568000,"","",0 days 00:00:44.071000,0 days 00:00:40.464000,259.0,144.0,281.0,160.0,soft,1.0
0 days 01:03:55.350000,11,0 days 00:01:05.394000,12,"","",0 days 00:00:16.616000,0 days 00:00:28.702000,0 days 00:00:20.076000,314.0,248.0,288.0,313.0,soft,2.0
0 days 01:05:31.846000,11,0 days 00:01:36.496000,13,"",0 days 01:05:28.754000,0 days 00:00:23.095000,0 days 00:00:42.324000,0 days 00:00:31.077000,167.0,142.0,"",189.0,soft,3.0
0 days 01:07:47.742000,11,0 days 00:02:15.896000,14,0 days 01:05:54.372000,"",0 days 00:00:46.815000,0 days 00:00:48.391000,0 days 00:00:40.690000,199.0,114.0,283.0,169.0,soft,4.0
0 days 01:08:52.768000,11,0 days 00:01:05.026000,15,"","",0 days 00:00:16.568000,0 days 00:00:28.725000,0 days 00:00:19.733000,313.0,247.0,284.0,310.0,soft,5.0
0 days 01:10:30.923000,11,0 days 00:01:38.155000,16,"","",0 days 00:00:22.042000,0 days 00:00:43.716000,0 days 00:00:32.397000,193.0,152.0,177.0,169.0,soft,6.0
0 days 01:12:24.393000,11,0 days 00:01:53.470000,17,"","",0 days 00:00:27.837000,0 days 00:00:51.725000,0 days 00:00:33.908000,152.0,127.0,282.0,153.0,soft,7.0
0 days 01:13:29.521000,11,0 days 00:01:05.128000,18,"","",0 days 00:00:16.510000,0 days 00:00:28.835000,0 days 00:00:19.783000,309.0,246.0,283.0,309.0,soft,8.0
0 days 01:15:15.518000,11,0 days 00:01:45.997000,19,"","",0 days 00:00:22.700000,0 days 00:00:48.365000,0 days 00:00:34.932000,186.0,122.0,224.0,184.0,soft,9.0
0 days 01:16:48.746000,11,0 days 00:01:33.228000,20,"","",0 days 00:00:20.001000,0 days 00:00:37.742000,0 days 00:00:35.485000,236.0,179.0,66.0,240.0,soft,10.0
0 days 01:18:43.513000,11,0 days 00:01:54.767000,21,"",0 days 01:18:40.309000,0 days 00:00:41.372000,0 days 00:00:44.605000,0 days 00:00:28.790000,222.0,155.0,"",162.0,soft,11.0
0 days 00:17:05.039000,10,"",1,0 days 00:15:21.135000,0 days 00:17:01.687000,"",0 days 00:00:44.788000,0 days 00:00:39.125000,256.0,138.0,"",270.0,soft,1.0
0 days 00:34:48.828000,10,"",2,0 days 00:33:19.020000,"","",0 days 00:00:35.711000,0 days 00:00:34.755000,287.0,201.0,278.0,293.0,soft,2.0
0 days 00:35:55.338000,10,0 days 00:01:06.510000,3,"","",0 days 00:00:16.808000,0 days 00:00:29.489000,0 days 00:00:20.213000,314.0,242.0,281.0,308.0,soft,3.0
0 days 00:37:52.491000,10,0 days 00:01:57.153000,4,"","",0 days 00:00:27.799000,0 days 00:00:54.316000,0 days 00:00:35.038000,137.0,121.0,236.0,133.0,soft,4.0
0 days 00:39:21.353000,10,0 days 00:01:28.862000,5,"","",0 days 00:00:22.362000,0 days 00:00:40.894000,0 days 00:00:25.606000,260.0,170.0,280.0,283.0,soft,5.0
0 days 00:40:27.641000,10,0 days 00:01:06.288000,6,"","",0 days 00:00:16.847000,0 days 00:00:29.363000,0 days 00:00:20.078000,309.0,241.0,282.0,306.0,soft,6.0
0 days 00:42:15.112000,10,0 days 00:01:47.471000,7,"","",0 days 00:00:25.064000,0 days 00:00:51.648000,0 days 00:00:30.759000,158.0,119.0,247.0,159.0,soft,7.0
0 days 00:43:50.790000,10,0 days 00:01:35.678000,8,"","",0 days 00:00:25.701000,0 days 00:00:43.549000,0 days 00:00:26.428000,237.0,187.0,284.0,273.0,soft,8.0
0 days 00:44:56.480000,10,0 days 00:01:05.690000,9,"","",0 days 00:00:16.632000,0 days 00:00:29.051000,0 days 00:00:20.007000,313.0,245.0,286.0,311.0,soft,9.0
0 days 00:46:18.591000,10,0 days 00:01:22.111000,10,"",0 days 00:46:15.310000,0 days 00:00:18.866000,0 days 00:00:38.423000,0 days 00:00:24.822000,275.0,204.0,"",271.0,soft,10.0
0 days 00:47:44.118000,10,0 days 00:01:25.527000,11,0 days 00:46:31.480000,0 days 00:47:41.127000,0 days 00:00:28.937000,0 days 00:00:31.807000,0 days 00:00:24.783000,293.0,228.0,"",277.0,soft,11.0
0 days 01:03:18.038000,10,"",12,0 days 01:01:52.078000,"","",0 days 00:00:41.873000,0 days 00:00:25.256000,286.0,161.0,281.0,279.0,soft,1.0
0 days 01:04:23.371000,10,0 days 00:01:05.333000,13,"","",0 days 00:00:16.655000,0 days 00:00:28.906000,0 days 00:00:19.772000,310.0,245.0,281.0,310.0,soft,2.0
0 days 01:06:17.068000,10,0 days 00:01:53.697000,14,"","",0 days 00:00:25.023000,0 days 00:00:50.775000,0 days 00:00:37.899000,151.0,121.0,202.0,186.0,soft,3.0
0 days 01:07:58.854000,10,0 days 00:01:41.786000,15,"","",0 days 00:00:23.654000,0 days 00:00:46.510000,0 days 00:00:31.622000,274.0,143.0,283.0,277.0,soft,4.0
0 days 01:09:04.446000,10,0 days 00:01:05.592000,16,"","",0 days 00:00:16.576000,0 days 00:00:28.949000,0 days 00:00:20.067000,315.0,245.0,281.0,312.0,soft,5.0
0 days 01:11:07.327000,10,0 days 00:02:02.881000,17,"","",0 days 00:00:25.025000,0 days 00:00:57.900000,0 days 00:00:39.956000,223.0,109.0,210.0,135.0,soft,6.0
0 days 01:12:56.060000,10,0 days 00:01:48.733000,18,"","",0 days 00:00:21.252000,0 days 00:00:55.475000,0 days 00:00:32.006000,275.0,129.0,284.0,189.0,soft,7.0
0 days 01:14:01.358000,10,0 days 00:01:05.298000,19,"","",0 days 00:00:16.516000,0 days 00:00:28.989000,0 days 00:00:19.793000,311.0,245.0,284.0,311.0,soft,8.0
0 days 01:15:27.899000,10,0 days 00:01:26.541000,20,"","",0 days 00:00:28.710000,0 days 00:00:36.313000,0 days 00:00:21.518000,128.0,228.0,276.0,293.0,soft,9.0
0 days 01:17:11.311000,10,0 days 00:01:43.412000,21,"","",0 days 00:00:18.474000,0 days 00:00:33.142000,0 days 00:00:51.796000,272.0,218.0,46.0,285.0,soft,10.0
0 days 01:19:03.044000,10,0 days 00:01:51.733000,22,"",0 days 01:18:59.784000,0 days 00:00:52.958000,0 days 00:00:32.349000,0 days 00:00:26.426000,294.0,178.0,"",280.0,soft,11.0
0 days 00:16:36.273000,9,"",1,0 days 00:15:16.256000,"","",0 days 00:00:36.010000,0 days 00:00:23.635000,274.0,208.0,264.0,279.0,hard,1.0
0 days 00:17:48.693000,9,0 days 00:01:12.420000,2,"","",0 days 00:00:18.340000,0 days 00:00:32.100000,0 days 00:00:21.980000,286.0,226.0,266.0,284.0,hard,2.0
0 days 00:19:00.015000,9,0 days 00:01:11.322000,3,"","",0 days 00:00:17.884000,0 days 00:00:31.715000,0 days 00:00:21.723000,289.0,229.0,266.0,287.0,hard,3.0
0 days 00:20:11.473000,9,0 days 00:01:11.458000,4,"","",0 days 00:00:17.965000,0 days 00:00:31.798000,0 days 00:00:21.695000,288.0,225.0,265.0,287.0,hard,4.0
0 days 00:21:23.075000,9,0 days 00:01:11.602000,5,"","",0 days 00:00:18.021000,0 days 00:00:31.889000,0 days 00:00:21.692000,289.0,225.0,266.0,287.0,hard,5.0
0 days 00:22:34.405000,9,0 days 00:01:11.330000,6,"","",0 days 00:00:17.996000,0 days 00:00:31.772000,0 days 00:00:21.562000,"",224.0,264.0,287.0,hard,6.0
0 days 00:23:59.717000,9,0 days 00:01:25.312000,7,"",0 days 00:23:56.444000,0 days 00:00:22.030000,0 days 00:00:35.973000,0 days 00:00:27.309000,199.0,196.0,"",283.0,hard,7.0
0 days 00:37:10.120000,9,"",8,0 days 00:35:24.105000,"","",0 days 00:00:45.487000,0 days 00:00:38.163000,212.0,161.0,277.0,210.0,soft,1.0
0 days 00:38:17.627000,9,0 days 00:01:07.507000,9,"","",0 days 00:00:16.954000,0 days 00:00:30.020000,0 days 00:00:20.533000,315.0,238.0,280.0,310.0,soft,2.0
0 days 00:40:06.039000,9,0 days 00:01:48.412000,10,"","",0 days 00:00:27.985000,0 days 00:00:51.786000,0 days 00:00:28.641000,133.0,154.0,278.0,146.0,soft,3.0
0 days 00:41:13.072000,9,0 days 00:01:07.033000,11,"","",0 days 00:00:16.880000,0 days 00:00:29.810000,0 days 00:00:20.343000,312.0,239.0,282.0,310.0,soft,4.0
0 days 00:43:10.542000,9,0 days 00:01:57.470000,12,"","",0 days 00:00:23.485000,0 days 00:00:56.877000,0 days 00:00:37.108000,118.0,125.0,281.0,164.0,soft,5.0
0 days 00:44:59.436000,9,0 days 00:01:48.894000,13,"",0 days 00:44:56.136000,0 days 00:00:36.347000,0 days 00:00:40.797000,0 days 00:00:31.750000,224.0,169.0,"",205.0,soft,6.0
0 days 00:56:54.190000,9,"",14,0 days 00:55:16.071000,"","",0 days 00:00:45.714000,0 days 00:00:29.214000,198.0,151.0,274.0,203.0,soft,1.0
0 days 00:58:00.998000,9,0 days 00:01:06.808000,15,"","",0 days 00:00:16.939000,0 days 00:00:29.492000,0 days 00:00:20.377000,313.0,241.0,279.0,311.0,soft,2.0
0 days 00:59:46.647000,9,0 days 00:01:45.649000,16,"","",0 days 00:00:26.228000,0 days 00:00:49.321000,0 days 00:00:30.100000,167.0,138.0,278.0,152.0,soft,3.0
0 days 01:00:53.339000,9,0 days 00:01:06.692000,17,"","",0 days 00:00:16.825000,0 days 00:00:29.679000,0 days 00:00:20.188000,310.0,241.0,281.0,310.0,soft,4.0
0 days 01:02:53.195000,9,0 days 00:01:59.856000,18,"","",0 days 00:00:24.564000,0 days 00:00:55.699000,0 days 00:00:39.593000,143.0,130.0,282.0,125.0,soft,5.0
0 days 01:04:17.311000,9,0 days 00:01:24.116000,19,"",0 days 01:04:13.950000,0 days 00:00:16.821000,0 days 00:00:40.439000,0 days 00:00:26.856000,315.0,183.0,"",150.0,soft,6.0
0 days 01:15:52.349000,9,"",20,0 days 01:14:21.351000,"","",0 days 00:00:38.762000,0 days 00:00:30.884000,295.0,81.0,239.0,251.0,soft,7.0
0 days 01:17:30.578000,9,0 days 00:01:38.229000,21,"","",0 days 00:00:19.451000,0 days 00:00:35.183000,0 days 00:00:43.595000,287.0,182.0,68.0,273.0,soft,8.0
0 days 01:19:47.737000,9,0 days 00:02:17.159000,22,"",0 days 01:19:47.741000,0 days 00:00:49.908000,0 days 00:00:50.587000,0 days 00:00:36.664000,198.0,114.0,"",137.0,soft,9.0
0 days 00:28:13.632000,7,"",1,0 days 00:26:35.129000,"","",0 days 00:00:45.828000,0 days 00:00:29.343000,188.0,173.0,280.0,108.0,soft,1.0
0 days 00:29:20.410000,7,0 days 00:01:06.778000,2,"","",0 days 00:00:16.794000,0 days 00:00:29.452000,0 days 00:00:20.532000,309.0,239.0,279.0,307.0,soft,2.0
0 days 00:31:16.994000,7,0 days 00:01:56.584000,3,"","",0 days 00:00:29.233000,0 days 00:00:49.445000,0 days 00:00:37.906000,172.0,154.0,199.0,192.0,soft,3.0
0 days 00:32:58.022000,7,0 days 00:01:41.028000,4,"","",0 days 00:00:28.614000,0 days 00:00:48.252000,0 days 00:00:24.162000,160.0,102.0,281.0,124.0,soft,4.0
0 days 00:34:04.745000,7,0 days 00:01:06.723000,5,"","",0 days 00:00:16.739000,0 days 00:00:29.386000,0 days 00:00:20.598000,314.0,240.0,278.0,312.0,soft,5.0
0 days 00:36:00.824000,7,0 days 00:01:56.079000,6,"","",0 days 00:00:28.403000,0 days 00:00:56.618000,0 days 00:00:31.058000,153.0,118.0,242.0,138.0,soft,6.0
0 days 00:37:37.414000,7,0 days 00:01:36.590000,7,"","",0 days 00:00:25.993000,0 days 00:00:43.203000,0 days 00:00:27.394000,174.0,194.0,277.0,118.0,soft,7.0
0 days 00:38:44.212000,7,0 days 00:01:06.798000,8,"","",0 days 00:00:16.851000,0 days 00:00:29.547000,0 days 00:00:20.400000,313.0,238.0,281.0,308.0,soft,8.0
0 days 00:40:11.238000,7,0 days 00:01:27.026000,9,"",0 days 00:40:07.914000,0 days 00:00:21.425000,0 days 00:00:36.878000,0 days 00:00:28.723000,207.0,215.0,"",234.0,soft,9.0
0 days 00:48:57.852000,7,"",10,0 days 00:47:31.140000,"","",0 days 00:00:37.491000,0 days 00:00:26.576000,195.0,166.0,276.0,259.0,soft,10.0
0 days 00:50:04.270000,7,0 days 00:01:06.418000,11,"","",0 days 00:00:16.847000,0 days 00:00:29.219000,0 days 00:00:20.352000,314.0,239.0,279.0,308.0,soft,11.0
0 days 00:51:43.587000,7,0 days 00:01:39.317000,12,"","",0 days 00:00:24.973000,0 days 00:00:43.110000,0 days 00:00:31.234000,158.0,135.0,278.0,218.0,soft,12.0
0 days 00:52:58.535000,7,0 days 00:01:14.948000,13,"",0 days 00:52:55.287000,0 days 00:00:16.810000,0 days 00:00:31.145000,0 days 00:00:26.993000,313.0,222.0,"",308.0,soft,13.0
0 days 01:01:44.671000,7,"",14,0 days 01:00:01.629000,"","",0 days 00:00:45.531000,0 days 00:00:31.409000,153.0,148.0,280.0,236.0,soft,1.0
0 days 01:02:50.613000,7,0 days 00:01:05.942000,15,"","",0 days 00:00:16.659000,0 days 00:00:29.012000,0 days 00:00:20.271000,313.0,243.0,286.0,312.0,soft,2.0
0 days 01:04:48.347000,7,0 days 00:01:57.734000,16,"",0 days 01:04:44.681000,0 days 00:00:30.040000,0 days 00:00:53.077000,0 days 00:00:34.617000,114.0,178.0,"",154.0,soft,3.0
0 days 01:06:59.446000,7,0 days 00:02:11.099000,17,0 days 01:05:14.842000,"",0 days 00:00:55.204000,0 days 00:00:49.754000,0 days 00:00:26.141000,213.0,187.0,281.0,144.0,soft,4.0
0 days 01:08:05.534000,7,0 days 00:01:06.088000,18,"","",0 days 00:00:16.667000,0 days 00:00:29.159000,0 days 00:00:20.262000,316.0,241.0,281.0,311.0,soft,5.0
0 days 01:10:06.053000,7,0 days 00:02:00.519000,19,"","",0 days 00:00:28.459000,0 days 00:00:56.037000,0 days 00:00:36.023000,119.0,161.0,164.0,126.0,soft,6.0
0 days 01:11:48.010000,7,0 days 00:01:41.957000,20,"","",0 days 00:00:26.633000,0 days 00:00:46.569000,0 days 00:00:28.755000,212.0,164.0,280.0,168.0,soft,7.0
0 days 01:12:54.201000,7,0 days 00:01:06.191000,21,"","",0 days 00:00:16.764000,0 days 00:00:29.197000,0 days 00:00:20.230000,312.0,238.0,282.0,311.0,soft,8.0
0 days 01:14:37.673000,7,0 days 00:01:43.472000,22,"","",0 days 00:00:26.437000,0 days 00:00:48.209000,0 days 00:00:28.826000,165.0,154.0,281.0,187.0,soft,9.0
0 days 01:15:43.812000,7,0 days 00:01:06.139000,23,"","",0 days 00:00:16.670000,0 days 00:00:29.203000,0 days 00:00:20.266000,314.0,240.0,281.0,314.0,soft,10.0
0 days 01:17:36.637000,7,0 days 00:01:52.825000,24,"","",0 days 00:00:21.373000,0 days 00:00:48.996000,0 days 00:00:42.456000,226.0,148.0,73.0,164.0,soft,11.0
0 days 01:19:26.570000,7,0 days 00:01:49.933000,25,"",0 days 01:19:23.924000,0 days 00:00:40.618000,0 days 00:00:39.471000,0 days 00:00:29.844000,224.0,153.0,"",205.0,soft,12.0
0 days 00:31:52.596000,6,"",1,0 days 00:30:20.034000,"","",0 days 00:00:38.233000,0 days 00:00:33.297000,279.0,207.0,283.0,282.0,medium,1.0
0 days 00:32:59.449000,6,0 days 00:01:06.853000,2,"","",0 days 00:00:16.777000,0 days 00:00:29.641000,0 days 00:00:20.435000,313.0,246.0,287.0,313.0,medium,2.0
0 days 00:34:37.123000,6,0 days 00:01:37.674000,3,"","",0 days 00:00:22.887000,0 days 00:00:45.297000,0 days 00:00:29.490000,289.0,147.0,280.0,287.0,medium,3.0
0 days 00:35:44.223000,6,0 days 00:01:07.100000,4,"","",0 days 00:00:16.945000,0 days 00:00:29.697000,0 days 00:00:20.458000,312.0,241.0,284.0,310.0,medium,4.0
0 days 00:37:21.748000,6,0 days 00:01:37.525000,5,"","",0 days 00:00:20.531000,0 days 00:00:42.856000,0 days 00:00:34.138000,283.0,199.0,281.0,280.0,medium,5.0
0 days 00:38:29.066000,6,0 days 00:01:07.318000,6,"","",0 days 00:00:16.879000,0 days 00:00:30.093000,0 days 00:00:20.346000,316.0,241.0,286.0,311.0,medium,6.0
0 days 00:39:37.469000,6,0 days 00:01:08.403000,7,"","",0 days 00:00:17.040000,0 days 00:00:30.732000,0 days 00:00:20.631000,304.0,238.0,278.0,296.0,medium,7.0
0 days 00:40:46.780000,6,0 days 00:01:09.311000,8,"","",0 days 00:00:17.422000,0 days 00:00:30.999000,0 days 00:00:20.890000,290.0,234.0,275.0,290.0,medium,8.0
0 days 00:42:07.463000,6,0 days 00:01:20.683000,9,"",0 days 00:42:04.909000,0 days 00:00:17.542000,0 days 00:00:37.372000,0 days 00:00:25.769000,263.0,212.0,"",268.0,medium,9.0
0 days 00:43:46.650000,6,0 days 00:01:39.187000,10,0 days 00:42:28.468000,0 days 00:43:43.386000,0 days 00:00:37.715000,0 days 00:00:35.932000,0 days 00:00:25.540000,265.0,217.0,"",255.0,medium,10.0
0 days 00:57:30.954000,6,"",11,0 days 00:55:50.390000,"","",0 days 00:00:43.873000,0 days 00:00:34.619000,294.0,195.0,279.0,282.0,soft,1.0
0 days 00:58:37.412000,6,0 days 00:01:06.458000,12,"","",0 days 00:00:16.870000,0 days 00:00:29.447000,0 days 00:00:20.141000,312.0,239.0,280.0,310.0,soft,2.0
0 days 01:00:15.839000,6,0 days 00:01:38.427000,13,"","",0 days 00:00:20.308000,0 days 00:00:44.954000,0 days 00:00:33.165000,278.0,128.0,247.0,267.0,soft,3.0
0 days 01:01:58.347000,6,0 days 00:01:42.508000,14,"","",0 days 00:00:23.587000,0 days 00:00:47.844000,0 days 00:00:31.077000,266.0,137.0,280.0,272.0,soft,4.0
0 days 01:03:04.534000,6,0 days 00:01:06.187000,15,"","",0 days 00:00:16.692000,0 days 00:00:29.497000,0 days 00:00:19.998000,312.0,241.0,284.0,312.0,soft,5.0
0 days 01:04:53.517000,6,0 days 00:01:48.983000,16,"","",0 days 00:00:22.495000,0 days 00:00:50.304000,0 days 00:00:36.184000,228.0,106.0,247.0,102.0,soft,6.0
0 days 01:06:36.585000,6,0 days 00:01:43.068000,17,"","",0 days 00:00:27.096000,0 days 00:00:42.920000,0 days 00:00:33.052000,172.0,82.0,282.0,287.0,soft,7.0
0 days 01:07:42.704000,6,0 days 00:01:06.119000,18,"","",0 days 00:00:16.551000,0 days 00:00:29.465000,0 days 00:00:20.103000,316.0,244.0,284.0,315.0,soft,8.0
0 days 01:09:13.285000,6,0 days 00:01:30.581000,19,"",0 days 01:09:10.050000,0 days 00:00:21.959000,0 days 00:00:42.337000,0 days 00:00:26.285000,169.0,213.0,"",255.0,soft,9.0
0 days 01:15:57.942000,6,"",20,0 days 01:14:24.721000,"","",0 days 00:00:42.926000,0 days 00:00:28.701000,191.0,197.0,251.0,166.0,medium,11.0
0 days 01:17:47.014000,6,0 days 00:01:49.072000,21,"","",0 days 00:00:21.425000,0 days 00:00:38.838000,0 days 00:00:48.809000,243.0,194.0,33.0,258.0,medium,12.0
0 days 01:19:34.221000,6,0 days 00:01:47.207000,22,"",0 days 01:19:30.918000,0 days 00:00:37.659000,0 days 00:00:41.889000,0 days 00:00:27.659000,132.0,211.0,"",236.0,medium,13.0
0 days 00:34:35.795000,5,"",1,0 days 00:33:07.142000,"","",0 days 00:00:35.802000,0 days 00:00:34.255000,246.0,210.0,164.0,279.0,medium,1.0
0 days 00:36:05.121000,5,0 days 00:01:29.326000,2,"","",0 days 00:00:21.312000,0 days 00:00:36.748000,0 days 00:00:31.266000,283.0,86.0,280.0,275.0,medium,2.0
0 days 00:37:12.216000,5,0 days 00:01:07.095000,3,"","",0 days 00:00:16.912000,0 days 00:00:29.800000,0 days 00:00:20.383000,308.0,240.0,282.0,305.0,medium,3.0
0 days 00:38:40.160000,5,0 days 00:01:27.944000,4,"","",0 days 00:00:21.203000,0 days 00:00:39.528000,0 days 00:00:27.213000,221.0,179.0,279.0,260.0,medium,4.0
0 days 00:40:12.457000,5,0 days 00:01:32.297000,5,"","",0 days 00:00:16.917000,0 days 00:00:43.810000,0 days 00:00:31.570000,310.0,194.0,279.0,155.0,medium,5.0
0 days 00:41:19.164000,5,0 days 00:01:06.707000,6,"","",0 days 00:00:16.900000,0 days 00:00:29.550000,0 days 00:00:20.257000,308.0,241.0,287.0,307.0,medium,6.0
0 days 00:43:03.362000,5,0 days 00:01:44.198000,7,"","",0 days 00:00:20.748000,0 days 00:00:54.219000,0 days 00:00:29.231000,141.0,122.0,240.0,189.0,medium,7.0
0 days 00:44:31.780000,5,0 days 00:01:28.418000,8,"","",0 days 00:00:20.317000,0 days 00:00:38.091000,0 days 00:00:30.010000,216.0,180.0,279.0,280.0,medium,8.0
0 days 00:45:38.134000,5,0 days 00:01:06.354000,9,"","",0 days 00:00:16.786000,0 days 00:00:29.437000,0 days 00:00:20.131000,308.0,238.0,281.0,307.0,medium,9.0
0 days 00:46:59.417000,5,0 days 00:01:21.283000,10,"",0 days 00:46:56.406000,0 days 00:00:18.408000,0 days 00:00:34.995000,0 days 00:00:27.880000,271.0,188.0,"",272.0,medium,10.0
0 days 00:48:38.726000,5,0 days 00:01:39.309000,11,0 days 00:47:20.270000,0 days 00:48:36.205000,0 days 00:00:38.988000,0 days 00:00:33.741000,0 days 00:00:26.580000,245.0,199.0,"",234.0,medium,11.0
0 days 01:01:20.544000,5,"",12,0 days 00:59:53.523000,"","",0 days 00:00:40.081000,0 days 00:00:27.690000,208.0,166.0,283.0,237.0,soft,1.0
0 days 01:02:26.036000,5,0 days 00:01:05.492000,13,"","",0 days 00:00:16.546000,0 days 00:00:28.885000,0 days 00:00:20.061000,311.0,245.0,281.0,312.0,soft,2.0
0 days 01:04:06.045000,5,0 days 00:01:40.009000,14,"",0 days 01:04:03.649000,0 days 00:00:21.383000,0 days 00:00:44.321000,0 days 00:00:34.305000,195.0,104.0,"",162.0,soft,3.0
0 days 01:05:54.943000,5,0 days 00:01:48.898000,15,0 days 01:04:26.908000,"",0 days 00:00:40.254000,0 days 00:00:40.187000,0 days 00:00:28.457000,208.0,176.0,280.0,234.0,soft,4.0
0 days 01:07:00.823000,5,0 days 00:01:05.880000,16,"","",0 days 00:00:16.628000,0 days 00:00:29.171000,0 days 00:00:20.081000,307.0,240.0,282.0,309.0,soft,5.0
0 days 01:08:35.772000,5,0 days 00:01:34.949000,17,"",0 days 01:08:32.633000,0 days 00:00:19.179000,0 days 00:00:40.409000,0 days 00:00:35.361000,163.0,192.0,"",196.0,soft,6.0
0 days 01:15:24.955000,5,"",18,0 days 01:14:03.178000,"","",0 days 00:00:35.342000,0 days 00:00:22.512000,234.0,214.0,257.0,256.0,soft,7.0
0 days 01:17:02.973000,5,0 days 00:01:38.018000,19,"","",0 days 00:00:19.597000,0 days 00:00:33.354000,0 days 00:00:45.067000,255.0,217.0,"",288.0,soft,8.0
0 days 01:18:52.108000,5,"",20,"",0 days 01:18:52.108000,"",0 days 00:00:34.314000,"","",159.0,"","",soft,9.0
0 days 00:35:06.188000,4,"",1,0 days 00:33:31.422000,"","",0 days 00:00:46.005000,0 days 00:00:26.834000,273.0,202.0,276.0,280.0,medium,1.0
0 days 00:36:13.423000,4,0 days 00:01:07.235000,2,"","",0 days 00:00:16.970000,0 days 00:00:29.439000,0 days 00:00:20.826000,311.0,242.0,279.0,309.0,medium,2.0
0 days 00:38:04.305000,4,0 days 00:01:50.882000,3,"","",0 days 00:00:27.043000,0 days 00:00:50.554000,0 days 00:00:33.285000,180.0,155.0,281.0,172.0,medium,3.0
0 days 00:39:29.121000,4,0 days 00:01:24.816000,4,"","",0 days 00:00:19.996000,0 days 00:00:39.569000,0 days 00:00:25.251000,240.0,165.0,278.0,209.0,medium,4.0
0 days 00:40:35.775000,4,0 days 00:01:06.654000,5,"","",0 days 00:00:16.882000,0 days 00:00:29.579000,0 days 00:00:20.193000,308.0,238.0,281.0,306.0,medium,5.0
0 days 00:42:12.015000,4,0 days 00:01:36.240000,6,"","",0 days 00:00:30.067000,0 days 00:00:42.744000,0 days 00:00:23.429000,120.0,173.0,276.0,184.0,medium,6.0
0 days 00:43:19.246000,4,0 days 00:01:07.231000,7,"","",0 days 00:00:17.172000,0 days 00:00:29.840000,0 days 00:00:20.219000,282.0,239.0,281.0,291.0,medium,7.0
0 days 00:44:32.118000,4,0 days 00:01:12.872000,8,"","",0 days 00:00:21.282000,0 days 00:00:30.389000,0 days 00:00:21.201000,280.0,237.0,287.0,286.0,medium,8.0
0 days 00:45:40.375000,4,0 days 00:01:08.257000,9,"","",0 days 00:00:17.443000,0 days 00:00:30.278000,0 days 00:00:20.536000,289.0,237.0,275.0,294.0,medium,9.0
0 days 00:46:55.306000,4,0 days 00:01:14.931000,10,"",0 days 00:46:52.032000,0 days 00:00:17.886000,0 days 00:00:30.823000,0 days 00:00:26.222000,209.0,237.0,"",291.0,medium,10.0
0 days 00:58:13.490000,4,"",11,0 days 00:56:51.311000,"","",0 days 00:00:36.691000,0 days 00:00:23.135000,277.0,212.0,281.0,293.0,soft,1.0
0 days 00:59:18.718000,4,0 days 00:01:05.228000,12,"","",0 days 00:00:16.590000,0 days 00:00:28.794000,0 days 00:00:19.844000,314.0,246.0,285.0,311.0,soft,2.0
0 days 01:01:23.132000,4,0 days 00:02:04.414000,13,"","",0 days 00:00:26.037000,0 days 00:01:03.203000,0 days 00:00:35.174000,189.0,127.0,276.0,93.0,soft,3.0
0 days 01:02:57.850000,4,0 days 00:01:34.718000,14,"","",0 days 00:00:16.699000,0 days 00:00:41.723000,0 days 00:00:36.296000,312.0,138.0,274.0,236.0,soft,4.0
0 days 01:04:13.197000,4,0 days 00:01:15.347000,15,"",0 days 01:04:10.251000,0 days 00:00:16.707000,0 days 00:00:29.008000,0 days 00:00:29.632000,"",246.0,"",310.0,soft,5.0
0 days 01:05:54.338000,4,0 days 00:01:41.141000,16,0 days 01:04:35.169000,0 days 01:05:51.039000,0 days 00:00:39.907000,0 days 00:00:33.455000,0 days 00:00:27.779000,259.0,208.0,"",251.0,soft,6.0
0 days 01:15:34.398000,4,"",17,0 days 01:14:18.607000,"","",0 days 00:00:32.114000,0 days 00:00:23.564000,273.0,223.0,263.0,279.0,soft,7.0
0 days 01:17:24.747000,4,0 days 00:01:50.349000,18,"","",0 days 00:00:22.588000,0 days 00:00:39.059000,0 days 00:00:48.702000,260.0,205.0,35.0,196.0,soft,8.0
0 days 01:19:21.143000,4,0 days 00:01:56.396000,19,"",0 days 01:19:17.855000,0 days 00:00:49.243000,0 days 00:00:35.401000,0 days 00:00:31.752000,273.0,205.0,"",205.0,soft,9.0
0 days 00:34:50.987000,77,"",1,0 days 00:33:18.122000,"","",0 days 00:00:36.519000,0 days 00:00:38.068000,285.0,181.0,274.0,159.0,soft,1.0
0 days 00:36:07.588000,77,0 days 00:01:16.601000,2,"","",0 days 00:00:17.744000,0 days 00:00:35.527000,0 days 00:00:23.330000,284.0,188.0,280.0,286.0,soft,2.0
0 days 00:37:13.800000,77,0 days 00:01:06.212000,3,"","",0 days 00:00:16.619000,0 days 00:00:29.301000,0 days 00:00:20.292000,313.0,242.0,282.0,309.0,soft,3.0
0 days 00:38:46.925000,77,0 days 00:01:33.125000,4,"","",0 days 00:00:21.420000,0 days 00:00:40.565000,0 days 00:00:31.140000,182.0,153.0,283.0,204.0,soft,4.0
0 days 00:39:52.988000,77,0 days 00:01:06.063000,5,"","",0 days 00:00:16.666000,0 days 00:00:29.402000,0 days 00:00:19.995000,311.0,244.0,281.0,304.0,soft,5.0
0 days 00:41:31.747000,77,0 days 00:01:38.759000,6,"",0 days 00:41:28.482000,0 days 00:00:20.975000,0 days 00:00:44.930000,0 days 00:00:32.854000,225.0,84.0,"",193.0,soft,6.0
0 days 00:43:27.308000,77,0 days 00:01:55.561000,7,0 days 00:42:00.524000,"",0 days 00:00:49.815000,0 days 00:00:40.464000,0 days 00:00:25.282000,269.0,195.0,273.0,287.0,soft,7.0
0 days 00:45:05.511000,77,0 days 00:01:38.203000,8,"","",0 days 00:00:22.103000,0 days 00:00:49.920000,0 days 00:00:26.180000,275.0,203.0,280.0,115.0,soft,8.0
0 days 00:46:11.209000,77,0 days 00:01:05.698000,9,"","",0 days 00:00:16.731000,0 days 00:00:29.117000,0 days 00:00:19.850000,307.0,245.0,283.0,307.0,soft,9.0
0 days 00:47:29.413000,77,0 days 00:01:18.204000,10,"",0 days 00:47:26.164000,0 days 00:00:20.508000,0 days 00:00:32.775000,0 days 00:00:24.921000,272.0,208.0,"",305.0,soft,10.0
0 days 00:49:05.258000,77,0 days 00:01:35.845000,11,0 days 00:47:42.297000,"",0 days 00:00:29.418000,0 days 00:00:39.762000,0 days 00:00:26.665000,271.0,149.0,279.0,264.0,soft,11.0
0 days 00:50:11.029000,77,0 days 00:01:05.771000,12,"","",0 days 00:00:16.639000,0 days 00:00:29.105000,0 days 00:00:20.027000,309.0,243.0,280.0,305.0,soft,12.0
0 days 00:51:37.847000,77,0 days 00:01:26.818000,13,"",0 days 00:51:34.558000,0 days 00:00:19.401000,0 days 00:00:36.146000,0 days 00:00:31.271000,214.0,200.0,"",209.0,soft,13.0
0 days 00:57:53.200000,77,"",14,0 days 00:56:28.523000,"","",0 days 00:00:38.481000,0 days 00:00:25.258000,272.0,188.0,284.0,285.0,soft,1.0
0 days 00:58:58.032000,77,0 days 00:01:04.832000,15,"","",0 days 00:00:16.368000,0 days 00:00:28.706000,0 days 00:00:19.758000,315.0,250.0,284.0,313.0,soft,2.0
0 days 01:00:51.512000,77,0 days 00:01:53.480000,16,"","",0 days 00:00:24.596000,0 days 00:00:52.414000,0 days 00:00:36.470000,142.0,135.0,160.0,130.0,soft,3.0
0 days 01:02:46.144000,77,0 days 00:01:54.632000,17,"","",0 days 00:00:28.735000,0 days 00:00:40.826000,0 days 00:00:45.071000,166.0,198.0,277.0,253.0,soft,4.0
0 days 01:03:51.507000,77,0 days 00:01:05.363000,18,"","",0 days 00:00:16.649000,0 days 00:00:28.934000,0 days 00:00:19.780000,308.0,245.0,281.0,308.0,soft,5.0
0 days 01:05:33.872000,77,0 days 00:01:42.365000,19,"","",0 days 00:00:21.054000,0 days 00:00:47.429000,0 days 00:00:33.882000,139.0,136.0,183.0,171.0,soft,6.0
0 days 01:07:03.883000,77,0 days 00:01:30.011000,20,"","",0 days 00:00:25.811000,0 days 00:00:36.441000,0 days 00:00:27.759000,246.0,205.0,284.0,291.0,soft,7.0
0 days 01:08:09.077000,77,0 days 00:01:05.194000,21,"","",0 days 00:00:16.491000,0 days 00:00:28.871000,0 days 00:00:19.832000,312.0,245.0,281.0,308.0,soft,8.0
0 days 01:09:22.336000,77,0 days 00:01:13.259000,22,"",0 days 01:09:18.786000,0 days 00:00:17.939000,0 days 00:00:31.374000,0 days 00:00:23.946000,290.0,232.0,"",288.0,soft,9.0
0 days 01:16:06.863000,77,"",23,0 days 01:14:38.893000,"","",0 days 00:00:39.961000,0 days 00:00:27.785000,223.0,152.0,209.0,179.0,soft,10.0
0 days 01:18:11.696000,77,0 days 00:02:04.833000,24,"","",0 days 00:00:20.475000,0 days 00:00:45.358000,0 days 00:00:59,214.0,135.0,6.0,148.0,soft,11.0
0 days 01:19:37.238000,77,0 days 00:01:25.542000,25,"",0 days 01:19:33.861000,0 days 00:00:20.022000,0 days 00:00:36.725000,0 days 00:00:28.795000,229.0,190.0,"",239.0,soft,12.0
0 days 00:32:22.519000,99,"",1,0 days 00:30:38.219000,"","",0 days 00:00:46.864000,0 days 00:00:34.320000,179.0,155.0,278.0,189.0,soft,1.0
0 days 00:33:29.208000,99,0 days 00:01:06.689000,2,"","",0 days 00:00:16.856000,0 days 00:00:29.366000,0 days 00:00:20.467000,313.0,240.0,282.0,313.0,soft,2.0
0 days 00:35:17.981000,99,0 days 00:01:48.773000,3,"","",0 days 00:00:26.015000,0 days 00:00:49.901000,0 days 00:00:32.857000,181.0,149.0,151.0,129.0,soft,3.0
0 days 00:37:15.960000,99,0 days 00:01:57.979000,4,"","",0 days 00:00:26.776000,0 days 00:00:51.762000,0 days 00:00:39.441000,141.0,175.0,279.0,114.0,soft,4.0
0 days 00:38:22.767000,99,0 days 00:01:06.807000,5,"","",0 days 00:00:17.003000,0 days 00:00:29.431000,0 days 00:00:20.373000,316.0,244.0,282.0,310.0,soft,5.0
0 days 00:40:14.885000,99,0 days 00:01:52.118000,6,"","",0 days 00:00:30.047000,0 days 00:00:48.194000,0 days 00:00:33.877000,161.0,142.0,237.0,233.0,soft,6.0
0 days 00:42:01.373000,99,0 days 00:01:46.488000,7,"","",0 days 00:00:25.737000,0 days 00:00:49.119000,0 days 00:00:31.632000,175.0,153.0,280.0,173.0,soft,7.0
0 days 00:43:07.812000,99,0 days 00:01:06.439000,8,"","",0 days 00:00:16.828000,0 days 00:00:29.367000,0 days 00:00:20.244000,311.0,243.0,285.0,311.0,soft,8.0
0 days 00:44:35.927000,99,0 days 00:01:28.115000,9,"",0 days 00:44:33.141000,0 days 00:00:21.964000,0 days 00:00:36.557000,0 days 00:00:29.594000,245.0,205.0,"",260.0,soft,9.0
0 days 00:47:00.288000,99,0 days 00:02:24.361000,10,0 days 00:45:18.579000,"",0 days 00:01:07.160000,0 days 00:00:47.717000,0 days 00:00:29.484000,223.0,201.0,266.0,204.0,soft,10.0
0 days 00:48:33.107000,99,0 days 00:01:32.819000,11,"","",0 days 00:00:19.916000,0 days 00:00:43.991000,0 days 00:00:28.912000,270.0,149.0,280.0,186.0,soft,11.0
0 days 00:49:39.196000,99,0 days 00:01:06.089000,12,"","",0 days 00:00:16.697000,0 days 00:00:29.177000,0 days 00:00:20.215000,314.0,242.0,282.0,309.0,soft,12.0
0 days 00:51:01.199000,99,0 days 00:01:22.003000,13,"",0 days 00:51:01.233000,0 days 00:00:18.788000,0 days 00:00:36.408000,0 days 00:00:26.807000,228.0,215.0,"",266.0,soft,13.0
0 days 01:03:44.201000,99,"",14,0 days 01:02:02.441000,"","",0 days 00:00:42.498000,0 days 00:00:36.572000,221.0,117.0,282.0,230.0,soft,1.0
0 days 01:04:49.757000,99,0 days 00:01:05.556000,15,"","",0 days 00:00:16.462000,0 days 00:00:29.085000,0 days 00:00:20.009000,319.0,244.0,285.0,315.0,soft,2.0
0 days 01:06:46.898000,99,0 days 00:01:57.141000,16,"","",0 days 00:00:27.761000,0 days 00:00:53.591000,0 days 00:00:35.789000,130.0,104.0,141.0,130.0,soft,3.0
0 days 01:08:26.621000,99,0 days 00:01:39.723000,17,"","",0 days 00:00:29.234000,0 days 00:00:43.792000,0 days 00:00:26.697000,148.0,178.0,282.0,216.0,soft,4.0
0 days 01:09:32.285000,99,0 days 00:01:05.664000,18,"","",0 days 00:00:16.504000,0 days 00:00:29.101000,0 days 00:00:20.059000,315.0,244.0,283.0,313.0,soft,5.0
0 days 01:11:43.809000,99,0 days 00:02:11.524000,19,"","",0 days 00:00:30.722000,0 days 00:00:58.280000,0 days 00:00:42.522000,124.0,120.0,118.0,138.0,soft,6.0
0 days 01:13:33.875000,99,0 days 00:01:50.066000,20,"","",0 days 00:00:37.146000,0 days 00:00:46.148000,0 days 00:00:26.772000,138.0,176.0,282.0,203.0,soft,7.0
0 days 01:14:39.629000,99,0 days 00:01:05.754000,21,"","",0 days 00:00:16.542000,0 days 00:00:29.155000,0 days 00:00:20.057000,313.0,243.0,285.0,311.0,soft,8.0
0 days 01:16:03.004000,99,0 days 00:01:23.375000,22,"","",0 days 00:00:21.579000,0 days 00:00:37.856000,0 days 00:00:23.940000,257.0,205.0,253.0,178.0,soft,9.0
0 days 01:18:07.030000,99,0 days 00:02:04.026000,23,"","",0 days 00:00:19.845000,0 days 00:00:35.988000,0 days 00:01:08.193000,266.0,177.0,5.0,243.0,soft,10.0
0 days 01:19:27.568000,99,0 days 00:01:20.538000,24,"",0 days 01:19:24.855000,0 days 00:00:21.674000,0 days 00:00:32.688000,0 days 00:00:26.176000,269.0,226.0,"",272.0,soft,11.0
