2021-05-20 08:30:03	AIR TEMPERATURE 1 HOUR BEFORE P1 = 20 DEGREES
2021-05-20 09:15:02	RISK OF RAIN FOR F1 FIRST PRACTICE SESSION IS 0%
2021-05-20 09:30:00	GREEN LIGHT - PIT EXIT OPEN
2021-05-20 09:30:56	CLEAR IN TRACK SECTOR 3
2021-05-20 09:44:59	CAR 44 (HAM) TIME 1:22.300 DELETED - TRACK LIMITS AT TURN 10
2021-05-20 09:48:04	CAR 55 (SAI) TIME 1:20.323 DELETED - TRACK LIMITS AT TURN 10
2021-05-20 09:49:32	CAR 63 (RUS) TIME 1:24.461 DELETED - TRACK LIMITS AT TURN 10
2021-05-20 09:53:17	YELLOW IN TRACK SECTOR 18
2021-05-20 09:53:18	DRS DISABLED IN ZONE 1
2021-05-20 09:53:19	DRS ENABLED IN ZONE 1
2021-05-20 09:53:19	CLEAR IN TRACK SECTOR 18
2021-05-20 09:54:07	YELLOW IN TRACK SECTOR 7
2021-05-20 09:54:30	VIRTUAL SAFETY CAR DEPLOYED
2021-05-20 09:55:31	VIRTUAL SAFETY CAR ENDING
2021-05-20 09:55:42	TRACK CLEAR
2021-05-20 09:55:42	CLEAR IN TRACK SECTOR 7
2021-05-20 09:56:00	DRS ENABLED
2021-05-20 10:00:29	YELLOW IN TRACK SECTOR 2
2021-05-20 10:00:30	DRS DISABLED IN ZONE 1
2021-05-20 10:00:43	DRS ENABLED IN ZONE 1
2021-05-20 10:00:43	CLEAR IN TRACK SECTOR 2
2021-05-20 10:01:06	CAR 7 (RAI) OFF TRACK AND CONTINUED AT TURN 1
2021-05-20 10:03:11	CAR 9 (MAZ) TIME 1:37.749 DELETED - TRACK LIMITS AT TURN 10
2021-05-20 10:08:45	YELLOW IN TRACK SECTOR 2
2021-05-20 10:08:46	DRS DISABLED IN ZONE 1
2021-05-20 10:08:53	DRS ENABLED IN ZONE 1
2021-05-20 10:08:53	CLEAR IN TRACK SECTOR 2
2021-05-20 10:09:07	CAR 14 (ALO) OFF TRACK AND CONTINUED AT TURN 1
2021-05-20 10:13:00	YELLOW IN TRACK SECTOR 17
2021-05-20 10:13:04	CLEAR IN TRACK SECTOR 17
2021-05-20 10:21:19	CAR 6 (LAT) TIME 1:17.978 DELETED - TRACK LIMITS AT TURN 10
2021-05-20 10:22:02	CAR 11 (PER) TIME 1:35.267 DELETED - TRACK LIMITS AT TURN 10
2021-05-20 10:22:43	CAR 99 (GIO) TIME 1:25.547 DELETED - TRACK LIMITS AT TURN 10
2021-05-20 10:24:26	CAR 14 (ALO) TIME 1:19.922 DELETED - TRACK LIMITS AT TURN 10
2021-05-20 10:24:41	CAR 11 (PER) TIME 1:40.347 DELETED - TRACK LIMITS AT TURN 10
2021-05-20 10:26:48	CAR 55 (SAI) TIME 1:33.659 DELETED - TRACK LIMITS AT TURN 10
2021-05-20 10:27:03	CAR 9 (MAZ) TIME 1:33.881 DELETED - TRACK LIMITS AT TURN 10
2021-05-20 10:30:00	CHEQUERED FLAG
