2021-05-02 13:45:07	RISK OF RAIN FOR F1 RACE IS 0%
2021-05-02 13:57:46	DRS DISABLED
2021-05-02 14:03:03	GREEN LIGHT - PIT EXIT OPEN
2021-05-02 14:05:04	SAFETY CAR DEPLOYED
2021-05-02 14:05:09	SAFETY CAR THROUGH THE PIT LANE
2021-05-02 14:09:46	SAFETY CAR WILL USE START/FINISH STRAIGHT
2021-05-02 14:13:29	SAFETY CAR IN THIS LAP
2021-05-02 14:14:53	TRACK CLEAR
2021-05-02 14:17:59	DRS ENABLED
2021-05-02 14:19:27	CAR 9 (MAZ) TIME 1:28.577 DELETED - TRACK LIMITS AT TURN 1
2021-05-02 14:21:04	CAR 22 (TSU) TIME 1:24.972 DELETED - TRACK LIMITS AT TURN 4
2021-05-02 14:21:52	MAIN STRAIGHT INCIDENT INVOLVING CARS 7 (RAI) AND 99 (GIO) NOTED - NO INVESTIGATION NECESSARY
2021-05-02 14:22:35	CAR 22 (TSU) TIME 1:24.489 DELETED - TRACK LIMITS AT TURN 1
2021-05-02 14:22:40	CAR 47 (MSC) TIME 1:25.244 DELETED - TRACK LIMITS AT TURN 1
2021-05-02 14:24:17	CAR 9 (MAZ) TIME 1:25.308 DELETED - TRACK LIMITS AT TURN 1
2021-05-02 14:32:00	CAR 4 (NOR) TIME 1:23.636 DELETED - TRACK LIMITS AT TURN 4
2021-05-02 14:33:35	CAR 18 (STR) TIME 1:23.890 DELETED - TRACK LIMITS AT TURN 1
2021-05-02 14:40:10	CAR 33 (VER) TIME 1:22.813 DELETED - TRACK LIMITS AT TURN 4
2021-05-02 14:42:28	CAR 47 (MSC) TIME 1:26.159 DELETED - TRACK LIMITS AT TURN 1
2021-05-02 14:43:28	WAVED BLUE FLAG FOR CAR 6 (LAT) TIMED AT 15:43:28
2021-05-02 14:43:49	CAR 5 (VET) TIME 1:23.341 DELETED - TRACK LIMITS AT TURN 1
2021-05-02 14:44:20	WAVED BLUE FLAG FOR CAR 6 (LAT) TIMED AT 15:44:19
2021-05-02 14:47:30	CAR 14 (ALO) TIME 1:23.275 DELETED - TRACK LIMITS AT TURN 1
2021-05-02 14:49:14	CAR 10 (GAS) TIME 1:23.003 DELETED - TRACK LIMITS AT TURN 4
2021-05-02 14:49:20	WAVED BLUE FLAG FOR CAR 63 (RUS) TIMED AT 15:49:20
2021-05-02 14:49:51	CAR 6 (LAT) TIME 1:24.292 DELETED - TRACK LIMITS AT TURN 1
2021-05-02 14:50:08	WAVED BLUE FLAG FOR CAR 6 (LAT) TIMED AT 15:50:07
2021-05-02 14:54:48	CAR 10 (GAS) TIME 1:24.121 DELETED - TRACK LIMITS AT TURN 1
2021-05-02 14:55:26	WAVED BLUE FLAG FOR CAR 9 (MAZ) TIMED AT 15:55:25
2021-05-02 14:55:52	WAVED BLUE FLAG FOR CAR 9 (MAZ) TIMED AT 15:55:52
2021-05-02 14:55:57	WAVED BLUE FLAG FOR CAR 22 (TSU) TIMED AT 15:55:56
2021-05-02 14:58:43	WAVED BLUE FLAG FOR CAR 47 (MSC) TIMED AT 15:58:42
2021-05-02 14:59:06	WAVED BLUE FLAG FOR CAR 6 (LAT) TIMED AT 15:59:06
2021-05-02 14:59:31	WAVED BLUE FLAG FOR CAR 47 (MSC) TIMED AT 15:59:30
2021-05-02 15:00:09	WAVED BLUE FLAG FOR CAR 63 (RUS) TIMED AT 16:00:09
2021-05-02 15:00:12	WAVED BLUE FLAG FOR CAR 6 (LAT) TIMED AT 16:00:11
2021-05-02 15:01:41	CAR 10 (GAS) TIME 1:22.961 DELETED - TRACK LIMITS AT TURN 1
2021-05-02 15:01:48	WAVED BLUE FLAG FOR CAR 63 (RUS) TIMED AT 16:01:48
2021-05-02 15:02:48	CAR 14 (ALO) TIME 1:28.031 DELETED - TRACK LIMITS AT TURN 1
2021-05-02 15:05:18	WAVED BLUE FLAG FOR CAR 9 (MAZ) TIMED AT 16:05:18
2021-05-02 15:06:10	WAVED BLUE FLAG FOR CAR 9 (MAZ) TIMED AT 16:06:10
2021-05-02 15:06:55	WAVED BLUE FLAG FOR CAR 9 (MAZ) TIMED AT 16:06:54
2021-05-02 15:07:56	WAVED BLUE FLAG FOR CAR 9 (MAZ) TIMED AT 16:07:55
2021-05-02 15:09:08	WAVED BLUE FLAG FOR CAR 9 (MAZ) TIMED AT 16:09:08
2021-05-02 15:10:14	WAVED BLUE FLAG FOR CAR 9 (MAZ) TIMED AT 16:10:14
2021-05-02 15:11:16	WAVED BLUE FLAG FOR CAR 9 (MAZ) TIMED AT 16:11:15
2021-05-02 15:11:41	WAVED BLUE FLAG FOR CAR 9 (MAZ) TIMED AT 16:11:41
2021-05-02 15:13:21	TURN 3 INCIDENT INVOLVING CARS 9 (MAZ) AND 11 (PER) UNDER INVESTIGATION -IGNORING BLUE FLAGS
2021-05-02 15:17:16	5 SECOND TIME PENALTY FOR CAR 9 (MAZ) - IGNORING BLUE FLAGS
2021-05-02 15:17:34	WAVED BLUE FLAG FOR CAR 47 (MSC) TIMED AT 16:17:34
2021-05-02 15:18:09	WAVED BLUE FLAG FOR CAR 22 (TSU) TIMED AT 16:18:08
2021-05-02 15:18:14	WAVED BLUE FLAG FOR CAR 6 (LAT) TIMED AT 16:18:14
2021-05-02 15:19:05	WAVED BLUE FLAG FOR CAR 47 (MSC) TIMED AT 16:19:04
2021-05-02 15:19:43	WAVED BLUE FLAG FOR CAR 6 (LAT) TIMED AT 16:19:42
2021-05-02 15:21:21	WAVED BLUE FLAG FOR CAR 22 (TSU) TIMED AT 16:21:21
2021-05-02 15:21:45	WAVED BLUE FLAG FOR CAR 22 (TSU) TIMED AT 16:21:44
2021-05-02 15:22:05	WAVED BLUE FLAG FOR CAR 47 (MSC) TIMED AT 16:22:04
2021-05-02 15:22:57	WAVED BLUE FLAG FOR CAR 6 (LAT) TIMED AT 16:22:57
2021-05-02 15:24:39	WAVED BLUE FLAG FOR CAR 9 (MAZ) TIMED AT 16:24:38
2021-05-02 15:25:21	CAR 5 (VET) TIME 1:23.476 DELETED - TRACK LIMITS AT TURN 1
2021-05-02 15:26:57	WAVED BLUE FLAG FOR CAR 47 (MSC) TIMED AT 16:26:56
2021-05-02 15:27:03	WAVED BLUE FLAG FOR CAR 63 (RUS) TIMED AT 16:27:02
2021-05-02 15:27:15	WAVED BLUE FLAG FOR CAR 6 (LAT) TIMED AT 16:27:15
2021-05-02 15:27:33	WAVED BLUE FLAG FOR CAR 47 (MSC) TIMED AT 16:27:33
2021-05-02 15:27:56	WAVED BLUE FLAG FOR CAR 6 (LAT) TIMED AT 16:27:56
2021-05-02 15:28:02	WAVED BLUE FLAG FOR CAR 47 (MSC) TIMED AT 16:28:02
2021-05-02 15:28:30	WAVED BLUE FLAG FOR CAR 6 (LAT) TIMED AT 16:28:30
2021-05-02 15:28:42	WAVED BLUE FLAG FOR CAR 63 (RUS) TIMED AT 16:28:42
2021-05-02 15:28:58	WAVED BLUE FLAG FOR CAR 6 (LAT) TIMED AT 16:28:57
2021-05-02 15:30:52	WAVED BLUE FLAG FOR CAR 5 (VET) TIMED AT 16:30:52
2021-05-02 15:30:59	WAVED BLUE FLAG FOR CAR 9 (MAZ) TIMED AT 16:30:59
2021-05-02 15:32:00	WAVED BLUE FLAG FOR CAR 9 (MAZ) TIMED AT 16:31:59
2021-05-02 15:32:13	WAVED BLUE FLAG FOR CAR 18 (STR) TIMED AT 16:32:13
2021-05-02 15:32:44	WAVED BLUE FLAG FOR CAR 6 (LAT) TIMED AT 16:32:44
2021-05-02 15:33:40	WAVED BLUE FLAG FOR CAR 6 (LAT) TIMED AT 16:33:39
2021-05-02 15:33:46	WAVED BLUE FLAG FOR CAR 9 (MAZ) TIMED AT 16:33:45
2021-05-02 15:33:51	WAVED BLUE FLAG FOR CAR 5 (VET) TIMED AT 16:33:50
2021-05-02 15:33:59	WAVED BLUE FLAG FOR CAR 47 (MSC) TIMED AT 16:33:59
2021-05-02 15:34:11	WAVED BLUE FLAG FOR CAR 6 (LAT) TIMED AT 16:34:10
2021-05-02 15:34:19	WAVED BLUE FLAG FOR CAR 99 (GIO) TIMED AT 16:34:19
2021-05-02 15:34:33	WAVED BLUE FLAG FOR CAR 9 (MAZ) TIMED AT 16:34:33
2021-05-02 15:34:42	WAVED BLUE FLAG FOR CAR 6 (LAT) TIMED AT 16:34:41
2021-05-02 15:35:17	WAVED BLUE FLAG FOR CAR 9 (MAZ) TIMED AT 16:35:16
2021-05-02 15:35:18	WAVED BLUE FLAG FOR CAR 6 (LAT) TIMED AT 16:35:17
2021-05-02 15:35:21	WAVED BLUE FLAG FOR CAR 47 (MSC) TIMED AT 16:35:21
2021-05-02 15:36:07	WAVED BLUE FLAG FOR CAR 9 (MAZ) TIMED AT 16:36:06
2021-05-02 15:36:14	WAVED BLUE FLAG FOR CAR 63 (RUS) TIMED AT 16:36:14
2021-05-02 15:36:57	WAVED BLUE FLAG FOR CAR 63 (RUS) TIMED AT 16:36:56
2021-05-02 15:36:59	WAVED BLUE FLAG FOR CAR 47 (MSC) TIMED AT 16:36:59
2021-05-02 15:37:40	CHEQUERED FLAG
2021-05-02 15:41:05	CAR 33 (VER) TIME 1:19.849 DELETED - TRACK LIMITS AT TURN 14
