Time,DriverNumber,LapTime,LapNumber,PitOutTime,PitInTime,Sector1Time,Sector2Time,Sector3Time,SpeedI1,SpeedI2,SpeedFL,SpeedST,Compound,TyreLife
0 days 00:35:49.896000,3,0 days 00:02:13.746000,1,0 days 00:33:40.448000,"",0 days 00:00:57.629000,0 days 00:00:39.949000,0 days 00:00:36.168000,197.0,243.0,310.0,208.0,soft,1.0
0 days 00:37:14.937000,3,0 days 00:01:25.041000,2,"","",0 days 00:00:27.925000,0 days 00:00:28.448000,0 days 00:00:28.668000,244.0,277.0,315.0,320.0,soft,2.0
0 days 00:39:30.386000,3,0 days 00:02:15.449000,3,"","",0 days 00:00:39.935000,0 days 00:00:47.607000,0 days 00:00:47.907000,120.0,95.0,203.0,313.0,soft,3.0
0 days 00:41:36.347000,3,0 days 00:02:05.961000,4,"","",0 days 00:00:45.566000,0 days 00:00:38.581000,0 days 00:00:41.814000,84.0,244.0,309.0,260.0,soft,4.0
0 days 00:43:01.309000,3,0 days 00:01:24.962000,5,"","",0 days 00:00:27.866000,0 days 00:00:28.505000,0 days 00:00:28.591000,244.0,271.0,311.0,317.0,soft,5.0
0 days 00:45:12.290000,3,0 days 00:02:10.981000,6,"",0 days 00:44:40.405000,0 days 00:00:34.448000,0 days 00:00:32.093000,0 days 00:01:04.440000,194.0,251.0,"",236.0,soft,6.0
0 days 00:57:07.441000,3,"",7,0 days 00:45:14.999000,0 days 00:46:48.743000,0 days 00:00:34.543000,0 days 00:00:34.047000,"",233.0,224.0,"",208.0,soft,7.0
0 days 00:59:25.740000,3,0 days 00:02:18.299000,8,0 days 00:57:11.482000,"",0 days 00:01:00.051000,0 days 00:00:41.251000,0 days 00:00:36.997000,151.0,240.0,312.0,210.0,soft,1.0
0 days 01:00:49.451000,3,0 days 00:01:23.711000,9,"","",0 days 00:00:27.454000,0 days 00:00:28.004000,0 days 00:00:28.253000,246.0,278.0,319.0,321.0,soft,2.0
0 days 01:02:51.134000,3,0 days 00:02:01.683000,10,"","",0 days 00:00:36.618000,0 days 00:00:42.319000,0 days 00:00:42.746000,143.0,201.0,236.0,317.0,soft,3.0
0 days 01:05:03.370000,3,0 days 00:02:12.236000,11,"","",0 days 00:00:46.212000,0 days 00:00:40.984000,0 days 00:00:45.040000,152.0,250.0,308.0,269.0,soft,4.0
0 days 01:06:27.728000,3,0 days 00:01:24.358000,12,"","",0 days 00:00:27.654000,0 days 00:00:28.155000,0 days 00:00:28.549000,245.0,272.0,313.0,317.0,soft,5.0
0 days 01:13:23.774000,3,"",13,"",0 days 01:07:56.758000,0 days 00:00:29.004000,0 days 00:00:30.552000,"",234.0,250.0,"",312.0,soft,6.0
0 days 01:15:12.717000,3,"",14,0 days 01:13:23.774000,0 days 01:15:12.717000,0 days 00:00:48.983000,0 days 00:00:32.922000,"",216.0,164.0,"",213.0,soft,7.0
0 days 00:38:42.524000,63,0 days 00:02:09.918000,1,0 days 00:36:37.012000,"",0 days 00:00:53.496000,0 days 00:00:37.434000,0 days 00:00:38.988000,201.0,249.0,310.0,212.0,medium,1.0
0 days 00:40:08.407000,63,0 days 00:01:25.883000,2,"","",0 days 00:00:28.309000,0 days 00:00:28.536000,0 days 00:00:29.038000,239.0,273.0,314.0,320.0,medium,2.0
0 days 00:42:21.634000,63,0 days 00:02:13.227000,3,"","",0 days 00:00:47.325000,0 days 00:00:42.004000,0 days 00:00:43.898000,177.0,179.0,309.0,313.0,medium,3.0
0 days 00:43:46.495000,63,0 days 00:01:24.861000,4,"","",0 days 00:00:27.681000,0 days 00:00:28.381000,0 days 00:00:28.799000,243.0,274.0,296.0,318.0,medium,4.0
0 days 00:46:00.955000,63,0 days 00:02:14.460000,5,"","",0 days 00:00:48.007000,0 days 00:00:46.185000,0 days 00:00:40.268000,164.0,167.0,310.0,290.0,medium,5.0
0 days 00:47:25.596000,63,0 days 00:01:24.641000,6,"","",0 days 00:00:27.638000,0 days 00:00:28.423000,0 days 00:00:28.580000,243.0,274.0,312.0,320.0,medium,6.0
0 days 00:49:37.685000,63,0 days 00:02:12.089000,7,"","",0 days 00:00:45.601000,0 days 00:00:44.431000,0 days 00:00:42.057000,186.0,199.0,309.0,292.0,medium,7.0
0 days 00:51:02.177000,63,0 days 00:01:24.492000,8,"","",0 days 00:00:27.485000,0 days 00:00:28.539000,0 days 00:00:28.468000,246.0,274.0,312.0,319.0,medium,8.0
0 days 00:59:20.139000,63,"",9,"",0 days 00:52:46.163000,0 days 00:00:35.185000,0 days 00:00:34.498000,"",214.0,180.0,"",250.0,medium,9.0
0 days 01:01:25.726000,63,0 days 00:02:05.587000,10,0 days 00:59:22.895000,"",0 days 00:00:44.731000,0 days 00:00:41.358000,0 days 00:00:39.498000,206.0,211.0,308.0,181.0,soft,1.0
0 days 01:02:50.046000,63,0 days 00:01:24.320000,11,"","",0 days 00:00:27.575000,0 days 00:00:28.238000,0 days 00:00:28.507000,245.0,273.0,313.0,318.0,soft,2.0
0 days 01:05:08.035000,63,0 days 00:02:17.989000,12,"","",0 days 00:00:49.216000,0 days 00:00:45.001000,0 days 00:00:43.772000,174.0,227.0,314.0,312.0,soft,3.0
0 days 01:06:32.175000,63,0 days 00:01:24.140000,13,"","",0 days 00:00:27.479000,0 days 00:00:28.158000,0 days 00:00:28.503000,246.0,273.0,296.0,326.0,soft,4.0
0 days 01:08:45.973000,63,0 days 00:02:13.798000,14,"","",0 days 00:00:45.288000,0 days 00:00:44.511000,0 days 00:00:43.999000,199.0,217.0,311.0,293.0,soft,5.0
0 days 01:10:09.896000,63,0 days 00:01:23.923000,15,"","",0 days 00:00:27.318000,0 days 00:00:28.184000,0 days 00:00:28.421000,246.0,275.0,296.0,322.0,soft,6.0
0 days 01:12:24.518000,63,0 days 00:02:14.622000,16,"",0 days 01:11:49.930000,0 days 00:00:34.518000,0 days 00:00:37.264000,0 days 00:01:02.840000,114.0,166.0,"",239.0,soft,7.0
0 days 01:14:11.867000,63,"",17,0 days 01:12:28.201000,0 days 01:14:11.867000,0 days 00:00:36.997000,0 days 00:00:37.034000,"",213.0,199.0,"",225.0,soft,8.0
0 days 00:34:48.154000,55,0 days 00:02:01.928000,1,0 days 00:32:48.946000,"",0 days 00:00:46.789000,0 days 00:00:38.254000,0 days 00:00:36.885000,162.0,226.0,309.0,165.0,soft,1.0
0 days 00:36:12.691000,55,0 days 00:01:24.537000,2,"","",0 days 00:00:27.619000,0 days 00:00:28.239000,0 days 00:00:28.679000,241.0,276.0,307.0,318.0,soft,2.0
0 days 00:38:43.270000,55,"",3,"",0 days 00:38:24.839000,0 days 00:00:45.241000,0 days 00:00:44.072000,0 days 00:01:01.251000,140.0,171.0,"",289.0,soft,3.0
0 days 00:41:11.603000,55,0 days 00:02:28.333000,4,0 days 00:38:47.587000,"",0 days 00:01:08.933000,0 days 00:00:38.186000,0 days 00:00:41.214000,170.0,246.0,319.0,218.0,soft,4.0
0 days 00:43:02.683000,55,0 days 00:01:51.080000,5,"","",0 days 00:00:36.216000,0 days 00:00:40.043000,0 days 00:00:34.821000,176.0,246.0,316.0,328.0,soft,5.0
0 days 00:44:26.042000,55,0 days 00:01:23.359000,6,"","",0 days 00:00:27.152000,0 days 00:00:27.908000,0 days 00:00:28.299000,246.0,276.0,309.0,325.0,soft,6.0
0 days 00:53:15.047000,55,"",7,"",0 days 00:46:25.572000,0 days 00:00:47.231000,0 days 00:00:40.686000,"",159.0,203.0,"",219.0,soft,7.0
0 days 00:55:22.222000,55,0 days 00:02:07.175000,8,0 days 00:53:17.773000,"",0 days 00:00:46.939000,0 days 00:00:42.206000,0 days 00:00:38.030000,159.0,225.0,310.0,156.0,soft,1.0
0 days 00:56:45.451000,55,0 days 00:01:23.229000,9,"","",0 days 00:00:27.269000,0 days 00:00:27.767000,0 days 00:00:28.193000,244.0,278.0,311.0,319.0,soft,2.0
0 days 00:59:22.776000,55,"",10,"",0 days 00:58:54.468000,0 days 00:00:44.194000,0 days 00:00:41.894000,0 days 00:01:11.256000,155.0,170.0,"",245.0,soft,3.0
0 days 01:01:54.982000,55,"",11,0 days 00:59:26.618000,"",0 days 00:01:08.437000,0 days 00:00:40.237000,0 days 00:00:43.517000,151.0,204.0,310.0,215.0,soft,4.0
0 days 01:03:43.467000,55,0 days 00:01:48.485000,12,"","",0 days 00:00:35.740000,0 days 00:00:35.601000,0 days 00:00:37.144000,167.0,240.0,310.0,319.0,soft,5.0
0 days 01:05:06.515000,55,0 days 00:01:23.048000,13,"","",0 days 00:00:27.235000,0 days 00:00:27.676000,0 days 00:00:28.137000,247.0,276.0,309.0,318.0,soft,6.0
0 days 01:11:01.003000,55,"",14,"",0 days 01:07:11.084000,0 days 00:00:42.518000,0 days 00:00:37.657000,"",151.0,192.0,"",263.0,soft,7.0
0 days 01:13:10.336000,55,0 days 00:02:09.333000,15,0 days 01:11:05.684000,0 days 01:12:51.811000,0 days 00:00:51.481000,0 days 00:00:31.225000,0 days 00:00:46.627000,233.0,267.0,"",204.0,soft,8.0
0 days 01:15:02.606000,55,0 days 00:01:52.270000,16,0 days 01:13:13.770000,"",0 days 00:00:52.968000,0 days 00:00:29.659000,0 days 00:00:29.643000,232.0,269.0,294.0,212.0,soft,9.0
0 days 01:16:33.575000,55,"",17,"",0 days 01:16:33.575000,0 days 00:00:29.907000,0 days 00:00:29.157000,"",236.0,269.0,"",302.0,soft,10.0
0 days 00:20:47.705000,47,"",1,0 days 00:15:31.221000,0 days 00:17:32.511000,0 days 00:00:46.329000,0 days 00:00:36.662000,"",179.0,258.0,"",155.0,medium,1.0
0 days 00:22:37.698000,47,0 days 00:01:49.993000,2,0 days 00:20:50.412000,"",0 days 00:00:40.793000,0 days 00:00:34.631000,0 days 00:00:34.569000,201.0,259.0,306.0,198.0,medium,1.0
0 days 00:30:05.939000,47,"",3,"",0 days 00:24:16.757000,0 days 00:00:32.695000,0 days 00:00:32.865000,"",219.0,261.0,"",313.0,medium,2.0
0 days 00:32:18.157000,47,0 days 00:02:12.218000,4,0 days 00:30:08.674000,"",0 days 00:00:45.349000,0 days 00:00:45.831000,0 days 00:00:41.038000,177.0,230.0,310.0,172.0,soft,1.0
0 days 00:33:44.532000,47,0 days 00:01:26.375000,5,"","",0 days 00:00:28.519000,0 days 00:00:29.009000,0 days 00:00:28.847000,243.0,275.0,308.0,320.0,soft,2.0
0 days 00:36:24.873000,47,"",6,"","",0 days 00:00:55.968000,0 days 00:00:51.570000,0 days 00:00:52.802000,97.0,231.0,263.0,300.0,soft,3.0
0 days 00:38:26.111000,47,0 days 00:02:01.238000,7,"","",0 days 00:00:43.207000,0 days 00:00:40.366000,0 days 00:00:37.665000,140.0,245.0,310.0,272.0,soft,4.0
0 days 00:39:51.700000,47,0 days 00:01:25.589000,8,"","",0 days 00:00:28.128000,0 days 00:00:28.825000,0 days 00:00:28.636000,241.0,275.0,312.0,318.0,soft,5.0
0 days 00:42:06.694000,47,0 days 00:02:14.994000,9,"","",0 days 00:00:39.229000,0 days 00:00:45.404000,0 days 00:00:50.361000,151.0,162.0,314.0,312.0,soft,6.0
0 days 00:43:32.244000,47,0 days 00:01:25.550000,10,"","",0 days 00:00:28.116000,0 days 00:00:28.777000,0 days 00:00:28.657000,244.0,275.0,311.0,322.0,soft,7.0
0 days 00:45:34.653000,47,0 days 00:02:02.409000,11,"",0 days 00:45:15.457000,0 days 00:00:37.900000,0 days 00:00:33.937000,0 days 00:00:50.572000,196.0,246.0,"",314.0,soft,8.0
0 days 00:58:13.834000,47,"",12,0 days 00:45:38.928000,0 days 00:47:28.941000,0 days 00:00:53.360000,0 days 00:00:32.800000,"",108.0,252.0,"",212.0,soft,9.0
0 days 01:00:19.058000,47,0 days 00:02:05.224000,13,0 days 00:58:16.581000,"",0 days 00:00:47.651000,0 days 00:00:40.357000,0 days 00:00:37.216000,184.0,259.0,310.0,167.0,soft,1.0
0 days 01:01:43.829000,47,0 days 00:01:24.771000,14,"","",0 days 00:00:27.840000,0 days 00:00:28.431000,0 days 00:00:28.500000,243.0,276.0,312.0,319.0,soft,2.0
0 days 01:04:02.708000,47,0 days 00:02:18.879000,15,"","",0 days 00:00:46.884000,0 days 00:00:41.899000,0 days 00:00:50.096000,131.0,219.0,282.0,307.0,soft,3.0
0 days 01:06:04.944000,47,0 days 00:02:02.236000,16,"","",0 days 00:00:42.634000,0 days 00:00:42.186000,0 days 00:00:37.416000,136.0,242.0,310.0,293.0,soft,4.0
0 days 01:07:29.624000,47,0 days 00:01:24.680000,17,"","",0 days 00:00:27.519000,0 days 00:00:28.470000,0 days 00:00:28.691000,246.0,275.0,329.0,318.0,soft,5.0
0 days 01:09:38.019000,47,0 days 00:02:08.395000,18,"","",0 days 00:00:36.554000,0 days 00:00:45.690000,0 days 00:00:46.151000,153.0,240.0,312.0,328.0,soft,6.0
0 days 01:11:52.344000,47,0 days 00:02:14.325000,19,"",0 days 01:11:33.578000,0 days 00:00:51.976000,0 days 00:00:34.984000,0 days 00:00:47.365000,197.0,252.0,"",321.0,soft,7.0
0 days 01:13:53.387000,47,"",20,0 days 01:11:56.441000,0 days 01:13:53.387000,0 days 00:01:02.642000,0 days 00:00:29.854000,"",217.0,269.0,"",214.0,soft,8.0
0 days 00:32:09.248000,44,"",1,0 days 00:29:42.090000,"",0 days 00:01:08.462000,0 days 00:00:41.899000,0 days 00:00:41.068000,181.0,243.0,307.0,200.0,soft,1.0
0 days 00:33:33.198000,44,0 days 00:01:23.950000,2,"","",0 days 00:00:27.517000,0 days 00:00:27.980000,0 days 00:00:28.453000,245.0,271.0,309.0,316.0,soft,2.0
0 days 00:37:06.416000,44,"",3,"",0 days 00:36:38.237000,0 days 00:01:04.316000,0 days 00:01:07.726000,0 days 00:01:21.162000,89.0,94.0,"",273.0,soft,3.0
0 days 00:39:29.696000,44,0 days 00:02:23.280000,4,0 days 00:37:09.714000,"",0 days 00:00:59.419000,0 days 00:00:43.839000,0 days 00:00:40.022000,182.0,247.0,308.0,174.0,soft,4.0
0 days 00:40:52.848000,44,0 days 00:01:23.152000,5,"","",0 days 00:00:27.185000,0 days 00:00:27.713000,0 days 00:00:28.254000,244.0,271.0,311.0,316.0,soft,5.0
0 days 00:44:24.389000,44,"",6,"",0 days 00:43:57.744000,0 days 00:01:02.810000,0 days 00:01:04.930000,0 days 00:01:23.768000,79.0,131.0,"",261.0,soft,6.0
0 days 00:46:56.128000,44,"",7,0 days 00:44:27.407000,"",0 days 00:00:57.139000,0 days 00:00:46.863000,0 days 00:00:47.768000,164.0,190.0,307.0,139.0,soft,7.0
0 days 00:48:18.783000,44,0 days 00:01:22.655000,8,"","",0 days 00:00:27.045000,0 days 00:00:27.550000,0 days 00:00:28.060000,245.0,271.0,311.0,315.0,soft,8.0
0 days 01:00:06.157000,44,"",9,"",0 days 00:49:45.698000,0 days 00:00:28.470000,0 days 00:00:29.574000,"",234.0,250.0,"",312.0,soft,9.0
0 days 01:02:26.630000,44,0 days 00:02:20.473000,10,0 days 01:00:08.877000,"",0 days 00:00:57.065000,0 days 00:00:47.751000,0 days 00:00:35.657000,158.0,244.0,306.0,146.0,soft,1.0
0 days 01:03:49.018000,44,0 days 00:01:22.388000,11,"","",0 days 00:00:26.981000,0 days 00:00:27.408000,0 days 00:00:27.999000,250.0,274.0,312.0,316.0,soft,2.0
0 days 01:07:28.673000,44,"",12,"",0 days 01:06:47.430000,0 days 00:01:04.790000,0 days 00:01:01.849000,0 days 00:01:32.970000,91.0,128.0,"",211.0,soft,3.0
0 days 01:10:04.955000,44,"",13,0 days 01:07:32.012000,"",0 days 00:00:59.191000,0 days 00:00:49.638000,0 days 00:00:47.513000,155.0,244.0,304.0,148.0,soft,4.0
0 days 01:12:03.128000,44,0 days 00:01:58.173000,14,"","",0 days 00:00:42.583000,0 days 00:00:37.339000,0 days 00:00:38.251000,"",253.0,308.0,313.0,soft,5.0
0 days 01:13:25.782000,44,0 days 00:01:22.654000,15,"","",0 days 00:00:26.868000,0 days 00:00:27.484000,0 days 00:00:28.302000,249.0,272.0,302.0,316.0,soft,6.0
0 days 01:15:08.164000,44,"",16,"",0 days 01:15:08.164000,0 days 00:00:39.491000,0 days 00:00:31.219000,"",194.0,253.0,"",306.0,soft,7.0
0 days 00:42:02.335000,33,0 days 00:02:05.535000,1,0 days 00:39:59.526000,"",0 days 00:00:42.321000,0 days 00:00:37.599000,0 days 00:00:45.615000,185.0,219.0,311.0,196.0,soft,1.0
0 days 00:43:25.456000,33,0 days 00:01:23.121000,2,"","",0 days 00:00:27.073000,0 days 00:00:27.862000,0 days 00:00:28.186000,249.0,275.0,311.0,308.0,soft,2.0
0 days 00:45:54.998000,33,0 days 00:02:29.542000,3,"",0 days 00:45:13.248000,0 days 00:00:37.076000,0 days 00:00:36.485000,0 days 00:01:15.981000,181.0,219.0,"","",soft,3.0
0 days 00:48:46.193000,33,"",4,0 days 00:45:58.784000,"",0 days 00:01:06.977000,0 days 00:00:52.819000,0 days 00:00:51.376000,120.0,100.0,310.0,214.0,soft,4.0
0 days 00:50:09.178000,33,0 days 00:01:22.985000,5,"","",0 days 00:00:27.201000,0 days 00:00:27.763000,0 days 00:00:28.021000,246.0,276.0,312.0,316.0,soft,5.0
0 days 01:08:28.059000,33,"",6,"",0 days 00:51:37.558000,0 days 00:00:30.527000,0 days 00:00:29.959000,"",216.0,267.0,"",307.0,soft,6.0
0 days 01:10:43.584000,33,0 days 00:02:15.525000,7,0 days 01:08:30.796000,"",0 days 00:00:46.766000,0 days 00:00:46.729000,0 days 00:00:42.030000,122.0,194.0,309.0,187.0,soft,1.0
0 days 01:12:06.235000,33,0 days 00:01:22.651000,8,"","",0 days 00:00:27.051000,0 days 00:00:27.499000,0 days 00:00:28.101000,251.0,278.0,315.0,317.0,soft,2.0
0 days 01:13:52.318000,33,0 days 00:01:46.083000,9,"",0 days 01:13:33.784000,0 days 00:00:31.520000,0 days 00:00:28.952000,0 days 00:00:45.611000,224.0,268.0,"",313.0,soft,3.0
0 days 01:15:55.800000,33,"",10,0 days 01:14:03.383000,0 days 01:15:55.800000,0 days 00:01:03.259000,0 days 00:00:30.595000,"",219.0,261.0,"",198.0,soft,4.0
0 days 00:24:57.441000,31,0 days 00:02:10.876000,1,0 days 00:22:51.431000,"",0 days 00:00:57.192000,0 days 00:00:36.615000,0 days 00:00:37.069000,196.0,246.0,308.0,173.0,medium,1.0
0 days 00:26:22.305000,31,0 days 00:01:24.864000,2,"","",0 days 00:00:27.784000,0 days 00:00:28.499000,0 days 00:00:28.581000,241.0,272.0,311.0,317.0,medium,2.0
0 days 00:28:41.045000,31,0 days 00:02:18.740000,3,"","",0 days 00:00:44.294000,0 days 00:00:45.680000,0 days 00:00:48.766000,156.0,150.0,216.0,308.0,medium,3.0
0 days 00:30:38.529000,31,0 days 00:01:57.484000,4,"","",0 days 00:00:41.757000,0 days 00:00:38.976000,0 days 00:00:36.751000,187.0,255.0,310.0,213.0,medium,4.0
0 days 00:32:03.109000,31,0 days 00:01:24.580000,5,"","",0 days 00:00:27.618000,0 days 00:00:28.328000,0 days 00:00:28.634000,242.0,272.0,312.0,320.0,medium,5.0
0 days 00:34:12.849000,31,0 days 00:02:09.740000,6,"",0 days 00:33:47.695000,0 days 00:00:36.747000,0 days 00:00:36.439000,0 days 00:00:56.554000,199.0,191.0,"",310.0,medium,6.0
0 days 00:36:16.471000,31,0 days 00:02:03.622000,7,0 days 00:34:15.549000,"",0 days 00:00:45.133000,0 days 00:00:39.853000,0 days 00:00:38.636000,114.0,194.0,310.0,204.0,medium,7.0
0 days 00:37:40.705000,31,0 days 00:01:24.234000,8,"","",0 days 00:00:27.464000,0 days 00:00:28.324000,0 days 00:00:28.446000,243.0,271.0,311.0,319.0,medium,8.0
0 days 00:43:41.770000,31,"",9,"",0 days 00:39:25.945000,0 days 00:00:41.093000,0 days 00:00:33.246000,"",201.0,256.0,"",179.0,medium,9.0
0 days 00:45:44.094000,31,0 days 00:02:02.324000,10,0 days 00:43:45.442000,"",0 days 00:00:50.549000,0 days 00:00:35.755000,0 days 00:00:36.020000,207.0,246.0,310.0,210.0,medium,10.0
0 days 00:47:08.199000,31,0 days 00:01:24.105000,11,"","",0 days 00:00:27.453000,0 days 00:00:28.170000,0 days 00:00:28.482000,243.0,272.0,311.0,319.0,medium,11.0
0 days 01:05:09.883000,31,"",12,"",0 days 00:48:46.345000,0 days 00:00:36.216000,0 days 00:00:32.621000,"",163.0,254.0,"",294.0,medium,12.0
0 days 01:07:29.361000,31,0 days 00:02:19.478000,13,0 days 01:05:12.590000,"",0 days 00:00:44.379000,0 days 00:00:43.896000,0 days 00:00:51.203000,182.0,206.0,314.0,175.0,soft,1.0
0 days 01:08:52.962000,31,0 days 00:01:23.601000,14,"","",0 days 00:00:27.369000,0 days 00:00:28.033000,0 days 00:00:28.199000,247.0,273.0,316.0,324.0,soft,2.0
0 days 01:11:20.728000,31,0 days 00:02:27.766000,15,"",0 days 01:10:56.058000,0 days 00:00:44.096000,0 days 00:00:41.931000,0 days 00:01:01.739000,188.0,146.0,"",311.0,soft,3.0
0 days 01:13:32.015000,31,0 days 00:02:11.287000,16,0 days 01:11:23.447000,"",0 days 00:00:44.924000,0 days 00:00:41.217000,0 days 00:00:45.146000,185.0,162.0,314.0,199.0,soft,4.0
0 days 01:14:55.224000,31,0 days 00:01:23.209000,17,"","",0 days 00:00:27.192000,0 days 00:00:27.813000,0 days 00:00:28.204000,248.0,274.0,315.0,323.0,soft,5.0
0 days 01:16:38.799000,31,"",18,"",0 days 01:16:38.799000,0 days 00:00:33.453000,0 days 00:00:38.396000,"",214.0,239.0,"",315.0,soft,6.0
0 days 00:32:26.387000,22,0 days 00:02:11.796000,1,0 days 00:30:17.322000,"",0 days 00:00:45.578000,0 days 00:00:43.544000,0 days 00:00:42.674000,161.0,230.0,303.0,158.0,medium,1.0
0 days 00:33:52.195000,22,0 days 00:01:25.808000,2,"","",0 days 00:00:28.341000,0 days 00:00:28.606000,0 days 00:00:28.861000,240.0,270.0,305.0,313.0,medium,2.0
0 days 00:36:27.256000,22,"",3,"","",0 days 00:00:50.695000,0 days 00:00:58.221000,0 days 00:00:46.168000,110.0,120.0,267.0,260.0,medium,3.0
0 days 00:38:37.098000,22,0 days 00:02:09.842000,4,"","",0 days 00:00:45.212000,0 days 00:00:45.736000,0 days 00:00:38.894000,125.0,213.0,304.0,272.0,medium,4.0
0 days 00:40:01.666000,22,0 days 00:01:24.568000,5,"","",0 days 00:00:27.743000,0 days 00:00:28.293000,0 days 00:00:28.532000,242.0,271.0,308.0,313.0,medium,5.0
0 days 00:42:31.548000,22,0 days 00:02:29.882000,6,"","",0 days 00:00:46.739000,0 days 00:00:48.463000,0 days 00:00:54.680000,125.0,157.0,220.0,309.0,medium,6.0
0 days 00:44:41.087000,22,0 days 00:02:09.539000,7,"","",0 days 00:00:48.777000,0 days 00:00:42.642000,0 days 00:00:38.120000,162.0,241.0,309.0,231.0,medium,7.0
0 days 00:46:04.654000,22,0 days 00:01:23.567000,8,"","",0 days 00:00:27.556000,0 days 00:00:27.904000,0 days 00:00:28.107000,247.0,275.0,315.0,317.0,medium,8.0
0 days 00:48:09.848000,22,0 days 00:02:05.194000,9,"",0 days 00:47:49.053000,0 days 00:00:35.152000,0 days 00:00:36.527000,0 days 00:00:53.515000,176.0,233.0,"",295.0,medium,9.0
0 days 00:50:19.401000,22,0 days 00:02:09.553000,10,0 days 00:48:13.707000,0 days 00:49:54.945000,0 days 00:00:42.529000,0 days 00:00:29.469000,0 days 00:00:57.555000,240.0,272.0,"",205.0,medium,10.0
0 days 00:58:21.490000,22,"",11,0 days 00:50:22.153000,0 days 00:52:06.589000,0 days 00:00:37.160000,0 days 00:00:40.074000,"",120.0,241.0,"",218.0,medium,11.0
0 days 01:00:25.632000,22,0 days 00:02:04.142000,12,0 days 00:58:26.704000,"",0 days 00:00:45.503000,0 days 00:00:36.320000,0 days 00:00:42.319000,180.0,251.0,305.0,152.0,soft,1.0
0 days 01:01:49.317000,22,0 days 00:01:23.685000,13,"","",0 days 00:00:27.406000,0 days 00:00:27.914000,0 days 00:00:28.365000,248.0,272.0,309.0,315.0,soft,2.0
0 days 01:04:44.367000,22,"",14,"",0 days 01:04:13.246000,0 days 00:00:50.186000,0 days 00:00:51.362000,0 days 00:01:13.482000,132.0,138.0,"",232.0,soft,3.0
0 days 01:07:11.008000,22,0 days 00:02:26.641000,15,0 days 01:04:47.076000,"",0 days 00:00:56.467000,0 days 00:00:47.347000,0 days 00:00:42.827000,163.0,133.0,306.0,137.0,soft,4.0
0 days 01:08:34.745000,22,0 days 00:01:23.737000,16,"","",0 days 00:00:27.232000,0 days 00:00:27.969000,0 days 00:00:28.536000,251.0,272.0,308.0,314.0,soft,5.0
0 days 01:10:57.213000,22,0 days 00:02:22.468000,17,"","",0 days 00:00:45.876000,0 days 00:00:48.201000,0 days 00:00:48.391000,78.0,163.0,249.0,307.0,soft,6.0
0 days 01:13:07.759000,22,0 days 00:02:10.546000,18,"","",0 days 00:00:47.004000,0 days 00:00:43.064000,0 days 00:00:40.478000,129.0,234.0,310.0,263.0,soft,7.0
0 days 01:14:32.574000,22,0 days 00:01:24.815000,19,"","",0 days 00:00:27.801000,0 days 00:00:28.315000,0 days 00:00:28.699000,248.0,277.0,312.0,318.0,soft,8.0
0 days 01:16:30.475000,22,"",20,"",0 days 01:16:30.475000,0 days 00:00:40.961000,0 days 00:00:38.971000,"",156.0,200.0,"",275.0,soft,9.0
0 days 00:37:42.462000,18,0 days 00:01:56.973000,1,0 days 00:35:48.172000,"",0 days 00:00:41.708000,0 days 00:00:34.102000,0 days 00:00:41.163000,193.0,255.0,314.0,203.0,medium,1.0
0 days 00:39:07.612000,18,0 days 00:01:25.150000,2,"","",0 days 00:00:27.597000,0 days 00:00:28.635000,0 days 00:00:28.918000,245.0,274.0,312.0,322.0,medium,2.0
0 days 00:41:46.595000,18,"",3,"","",0 days 00:00:51.308000,0 days 00:00:49.537000,0 days 00:00:58.167000,96.0,168.0,308.0,312.0,medium,3.0
0 days 00:43:11.442000,18,0 days 00:01:24.847000,4,"","",0 days 00:00:27.752000,0 days 00:00:28.448000,0 days 00:00:28.647000,244.0,272.0,308.0,318.0,medium,4.0
0 days 00:45:38.525000,18,0 days 00:02:27.083000,5,"","",0 days 00:00:54.394000,0 days 00:00:53.346000,0 days 00:00:39.343000,59.0,229.0,286.0,288.0,medium,5.0
0 days 00:47:27.127000,18,0 days 00:01:48.602000,6,"","",0 days 00:00:35.888000,0 days 00:00:34.277000,0 days 00:00:38.437000,205.0,252.0,314.0,295.0,medium,6.0
0 days 00:48:51.529000,18,0 days 00:01:24.402000,7,"","",0 days 00:00:27.543000,0 days 00:00:28.313000,0 days 00:00:28.546000,242.0,274.0,313.0,323.0,medium,7.0
0 days 00:50:49.669000,18,0 days 00:01:58.140000,8,"",0 days 00:50:25.924000,0 days 00:00:30.701000,0 days 00:00:31.971000,0 days 00:00:55.468000,216.0,253.0,"",311.0,medium,8.0
0 days 00:58:02.643000,18,"",9,0 days 00:50:52.356000,0 days 00:52:24.540000,0 days 00:00:35.823000,0 days 00:00:30.631000,"",223.0,258.0,"",199.0,medium,9.0
0 days 01:00:10.826000,18,0 days 00:02:08.183000,10,0 days 00:58:05.371000,"",0 days 00:00:47.244000,0 days 00:00:35.963000,0 days 00:00:44.976000,174.0,237.0,307.0,159.0,soft,1.0
0 days 01:02:33.840000,18,0 days 00:02:23.014000,11,"","",0 days 00:00:47.284000,0 days 00:00:58.739000,0 days 00:00:36.991000,127.0,221.0,309.0,317.0,soft,2.0
0 days 01:03:59.278000,18,0 days 00:01:25.438000,12,"","",0 days 00:00:27.422000,0 days 00:00:28.220000,0 days 00:00:29.796000,245.0,273.0,307.0,319.0,soft,3.0
0 days 01:06:52.221000,18,"",13,"","",0 days 00:00:57.424000,0 days 00:01:07.729000,0 days 00:00:47.787000,130.0,92.0,287.0,272.0,soft,4.0
0 days 01:08:59.403000,18,0 days 00:02:07.182000,14,"","",0 days 00:00:42.158000,0 days 00:00:47.187000,0 days 00:00:37.837000,194.0,246.0,311.0,289.0,soft,5.0
0 days 01:10:23.557000,18,0 days 00:01:24.154000,15,"","",0 days 00:00:27.476000,0 days 00:00:28.208000,0 days 00:00:28.470000,245.0,274.0,313.0,320.0,soft,6.0
0 days 01:12:13.287000,18,0 days 00:01:49.730000,16,"",0 days 01:11:55.666000,0 days 00:00:30.755000,0 days 00:00:32.259000,0 days 00:00:46.716000,206.0,247.0,"",316.0,soft,7.0
0 days 01:13:57.595000,18,"",17,0 days 01:12:23.288000,0 days 01:13:57.595000,0 days 00:00:43.923000,0 days 00:00:30.482000,"",217.0,261.0,"",219.0,soft,8.0
0 days 00:35:18.065000,16,0 days 00:02:15.097000,1,0 days 00:33:05.690000,"",0 days 00:00:51.709000,0 days 00:00:42.789000,0 days 00:00:40.599000,162.0,188.0,310.0,135.0,soft,1.0
0 days 00:36:42.693000,16,0 days 00:01:24.628000,2,"","",0 days 00:00:27.862000,0 days 00:00:28.330000,0 days 00:00:28.436000,242.0,276.0,311.0,318.0,soft,2.0
0 days 00:39:24.393000,16,"",3,"",0 days 00:39:03.910000,0 days 00:00:48.453000,0 days 00:00:50.657000,0 days 00:01:02.582000,127.0,105.0,"",310.0,soft,3.0
0 days 00:41:56.730000,16,"",4,0 days 00:39:28.610000,"",0 days 00:01:13.270000,0 days 00:00:37.888000,0 days 00:00:41.191000,181.0,213.0,311.0,214.0,soft,4.0
0 days 00:43:57.869000,16,0 days 00:02:01.139000,5,"","",0 days 00:00:41.441000,0 days 00:00:40.345000,0 days 00:00:39.353000,209.0,198.0,310.0,319.0,soft,5.0
0 days 00:45:21.450000,16,0 days 00:01:23.581000,6,"","",0 days 00:00:27.370000,0 days 00:00:28.070000,0 days 00:00:28.141000,245.0,276.0,308.0,318.0,soft,6.0
0 days 00:47:48.402000,16,0 days 00:02:26.952000,7,"","",0 days 00:00:45.443000,0 days 00:00:54.361000,0 days 00:00:47.148000,117.0,116.0,310.0,229.0,soft,7.0
0 days 00:49:11.678000,16,0 days 00:01:23.276000,8,"","",0 days 00:00:27.229000,0 days 00:00:28.052000,0 days 00:00:27.995000,247.0,276.0,309.0,319.0,soft,8.0
0 days 00:59:27.547000,16,"",9,"",0 days 00:50:49.664000,0 days 00:00:36.038000,0 days 00:00:32.592000,"",202.0,247.0,"",314.0,soft,9.0
0 days 01:01:38.488000,16,0 days 00:02:10.941000,10,0 days 00:59:30.309000,"",0 days 00:00:48.984000,0 days 00:00:42.716000,0 days 00:00:39.241000,158.0,228.0,311.0,144.0,soft,1.0
0 days 01:03:44.003000,16,0 days 00:02:05.515000,11,"","",0 days 00:00:44.972000,0 days 00:00:38.384000,0 days 00:00:42.159000,198.0,223.0,219.0,319.0,soft,2.0
0 days 01:05:38.288000,16,0 days 00:01:54.285000,12,"","",0 days 00:00:39.529000,0 days 00:00:39.929000,0 days 00:00:34.827000,111.0,233.0,311.0,256.0,soft,3.0
0 days 01:07:01.856000,16,0 days 00:01:23.568000,13,"","",0 days 00:00:27.473000,0 days 00:00:27.992000,0 days 00:00:28.103000,247.0,276.0,312.0,320.0,soft,4.0
0 days 01:09:40.482000,16,"",14,"",0 days 01:09:17.861000,0 days 00:00:50.256000,0 days 00:00:48.922000,0 days 00:00:59.453000,106.0,171.0,"","",soft,5.0
0 days 01:12:23.687000,16,"",15,0 days 01:09:44.800000,"",0 days 00:01:11.930000,0 days 00:00:47.593000,0 days 00:00:43.680000,166.0,223.0,319.0,214.0,soft,6.0
0 days 01:13:49.435000,16,0 days 00:01:25.748000,16,"","",0 days 00:00:27.395000,0 days 00:00:27.915000,0 days 00:00:30.438000,248.0,277.0,263.0,325.0,soft,7.0
0 days 01:15:32.521000,16,"",17,"",0 days 01:15:32.521000,0 days 00:00:34.709000,0 days 00:00:34.009000,"",201.0,240.0,"",272.0,soft,8.0
0 days 00:35:06.276000,14,0 days 00:02:01.944000,1,0 days 00:33:07.046000,"",0 days 00:00:45.736000,0 days 00:00:36.957000,0 days 00:00:39.251000,194.0,248.0,313.0,89.0,medium,1.0
0 days 00:36:30.180000,14,0 days 00:01:23.904000,2,"","",0 days 00:00:27.512000,0 days 00:00:27.999000,0 days 00:00:28.393000,245.0,274.0,315.0,322.0,medium,2.0
0 days 00:45:52.578000,14,"",3,"",0 days 00:38:20.623000,0 days 00:00:37.894000,0 days 00:00:37.190000,"",183.0,239.0,"",291.0,medium,3.0
0 days 00:47:55.996000,14,0 days 00:02:03.418000,4,0 days 00:45:55.522000,"",0 days 00:00:43.612000,0 days 00:00:38.289000,0 days 00:00:41.517000,197.0,155.0,314.0,208.0,medium,4.0
0 days 00:49:19.441000,14,0 days 00:01:23.445000,5,"","",0 days 00:00:27.329000,0 days 00:00:27.951000,0 days 00:00:28.165000,248.0,274.0,315.0,323.0,medium,5.0
0 days 00:51:17.086000,14,0 days 00:01:57.645000,6,"","",0 days 00:00:36.023000,0 days 00:00:43.578000,0 days 00:00:38.044000,176.0,198.0,314.0,311.0,medium,6.0
0 days 01:05:00.782000,14,"",7,"",0 days 00:52:45.175000,0 days 00:00:27.536000,0 days 00:00:30.067000,"",237.0,254.0,"",322.0,medium,7.0
0 days 01:07:17.894000,14,0 days 00:02:17.112000,8,0 days 01:05:03.492000,"",0 days 00:00:46.058000,0 days 00:00:41.316000,0 days 00:00:49.738000,156.0,185.0,314.0,180.0,soft,1.0
0 days 01:08:41.080000,14,0 days 00:01:23.186000,9,"","",0 days 00:00:27.161000,0 days 00:00:27.893000,0 days 00:00:28.132000,250.0,273.0,314.0,323.0,soft,2.0
0 days 01:10:59.117000,14,0 days 00:02:18.037000,10,"","",0 days 00:00:47.265000,0 days 00:00:43.722000,0 days 00:00:47.050000,107.0,154.0,314.0,309.0,soft,3.0
0 days 01:12:22.676000,14,0 days 00:01:23.559000,11,"","",0 days 00:00:27.150000,0 days 00:00:27.818000,0 days 00:00:28.591000,250.0,274.0,306.0,323.0,soft,4.0
0 days 01:14:25.683000,14,0 days 00:02:03.007000,12,"",0 days 01:14:06.810000,0 days 00:00:39.365000,0 days 00:00:35.817000,0 days 00:00:47.825000,178.0,248.0,"",195.0,soft,5.0
0 days 01:16:31.798000,14,"",13,0 days 01:14:30.053000,0 days 01:16:31.798000,0 days 00:00:58.575000,0 days 00:00:31.498000,"",178.0,257.0,"",166.0,soft,6.0
0 days 00:34:30.654000,11,0 days 00:01:59.961000,1,0 days 00:32:33.438000,"",0 days 00:00:45.603000,0 days 00:00:35.848000,0 days 00:00:38.510000,190.0,263.0,309.0,190.0,soft,1.0
0 days 00:35:55.248000,11,0 days 00:01:24.594000,2,"","",0 days 00:00:27.736000,0 days 00:00:27.821000,0 days 00:00:29.037000,244.0,276.0,313.0,317.0,soft,2.0
0 days 00:38:49.180000,11,"",3,"",0 days 00:37:54.665000,0 days 00:00:42.663000,0 days 00:00:41.796000,0 days 00:01:29.437000,142.0,239.0,"",271.0,soft,3.0
0 days 00:41:29.921000,11,"",4,0 days 00:39:13.542000,"",0 days 00:01:11.645000,0 days 00:00:46.056000,0 days 00:00:43.087000,184.0,217.0,310.0,214.0,soft,4.0
0 days 00:42:53.658000,11,0 days 00:01:23.737000,5,"","",0 days 00:00:27.388000,0 days 00:00:28.135000,0 days 00:00:28.214000,248.0,277.0,315.0,318.0,soft,5.0
0 days 00:58:50.183000,11,"",6,"",0 days 00:44:54.704000,0 days 00:00:42.589000,0 days 00:00:42.999000,"",142.0,213.0,"",284.0,soft,6.0
0 days 01:00:54.163000,11,0 days 00:02:03.980000,7,0 days 00:58:52.898000,"",0 days 00:00:41.818000,0 days 00:00:42.087000,0 days 00:00:40.075000,123.0,265.0,313.0,193.0,soft,1.0
0 days 01:02:17.009000,11,0 days 00:01:22.846000,8,"","",0 days 00:00:27.239000,0 days 00:00:27.589000,0 days 00:00:28.018000,248.0,277.0,314.0,322.0,soft,2.0
0 days 01:04:55.326000,11,"",9,"",0 days 01:04:25.791000,0 days 00:00:41.339000,0 days 00:00:44.774000,0 days 00:01:12.205000,162.0,198.0,"",293.0,soft,3.0
0 days 01:07:42.949000,11,"",10,0 days 01:05:00.599000,"",0 days 00:01:15.209000,0 days 00:00:49.456000,0 days 00:00:42.992000,143.0,158.0,312.0,210.0,soft,4.0
0 days 01:09:44.645000,11,0 days 00:02:01.696000,11,"",0 days 01:09:18.500000,0 days 00:00:27.635000,0 days 00:00:31.730000,0 days 00:01:02.331000,249.0,167.0,"",320.0,soft,5.0
0 days 01:12:15.826000,11,"",12,0 days 01:09:47.407000,"",0 days 00:00:54.047000,0 days 00:00:53.215000,0 days 00:00:43.864000,115.0,111.0,311.0,192.0,soft,6.0
0 days 01:13:38.825000,11,0 days 00:01:22.999000,13,"","",0 days 00:00:27.398000,0 days 00:00:27.606000,0 days 00:00:27.995000,250.0,278.0,316.0,321.0,soft,7.0
0 days 01:15:21.819000,11,"",14,"",0 days 01:15:21.819000,0 days 00:00:39.830000,0 days 00:00:34.220000,"",189.0,245.0,"",286.0,soft,8.0
0 days 00:38:51.403000,10,0 days 00:02:05.718000,1,0 days 00:36:49.512000,"",0 days 00:00:50.598000,0 days 00:00:38.199000,0 days 00:00:36.921000,180.0,260.0,311.0,157.0,soft,1.0
0 days 00:40:15.445000,10,0 days 00:01:24.042000,2,"","",0 days 00:00:27.523000,0 days 00:00:28.078000,0 days 00:00:28.441000,244.0,271.0,310.0,321.0,soft,2.0
0 days 00:42:49.834000,10,"",3,"","",0 days 00:00:48.855000,0 days 00:00:56.650000,0 days 00:00:48.905000,110.0,110.0,266.0,313.0,soft,3.0
0 days 00:44:49.995000,10,0 days 00:02:00.161000,4,"","",0 days 00:00:44.372000,0 days 00:00:38.752000,0 days 00:00:37.037000,180.0,247.0,309.0,274.0,soft,4.0
0 days 00:46:13.430000,10,0 days 00:01:23.435000,5,"","",0 days 00:00:27.207000,0 days 00:00:27.992000,0 days 00:00:28.236000,249.0,272.0,311.0,317.0,soft,5.0
0 days 00:48:36.146000,10,0 days 00:02:22.716000,6,"","",0 days 00:00:44.621000,0 days 00:00:49.993000,0 days 00:00:48.102000,139.0,99.0,270.0,313.0,soft,6.0
0 days 00:50:36.248000,10,0 days 00:02:00.102000,7,"","",0 days 00:00:42.508000,0 days 00:00:39.964000,0 days 00:00:37.630000,166.0,224.0,311.0,276.0,soft,7.0
0 days 00:51:58.969000,10,0 days 00:01:22.721000,8,"","",0 days 00:00:26.887000,0 days 00:00:27.762000,0 days 00:00:28.072000,246.0,277.0,313.0,319.0,soft,8.0
0 days 00:53:46.829000,10,0 days 00:01:47.860000,9,"",0 days 00:53:28.346000,0 days 00:00:31.059000,0 days 00:00:30.017000,0 days 00:00:46.784000,226.0,268.0,"",312.0,soft,9.0
0 days 01:01:55.531000,10,"",10,0 days 00:53:59.253000,0 days 00:55:30.338000,0 days 00:00:44.939000,0 days 00:00:30.129000,"",235.0,267.0,"",215.0,soft,10.0
0 days 01:03:55.787000,10,0 days 00:02:00.256000,11,0 days 01:01:58.259000,"",0 days 00:00:46.782000,0 days 00:00:37.188000,0 days 00:00:36.286000,176.0,147.0,308.0,152.0,soft,1.0
0 days 01:05:18.923000,10,0 days 00:01:23.136000,12,"","",0 days 00:00:27.108000,0 days 00:00:27.892000,0 days 00:00:28.136000,247.0,273.0,313.0,317.0,soft,2.0
0 days 01:07:38.326000,10,0 days 00:02:19.403000,13,"","",0 days 00:00:45.706000,0 days 00:00:46.605000,0 days 00:00:47.092000,95.0,165.0,266.0,316.0,soft,3.0
0 days 01:10:44.945000,10,"",14,"",0 days 01:09:36.184000,0 days 00:00:43.105000,0 days 00:00:41.076000,"",150.0,256.0,"",276.0,soft,4.0
0 days 01:12:38.746000,10,0 days 00:01:53.801000,15,0 days 01:10:47.700000,"",0 days 00:00:44.971000,0 days 00:00:35.261000,0 days 00:00:33.569000,194.0,223.0,311.0,158.0,soft,5.0
0 days 01:14:01.581000,10,0 days 00:01:22.835000,16,"","",0 days 00:00:27.085000,0 days 00:00:27.738000,0 days 00:00:28.012000,250.0,278.0,314.0,320.0,soft,6.0
0 days 01:15:55.231000,10,"",17,"",0 days 01:15:55.231000,0 days 00:00:34.515000,0 days 00:00:36.604000,"",210.0,185.0,"",316.0,soft,7.0
0 days 00:31:49.584000,7,0 days 00:01:58.331000,1,0 days 00:29:54.111000,"",0 days 00:00:45.488000,0 days 00:00:38.106000,0 days 00:00:34.737000,174.0,248.0,311.0,150.0,soft,1.0
0 days 00:33:14.966000,7,0 days 00:01:25.382000,2,"","",0 days 00:00:28.041000,0 days 00:00:28.563000,0 days 00:00:28.778000,242.0,275.0,311.0,321.0,soft,2.0
0 days 00:35:26.405000,7,0 days 00:02:11.439000,3,"","",0 days 00:00:45.628000,0 days 00:00:42.736000,0 days 00:00:43.075000,136.0,120.0,272.0,234.0,soft,3.0
0 days 00:37:25.330000,7,0 days 00:01:58.925000,4,"","",0 days 00:00:40.598000,0 days 00:00:41.379000,0 days 00:00:36.948000,164.0,222.0,316.0,275.0,soft,4.0
0 days 00:38:50.013000,7,0 days 00:01:24.683000,5,"","",0 days 00:00:27.807000,0 days 00:00:28.409000,0 days 00:00:28.467000,244.0,281.0,317.0,326.0,soft,5.0
0 days 00:41:15.249000,7,0 days 00:02:25.236000,6,"",0 days 00:40:52.552000,0 days 00:00:42.998000,0 days 00:00:40.866000,0 days 00:01:01.372000,152.0,209.0,"",265.0,soft,6.0
0 days 00:43:36.126000,7,0 days 00:02:20.877000,7,0 days 00:41:19.177000,"",0 days 00:01:03.217000,0 days 00:00:40.081000,0 days 00:00:37.579000,203.0,240.0,316.0,207.0,soft,7.0
0 days 00:45:23.040000,7,0 days 00:01:46.914000,8,"","",0 days 00:00:33.673000,0 days 00:00:36.959000,0 days 00:00:36.282000,176.0,180.0,319.0,326.0,soft,8.0
0 days 00:46:47.476000,7,0 days 00:01:24.436000,9,"","",0 days 00:00:27.542000,0 days 00:00:28.505000,0 days 00:00:28.389000,245.0,277.0,317.0,327.0,soft,9.0
0 days 00:58:47.863000,7,"",10,"",0 days 00:48:23.252000,0 days 00:00:34.791000,0 days 00:00:32.616000,"",84.0,251.0,"",303.0,soft,10.0
0 days 01:00:45.282000,7,0 days 00:01:57.419000,11,0 days 00:58:51.745000,"",0 days 00:00:41.344000,0 days 00:00:37.219000,0 days 00:00:38.856000,206.0,239.0,315.0,178.0,soft,1.0
0 days 01:02:41.466000,7,0 days 00:01:56.184000,12,"","",0 days 00:00:34.794000,0 days 00:00:40.167000,0 days 00:00:41.223000,52.0,214.0,320.0,325.0,soft,2.0
0 days 01:04:05.862000,7,0 days 00:01:24.396000,13,"","",0 days 00:00:27.599000,0 days 00:00:28.317000,0 days 00:00:28.480000,242.0,277.0,314.0,327.0,soft,3.0
0 days 01:06:18.617000,7,0 days 00:02:12.755000,14,"","",0 days 00:00:43.239000,0 days 00:00:43.067000,0 days 00:00:46.449000,86.0,137.0,281.0,269.0,soft,4.0
0 days 01:08:10.613000,7,0 days 00:01:51.996000,15,"","",0 days 00:00:37.352000,0 days 00:00:38.826000,0 days 00:00:35.818000,129.0,181.0,315.0,257.0,soft,5.0
0 days 01:09:34.859000,7,0 days 00:01:24.246000,16,"","",0 days 00:00:27.526000,0 days 00:00:28.322000,0 days 00:00:28.398000,242.0,279.0,316.0,323.0,soft,6.0
0 days 01:11:53.828000,7,0 days 00:02:18.969000,17,"","",0 days 00:00:49.590000,0 days 00:00:50.133000,0 days 00:00:39.246000,174.0,79.0,316.0,269.0,soft,7.0
0 days 01:13:18.546000,7,0 days 00:01:24.718000,18,"","",0 days 00:00:27.636000,0 days 00:00:28.218000,0 days 00:00:28.864000,237.0,278.0,284.0,326.0,soft,8.0
0 days 01:15:10.329000,7,"",19,"",0 days 01:15:10.329000,0 days 00:00:39.012000,0 days 00:00:37.424000,"",90.0,244.0,"",241.0,soft,9.0
0 days 00:37:33.781000,6,0 days 00:02:08.529000,1,0 days 00:35:32.298000,"",0 days 00:00:58.304000,0 days 00:00:34.968000,0 days 00:00:35.257000,201.0,237.0,308.0,212.0,medium,1.0
0 days 00:38:59.569000,6,0 days 00:01:25.788000,2,"","",0 days 00:00:28.185000,0 days 00:00:28.863000,0 days 00:00:28.740000,239.0,273.0,313.0,319.0,medium,2.0
0 days 00:41:03.367000,6,0 days 00:02:03.798000,3,"","",0 days 00:00:39.617000,0 days 00:00:41.392000,0 days 00:00:42.789000,171.0,219.0,311.0,316.0,medium,3.0
0 days 00:42:28.507000,6,0 days 00:01:25.140000,4,"","",0 days 00:00:27.787000,0 days 00:00:28.607000,0 days 00:00:28.746000,242.0,272.0,314.0,321.0,medium,4.0
0 days 00:44:27.336000,6,0 days 00:01:58.829000,5,"","",0 days 00:00:38.364000,0 days 00:00:39.532000,0 days 00:00:40.933000,194.0,241.0,314.0,315.0,medium,5.0
0 days 00:45:51.835000,6,0 days 00:01:24.499000,6,"","",0 days 00:00:27.499000,0 days 00:00:28.553000,0 days 00:00:28.447000,240.0,272.0,313.0,325.0,medium,6.0
0 days 00:48:08.866000,6,0 days 00:02:17.031000,7,"","",0 days 00:00:42.969000,0 days 00:00:47.985000,0 days 00:00:46.077000,179.0,178.0,314.0,313.0,medium,7.0
0 days 00:59:47.737000,6,"",8,"",0 days 00:49:42.539000,0 days 00:00:28.144000,0 days 00:00:33.155000,"",225.0,250.0,"",323.0,medium,8.0
0 days 01:01:44.820000,6,0 days 00:01:57.083000,9,0 days 00:59:51.825000,"",0 days 00:00:38.990000,0 days 00:00:36.045000,0 days 00:00:42.048000,219.0,197.0,314.0,202.0,soft,1.0
0 days 01:03:50.410000,6,0 days 00:02:05.590000,10,"","",0 days 00:00:42.007000,0 days 00:00:44.019000,0 days 00:00:39.564000,185.0,198.0,314.0,325.0,soft,2.0
0 days 01:05:15.181000,6,0 days 00:01:24.771000,11,"","",0 days 00:00:27.731000,0 days 00:00:28.436000,0 days 00:00:28.604000,242.0,272.0,313.0,323.0,soft,3.0
0 days 01:07:46.729000,6,"",12,"",0 days 01:07:27.330000,0 days 00:00:39.860000,0 days 00:00:44.156000,0 days 00:01:07.539000,108.0,122.0,"",314.0,soft,4.0
0 days 01:09:56.430000,6,0 days 00:02:09.701000,13,0 days 01:07:52.534000,"",0 days 00:00:53.870000,0 days 00:00:34.375000,0 days 00:00:41.456000,209.0,222.0,308.0,215.0,soft,5.0
0 days 01:11:49.867000,6,0 days 00:01:53.437000,14,"","",0 days 00:00:38.069000,0 days 00:00:36.721000,0 days 00:00:38.647000,187.0,251.0,308.0,318.0,soft,6.0
0 days 01:13:41.575000,6,"",15,"",0 days 01:13:41.575000,0 days 00:00:35.789000,0 days 00:00:38.378000,"",205.0,234.0,"","",soft,7.0
0 days 00:37:20.093000,5,0 days 00:01:51.673000,1,0 days 00:35:31.151000,"",0 days 00:00:41.830000,0 days 00:00:35.789000,0 days 00:00:34.054000,208.0,110.0,309.0,176.0,medium,1.0
0 days 00:38:44.923000,5,0 days 00:01:24.830000,2,"","",0 days 00:00:27.731000,0 days 00:00:28.568000,0 days 00:00:28.531000,239.0,273.0,315.0,319.0,medium,2.0
0 days 00:40:58.801000,5,0 days 00:02:13.878000,3,"","",0 days 00:00:42.029000,0 days 00:00:47.721000,0 days 00:00:44.128000,175.0,170.0,309.0,283.0,medium,3.0
0 days 00:42:23.508000,5,0 days 00:01:24.707000,4,"","",0 days 00:00:27.587000,0 days 00:00:28.561000,0 days 00:00:28.559000,244.0,272.0,314.0,319.0,medium,4.0
0 days 00:44:46.719000,5,0 days 00:02:23.211000,5,"","",0 days 00:00:47.580000,0 days 00:00:50.089000,0 days 00:00:45.542000,79.0,187.0,245.0,299.0,medium,5.0
0 days 00:46:43.017000,5,0 days 00:01:56.298000,6,"","",0 days 00:00:40.078000,0 days 00:00:38.532000,0 days 00:00:37.688000,192.0,198.0,307.0,136.0,medium,6.0
0 days 00:48:07.586000,5,0 days 00:01:24.569000,7,"","",0 days 00:00:27.571000,0 days 00:00:28.555000,0 days 00:00:28.443000,244.0,271.0,311.0,316.0,medium,7.0
0 days 00:50:15.670000,5,0 days 00:02:08.084000,8,"",0 days 00:49:51.061000,0 days 00:00:37.296000,0 days 00:00:34.756000,0 days 00:00:56.032000,195.0,233.0,"",260.0,medium,8.0
0 days 00:52:13.970000,5,0 days 00:01:58.300000,9,0 days 00:50:18.407000,0 days 00:51:55.152000,0 days 00:00:37.585000,0 days 00:00:31.765000,0 days 00:00:48.950000,217.0,254.0,"",214.0,medium,9.0
0 days 01:02:46.103000,5,"",10,0 days 00:52:18.316000,0 days 00:54:15.498000,0 days 00:01:01.401000,0 days 00:00:31.400000,"",188.0,257.0,"",213.0,medium,10.0
0 days 01:04:46.310000,5,0 days 00:02:00.207000,11,0 days 01:02:48.859000,"",0 days 00:00:43.043000,0 days 00:00:37.675000,0 days 00:00:39.489000,166.0,217.0,307.0,173.0,soft,1.0
0 days 01:06:10.194000,5,0 days 00:01:23.884000,12,"","",0 days 00:00:27.476000,0 days 00:00:28.134000,0 days 00:00:28.274000,245.0,272.0,314.0,317.0,soft,2.0
0 days 01:08:18.091000,5,0 days 00:02:07.897000,13,"","",0 days 00:00:41.426000,0 days 00:00:42.196000,0 days 00:00:44.275000,154.0,185.0,234.0,301.0,soft,3.0
0 days 01:10:19.066000,5,0 days 00:02:00.975000,14,"","",0 days 00:00:40.802000,0 days 00:00:41.165000,0 days 00:00:39.008000,181.0,69.0,308.0,223.0,soft,4.0
0 days 01:11:43.042000,5,0 days 00:01:23.976000,15,"","",0 days 00:00:27.414000,0 days 00:00:28,0 days 00:00:28.562000,245.0,274.0,311.0,318.0,soft,5.0
0 days 01:13:49.677000,5,0 days 00:02:06.635000,16,"",0 days 01:13:32.050000,0 days 00:00:37.005000,0 days 00:00:39.390000,0 days 00:00:50.240000,171.0,233.0,"",247.0,soft,6.0
0 days 01:15:52.510000,5,"",17,0 days 01:13:55.066000,0 days 01:15:52.510000,0 days 00:00:57.253000,0 days 00:00:30.790000,"",184.0,259.0,"",217.0,soft,7.0
0 days 00:27:26.026000,4,0 days 00:02:11.318000,1,0 days 00:25:18.782000,"",0 days 00:00:57.913000,0 days 00:00:36.775000,0 days 00:00:36.630000,178.0,242.0,307.0,210.0,soft,1.0
0 days 00:28:51.715000,4,0 days 00:01:25.689000,2,"","",0 days 00:00:28.135000,0 days 00:00:28.665000,0 days 00:00:28.889000,242.0,273.0,312.0,317.0,soft,2.0
0 days 00:37:56.754000,4,"",3,"",0 days 00:30:55.270000,0 days 00:00:44.404000,0 days 00:00:43.505000,"",167.0,204.0,"",275.0,soft,3.0
0 days 00:39:45.711000,4,0 days 00:01:48.957000,4,0 days 00:37:59.786000,"",0 days 00:00:40.049000,0 days 00:00:34.096000,0 days 00:00:34.812000,209.0,241.0,310.0,195.0,soft,4.0
0 days 00:41:10.973000,4,0 days 00:01:25.262000,5,"","",0 days 00:00:27.617000,0 days 00:00:28.492000,0 days 00:00:29.153000,246.0,274.0,311.0,319.0,soft,5.0
0 days 00:43:15.675000,4,0 days 00:02:04.702000,6,"",0 days 00:42:42.811000,0 days 00:00:28.546000,0 days 00:00:28.914000,0 days 00:01:07.242000,237.0,237.0,"",317.0,soft,6.0
0 days 00:54:51.439000,4,"",7,0 days 00:43:18.569000,0 days 00:44:50.113000,0 days 00:00:34.931000,0 days 00:00:28.692000,"",237.0,273.0,"",194.0,soft,7.0
0 days 00:56:50.276000,4,0 days 00:01:58.837000,8,0 days 00:54:56.352000,"",0 days 00:00:43.584000,0 days 00:00:37.359000,0 days 00:00:37.894000,182.0,171.0,315.0,164.0,soft,1.0
0 days 00:58:17.441000,4,0 days 00:01:27.165000,9,"","",0 days 00:00:27.360000,0 days 00:00:28.119000,0 days 00:00:31.686000,249.0,276.0,272.0,323.0,soft,2.0
0 days 01:00:40.489000,4,0 days 00:02:23.048000,10,"","",0 days 00:00:49.178000,0 days 00:00:58.430000,0 days 00:00:35.440000,110.0,125.0,310.0,211.0,soft,3.0
0 days 01:02:04.842000,4,0 days 00:01:24.353000,11,"","",0 days 00:00:27.692000,0 days 00:00:28.252000,0 days 00:00:28.409000,244.0,273.0,312.0,318.0,soft,4.0
0 days 01:04:23.287000,4,0 days 00:02:18.445000,12,"","",0 days 00:00:45.122000,0 days 00:00:50.985000,0 days 00:00:42.338000,111.0,211.0,309.0,300.0,soft,5.0
0 days 01:05:47.182000,4,0 days 00:01:23.895000,13,"","",0 days 00:00:27.350000,0 days 00:00:28.271000,0 days 00:00:28.274000,246.0,273.0,309.0,318.0,soft,6.0
0 days 01:12:30.714000,4,"",14,"",0 days 01:07:20.561000,0 days 00:00:31.611000,0 days 00:00:30.526000,"",223.0,252.0,"",300.0,soft,7.0
0 days 01:14:41.639000,4,0 days 00:02:10.925000,15,0 days 01:12:34.658000,0 days 01:14:20.555000,0 days 00:00:50.432000,0 days 00:00:29.851000,0 days 00:00:50.642000,230.0,270.0,"",209.0,soft,8.0
0 days 01:16:45.835000,4,"",16,0 days 01:14:45.985000,0 days 01:16:45.835000,0 days 00:00:54.112000,0 days 00:00:34.372000,"",196.0,222.0,"","",soft,9.0
0 days 00:31:20.283000,77,0 days 00:02:06.046000,1,0 days 00:29:16.962000,"",0 days 00:00:49.412000,0 days 00:00:38.342000,0 days 00:00:38.292000,177.0,252.0,305.0,134.0,soft,1.0
0 days 00:32:44.302000,77,0 days 00:01:24.019000,2,"","",0 days 00:00:27.613000,0 days 00:00:27.957000,0 days 00:00:28.449000,239.0,271.0,309.0,313.0,soft,2.0
0 days 00:35:16.408000,77,"",3,"",0 days 00:34:56.609000,0 days 00:00:43.287000,0 days 00:00:45.122000,0 days 00:01:03.686000,145.0,179.0,"",277.0,soft,3.0
0 days 00:37:47.482000,77,"",4,0 days 00:35:20.343000,"",0 days 00:01:08.429000,0 days 00:00:40.768000,0 days 00:00:41.884000,159.0,242.0,309.0,215.0,soft,4.0
0 days 00:39:10.869000,77,0 days 00:01:23.387000,5,"","",0 days 00:00:27.252000,0 days 00:00:27.800000,0 days 00:00:28.335000,238.0,274.0,312.0,309.0,soft,5.0
0 days 00:43:02.411000,77,"",6,"",0 days 00:41:23.018000,0 days 00:00:45.764000,0 days 00:00:43.694000,"",180.0,96.0,"","",soft,6.0
0 days 00:45:11.319000,77,0 days 00:02:08.908000,7,0 days 00:43:07.047000,"",0 days 00:00:55.004000,0 days 00:00:37.873000,0 days 00:00:36.031000,157.0,208.0,311.0,158.0,soft,7.0
0 days 00:47:09.182000,77,0 days 00:01:57.863000,8,"","",0 days 00:00:38.412000,0 days 00:00:41.316000,0 days 00:00:38.135000,163.0,189.0,321.0,317.0,soft,8.0
0 days 00:48:31.755000,77,0 days 00:01:22.573000,9,"","",0 days 00:00:26.737000,0 days 00:00:27.800000,0 days 00:00:28.036000,246.0,275.0,313.0,325.0,soft,9.0
0 days 00:56:57.433000,77,"",10,"",0 days 00:50:20.823000,0 days 00:00:36.297000,0 days 00:00:37.083000,"",176.0,225.0,"",270.0,soft,10.0
0 days 00:59:07.700000,77,0 days 00:02:10.267000,11,0 days 00:57:00.189000,"",0 days 00:00:49.119000,0 days 00:00:40.158000,0 days 00:00:40.990000,160.0,246.0,304.0,138.0,soft,1.0
0 days 01:00:30.871000,77,0 days 00:01:23.171000,12,"","",0 days 00:00:27.063000,0 days 00:00:27.768000,0 days 00:00:28.340000,244.0,271.0,310.0,312.0,soft,2.0
0 days 01:02:41.720000,77,0 days 00:02:10.849000,13,"","",0 days 00:00:41.621000,0 days 00:00:47.173000,0 days 00:00:42.055000,174.0,174.0,233.0,307.0,soft,3.0
0 days 01:04:57.941000,77,0 days 00:02:16.221000,14,"","",0 days 00:00:45.204000,0 days 00:00:44.376000,0 days 00:00:46.641000,175.0,180.0,311.0,260.0,soft,4.0
0 days 01:06:20.251000,77,0 days 00:01:22.310000,15,"","",0 days 00:00:26.771000,0 days 00:00:27.637000,0 days 00:00:27.902000,253.0,273.0,319.0,319.0,soft,5.0
0 days 01:13:36.875000,77,"",16,"",0 days 01:08:16.447000,0 days 00:00:39.865000,0 days 00:00:36.020000,"",176.0,199.0,"",300.0,soft,6.0
0 days 01:15:42.617000,77,"",17,0 days 01:13:36.875000,0 days 01:15:42.617000,0 days 00:00:58.867000,0 days 00:00:38.989000,"",211.0,157.0,"",206.0,soft,7.0
0 days 00:32:33.054000,99,0 days 00:02:14.841000,1,0 days 00:30:20.944000,"",0 days 00:00:51.740000,0 days 00:00:43.569000,0 days 00:00:39.532000,137.0,145.0,313.0,190.0,soft,1.0
0 days 00:33:58.721000,99,0 days 00:01:25.667000,2,"","",0 days 00:00:28.541000,0 days 00:00:28.424000,0 days 00:00:28.702000,240.0,277.0,316.0,325.0,soft,2.0
0 days 00:36:43.244000,99,"",3,"",0 days 00:36:23.724000,0 days 00:00:50.445000,0 days 00:00:54.824000,0 days 00:00:59.214000,127.0,99.0,"",308.0,soft,3.0
0 days 00:39:15.496000,99,"",4,0 days 00:36:47.940000,"",0 days 00:00:59.337000,0 days 00:00:44.453000,0 days 00:00:48.490000,183.0,160.0,317.0,202.0,soft,4.0
0 days 00:40:40.384000,99,0 days 00:01:24.888000,5,"","",0 days 00:00:28.012000,0 days 00:00:28.498000,0 days 00:00:28.378000,246.0,278.0,313.0,327.0,soft,5.0
0 days 00:42:45.134000,99,0 days 00:02:04.750000,6,"","",0 days 00:00:43.009000,0 days 00:00:43.327000,0 days 00:00:38.414000,194.0,229.0,299.0,315.0,soft,6.0
0 days 00:44:11.688000,99,0 days 00:01:26.554000,7,"","",0 days 00:00:28.515000,0 days 00:00:28.752000,0 days 00:00:29.287000,243.0,277.0,300.0,304.0,soft,7.0
0 days 00:59:04.189000,99,"",8,"",0 days 00:45:47.940000,0 days 00:00:33.219000,0 days 00:00:33.326000,"",207.0,249.0,"",279.0,soft,8.0
0 days 01:01:11.579000,99,0 days 00:02:07.390000,9,0 days 00:59:06.877000,"",0 days 00:00:48.838000,0 days 00:00:41.210000,0 days 00:00:37.342000,102.0,141.0,313.0,185.0,soft,1.0
0 days 01:02:36.269000,99,0 days 00:01:24.690000,10,"","",0 days 00:00:27.706000,0 days 00:00:28.401000,0 days 00:00:28.583000,247.0,277.0,316.0,322.0,soft,2.0
0 days 01:04:55.334000,99,0 days 00:02:19.065000,11,"","",0 days 00:00:47.650000,0 days 00:00:44.638000,0 days 00:00:46.777000,150.0,140.0,217.0,321.0,soft,3.0
0 days 01:07:23.086000,99,0 days 00:02:27.752000,12,"","",0 days 00:00:51.620000,0 days 00:00:48.606000,0 days 00:00:47.526000,109.0,138.0,314.0,186.0,soft,4.0
0 days 01:08:47.888000,99,0 days 00:01:24.802000,13,"","",0 days 00:00:27.820000,0 days 00:00:28.394000,0 days 00:00:28.588000,246.0,277.0,319.0,324.0,soft,5.0
0 days 01:11:13.750000,99,0 days 00:02:25.862000,14,"","",0 days 00:00:48.264000,0 days 00:00:50.348000,0 days 00:00:47.250000,158.0,125.0,267.0,325.0,soft,6.0
0 days 01:13:24.499000,99,0 days 00:02:10.749000,15,"","",0 days 00:00:46.797000,0 days 00:00:43.616000,0 days 00:00:40.336000,153.0,147.0,314.0,175.0,soft,7.0
0 days 01:14:48.787000,99,0 days 00:01:24.288000,16,"","",0 days 00:00:27.627000,0 days 00:00:28.231000,0 days 00:00:28.430000,246.0,278.0,316.0,322.0,soft,8.0
0 days 01:16:33.304000,99,"",17,"",0 days 01:16:33.304000,0 days 00:00:32.796000,0 days 00:00:35.004000,"",204.0,224.0,"",319.0,soft,9.0
