2021-06-04 08:15:08	RISK OF RAIN FOR F1 FIRST PRACTICE SESSION IS 0%
2021-06-04 07:30:14	AIR TEMPERATURE 1 HOUR BEFORE P1 = 26 DEGREES
2021-06-04 08:15:08	RISK OF RAIN FOR F1 FIRST PRACTICE SESSION IS 0%
2021-06-04 08:30:00	GREEN LIGHT - PIT EXIT OPEN
2021-06-04 08:41:51	VIRTUAL SAFETY CAR DEPLOYED
2021-06-04 08:42:20	VIRTUAL SAFETY CAR ENDING
2021-06-04 08:42:31	TRACK CLEAR
2021-06-04 08:42:36	DRS ENABLED
2021-06-04 08:45:45	DOUBLE YELLOW IN TRACK SECTOR 6
2021-06-04 08:45:46	CLEAR IN TRACK SECTOR 6
2021-06-04 08:57:55	YELLOW IN TRACK SECTOR 6
2021-06-04 08:59:59	DOUBLE YELLOW IN TRACK SECTOR 6
2021-06-04 09:00:02	CLEAR IN TRACK SECTOR 6
2021-06-04 09:07:27	DOUBLE YELLOW IN TRACK SECTOR 18
2021-06-04 09:07:38	CLEAR IN TRACK SECTOR 18
2021-06-04 09:07:40	YELLOW IN TRACK SECTOR 18
2021-06-04 09:07:46	CLEAR IN TRACK SECTOR 18
2021-06-04 09:08:00	CAR 4 (NOR) SPUN AND CONTINUED AT TURN 16
2021-06-04 09:09:29	YELLOW IN TRACK SECTOR 15
2021-06-04 09:09:35	CLEAR IN TRACK SECTOR 15
2021-06-04 09:09:42	CAR 44 (HAM) OFF TRACK AND CONTINUED AT TURN 15
2021-06-04 09:12:18	YELLOW IN TRACK SECTOR 15
2021-06-04 09:12:24	CLEAR IN TRACK SECTOR 15
2021-06-04 09:12:36	CAR 22 (TSU) OFF TRACK AND CONTINUED AT TURN 15
2021-06-04 09:13:49	YELLOW IN TRACK SECTOR 15
2021-06-04 09:14:11	CLEAR IN TRACK SECTOR 15
2021-06-04 09:14:19	CAR 10 (GAS) OFF TRACK AND CONTINUED AT TURN 15
2021-06-04 09:26:55	YELLOW IN TRACK SECTOR 17
2021-06-04 09:27:02	CLEAR IN TRACK SECTOR 17
2021-06-04 09:27:12	CAR 9 (MAZ) SPUN AND CONTINUED AT TURN 16
2021-06-04 09:27:26	YELLOW IN TRACK SECTOR 15
2021-06-04 09:27:50	CLEAR IN TRACK SECTOR 15
2021-06-04 09:27:50	CAR 55 (SAI) OFF TRACK AND CONTINUED AT TURN 15
2021-06-04 09:28:14	YELLOW IN TRACK SECTOR 6
2021-06-04 09:28:52	YELLOW IN TRACK SECTOR 3
2021-06-04 09:29:00	CLEAR IN TRACK SECTOR 3
2021-06-04 09:29:15	DOUBLE YELLOW IN TRACK SECTOR 6
2021-06-04 09:29:17	CLEAR IN TRACK SECTOR 6
2021-06-04 09:29:19	CAR 47 (MSC) OFF TRACK AND CONTINUED AT TURN 4
2021-06-04 09:29:49	CAR 77 (BOT) OFF TRACK AND CONTINUED AT TURN 2
2021-06-04 09:30:00	CHEQUERED FLAG
2021-06-04 09:30:02	CAR 4 (NOR) OFF TRACK AND CONTINUED AT TURN 2
2021-06-04 09:30:27	YELLOW IN TRACK SECTOR 15
2021-06-04 09:30:33	CLEAR IN TRACK SECTOR 15
2021-06-04 09:30:40	CAR 22 (TSU) OFF TRACK AND CONTINUED AT TURN 15
