Time,DriverNumber,LapTime,LapNumber,PitOutTime,PitInTime,Sector1Time,Sector2Time,Sector3Time,SpeedI1,SpeedI2,SpeedFL,SpeedST,Compound,TyreLife
0 days 00:16:58.221000,3,"",1,0 days 00:15:03.928000,0 days 00:16:55.510000,"",0 days 00:00:38.459000,0 days 00:00:37.674000,200.0,230.0,"",218.0,hard,1.0
0 days 00:19:32.354000,3,"",2,0 days 00:17:37.888000,0 days 00:19:29.910000,0 days 00:01:17.628000,0 days 00:00:39.375000,0 days 00:00:37.132000,140.0,237.0,"",233.0,hard,2.0
0 days 00:28:24.027000,3,"",3,0 days 00:26:33.276000,"","",0 days 00:00:34.542000,0 days 00:00:39.883000,223.0,220.0,276.0,232.0,hard,3.0
0 days 00:29:50.657000,3,0 days 00:01:26.630000,4,"","",0 days 00:00:23.499000,0 days 00:00:32.854000,0 days 00:00:30.277000,268.0,270.0,281.0,317.0,hard,4.0
0 days 00:31:13.327000,3,0 days 00:01:22.670000,5,"","",0 days 00:00:22.960000,0 days 00:00:31.186000,0 days 00:00:28.524000,274.0,287.0,281.0,315.0,hard,5.0
0 days 00:32:46.852000,3,0 days 00:01:33.525000,6,"","",0 days 00:00:26.591000,0 days 00:00:36.275000,0 days 00:00:30.659000,251.0,261.0,281.0,297.0,hard,6.0
0 days 00:34:08.663000,3,0 days 00:01:21.811000,7,"","",0 days 00:00:22.890000,0 days 00:00:30.745000,0 days 00:00:28.176000,279.0,296.0,281.0,315.0,hard,7.0
0 days 00:35:48.429000,3,0 days 00:01:39.766000,8,"","",0 days 00:00:26.859000,0 days 00:00:39.700000,0 days 00:00:33.207000,240.0,251.0,281.0,299.0,hard,8.0
0 days 00:37:10.203000,3,0 days 00:01:21.774000,9,"","",0 days 00:00:22.727000,0 days 00:00:30.908000,0 days 00:00:28.139000,276.0,296.0,282.0,315.0,hard,9.0
0 days 00:38:51.145000,3,0 days 00:01:40.942000,10,"","",0 days 00:00:28.131000,0 days 00:00:40.396000,0 days 00:00:32.415000,220.0,256.0,281.0,300.0,hard,10.0
0 days 00:40:12.502000,3,0 days 00:01:21.357000,11,"","",0 days 00:00:22.645000,0 days 00:00:30.631000,0 days 00:00:28.081000,279.0,290.0,281.0,318.0,hard,11.0
0 days 00:41:52.818000,3,0 days 00:01:40.316000,12,"",0 days 00:41:50.156000,0 days 00:00:27.965000,0 days 00:00:36.749000,0 days 00:00:35.602000,205.0,273.0,"",300.0,hard,12.0
0 days 00:52:44.482000,3,"",13,0 days 00:51:00.861000,"","",0 days 00:00:39.213000,0 days 00:00:35.673000,131.0,274.0,274.0,233.0,soft,1.0
0 days 00:54:29.143000,3,0 days 00:01:44.661000,14,"","",0 days 00:00:28.272000,0 days 00:00:38.781000,0 days 00:00:37.608000,221.0,226.0,284.0,328.0,soft,2.0
0 days 00:55:48.875000,3,0 days 00:01:19.732000,15,"","",0 days 00:00:22.306000,0 days 00:00:29.934000,0 days 00:00:27.492000,283.0,302.0,287.0,320.0,soft,3.0
0 days 00:57:30.292000,3,0 days 00:01:41.417000,16,"","",0 days 00:00:30.770000,0 days 00:00:40.088000,0 days 00:00:30.559000,81.0,258.0,283.0,303.0,soft,4.0
0 days 01:06:17.289000,3,"",17,"",0 days 00:59:06.607000,0 days 00:00:22.329000,"","",282.0,"","",317.0,soft,5.0
0 days 01:08:10.016000,3,"",18,0 days 01:06:17.289000,"","",0 days 00:00:34.034000,0 days 00:00:30.807000,251.0,258.0,270.0,241.0,soft,6.0
0 days 01:09:34.357000,3,0 days 00:01:24.341000,19,"","",0 days 00:00:23.850000,0 days 00:00:31.802000,0 days 00:00:28.689000,272.0,275.0,270.0,292.0,soft,7.0
0 days 01:11:02.972000,3,0 days 00:01:28.615000,20,"",0 days 01:11:00.317000,0 days 00:00:23.926000,0 days 00:00:31.929000,0 days 00:00:32.760000,276.0,275.0,"",293.0,soft,8.0
0 days 01:13:01.787000,3,0 days 00:01:58.815000,21,0 days 01:11:33.350000,"",0 days 00:00:55.232000,0 days 00:00:33.297000,0 days 00:00:30.286000,265.0,273.0,271.0,191.0,soft,9.0
0 days 01:14:26.516000,3,0 days 00:01:24.729000,22,"","",0 days 00:00:23.837000,0 days 00:00:32.082000,0 days 00:00:28.810000,272.0,273.0,271.0,295.0,soft,10.0
0 days 01:15:50.644000,3,0 days 00:01:24.128000,23,"","",0 days 00:00:23.801000,0 days 00:00:31.651000,0 days 00:00:28.676000,"",279.0,270.0,292.0,soft,11.0
0 days 01:17:23.594000,3,0 days 00:01:32.950000,24,"",0 days 01:17:20.969000,0 days 00:00:23.845000,0 days 00:00:31.996000,0 days 00:00:37.109000,276.0,274.0,"",293.0,soft,12.0
0 days 00:16:56.766000,77,"",1,0 days 00:15:09.433000,"","",0 days 00:00:34.578000,0 days 00:00:29.970000,229.0,231.0,277.0,228.0,hard,1.0
0 days 00:18:18.665000,77,0 days 00:01:21.899000,2,"","",0 days 00:00:22.866000,0 days 00:00:30.934000,0 days 00:00:28.099000,273.0,275.0,280.0,313.0,hard,2.0
0 days 00:20:02.258000,77,0 days 00:01:43.593000,3,"","",0 days 00:00:28.624000,0 days 00:00:43.385000,0 days 00:00:31.584000,182.0,171.0,281.0,281.0,hard,3.0
0 days 00:21:23.647000,77,0 days 00:01:21.389000,4,"","",0 days 00:00:22.672000,0 days 00:00:30.615000,0 days 00:00:28.102000,278.0,283.0,284.0,319.0,hard,4.0
0 days 00:23:08.952000,77,0 days 00:01:45.305000,5,"","",0 days 00:00:25.851000,0 days 00:00:44.019000,0 days 00:00:35.435000,217.0,111.0,282.0,307.0,hard,5.0
0 days 00:24:29.959000,77,0 days 00:01:21.007000,6,"","",0 days 00:00:22.698000,0 days 00:00:30.591000,0 days 00:00:27.718000,279.0,290.0,282.0,318.0,hard,6.0
0 days 00:25:52.024000,77,0 days 00:01:22.065000,7,"","",0 days 00:00:23.137000,0 days 00:00:31.169000,0 days 00:00:27.759000,270.0,270.0,273.0,303.0,hard,7.0
0 days 00:27:14.017000,77,0 days 00:01:21.993000,8,"","",0 days 00:00:23.084000,0 days 00:00:31.065000,0 days 00:00:27.844000,276.0,277.0,272.0,297.0,hard,8.0
0 days 00:28:46.973000,77,0 days 00:01:32.956000,9,"","",0 days 00:00:23.113000,0 days 00:00:35.793000,0 days 00:00:34.050000,275.0,151.0,279.0,293.0,hard,9.0
0 days 00:30:07.680000,77,0 days 00:01:20.707000,10,"","",0 days 00:00:22.709000,0 days 00:00:30.381000,0 days 00:00:27.617000,273.0,295.0,281.0,315.0,hard,10.0
0 days 00:31:46.872000,77,0 days 00:01:39.192000,11,"",0 days 00:31:46.765000,0 days 00:00:28.352000,0 days 00:00:36.496000,0 days 00:00:34.344000,232.0,220.0,"",213.0,hard,11.0
0 days 00:46:17.153000,77,"",12,0 days 00:44:34.956000,"","",0 days 00:00:39.679000,0 days 00:00:31.893000,207.0,228.0,278.0,223.0,soft,1.0
0 days 00:47:51.797000,77,0 days 00:01:34.644000,13,"","",0 days 00:00:23.559000,0 days 00:00:38.867000,0 days 00:00:32.218000,214.0,204.0,279.0,314.0,soft,2.0
0 days 00:49:10.635000,77,0 days 00:01:18.838000,14,"","",0 days 00:00:22.261000,0 days 00:00:29.651000,0 days 00:00:26.926000,278.0,296.0,279.0,313.0,soft,3.0
0 days 00:51:34.906000,77,0 days 00:02:24.271000,15,"",0 days 00:51:33.517000,0 days 00:00:41.261000,0 days 00:00:54.652000,0 days 00:00:48.358000,108.0,198.0,"",173.0,soft,4.0
0 days 00:53:52.986000,77,0 days 00:02:18.080000,16,0 days 00:51:52.032000,"",0 days 00:01:03.883000,0 days 00:00:38.349000,0 days 00:00:35.848000,213.0,230.0,282.0,235.0,soft,5.0
0 days 00:55:11.490000,77,0 days 00:01:18.504000,17,"","",0 days 00:00:22.109000,0 days 00:00:29.514000,0 days 00:00:26.881000,280.0,296.0,280.0,318.0,soft,6.0
0 days 00:56:48.824000,77,0 days 00:01:37.334000,18,"",0 days 00:56:46.044000,0 days 00:00:26.453000,0 days 00:00:35.958000,0 days 00:00:34.923000,243.0,188.0,"",281.0,soft,7.0
0 days 01:07:57.498000,77,"",19,0 days 01:06:09.290000,"","",0 days 00:00:34.630000,0 days 00:00:38.569000,232.0,221.0,267.0,217.0,soft,8.0
0 days 01:09:21.340000,77,0 days 00:01:23.842000,20,"","",0 days 00:00:23.756000,0 days 00:00:31.635000,0 days 00:00:28.451000,272.0,277.0,278.0,298.0,soft,9.0
0 days 01:10:46.576000,77,0 days 00:01:25.236000,21,"","",0 days 00:00:23.675000,0 days 00:00:32.405000,0 days 00:00:29.156000,253.0,253.0,279.0,321.0,soft,10.0
0 days 01:12:14.836000,77,0 days 00:01:28.260000,22,"","",0 days 00:00:23.196000,0 days 00:00:31.580000,0 days 00:00:33.484000,268.0,271.0,262.0,323.0,soft,11.0
0 days 01:13:38.801000,77,0 days 00:01:23.965000,23,"","",0 days 00:00:23.944000,0 days 00:00:31.498000,0 days 00:00:28.523000,273.0,280.0,271.0,299.0,soft,12.0
0 days 01:15:03.340000,77,0 days 00:01:24.539000,24,"","",0 days 00:00:23.714000,0 days 00:00:31.788000,0 days 00:00:29.037000,267.0,270.0,272.0,301.0,soft,13.0
0 days 01:16:37.794000,77,0 days 00:01:34.454000,25,"",0 days 01:16:35.065000,0 days 00:00:26.139000,0 days 00:00:33.478000,0 days 00:00:34.837000,242.0,253.0,"",293.0,soft,14.0
0 days 00:18:08.821000,55,"",1,0 days 00:16:26.202000,"","",0 days 00:00:41.472000,0 days 00:00:34.587000,224.0,204.0,268.0,236.0,hard,1.0
0 days 00:19:43.246000,55,0 days 00:01:34.425000,2,"","",0 days 00:00:23.774000,0 days 00:00:34.263000,0 days 00:00:36.388000,268.0,262.0,268.0,290.0,hard,2.0
0 days 00:21:05.769000,55,0 days 00:01:22.523000,3,"","",0 days 00:00:23.432000,0 days 00:00:30.914000,0 days 00:00:28.177000,273.0,275.0,271.0,289.0,hard,3.0
0 days 00:22:59.497000,55,0 days 00:01:53.728000,4,"","",0 days 00:00:27.352000,0 days 00:00:49.511000,0 days 00:00:36.865000,165.0,176.0,277.0,292.0,hard,4.0
0 days 00:24:21.038000,55,0 days 00:01:21.541000,5,"","",0 days 00:00:23.059000,0 days 00:00:30.615000,0 days 00:00:27.867000,270.0,285.0,281.0,306.0,hard,5.0
0 days 00:26:03.337000,55,0 days 00:01:42.299000,6,"","",0 days 00:00:27.333000,0 days 00:00:41.577000,0 days 00:00:33.389000,195.0,221.0,276.0,296.0,hard,6.0
0 days 00:27:24.346000,55,0 days 00:01:21.009000,7,"","",0 days 00:00:22.892000,0 days 00:00:30.600000,0 days 00:00:27.517000,273.0,287.0,279.0,307.0,hard,7.0
0 days 00:29:07.688000,55,0 days 00:01:43.342000,8,"",0 days 00:29:05.024000,0 days 00:00:28.492000,0 days 00:00:39.425000,0 days 00:00:35.425000,200.0,230.0,"",289.0,hard,8.0
0 days 00:31:27.016000,55,0 days 00:02:19.328000,9,0 days 00:29:25.043000,0 days 00:31:24.883000,0 days 00:01:04.153000,0 days 00:00:39.527000,0 days 00:00:35.648000,177.0,213.0,"",239.0,hard,9.0
0 days 00:46:36.616000,55,"",10,0 days 00:45:05.156000,"","",0 days 00:00:34.122000,0 days 00:00:30.562000,230.0,251.0,266.0,235.0,hard,10.0
0 days 00:47:59.475000,55,0 days 00:01:22.859000,11,"","",0 days 00:00:23.507000,0 days 00:00:30.961000,0 days 00:00:28.391000,272.0,274.0,272.0,290.0,hard,11.0
0 days 00:49:22.728000,55,0 days 00:01:23.253000,12,"","",0 days 00:00:23.547000,0 days 00:00:31.301000,0 days 00:00:28.405000,270.0,275.0,271.0,297.0,hard,12.0
0 days 00:51:06.329000,55,0 days 00:01:43.601000,13,"","",0 days 00:00:28.218000,0 days 00:00:41.227000,0 days 00:00:34.156000,184.0,202.0,276.0,256.0,hard,13.0
0 days 00:52:26.867000,55,0 days 00:01:20.538000,14,"","",0 days 00:00:22.816000,0 days 00:00:30.291000,0 days 00:00:27.431000,273.0,288.0,277.0,307.0,hard,14.0
0 days 00:54:17.408000,55,0 days 00:01:50.541000,15,"","",0 days 00:00:32.362000,0 days 00:00:40.448000,0 days 00:00:37.731000,208.0,188.0,277.0,235.0,hard,15.0
0 days 00:55:45.714000,55,0 days 00:01:28.306000,16,"",0 days 00:55:42.847000,0 days 00:00:22.710000,0 days 00:00:30.284000,0 days 00:00:35.312000,273.0,289.0,"",309.0,hard,16.0
0 days 01:08:47.125000,55,"",17,0 days 01:07:01.304000,"","",0 days 00:00:39.151000,0 days 00:00:39.027000,210.0,203.0,280.0,233.0,medium,1.0
0 days 01:10:06.145000,55,0 days 00:01:19.020000,18,"","",0 days 00:00:22.400000,0 days 00:00:29.580000,0 days 00:00:27.040000,278.0,293.0,283.0,309.0,medium,2.0
0 days 01:12:11.029000,55,0 days 00:02:04.884000,19,"","",0 days 00:00:32.327000,0 days 00:00:48.927000,0 days 00:00:43.630000,170.0,140.0,277.0,284.0,medium,3.0
0 days 01:13:37.949000,55,0 days 00:01:26.920000,20,"",0 days 01:13:35.627000,0 days 00:00:22.464000,0 days 00:00:29.914000,0 days 00:00:34.542000,279.0,285.0,"",311.0,medium,4.0
0 days 01:15:56.361000,55,0 days 00:02:18.412000,21,0 days 01:13:54.224000,"",0 days 00:01:03.635000,0 days 00:00:41.160000,0 days 00:00:33.617000,167.0,106.0,268.0,243.0,medium,5.0
0 days 01:17:27.940000,55,0 days 00:01:31.579000,22,"",0 days 01:17:25.968000,0 days 00:00:23.538000,0 days 00:00:30.801000,0 days 00:00:37.240000,265.0,269.0,"",291.0,medium,6.0
0 days 00:17:10.370000,47,"",1,0 days 00:15:23.370000,"","",0 days 00:00:39.774000,0 days 00:00:38.282000,193.0,164.0,272.0,209.0,hard,1.0
0 days 00:18:38.152000,47,0 days 00:01:27.782000,2,"","",0 days 00:00:24.264000,0 days 00:00:33.293000,0 days 00:00:30.225000,243.0,255.0,279.0,316.0,hard,2.0
0 days 00:20:03.938000,47,0 days 00:01:25.786000,3,"","",0 days 00:00:23.348000,0 days 00:00:32.669000,0 days 00:00:29.769000,265.0,280.0,283.0,320.0,hard,3.0
0 days 00:21:28.115000,47,0 days 00:01:24.177000,4,"","",0 days 00:00:23.156000,0 days 00:00:31.920000,0 days 00:00:29.101000,274.0,285.0,283.0,327.0,hard,4.0
0 days 00:23:26.974000,47,0 days 00:01:58.859000,5,"","",0 days 00:00:31.302000,0 days 00:00:45.715000,0 days 00:00:41.842000,133.0,113.0,279.0,316.0,hard,5.0
0 days 00:24:51.715000,47,0 days 00:01:24.741000,6,"","",0 days 00:00:23.626000,0 days 00:00:32.194000,0 days 00:00:28.921000,250.0,278.0,283.0,318.0,hard,6.0
0 days 00:26:14.995000,47,0 days 00:01:23.280000,7,"","",0 days 00:00:22.918000,0 days 00:00:31.636000,0 days 00:00:28.726000,275.0,288.0,283.0,321.0,hard,7.0
0 days 00:27:39.165000,47,0 days 00:01:24.170000,8,"","",0 days 00:00:23.181000,0 days 00:00:31.914000,0 days 00:00:29.075000,276.0,281.0,282.0,322.0,hard,8.0
0 days 00:29:15.900000,47,0 days 00:01:36.735000,9,"",0 days 00:29:13.099000,0 days 00:00:24.017000,0 days 00:00:36.826000,0 days 00:00:35.892000,243.0,197.0,"",321.0,hard,9.0
0 days 00:44:28.846000,47,"",10,0 days 00:42:11.321000,"","",0 days 00:00:45.688000,0 days 00:00:39.339000,199.0,198.0,281.0,216.0,soft,1.0
0 days 00:45:50.644000,47,0 days 00:01:21.798000,11,"","",0 days 00:00:22.878000,0 days 00:00:30.958000,0 days 00:00:27.962000,275.0,291.0,282.0,317.0,soft,2.0
0 days 00:47:57.159000,47,0 days 00:02:06.515000,12,"","",0 days 00:00:37.205000,0 days 00:00:50.391000,0 days 00:00:38.919000,133.0,217.0,282.0,223.0,soft,3.0
0 days 00:49:18.079000,47,0 days 00:01:20.920000,13,"","",0 days 00:00:22.657000,0 days 00:00:30.592000,0 days 00:00:27.671000,277.0,293.0,283.0,319.0,soft,4.0
0 days 00:51:22.701000,47,0 days 00:02:04.622000,14,"","",0 days 00:00:32.813000,0 days 00:00:53.092000,0 days 00:00:38.717000,105.0,240.0,283.0,303.0,soft,5.0
0 days 00:52:43.467000,47,0 days 00:01:20.766000,15,"","",0 days 00:00:22.499000,0 days 00:00:30.384000,0 days 00:00:27.883000,278.0,297.0,279.0,320.0,soft,6.0
0 days 00:54:28.391000,47,0 days 00:01:44.924000,16,"",0 days 00:54:25.608000,0 days 00:00:26.618000,0 days 00:00:36.773000,0 days 00:00:41.533000,244.0,197.0,"",323.0,soft,7.0
0 days 01:08:16.564000,47,"",17,0 days 01:06:22.363000,"","",0 days 00:00:33.924000,0 days 00:00:30.307000,243.0,263.0,270.0,239.0,hard,10.0
0 days 01:09:43.807000,47,0 days 00:01:27.243000,18,"","",0 days 00:00:24.517000,0 days 00:00:32.804000,0 days 00:00:29.922000,270.0,261.0,272.0,299.0,hard,11.0
0 days 01:11:10.759000,47,0 days 00:01:26.952000,19,"","",0 days 00:00:24.411000,0 days 00:00:32.822000,0 days 00:00:29.719000,265.0,268.0,272.0,"",hard,12.0
0 days 01:12:38.252000,47,0 days 00:01:27.493000,20,"","",0 days 00:00:24.603000,0 days 00:00:33.154000,0 days 00:00:29.736000,259.0,259.0,271.0,"",hard,13.0
0 days 01:14:05.401000,47,0 days 00:01:27.149000,21,"","",0 days 00:00:24.545000,0 days 00:00:32.910000,0 days 00:00:29.694000,255.0,270.0,272.0,298.0,hard,14.0
0 days 01:15:32.559000,47,0 days 00:01:27.158000,22,"","",0 days 00:00:24.710000,0 days 00:00:32.866000,0 days 00:00:29.582000,263.0,265.0,272.0,301.0,hard,15.0
0 days 01:17:19.343000,47,0 days 00:01:46.784000,23,"",0 days 01:17:16.516000,0 days 00:00:24.216000,0 days 00:00:36.982000,0 days 00:00:45.586000,269.0,197.0,"",302.0,hard,16.0
0 days 00:17:38.502000,45,"",1,0 days 00:15:46.510000,"","",0 days 00:00:41.592000,0 days 00:00:39.614000,184.0,165.0,272.0,232.0,hard,1.0
0 days 00:19:06.682000,45,0 days 00:01:28.180000,2,"","",0 days 00:00:24.219000,0 days 00:00:34.188000,0 days 00:00:29.773000,243.0,251.0,279.0,317.0,hard,2.0
0 days 00:20:31.377000,45,0 days 00:01:24.695000,3,"","",0 days 00:00:23.460000,0 days 00:00:31.596000,0 days 00:00:29.639000,264.0,285.0,280.0,312.0,hard,3.0
0 days 00:22:13.384000,45,0 days 00:01:42.007000,4,"","",0 days 00:00:27.673000,0 days 00:00:40.974000,0 days 00:00:33.360000,151.0,215.0,281.0,299.0,hard,4.0
0 days 00:23:37.914000,45,0 days 00:01:24.530000,5,"","",0 days 00:00:23.186000,0 days 00:00:31.645000,0 days 00:00:29.699000,263.0,285.0,282.0,319.0,hard,5.0
0 days 00:25:24.733000,45,0 days 00:01:46.819000,6,"","",0 days 00:00:28.910000,0 days 00:00:39.174000,0 days 00:00:38.735000,195.0,172.0,287.0,302.0,hard,6.0
0 days 00:26:47.704000,45,0 days 00:01:22.971000,7,"","",0 days 00:00:22.778000,0 days 00:00:31.383000,0 days 00:00:28.810000,261.0,279.0,287.0,324.0,hard,7.0
0 days 00:28:38.327000,45,0 days 00:01:50.623000,8,"",0 days 00:28:35.672000,0 days 00:00:27.514000,0 days 00:00:41.104000,0 days 00:00:42.005000,194.0,222.0,"",303.0,hard,8.0
0 days 00:48:16.039000,45,"",9,0 days 00:46:30.189000,"","",0 days 00:00:36.957000,0 days 00:00:38.344000,181.0,213.0,281.0,229.0,soft,1.0
0 days 00:49:37.579000,45,0 days 00:01:21.540000,10,"","",0 days 00:00:22.762000,0 days 00:00:30.916000,0 days 00:00:27.862000,273.0,281.0,281.0,320.0,soft,2.0
0 days 00:51:26.550000,45,0 days 00:01:48.971000,11,"","",0 days 00:00:29.928000,0 days 00:00:43.850000,0 days 00:00:35.193000,139.0,211.0,283.0,301.0,soft,3.0
0 days 00:52:47.690000,45,0 days 00:01:21.140000,12,"","",0 days 00:00:22.493000,0 days 00:00:30.618000,0 days 00:00:28.029000,272.0,285.0,284.0,322.0,soft,4.0
0 days 00:54:41.100000,45,0 days 00:01:53.410000,13,"","",0 days 00:00:27.249000,0 days 00:00:49.842000,0 days 00:00:36.319000,197.0,78.0,282.0,313.0,soft,5.0
0 days 00:56:01.800000,45,0 days 00:01:20.700000,14,"","",0 days 00:00:22.450000,0 days 00:00:30.428000,0 days 00:00:27.822000,278.0,296.0,283.0,319.0,soft,6.0
0 days 00:57:48.133000,45,0 days 00:01:46.333000,15,"",0 days 00:57:48.233000,0 days 00:00:27.187000,0 days 00:00:42.780000,0 days 00:00:36.366000,188.0,225.0,"",311.0,soft,7.0
0 days 01:07:47.451000,45,"",16,0 days 01:06:13.731000,"","",0 days 00:00:35.051000,0 days 00:00:33.238000,222.0,188.0,278.0,238.0,soft,8.0
0 days 01:09:12.710000,45,0 days 00:01:25.259000,17,"","",0 days 00:00:23.865000,0 days 00:00:32.386000,0 days 00:00:29.008000,256.0,255.0,272.0,308.0,soft,9.0
0 days 01:10:37.709000,45,0 days 00:01:24.999000,18,"","",0 days 00:00:23.966000,0 days 00:00:32.192000,0 days 00:00:28.841000,"",265.0,273.0,300.0,soft,10.0
0 days 01:12:03.339000,45,0 days 00:01:25.630000,19,"","",0 days 00:00:23.780000,0 days 00:00:32.095000,0 days 00:00:29.755000,261.0,278.0,282.0,303.0,soft,11.0
0 days 01:13:28.957000,45,0 days 00:01:25.618000,20,"","",0 days 00:00:23.768000,0 days 00:00:32.531000,0 days 00:00:29.319000,266.0,269.0,272.0,330.0,soft,12.0
0 days 01:14:55.185000,45,0 days 00:01:26.228000,21,"","",0 days 00:00:23.987000,0 days 00:00:32.565000,0 days 00:00:29.676000,268.0,264.0,274.0,301.0,soft,13.0
0 days 01:16:21.234000,45,0 days 00:01:26.049000,22,"","",0 days 00:00:24.168000,0 days 00:00:32.332000,0 days 00:00:29.549000,263.0,267.0,278.0,292.0,soft,14.0
0 days 01:18:07.267000,45,0 days 00:01:46.033000,23,"",0 days 01:18:03.980000,0 days 00:00:28.476000,0 days 00:00:36.408000,0 days 00:00:41.149000,188.0,231.0,"",264.0,soft,15.0
0 days 00:17:47.272000,44,"",1,0 days 00:15:38.407000,"","",0 days 00:00:35.876000,0 days 00:00:42.289000,200.0,197.0,275.0,221.0,hard,1.0
0 days 00:19:15.070000,44,0 days 00:01:27.798000,2,"","",0 days 00:00:23.277000,0 days 00:00:33.257000,0 days 00:00:31.264000,272.0,275.0,278.0,313.0,hard,2.0
0 days 00:20:36.084000,44,0 days 00:01:21.014000,3,"","",0 days 00:00:22.724000,0 days 00:00:30.509000,0 days 00:00:27.781000,275.0,293.0,279.0,314.0,hard,3.0
0 days 00:22:18.755000,44,0 days 00:01:42.671000,4,"","",0 days 00:00:27.687000,0 days 00:00:43.516000,0 days 00:00:31.468000,169.0,246.0,281.0,300.0,hard,4.0
0 days 00:23:39.234000,44,0 days 00:01:20.479000,5,"","",0 days 00:00:22.513000,0 days 00:00:30.212000,0 days 00:00:27.754000,281.0,300.0,285.0,318.0,hard,5.0
0 days 00:25:17.228000,44,0 days 00:01:37.994000,6,"","",0 days 00:00:26.399000,0 days 00:00:39.364000,0 days 00:00:32.231000,188.0,222.0,281.0,307.0,hard,6.0
0 days 00:26:36.903000,44,0 days 00:01:19.675000,7,"","",0 days 00:00:22.471000,0 days 00:00:29.947000,0 days 00:00:27.257000,281.0,301.0,282.0,318.0,hard,7.0
0 days 00:28:31.055000,44,0 days 00:01:54.152000,8,"","",0 days 00:00:32.457000,0 days 00:00:44.619000,0 days 00:00:37.076000,112.0,195.0,282.0,302.0,hard,8.0
0 days 00:30:08.624000,44,0 days 00:01:37.569000,9,"",0 days 00:30:05.888000,0 days 00:00:27.291000,0 days 00:00:36.388000,0 days 00:00:33.890000,217.0,227.0,"",320.0,hard,9.0
0 days 00:46:07.311000,44,"",10,0 days 00:44:30.458000,"","",0 days 00:00:33.361000,0 days 00:00:33.842000,214.0,259.0,280.0,160.0,soft,1.0
0 days 00:47:26.119000,44,0 days 00:01:18.808000,11,"","",0 days 00:00:22.320000,0 days 00:00:29.604000,0 days 00:00:26.884000,282.0,298.0,282.0,316.0,soft,2.0
0 days 00:49:31.344000,44,0 days 00:02:05.225000,12,"",0 days 00:49:28.584000,0 days 00:00:31.137000,0 days 00:00:48.262000,0 days 00:00:45.826000,171.0,191.0,"",287.0,soft,3.0
0 days 00:51:42.739000,44,0 days 00:02:11.395000,13,0 days 00:49:56.729000,"",0 days 00:00:55.070000,0 days 00:00:40.446000,0 days 00:00:35.879000,219.0,192.0,282.0,225.0,soft,4.0
0 days 00:53:01.366000,44,0 days 00:01:18.627000,14,"","",0 days 00:00:22.084000,0 days 00:00:29.707000,0 days 00:00:26.836000,282.0,298.0,281.0,319.0,soft,5.0
0 days 00:54:37.395000,44,0 days 00:01:36.029000,15,"",0 days 00:54:36.096000,0 days 00:00:27.594000,0 days 00:00:35.599000,0 days 00:00:32.836000,227.0,213.0,"",212.0,soft,6.0
0 days 01:08:05.492000,44,"",16,0 days 01:06:11.586000,"","",0 days 00:00:33.835000,0 days 00:00:30.401000,234.0,221.0,269.0,219.0,soft,7.0
0 days 01:09:28.822000,44,0 days 00:01:23.330000,17,"","",0 days 00:00:23.627000,0 days 00:00:31.508000,0 days 00:00:28.195000,269.0,277.0,269.0,298.0,soft,8.0
0 days 01:10:52.528000,44,0 days 00:01:23.706000,18,"","",0 days 00:00:23.634000,0 days 00:00:31.551000,0 days 00:00:28.521000,"",272.0,269.0,300.0,soft,9.0
0 days 01:12:16.071000,44,0 days 00:01:23.543000,19,"","",0 days 00:00:23.460000,0 days 00:00:31.499000,0 days 00:00:28.584000,272.0,270.0,271.0,301.0,soft,10.0
0 days 01:13:43.407000,44,0 days 00:01:27.336000,20,"","",0 days 00:00:23.540000,0 days 00:00:32.019000,0 days 00:00:31.777000,276.0,235.0,271.0,306.0,soft,11.0
0 days 01:15:07.139000,44,0 days 00:01:23.732000,21,"","",0 days 00:00:23.542000,0 days 00:00:31.604000,0 days 00:00:28.586000,"",273.0,271.0,302.0,soft,12.0
0 days 01:17:08.561000,44,0 days 00:02:01.422000,22,"",0 days 01:17:05.940000,0 days 00:00:26.001000,0 days 00:01:02.860000,0 days 00:00:32.561000,175.0,254.0,"",296.0,soft,13.0
0 days 00:21:55.195000,33,"",1,0 days 00:20:22.998000,"","",0 days 00:00:34.810000,0 days 00:00:32.171000,246.0,233.0,278.0,226.0,hard,1.0
0 days 00:23:15.600000,33,0 days 00:01:20.405000,2,"","",0 days 00:00:22.689000,0 days 00:00:30.069000,0 days 00:00:27.647000,276.0,286.0,283.0,309.0,hard,2.0
0 days 00:25:10.773000,33,0 days 00:01:55.173000,3,"","",0 days 00:00:30.886000,0 days 00:00:49.758000,0 days 00:00:34.529000,160.0,205.0,279.0,284.0,hard,3.0
0 days 00:26:30.860000,33,0 days 00:01:20.087000,4,"","",0 days 00:00:22.557000,0 days 00:00:30.203000,0 days 00:00:27.327000,277.0,294.0,280.0,310.0,hard,4.0
0 days 00:28:19.705000,33,0 days 00:01:48.845000,5,"","",0 days 00:00:32.219000,0 days 00:00:40.654000,0 days 00:00:35.972000,176.0,256.0,280.0,258.0,hard,5.0
0 days 00:29:39.768000,33,0 days 00:01:20.063000,6,"","",0 days 00:00:22.627000,0 days 00:00:30.125000,0 days 00:00:27.311000,277.0,296.0,281.0,311.0,hard,6.0
0 days 00:31:21.317000,33,0 days 00:01:41.549000,7,"",0 days 00:31:20.388000,0 days 00:00:24.526000,0 days 00:00:35.582000,0 days 00:00:41.441000,231.0,185.0,"",287.0,hard,7.0
0 days 00:45:20.522000,33,"",8,0 days 00:43:32.898000,"","",0 days 00:00:37.427000,0 days 00:00:31.485000,238.0,247.0,279.0,231.0,hard,8.0
0 days 00:46:40.905000,33,0 days 00:01:20.383000,9,"","",0 days 00:00:22.689000,0 days 00:00:30.310000,0 days 00:00:27.384000,276.0,294.0,279.0,310.0,hard,9.0
0 days 00:48:21.384000,33,0 days 00:01:40.479000,10,"","",0 days 00:00:25.902000,0 days 00:00:38.057000,0 days 00:00:36.520000,220.0,190.0,282.0,281.0,hard,10.0
0 days 00:49:54.984000,33,0 days 00:01:33.600000,11,"","",0 days 00:00:24.101000,0 days 00:00:35.234000,0 days 00:00:34.265000,157.0,213.0,279.0,318.0,hard,11.0
0 days 00:51:14.903000,33,0 days 00:01:19.919000,12,"","",0 days 00:00:22.487000,0 days 00:00:30.090000,0 days 00:00:27.342000,279.0,290.0,282.0,311.0,hard,12.0
0 days 00:52:45.222000,33,0 days 00:01:30.319000,13,"",0 days 00:52:43.491000,0 days 00:00:24.549000,0 days 00:00:32.192000,0 days 00:00:33.578000,245.0,254.0,"",282.0,hard,13.0
0 days 01:09:00.003000,33,"",14,0 days 01:07:05.029000,"","",0 days 00:00:40.239000,0 days 00:00:45.697000,223.0,269.0,279.0,239.0,soft,1.0
0 days 01:10:29.730000,33,0 days 00:01:29.727000,15,"","",0 days 00:00:22.217000,0 days 00:00:34.169000,0 days 00:00:33.341000,283.0,177.0,281.0,314.0,soft,2.0
0 days 01:11:48.267000,33,0 days 00:01:18.537000,16,"","",0 days 00:00:22.179000,0 days 00:00:29.474000,0 days 00:00:26.884000,281.0,299.0,274.0,311.0,soft,3.0
0 days 01:13:59.716000,33,0 days 00:02:11.449000,17,"","",0 days 00:00:40.001000,0 days 00:00:54.837000,0 days 00:00:36.611000,61.0,148.0,278.0,280.0,soft,4.0
0 days 01:15:18.394000,33,0 days 00:01:18.678000,18,"","",0 days 00:00:22.307000,0 days 00:00:29.585000,0 days 00:00:26.786000,279.0,297.0,279.0,309.0,soft,5.0
0 days 01:16:53.119000,33,0 days 00:01:34.725000,19,"",0 days 01:16:50.458000,0 days 00:00:25.900000,0 days 00:00:33.460000,0 days 00:00:35.365000,210.0,207.0,"",273.0,soft,6.0
0 days 00:17:16.134000,31,"",1,0 days 00:15:33.262000,"","",0 days 00:00:35.929000,0 days 00:00:37.316000,228.0,226.0,265.0,205.0,hard,1.0
0 days 00:18:41.036000,31,0 days 00:01:24.902000,2,"","",0 days 00:00:24.135000,0 days 00:00:32.032000,0 days 00:00:28.735000,262.0,269.0,269.0,293.0,hard,2.0
0 days 00:20:04.959000,31,0 days 00:01:23.923000,3,"","",0 days 00:00:23.678000,0 days 00:00:31.228000,0 days 00:00:29.017000,267.0,264.0,275.0,296.0,hard,3.0
0 days 00:21:28.884000,31,0 days 00:01:23.925000,4,"","",0 days 00:00:23.430000,0 days 00:00:31.579000,0 days 00:00:28.916000,269.0,275.0,276.0,305.0,hard,4.0
0 days 00:23:14.155000,31,0 days 00:01:45.271000,5,"",0 days 00:23:11.535000,0 days 00:00:27.794000,0 days 00:00:37.673000,0 days 00:00:39.804000,238.0,105.0,"",274.0,hard,5.0
0 days 00:32:37.327000,31,"",6,0 days 00:30:52.095000,"","",0 days 00:00:33.586000,0 days 00:00:29.881000,250.0,248.0,270.0,226.0,hard,6.0
0 days 00:34:00.001000,31,0 days 00:01:22.674000,7,"","",0 days 00:00:23.639000,0 days 00:00:31.120000,0 days 00:00:27.915000,268.0,271.0,268.0,292.0,hard,7.0
0 days 00:35:22.501000,31,0 days 00:01:22.500000,8,"","",0 days 00:00:23.566000,0 days 00:00:31.067000,0 days 00:00:27.867000,267.0,281.0,269.0,290.0,hard,8.0
0 days 00:36:44.909000,31,0 days 00:01:22.408000,9,"","",0 days 00:00:23.499000,0 days 00:00:31.064000,0 days 00:00:27.845000,265.0,271.0,276.0,289.0,hard,9.0
0 days 00:38:06.736000,31,0 days 00:01:21.827000,10,"","",0 days 00:00:23.060000,0 days 00:00:30.984000,0 days 00:00:27.783000,266.0,284.0,280.0,307.0,hard,10.0
0 days 00:39:49.755000,31,0 days 00:01:43.019000,11,"","",0 days 00:00:26.634000,0 days 00:00:40.130000,0 days 00:00:36.255000,170.0,195.0,275.0,314.0,hard,11.0
0 days 00:41:11.391000,31,0 days 00:01:21.636000,12,"","",0 days 00:00:22.971000,0 days 00:00:30.901000,0 days 00:00:27.764000,271.0,286.0,276.0,310.0,hard,12.0
0 days 00:42:33.170000,31,0 days 00:01:21.779000,13,"","",0 days 00:00:22.994000,0 days 00:00:31.017000,0 days 00:00:27.768000,267.0,284.0,277.0,307.0,hard,13.0
0 days 00:44:16.050000,31,0 days 00:01:42.880000,14,"","",0 days 00:00:28.174000,0 days 00:00:42.039000,0 days 00:00:32.667000,160.0,203.0,277.0,294.0,hard,14.0
0 days 00:45:37.291000,31,0 days 00:01:21.241000,15,"","",0 days 00:00:22.844000,0 days 00:00:30.787000,0 days 00:00:27.610000,272.0,287.0,277.0,310.0,hard,15.0
0 days 00:47:32.040000,31,0 days 00:01:54.749000,16,"","",0 days 00:00:30.244000,0 days 00:00:45.200000,0 days 00:00:39.305000,138.0,152.0,276.0,291.0,hard,16.0
0 days 00:48:53.518000,31,0 days 00:01:21.478000,17,"","",0 days 00:00:22.932000,0 days 00:00:30.834000,0 days 00:00:27.712000,269.0,289.0,277.0,311.0,hard,17.0
0 days 00:50:32.222000,31,0 days 00:01:38.704000,18,"",0 days 00:50:32.181000,0 days 00:00:25.438000,0 days 00:00:38.109000,0 days 00:00:35.157000,209.0,195.0,"",290.0,hard,18.0
0 days 01:07:53.116000,31,"",19,0 days 01:06:04.359000,"","",0 days 00:00:40.050000,0 days 00:00:35.432000,174.0,243.0,279.0,208.0,soft,1.0
0 days 01:09:13.072000,31,0 days 00:01:19.956000,20,"","",0 days 00:00:22.589000,0 days 00:00:29.936000,0 days 00:00:27.431000,281.0,297.0,285.0,314.0,soft,2.0
0 days 01:11:09.887000,31,0 days 00:01:56.815000,21,"","",0 days 00:00:34.189000,0 days 00:00:44.723000,0 days 00:00:37.903000,168.0,154.0,188.0,203.0,soft,3.0
0 days 01:13:14.025000,31,0 days 00:02:04.138000,22,"","",0 days 00:00:35.542000,0 days 00:00:48.845000,0 days 00:00:39.751000,110.0,136.0,240.0,185.0,soft,4.0
0 days 01:14:52.733000,31,0 days 00:01:38.708000,23,"","",0 days 00:00:28.297000,0 days 00:00:36.466000,0 days 00:00:33.945000,236.0,207.0,276.0,253.0,soft,5.0
0 days 01:16:12.414000,31,0 days 00:01:19.681000,24,"","",0 days 00:00:22.548000,0 days 00:00:29.951000,0 days 00:00:27.182000,277.0,298.0,278.0,312.0,soft,6.0
0 days 01:17:49.162000,31,0 days 00:01:36.748000,25,"",0 days 01:17:46.428000,0 days 00:00:26.095000,0 days 00:00:37.268000,0 days 00:00:33.385000,203.0,191.0,"",296.0,soft,7.0
0 days 00:17:06.770000,22,"",1,0 days 00:15:13.484000,0 days 00:17:04.134000,"",0 days 00:00:38.624000,0 days 00:00:39.602000,206.0,180.0,"",211.0,hard,1.0
0 days 00:19:47.035000,22,"",2,0 days 00:17:48.235000,0 days 00:19:44.918000,0 days 00:01:17.518000,0 days 00:00:39.995000,0 days 00:00:42.846000,114.0,194.0,"",202.0,hard,2.0
0 days 00:34:32.486000,22,"",3,0 days 00:32:55.318000,"","",0 days 00:00:37.638000,0 days 00:00:32.448000,208.0,229.0,277.0,228.0,hard,3.0
0 days 00:35:55.468000,22,0 days 00:01:22.982000,4,"","",0 days 00:00:23.231000,0 days 00:00:31.228000,0 days 00:00:28.523000,276.0,279.0,281.0,308.0,hard,4.0
0 days 00:37:38.165000,22,0 days 00:01:42.697000,5,"","",0 days 00:00:29.450000,0 days 00:00:40.534000,0 days 00:00:32.713000,142.0,186.0,281.0,311.0,hard,5.0
0 days 00:38:59.858000,22,0 days 00:01:21.693000,6,"","",0 days 00:00:22.914000,0 days 00:00:30.656000,0 days 00:00:28.123000,277.0,289.0,281.0,"",hard,6.0
0 days 00:40:44.278000,22,0 days 00:01:44.420000,7,"","",0 days 00:00:28.612000,0 days 00:00:42.665000,0 days 00:00:33.143000,180.0,227.0,280.0,298.0,hard,7.0
0 days 00:42:05.265000,22,0 days 00:01:20.987000,8,"","",0 days 00:00:22.654000,0 days 00:00:30.432000,0 days 00:00:27.901000,279.0,295.0,282.0,311.0,hard,8.0
0 days 00:43:52.206000,22,0 days 00:01:46.941000,9,"","",0 days 00:00:28.901000,0 days 00:00:42.735000,0 days 00:00:35.305000,207.0,197.0,280.0,294.0,hard,9.0
0 days 00:45:14.353000,22,0 days 00:01:22.147000,10,"","",0 days 00:00:22.636000,0 days 00:00:30.347000,0 days 00:00:29.164000,282.0,297.0,280.0,310.0,hard,10.0
0 days 00:47:03.571000,22,0 days 00:01:49.218000,11,"",0 days 00:46:59.446000,0 days 00:00:29.538000,0 days 00:00:38.797000,0 days 00:00:40.883000,196.0,203.0,"",296.0,hard,11.0
0 days 00:54:53.752000,22,"",12,0 days 00:53:10.114000,"","",0 days 00:00:38.430000,0 days 00:00:36.189000,227.0,204.0,281.0,208.0,soft,1.0
0 days 00:56:13.421000,22,0 days 00:01:19.669000,13,"","",0 days 00:00:22.325000,0 days 00:00:29.809000,0 days 00:00:27.535000,282.0,300.0,283.0,314.0,soft,2.0
0 days 00:58:02.468000,22,0 days 00:01:49.047000,14,"","",0 days 00:00:30.097000,0 days 00:00:41.426000,0 days 00:00:37.524000,175.0,202.0,236.0,302.0,soft,3.0
0 days 01:06:44.523000,22,"",15,"",0 days 00:59:56.300000,"","","","","","",267.0,soft,4.0
0 days 01:08:39.635000,22,"",16,0 days 01:06:44.523000,"","",0 days 00:00:34.496000,0 days 00:00:30.017000,231.0,204.0,267.0,237.0,soft,5.0
0 days 01:10:04.105000,22,0 days 00:01:24.470000,17,"","",0 days 00:00:23.802000,0 days 00:00:31.887000,0 days 00:00:28.781000,277.0,271.0,270.0,292.0,soft,6.0
0 days 01:11:28.723000,22,0 days 00:01:24.618000,18,"","",0 days 00:00:23.813000,0 days 00:00:31.819000,0 days 00:00:28.986000,271.0,277.0,271.0,293.0,soft,7.0
0 days 01:12:53.269000,22,0 days 00:01:24.546000,19,"","",0 days 00:00:23.687000,0 days 00:00:31.809000,0 days 00:00:29.050000,"",280.0,267.0,301.0,soft,8.0
0 days 01:14:17.920000,22,0 days 00:01:24.651000,20,"","",0 days 00:00:23.772000,0 days 00:00:31.823000,0 days 00:00:29.056000,273.0,277.0,266.0,294.0,soft,9.0
0 days 01:15:42.631000,22,0 days 00:01:24.711000,21,"","",0 days 00:00:23.966000,0 days 00:00:31.830000,0 days 00:00:28.915000,253.0,278.0,266.0,292.0,soft,10.0
0 days 01:17:22.550000,22,0 days 00:01:39.919000,22,"",0 days 01:17:20.824000,0 days 00:00:24.340000,0 days 00:00:32.131000,0 days 00:00:43.448000,271.0,171.0,"",290.0,soft,11.0
0 days 00:18:01.340000,18,"",1,0 days 00:16:27.655000,"","",0 days 00:00:34.316000,0 days 00:00:33.910000,202.0,217.0,278.0,239.0,hard,1.0
0 days 00:19:35.325000,18,0 days 00:01:33.985000,2,"","",0 days 00:00:23.207000,0 days 00:00:34.371000,0 days 00:00:36.407000,270.0,199.0,279.0,317.0,hard,2.0
0 days 00:20:58.685000,18,0 days 00:01:23.360000,3,"","",0 days 00:00:23.088000,0 days 00:00:31.422000,0 days 00:00:28.850000,272.0,258.0,280.0,316.0,hard,3.0
0 days 00:22:21.277000,18,0 days 00:01:22.592000,4,"","",0 days 00:00:22.920000,0 days 00:00:31.137000,0 days 00:00:28.535000,274.0,278.0,283.0,317.0,hard,4.0
0 days 00:23:57.115000,18,0 days 00:01:35.838000,5,"","",0 days 00:00:26.674000,0 days 00:00:37.354000,0 days 00:00:31.810000,225.0,204.0,281.0,292.0,hard,5.0
0 days 00:25:18.722000,18,0 days 00:01:21.607000,6,"","",0 days 00:00:22.745000,0 days 00:00:30.580000,0 days 00:00:28.282000,278.0,281.0,284.0,317.0,hard,6.0
0 days 00:27:04.444000,18,0 days 00:01:45.722000,7,"","",0 days 00:00:31.589000,0 days 00:00:42.320000,0 days 00:00:31.813000,121.0,203.0,281.0,305.0,hard,7.0
0 days 00:28:26.851000,18,0 days 00:01:22.407000,8,"","",0 days 00:00:22.750000,0 days 00:00:30.625000,0 days 00:00:29.032000,278.0,263.0,283.0,317.0,hard,8.0
0 days 00:30:01.376000,18,0 days 00:01:34.525000,9,"","",0 days 00:00:27.431000,0 days 00:00:35.843000,0 days 00:00:31.251000,197.0,223.0,282.0,306.0,hard,9.0
0 days 00:31:23.110000,18,0 days 00:01:21.734000,10,"","",0 days 00:00:22.781000,0 days 00:00:30.736000,0 days 00:00:28.217000,280.0,285.0,282.0,318.0,hard,10.0
0 days 00:32:57.209000,18,0 days 00:01:34.099000,11,"",0 days 00:32:54.796000,0 days 00:00:24.895000,0 days 00:00:34.304000,0 days 00:00:34.900000,219.0,211.0,"",301.0,hard,11.0
0 days 00:47:17.807000,18,"",12,0 days 00:45:17.396000,"","",0 days 00:00:46.042000,0 days 00:00:38.250000,139.0,145.0,278.0,176.0,soft,1.0
0 days 00:48:37.690000,18,0 days 00:01:19.883000,13,"","",0 days 00:00:22.544000,0 days 00:00:30.085000,0 days 00:00:27.254000,277.0,294.0,280.0,314.0,soft,2.0
0 days 00:50:42.413000,18,0 days 00:02:04.723000,14,"","",0 days 00:00:33.606000,0 days 00:00:48.607000,0 days 00:00:42.510000,128.0,113.0,247.0,257.0,soft,3.0
0 days 00:52:40.430000,18,0 days 00:01:58.017000,15,"","",0 days 00:00:33.387000,0 days 00:00:46.380000,0 days 00:00:38.250000,167.0,192.0,280.0,268.0,soft,4.0
0 days 00:53:59.859000,18,0 days 00:01:19.429000,16,"","",0 days 00:00:22.418000,0 days 00:00:29.820000,0 days 00:00:27.191000,281.0,297.0,281.0,317.0,soft,5.0
0 days 00:55:47.348000,18,0 days 00:01:47.489000,17,"",0 days 00:55:44.924000,0 days 00:00:24.797000,0 days 00:00:41.300000,0 days 00:00:41.392000,202.0,203.0,"",301.0,soft,6.0
0 days 01:07:31.620000,18,"",18,0 days 01:06:03.756000,"","",0 days 00:00:32.617000,0 days 00:00:28.957000,234.0,263.0,269.0,241.0,soft,7.0
0 days 01:08:56.412000,18,0 days 00:01:24.792000,19,"","",0 days 00:00:24.004000,0 days 00:00:31.553000,0 days 00:00:29.235000,271.0,237.0,272.0,292.0,soft,8.0
0 days 01:10:20.057000,18,0 days 00:01:23.645000,20,"","",0 days 00:00:23.660000,0 days 00:00:31.587000,0 days 00:00:28.398000,276.0,274.0,271.0,303.0,soft,9.0
0 days 01:11:43.552000,18,0 days 00:01:23.495000,21,"","",0 days 00:00:23.839000,0 days 00:00:31.336000,0 days 00:00:28.320000,274.0,275.0,269.0,297.0,soft,10.0
0 days 01:13:10.338000,18,0 days 00:01:26.786000,22,"","",0 days 00:00:23.786000,0 days 00:00:31.412000,0 days 00:00:31.588000,"",274.0,270.0,293.0,soft,11.0
0 days 01:14:35.578000,18,0 days 00:01:25.240000,23,"","",0 days 00:00:24.023000,0 days 00:00:31.705000,0 days 00:00:29.512000,270.0,270.0,271.0,294.0,soft,12.0
0 days 01:16:00.246000,18,0 days 00:01:24.668000,24,"","",0 days 00:00:23.929000,0 days 00:00:31.886000,0 days 00:00:28.853000,263.0,270.0,271.0,302.0,soft,13.0
0 days 01:17:37.886000,18,0 days 00:01:37.640000,25,"",0 days 01:17:35.403000,0 days 00:00:27.275000,0 days 00:00:35.187000,0 days 00:00:35.178000,188.0,214.0,"",281.0,soft,14.0
0 days 00:18:25.226000,16,"",1,0 days 00:16:42.417000,"","",0 days 00:00:39.243000,0 days 00:00:34.391000,123.0,91.0,269.0,239.0,hard,1.0
0 days 00:19:49.004000,16,0 days 00:01:23.778000,2,"","",0 days 00:00:23.579000,0 days 00:00:31.699000,0 days 00:00:28.500000,263.0,274.0,273.0,294.0,hard,2.0
0 days 00:21:20.615000,16,0 days 00:01:31.611000,3,"","",0 days 00:00:23.217000,0 days 00:00:36.455000,0 days 00:00:31.939000,258.0,172.0,272.0,296.0,hard,3.0
0 days 00:22:43.106000,16,0 days 00:01:22.491000,4,"","",0 days 00:00:23.255000,0 days 00:00:31.240000,0 days 00:00:27.996000,273.0,280.0,274.0,295.0,hard,4.0
0 days 00:24:05.165000,16,0 days 00:01:22.059000,5,"","",0 days 00:00:23.185000,0 days 00:00:30.904000,0 days 00:00:27.970000,278.0,281.0,281.0,299.0,hard,5.0
0 days 00:25:26.139000,16,0 days 00:01:20.974000,6,"","",0 days 00:00:22.771000,0 days 00:00:30.454000,0 days 00:00:27.749000,276.0,290.0,284.0,314.0,hard,6.0
0 days 00:27:16.146000,16,0 days 00:01:50.007000,7,"","",0 days 00:00:24.326000,0 days 00:00:45.868000,0 days 00:00:39.813000,199.0,143.0,280.0,319.0,hard,7.0
0 days 00:28:46.410000,16,0 days 00:01:30.264000,8,"",0 days 00:28:43.720000,0 days 00:00:22.816000,0 days 00:00:33.136000,0 days 00:00:34.312000,276.0,229.0,"",312.0,hard,8.0
0 days 00:31:24.929000,16,"",9,0 days 00:29:02.621000,0 days 00:31:22.199000,0 days 00:01:24.987000,0 days 00:00:38.741000,0 days 00:00:34.755000,167.0,218.0,"",202.0,hard,9.0
0 days 00:46:56.910000,16,"",10,0 days 00:45:19.714000,"","",0 days 00:00:34.029000,0 days 00:00:34.312000,249.0,255.0,269.0,227.0,hard,10.0
0 days 00:48:19.595000,16,0 days 00:01:22.685000,11,"","",0 days 00:00:23.598000,0 days 00:00:31.145000,0 days 00:00:27.942000,272.0,276.0,272.0,293.0,hard,11.0
0 days 00:49:41.683000,16,0 days 00:01:22.088000,12,"","",0 days 00:00:23.331000,0 days 00:00:30.912000,0 days 00:00:27.845000,274.0,281.0,273.0,297.0,hard,12.0
0 days 00:51:12.186000,16,0 days 00:01:30.503000,13,"","",0 days 00:00:23.824000,0 days 00:00:35.454000,0 days 00:00:31.225000,223.0,209.0,279.0,296.0,hard,13.0
0 days 00:52:33.247000,16,0 days 00:01:21.061000,14,"","",0 days 00:00:22.814000,0 days 00:00:30.560000,0 days 00:00:27.687000,274.0,291.0,282.0,312.0,hard,14.0
0 days 00:54:23.289000,16,0 days 00:01:50.042000,15,"","",0 days 00:00:27.268000,0 days 00:00:42.017000,0 days 00:00:40.757000,192.0,221.0,278.0,"",hard,15.0
0 days 00:55:57.690000,16,0 days 00:01:34.401000,16,"","",0 days 00:00:26.162000,0 days 00:00:37.462000,0 days 00:00:30.777000,244.0,257.0,278.0,309.0,hard,16.0
0 days 00:57:18.482000,16,0 days 00:01:20.792000,17,"","",0 days 00:00:22.774000,0 days 00:00:30.498000,0 days 00:00:27.520000,276.0,289.0,279.0,308.0,hard,17.0
0 days 01:07:02.553000,16,"",18,"",0 days 00:58:56.316000,0 days 00:00:24.341000,0 days 00:00:35.364000,"",257.0,196.0,"",309.0,hard,18.0
0 days 01:08:54.704000,16,"",19,0 days 01:07:02.553000,"","",0 days 00:00:41.829000,0 days 00:00:42.524000,169.0,190.0,281.0,240.0,medium,1.0
0 days 01:10:13.755000,16,0 days 00:01:19.051000,20,"","",0 days 00:00:22.276000,0 days 00:00:29.422000,0 days 00:00:27.353000,280.0,297.0,285.0,315.0,medium,2.0
0 days 01:11:55.714000,16,0 days 00:01:41.959000,21,"","",0 days 00:00:30.998000,0 days 00:00:41.991000,0 days 00:00:28.970000,162.0,259.0,281.0,268.0,medium,3.0
0 days 01:13:14.710000,16,0 days 00:01:18.996000,22,"","",0 days 00:00:22.345000,0 days 00:00:29.601000,0 days 00:00:27.050000,280.0,293.0,286.0,314.0,medium,4.0
0 days 01:14:43.471000,16,0 days 00:01:28.761000,23,"","",0 days 00:00:22.365000,0 days 00:00:36.668000,0 days 00:00:29.728000,277.0,214.0,271.0,317.0,medium,5.0
0 days 01:16:04.284000,16,0 days 00:01:20.813000,24,"","",0 days 00:00:23.117000,0 days 00:00:30.440000,0 days 00:00:27.256000,270.0,274.0,272.0,297.0,medium,6.0
0 days 01:17:39.282000,16,0 days 00:01:34.998000,25,"",0 days 01:17:36.567000,0 days 00:00:24.044000,0 days 00:00:35.040000,0 days 00:00:35.914000,234.0,215.0,"",295.0,medium,7.0
0 days 00:18:30.461000,14,"",1,0 days 00:16:32.041000,"","",0 days 00:00:40.616000,0 days 00:00:35.264000,227.0,227.0,259.0,225.0,soft,1.0
0 days 00:19:53.596000,14,0 days 00:01:23.135000,2,"","",0 days 00:00:23.700000,0 days 00:00:31.367000,0 days 00:00:28.068000,262.0,269.0,269.0,290.0,soft,2.0
0 days 00:21:15.692000,14,0 days 00:01:22.096000,3,"","",0 days 00:00:23.270000,0 days 00:00:31.035000,0 days 00:00:27.791000,266.0,270.0,269.0,288.0,soft,3.0
0 days 00:22:37.624000,14,0 days 00:01:21.932000,4,"","",0 days 00:00:23.357000,0 days 00:00:30.766000,0 days 00:00:27.809000,263.0,270.0,269.0,283.0,soft,4.0
0 days 00:24:18.934000,14,0 days 00:01:41.310000,5,"","",0 days 00:00:27.065000,0 days 00:00:36.931000,0 days 00:00:37.314000,258.0,159.0,277.0,192.0,soft,5.0
0 days 00:25:38.884000,14,0 days 00:01:19.950000,6,"","",0 days 00:00:22.484000,0 days 00:00:30.172000,0 days 00:00:27.294000,274.0,293.0,279.0,311.0,soft,6.0
0 days 00:27:23.254000,14,0 days 00:01:44.370000,7,"",0 days 00:27:20.527000,0 days 00:00:25.634000,0 days 00:00:40.134000,0 days 00:00:38.602000,225.0,198.0,"",293.0,soft,7.0
0 days 00:35:34.124000,14,"",8,0 days 00:33:41.369000,"","",0 days 00:00:35.566000,0 days 00:00:32.397000,231.0,236.0,267.0,237.0,soft,8.0
0 days 00:36:56.358000,14,0 days 00:01:22.234000,9,"","",0 days 00:00:23.628000,0 days 00:00:30.890000,0 days 00:00:27.716000,265.0,269.0,269.0,287.0,soft,9.0
0 days 00:38:18.454000,14,0 days 00:01:22.096000,10,"","",0 days 00:00:23.486000,0 days 00:00:30.836000,0 days 00:00:27.774000,264.0,267.0,269.0,286.0,soft,10.0
0 days 00:39:40.534000,14,0 days 00:01:22.080000,11,"","",0 days 00:00:23.301000,0 days 00:00:30.799000,0 days 00:00:27.980000,265.0,268.0,267.0,288.0,soft,11.0
0 days 00:41:30.105000,14,0 days 00:01:49.571000,12,"","",0 days 00:00:28.606000,0 days 00:00:45.716000,0 days 00:00:35.249000,196.0,225.0,277.0,275.0,soft,12.0
0 days 00:42:50.661000,14,0 days 00:01:20.556000,13,"","",0 days 00:00:23.175000,0 days 00:00:30.114000,0 days 00:00:27.267000,272.0,292.0,277.0,309.0,soft,13.0
0 days 00:44:21.772000,14,0 days 00:01:31.111000,14,"",0 days 00:44:21.780000,0 days 00:00:23.831000,0 days 00:00:34.073000,0 days 00:00:33.207000,256.0,198.0,"",288.0,soft,14.0
0 days 00:54:47.234000,14,"",15,0 days 00:52:59.609000,"","",0 days 00:00:36.260000,0 days 00:00:31.298000,233.0,254.0,269.0,226.0,hard,1.0
0 days 00:56:09.724000,14,0 days 00:01:22.490000,16,"","",0 days 00:00:23.720000,0 days 00:00:30.978000,0 days 00:00:27.792000,266.0,270.0,269.0,289.0,hard,2.0
0 days 00:57:32.656000,14,0 days 00:01:22.932000,17,"","",0 days 00:00:23.415000,0 days 00:00:31.067000,0 days 00:00:28.450000,"",270.0,271.0,286.0,hard,3.0
0 days 01:07:04.912000,14,"",18,"",0 days 00:59:11.499000,0 days 00:00:23.470000,"","",267.0,"","",290.0,hard,4.0
0 days 01:08:48.309000,14,"",19,0 days 01:07:04.912000,"","",0 days 00:00:31.618000,0 days 00:00:28.933000,262.0,282.0,281.0,241.0,hard,5.0
0 days 01:10:10.456000,14,0 days 00:01:22.147000,20,"","",0 days 00:00:23.230000,0 days 00:00:31.081000,0 days 00:00:27.836000,268.0,287.0,279.0,317.0,hard,6.0
0 days 01:11:32.536000,14,0 days 00:01:22.080000,21,"","",0 days 00:00:23.032000,0 days 00:00:30.979000,0 days 00:00:28.069000,267.0,283.0,278.0,309.0,hard,7.0
0 days 01:12:54.958000,14,0 days 00:01:22.422000,22,"","",0 days 00:00:23.118000,0 days 00:00:31.008000,0 days 00:00:28.296000,268.0,286.0,279.0,308.0,hard,8.0
0 days 01:14:23.617000,14,0 days 00:01:28.659000,23,"","",0 days 00:00:23.159000,0 days 00:00:31.489000,0 days 00:00:34.011000,"",282.0,275.0,314.0,hard,9.0
0 days 01:15:46.139000,14,0 days 00:01:22.522000,24,"","",0 days 00:00:23.101000,0 days 00:00:31.217000,0 days 00:00:28.204000,267.0,287.0,270.0,309.0,hard,10.0
0 days 01:17:26.554000,14,0 days 00:01:40.415000,25,"",0 days 01:17:25.061000,0 days 00:00:24.243000,0 days 00:00:36.491000,0 days 00:00:39.681000,258.0,192.0,"",283.0,hard,11.0
0 days 00:16:48.273000,11,"",1,0 days 00:15:02.211000,0 days 00:16:45.584000,"",0 days 00:00:37.408000,0 days 00:00:39.180000,208.0,225.0,"",233.0,hard,1.0
0 days 00:35:39.051000,11,"",2,0 days 00:34:01.209000,"","",0 days 00:00:34.281000,0 days 00:00:36.163000,246.0,249.0,276.0,230.0,hard,2.0
0 days 00:37:01.752000,11,0 days 00:01:22.701000,3,"","",0 days 00:00:23.177000,0 days 00:00:31.116000,0 days 00:00:28.408000,272.0,267.0,279.0,308.0,hard,3.0
0 days 00:38:37.855000,11,0 days 00:01:36.103000,4,"","",0 days 00:00:26.822000,0 days 00:00:37.586000,0 days 00:00:31.695000,196.0,251.0,278.0,295.0,hard,4.0
0 days 00:39:58.817000,11,0 days 00:01:20.962000,5,"","",0 days 00:00:22.801000,0 days 00:00:30.370000,0 days 00:00:27.791000,276.0,284.0,279.0,309.0,hard,5.0
0 days 00:41:46.624000,11,0 days 00:01:47.807000,6,"","",0 days 00:00:28.354000,0 days 00:00:44.007000,0 days 00:00:35.446000,220.0,75.0,279.0,287.0,hard,6.0
0 days 00:43:07.164000,11,0 days 00:01:20.540000,7,"","",0 days 00:00:22.626000,0 days 00:00:30.204000,0 days 00:00:27.710000,278.0,281.0,279.0,310.0,hard,7.0
0 days 00:45:07.046000,11,0 days 00:01:59.882000,8,"","",0 days 00:00:30.221000,0 days 00:00:52.929000,0 days 00:00:36.732000,180.0,66.0,279.0,267.0,hard,8.0
0 days 00:46:27.466000,11,0 days 00:01:20.420000,9,"","",0 days 00:00:22.790000,0 days 00:00:30.142000,0 days 00:00:27.488000,278.0,288.0,279.0,309.0,hard,9.0
0 days 00:48:06.390000,11,0 days 00:01:38.924000,10,"",0 days 00:48:03.708000,0 days 00:00:25.812000,0 days 00:00:40.515000,0 days 00:00:32.597000,226.0,254.0,"",285.0,hard,10.0
0 days 00:50:17.627000,11,0 days 00:02:11.237000,11,0 days 00:48:23.469000,0 days 00:50:17.493000,0 days 00:01:02.944000,0 days 00:00:34.949000,0 days 00:00:33.344000,239.0,212.0,"",238.0,hard,11.0
0 days 01:07:46.553000,11,"",12,0 days 01:06:02.468000,"","",0 days 00:00:43.653000,0 days 00:00:32.650000,194.0,217.0,280.0,225.0,soft,1.0
0 days 01:09:05.902000,11,0 days 00:01:19.349000,13,"","",0 days 00:00:22.519000,0 days 00:00:29.737000,0 days 00:00:27.093000,281.0,293.0,282.0,308.0,soft,2.0
0 days 01:10:57.014000,11,0 days 00:01:51.112000,14,"","",0 days 00:00:29.473000,0 days 00:00:45.236000,0 days 00:00:36.403000,178.0,157.0,233.0,276.0,soft,3.0
0 days 01:13:07.210000,11,0 days 00:02:10.196000,15,"","",0 days 00:00:31.460000,0 days 00:00:52.986000,0 days 00:00:45.750000,171.0,94.0,279.0,268.0,soft,4.0
0 days 01:14:27.723000,11,0 days 00:01:20.513000,16,"","",0 days 00:00:22.393000,0 days 00:00:29.630000,0 days 00:00:28.490000,280.0,297.0,259.0,310.0,soft,5.0
0 days 01:16:18.264000,11,0 days 00:01:50.541000,17,"",0 days 01:16:15.869000,0 days 00:00:28.865000,0 days 00:00:45.267000,0 days 00:00:36.409000,166.0,156.0,"",270.0,soft,6.0
0 days 00:17:52.780000,10,"",1,0 days 00:16:17.768000,"","",0 days 00:00:35.799000,0 days 00:00:32.239000,231.0,222.0,277.0,222.0,hard,1.0
0 days 00:19:25.271000,10,0 days 00:01:32.491000,2,"","",0 days 00:00:22.937000,0 days 00:00:34.814000,0 days 00:00:34.740000,278.0,232.0,279.0,312.0,hard,2.0
0 days 00:20:47.125000,10,0 days 00:01:21.854000,3,"","",0 days 00:00:22.755000,0 days 00:00:30.806000,0 days 00:00:28.293000,277.0,273.0,283.0,311.0,hard,3.0
0 days 00:22:39.248000,10,0 days 00:01:52.123000,4,"","",0 days 00:00:32.549000,0 days 00:00:45.897000,0 days 00:00:33.677000,138.0,235.0,282.0,302.0,hard,4.0
0 days 00:24:00.802000,10,0 days 00:01:21.554000,5,"","",0 days 00:00:22.817000,0 days 00:00:30.774000,0 days 00:00:27.963000,276.0,293.0,283.0,315.0,hard,5.0
0 days 00:25:49.469000,10,0 days 00:01:48.667000,6,"",0 days 00:25:46.774000,0 days 00:00:31.698000,0 days 00:00:38.679000,0 days 00:00:38.290000,187.0,143.0,"",299.0,hard,6.0
0 days 00:31:49.355000,10,"",7,0 days 00:30:12.875000,"","",0 days 00:00:35.364000,0 days 00:00:34.510000,243.0,241.0,280.0,223.0,hard,7.0
0 days 00:33:10.946000,10,0 days 00:01:21.591000,8,"","",0 days 00:00:23.044000,0 days 00:00:30.776000,0 days 00:00:27.771000,277.0,293.0,280.0,309.0,hard,8.0
0 days 00:34:55.699000,10,0 days 00:01:44.753000,9,"","",0 days 00:00:30.725000,0 days 00:00:42.509000,0 days 00:00:31.519000,204.0,247.0,279.0,294.0,hard,9.0
0 days 00:36:16.813000,10,0 days 00:01:21.114000,10,"","",0 days 00:00:22.803000,0 days 00:00:30.519000,0 days 00:00:27.792000,277.0,294.0,281.0,311.0,hard,10.0
0 days 00:38:04.884000,10,0 days 00:01:48.071000,11,"","",0 days 00:00:30.526000,0 days 00:00:44.036000,0 days 00:00:33.509000,178.0,238.0,280.0,295.0,hard,11.0
0 days 00:39:25.807000,10,0 days 00:01:20.923000,12,"","",0 days 00:00:22.806000,0 days 00:00:30.407000,0 days 00:00:27.710000,276.0,293.0,280.0,309.0,hard,12.0
0 days 00:41:08.355000,10,0 days 00:01:42.548000,13,"",0 days 00:41:05.702000,0 days 00:00:30.239000,0 days 00:00:36.164000,0 days 00:00:36.145000,225.0,206.0,"",295.0,hard,13.0
0 days 00:50:26.751000,10,"",14,0 days 00:48:35.170000,"","",0 days 00:00:45.980000,0 days 00:00:34.690000,215.0,236.0,280.0,204.0,soft,1.0
0 days 00:51:45.813000,10,0 days 00:01:19.062000,15,"","",0 days 00:00:22.362000,0 days 00:00:29.650000,0 days 00:00:27.050000,280.0,300.0,283.0,312.0,soft,2.0
0 days 00:53:46.562000,10,0 days 00:02:00.749000,16,"","",0 days 00:00:34.497000,0 days 00:00:47.194000,0 days 00:00:39.058000,136.0,229.0,228.0,302.0,soft,3.0
0 days 00:55:35.974000,10,0 days 00:01:49.412000,17,"","",0 days 00:00:34.485000,0 days 00:00:42.314000,0 days 00:00:32.613000,183.0,193.0,283.0,264.0,soft,4.0
0 days 00:56:55.364000,10,0 days 00:01:19.390000,18,"","",0 days 00:00:22.259000,0 days 00:00:29.957000,0 days 00:00:27.174000,279.0,295.0,285.0,315.0,soft,5.0
0 days 01:06:26.545000,10,"",19,"",0 days 00:58:39.126000,0 days 00:00:27.755000,0 days 00:00:38.764000,"",203.0,204.0,"",298.0,soft,6.0
0 days 01:08:26.310000,10,"",20,0 days 01:06:26.542000,"","",0 days 00:00:33.457000,0 days 00:00:30.575000,252.0,244.0,266.0,229.0,soft,7.0
0 days 01:09:50.576000,10,0 days 00:01:24.266000,21,"","",0 days 00:00:24.028000,0 days 00:00:31.737000,0 days 00:00:28.501000,270.0,263.0,266.0,288.0,soft,8.0
0 days 01:11:15.098000,10,0 days 00:01:24.522000,22,"","",0 days 00:00:24.259000,0 days 00:00:31.679000,0 days 00:00:28.584000,265.0,267.0,266.0,290.0,soft,9.0
0 days 01:12:39.306000,10,0 days 00:01:24.208000,23,"","",0 days 00:00:23.892000,0 days 00:00:31.649000,0 days 00:00:28.667000,264.0,260.0,276.0,292.0,soft,10.0
0 days 01:14:05.763000,10,0 days 00:01:26.457000,24,"","",0 days 00:00:23.735000,0 days 00:00:32.877000,0 days 00:00:29.845000,246.0,261.0,279.0,315.0,soft,11.0
0 days 01:15:29.254000,10,0 days 00:01:23.491000,25,"","",0 days 00:00:23.325000,0 days 00:00:31.623000,0 days 00:00:28.543000,271.0,270.0,265.0,319.0,soft,12.0
0 days 01:16:56.767000,10,0 days 00:01:27.513000,26,"",0 days 01:16:54.068000,0 days 00:00:23.864000,0 days 00:00:31.601000,0 days 00:00:32.048000,272.0,264.0,"",289.0,soft,13.0
0 days 00:17:25.039000,9,"",1,0 days 00:15:41.606000,"","",0 days 00:00:38.327000,0 days 00:00:33.907000,204.0,227.0,267.0,206.0,hard,1.0
0 days 00:19:44.899000,9,0 days 00:02:19.860000,2,"","",0 days 00:00:24.613000,0 days 00:01:20.112000,0 days 00:00:35.135000,247.0,203.0,267.0,313.0,hard,2.0
0 days 00:21:22.562000,9,0 days 00:01:37.663000,3,"","",0 days 00:00:26.996000,0 days 00:00:38.801000,0 days 00:00:31.866000,224.0,248.0,273.0,265.0,hard,3.0
0 days 00:22:51.735000,9,0 days 00:01:29.173000,4,"","",0 days 00:00:24.837000,0 days 00:00:33.999000,0 days 00:00:30.337000,254.0,269.0,275.0,318.0,hard,4.0
0 days 00:24:39.651000,9,0 days 00:01:47.916000,5,"","",0 days 00:00:31.860000,0 days 00:00:42.157000,0 days 00:00:33.899000,200.0,191.0,259.0,205.0,hard,5.0
0 days 00:26:06.692000,9,0 days 00:01:27.041000,6,"","",0 days 00:00:24.489000,0 days 00:00:32.817000,0 days 00:00:29.735000,261.0,278.0,277.0,309.0,hard,6.0
0 days 00:27:32.331000,9,0 days 00:01:25.639000,7,"","",0 days 00:00:23.555000,0 days 00:00:32.783000,0 days 00:00:29.301000,262.0,277.0,277.0,319.0,hard,7.0
0 days 00:28:58.292000,9,0 days 00:01:25.961000,8,"","",0 days 00:00:23.835000,0 days 00:00:33.010000,0 days 00:00:29.116000,261.0,277.0,278.0,317.0,hard,8.0
0 days 00:30:40.529000,9,0 days 00:01:42.237000,9,"",0 days 00:30:37.730000,0 days 00:00:26.726000,0 days 00:00:38.867000,0 days 00:00:36.644000,212.0,197.0,"",316.0,hard,9.0
0 days 00:44:34.142000,9,"",10,0 days 00:42:26.137000,"","",0 days 00:00:39.652000,0 days 00:00:39.378000,160.0,205.0,274.0,192.0,soft,1.0
0 days 00:45:57.981000,9,0 days 00:01:23.839000,11,"","",0 days 00:00:23.629000,0 days 00:00:32.108000,0 days 00:00:28.102000,262.0,288.0,280.0,316.0,soft,2.0
0 days 00:48:10.571000,9,0 days 00:02:12.590000,12,"","",0 days 00:00:34.140000,0 days 00:00:58.542000,0 days 00:00:39.908000,118.0,128.0,278.0,253.0,soft,3.0
0 days 00:49:32.547000,9,0 days 00:01:21.976000,13,"","",0 days 00:00:23.027000,0 days 00:00:31.123000,0 days 00:00:27.826000,274.0,291.0,281.0,316.0,soft,4.0
0 days 00:51:35.100000,9,0 days 00:02:02.553000,14,"","",0 days 00:00:34.317000,0 days 00:00:50.007000,0 days 00:00:38.229000,159.0,123.0,279.0,217.0,soft,5.0
0 days 00:53:18.654000,9,0 days 00:01:43.554000,15,"","",0 days 00:00:27.986000,0 days 00:00:40.888000,0 days 00:00:34.680000,190.0,209.0,280.0,317.0,soft,6.0
0 days 00:54:52.915000,9,0 days 00:01:34.261000,16,"",0 days 00:54:50.133000,0 days 00:00:22.857000,0 days 00:00:35.535000,0 days 00:00:35.869000,277.0,179.0,"",315.0,soft,7.0
0 days 01:09:01.981000,9,"",17,0 days 01:07:01.304000,"","",0 days 00:00:38.221000,0 days 00:00:35.269000,197.0,230.0,265.0,207.0,soft,8.0
0 days 01:10:34.323000,9,0 days 00:01:32.342000,18,"","",0 days 00:00:25.438000,0 days 00:00:35.375000,0 days 00:00:31.529000,244.0,242.0,268.0,306.0,soft,9.0
0 days 01:12:02.695000,9,0 days 00:01:28.372000,19,"","",0 days 00:00:24.870000,0 days 00:00:33.526000,0 days 00:00:29.976000,249.0,255.0,270.0,304.0,soft,10.0
0 days 01:13:33.704000,9,0 days 00:01:31.009000,20,"","",0 days 00:00:26.455000,0 days 00:00:33.522000,0 days 00:00:31.032000,243.0,264.0,269.0,301.0,soft,11.0
0 days 01:15:00.132000,9,0 days 00:01:26.428000,21,"","",0 days 00:00:24.284000,0 days 00:00:32.821000,0 days 00:00:29.323000,257.0,270.0,271.0,"",soft,12.0
0 days 01:16:36.553000,9,0 days 00:01:36.421000,22,"",0 days 01:16:33.728000,0 days 00:00:25.306000,0 days 00:00:35.496000,0 days 00:00:35.619000,252.0,196.0,"",300.0,soft,13.0
0 days 00:20:09.534000,6,"",1,0 days 00:18:02.650000,"","",0 days 00:00:41.927000,0 days 00:00:41.219000,194.0,200.0,251.0,222.0,hard,1.0
0 days 00:21:48.834000,6,0 days 00:01:39.300000,2,"","",0 days 00:00:25.876000,0 days 00:00:39.307000,0 days 00:00:34.117000,214.0,184.0,275.0,300.0,hard,2.0
0 days 00:23:12.891000,6,0 days 00:01:24.057000,3,"","",0 days 00:00:23.421000,0 days 00:00:31.869000,0 days 00:00:28.767000,272.0,247.0,281.0,314.0,hard,3.0
0 days 00:25:04.048000,6,0 days 00:01:51.157000,4,"","",0 days 00:00:28.634000,0 days 00:00:45.157000,0 days 00:00:37.366000,155.0,148.0,279.0,303.0,hard,4.0
0 days 00:26:26.804000,6,0 days 00:01:22.756000,5,"","",0 days 00:00:23.114000,0 days 00:00:31.343000,0 days 00:00:28.299000,275.0,291.0,280.0,316.0,hard,5.0
0 days 00:28:13.646000,6,0 days 00:01:46.842000,6,"","",0 days 00:00:28.393000,0 days 00:00:41.978000,0 days 00:00:36.471000,178.0,134.0,281.0,302.0,hard,6.0
0 days 00:29:35.045000,6,0 days 00:01:21.399000,7,"","",0 days 00:00:22.662000,0 days 00:00:30.809000,0 days 00:00:27.928000,278.0,296.0,286.0,318.0,hard,7.0
0 days 00:31:20.301000,6,0 days 00:01:45.256000,8,"",0 days 00:31:18.567000,0 days 00:00:27.570000,0 days 00:00:36.569000,0 days 00:00:41.117000,194.0,209.0,"",300.0,hard,8.0
0 days 00:33:35.900000,6,0 days 00:02:15.599000,9,0 days 00:31:56.011000,"",0 days 00:01:04.699000,0 days 00:00:38.189000,0 days 00:00:32.711000,202.0,208.0,279.0,222.0,hard,9.0
0 days 00:34:58.717000,6,0 days 00:01:22.817000,10,"","",0 days 00:00:23.108000,0 days 00:00:31.303000,0 days 00:00:28.406000,272.0,282.0,283.0,315.0,hard,10.0
0 days 00:36:35.511000,6,0 days 00:01:36.794000,11,"",0 days 00:36:32.967000,0 days 00:00:24.460000,0 days 00:00:34.100000,0 days 00:00:38.234000,244.0,225.0,"",304.0,hard,11.0
0 days 00:47:24.441000,6,"",12,0 days 00:45:25.562000,"","",0 days 00:00:48.506000,0 days 00:00:40.102000,126.0,191.0,277.0,227.0,soft,1.0
0 days 00:48:45.058000,6,0 days 00:01:20.617000,13,"","",0 days 00:00:22.625000,0 days 00:00:30.332000,0 days 00:00:27.660000,276.0,297.0,281.0,314.0,soft,2.0
0 days 00:50:46.358000,6,0 days 00:02:01.300000,14,"","",0 days 00:00:32.767000,0 days 00:00:46.999000,0 days 00:00:41.534000,174.0,173.0,280.0,301.0,soft,3.0
0 days 00:52:06.628000,6,0 days 00:01:20.270000,15,"","",0 days 00:00:22.386000,0 days 00:00:30.406000,0 days 00:00:27.478000,279.0,296.0,280.0,318.0,soft,4.0
0 days 00:54:09.980000,6,0 days 00:02:03.352000,16,"","",0 days 00:00:33.438000,0 days 00:00:48.247000,0 days 00:00:41.667000,146.0,199.0,282.0,300.0,soft,5.0
0 days 00:55:30.400000,6,0 days 00:01:20.420000,17,"","",0 days 00:00:22.436000,0 days 00:00:30.405000,0 days 00:00:27.579000,278.0,294.0,282.0,317.0,soft,6.0
0 days 00:57:19.743000,6,0 days 00:01:49.343000,18,"",0 days 00:57:17.041000,0 days 00:00:27.306000,0 days 00:00:38.783000,0 days 00:00:43.254000,85.0,196.0,"",300.0,soft,7.0
0 days 01:07:54.537000,6,"",19,0 days 01:06:03.083000,"","",0 days 00:00:34.980000,0 days 00:00:36.515000,189.0,226.0,273.0,238.0,soft,8.0
0 days 01:09:20.388000,6,0 days 00:01:25.851000,20,"","",0 days 00:00:24.178000,0 days 00:00:32.610000,0 days 00:00:29.063000,259.0,260.0,271.0,302.0,soft,9.0
0 days 01:10:45.999000,6,0 days 00:01:25.611000,21,"","",0 days 00:00:24.151000,0 days 00:00:32.589000,0 days 00:00:28.871000,256.0,266.0,270.0,298.0,soft,10.0
0 days 01:12:12.076000,6,0 days 00:01:26.077000,22,"","",0 days 00:00:24.495000,0 days 00:00:32.493000,0 days 00:00:29.089000,254.0,260.0,274.0,297.0,soft,11.0
0 days 01:13:37.275000,6,0 days 00:01:25.199000,23,"","",0 days 00:00:24.019000,0 days 00:00:32.333000,0 days 00:00:28.847000,261.0,260.0,271.0,308.0,soft,12.0
0 days 01:15:02.418000,6,0 days 00:01:25.143000,24,"","",0 days 00:00:23.953000,0 days 00:00:32.243000,0 days 00:00:28.947000,264.0,261.0,272.0,297.0,soft,13.0
0 days 01:16:50.050000,6,0 days 00:01:47.632000,25,"",0 days 01:16:49.721000,0 days 00:00:30.671000,0 days 00:00:39.743000,0 days 00:00:37.218000,170.0,222.0,"",296.0,soft,14.0
0 days 00:18:45.937000,5,"",1,0 days 00:17:05.001000,"","",0 days 00:00:38.939000,0 days 00:00:32.786000,112.0,178.0,277.0,219.0,hard,1.0
0 days 00:20:16.251000,5,0 days 00:01:30.314000,2,"","",0 days 00:00:23.655000,0 days 00:00:32.173000,0 days 00:00:34.486000,247.0,250.0,281.0,319.0,hard,2.0
0 days 00:21:38.725000,5,0 days 00:01:22.474000,3,"","",0 days 00:00:22.769000,0 days 00:00:31.369000,0 days 00:00:28.336000,272.0,271.0,281.0,320.0,hard,3.0
0 days 00:23:00.914000,5,0 days 00:01:22.189000,4,"","",0 days 00:00:22.693000,0 days 00:00:31.248000,0 days 00:00:28.248000,269.0,283.0,286.0,318.0,hard,4.0
0 days 00:24:45.716000,5,0 days 00:01:44.802000,5,"","",0 days 00:00:31.373000,0 days 00:00:37.898000,0 days 00:00:35.531000,194.0,194.0,282.0,174.0,hard,5.0
0 days 00:26:18.085000,5,0 days 00:01:32.369000,6,"","",0 days 00:00:22.814000,0 days 00:00:32.716000,0 days 00:00:36.839000,275.0,198.0,283.0,320.0,hard,6.0
0 days 00:27:39.819000,5,0 days 00:01:21.734000,7,"","",0 days 00:00:22.642000,0 days 00:00:30.838000,0 days 00:00:28.254000,279.0,283.0,286.0,323.0,hard,7.0
0 days 00:29:23.135000,5,0 days 00:01:43.316000,8,"","",0 days 00:00:27.423000,0 days 00:00:40.848000,0 days 00:00:35.045000,206.0,189.0,281.0,305.0,hard,8.0
0 days 00:30:44.294000,5,0 days 00:01:21.159000,9,"","",0 days 00:00:22.663000,0 days 00:00:30.620000,0 days 00:00:27.876000,278.0,288.0,284.0,317.0,hard,9.0
0 days 00:32:14.167000,5,0 days 00:01:29.873000,10,"",0 days 00:32:11.795000,0 days 00:00:24.473000,0 days 00:00:32.740000,0 days 00:00:32.660000,255.0,228.0,"",306.0,hard,10.0
0 days 00:43:37.865000,5,"",11,0 days 00:41:57.289000,"","",0 days 00:00:38.470000,0 days 00:00:32.983000,180.0,227.0,279.0,218.0,soft,1.0
0 days 00:44:57.099000,5,0 days 00:01:19.234000,12,"","",0 days 00:00:22.346000,0 days 00:00:29.850000,0 days 00:00:27.038000,277.0,297.0,279.0,313.0,soft,2.0
0 days 00:46:52.083000,5,0 days 00:01:54.984000,13,"","",0 days 00:00:31.352000,0 days 00:00:49.743000,0 days 00:00:33.889000,68.0,212.0,279.0,289.0,soft,3.0
0 days 00:48:11.818000,5,0 days 00:01:19.735000,14,"","",0 days 00:00:22.313000,0 days 00:00:29.947000,0 days 00:00:27.475000,279.0,296.0,283.0,316.0,soft,4.0
0 days 00:49:51.294000,5,0 days 00:01:39.476000,15,"",0 days 00:49:48.586000,0 days 00:00:27.344000,0 days 00:00:38.940000,0 days 00:00:33.192000,172.0,199.0,"",305.0,soft,5.0
0 days 01:06:06.133000,5,"",16,0 days 00:57:50.998000,0 days 01:00:05.512000,"","","","","","","",soft,6.0
0 days 01:07:37.844000,5,"",17,0 days 01:06:06.130000,"","",0 days 00:00:33.261000,0 days 00:00:30.564000,225.0,252.0,270.0,200.0,soft,7.0
0 days 01:09:02.079000,5,0 days 00:01:24.235000,18,"","",0 days 00:00:23.754000,0 days 00:00:31.929000,0 days 00:00:28.552000,269.0,260.0,279.0,294.0,soft,8.0
0 days 01:10:32.954000,5,0 days 00:01:30.875000,19,"","",0 days 00:00:25.936000,0 days 00:00:32.434000,0 days 00:00:32.505000,254.0,254.0,270.0,303.0,soft,9.0
0 days 01:11:57.165000,5,0 days 00:01:24.211000,20,"","",0 days 00:00:23.796000,0 days 00:00:31.531000,0 days 00:00:28.884000,271.0,264.0,273.0,290.0,soft,10.0
0 days 01:13:21.098000,5,0 days 00:01:23.933000,21,"","",0 days 00:00:23.739000,0 days 00:00:31.716000,0 days 00:00:28.478000,275.0,268.0,270.0,301.0,soft,11.0
0 days 01:14:45.437000,5,0 days 00:01:24.339000,22,"","",0 days 00:00:23.757000,0 days 00:00:31.900000,0 days 00:00:28.682000,268.0,267.0,271.0,298.0,soft,12.0
0 days 01:16:09.599000,5,0 days 00:01:24.162000,23,"","",0 days 00:00:23.750000,0 days 00:00:31.683000,0 days 00:00:28.729000,272.0,273.0,269.0,292.0,soft,13.0
0 days 01:17:45.144000,5,0 days 00:01:35.545000,24,"",0 days 01:17:45.141000,0 days 00:00:23.769000,0 days 00:00:31.835000,0 days 00:00:39.941000,273.0,221.0,"",298.0,soft,14.0
0 days 00:17:33.791000,4,"",1,0 days 00:15:22.140000,"","",0 days 00:00:39.148000,0 days 00:00:40.914000,185.0,241.0,275.0,236.0,hard,1.0
0 days 00:18:56.538000,4,0 days 00:01:22.747000,2,"","",0 days 00:00:23.265000,0 days 00:00:31.231000,0 days 00:00:28.251000,274.0,285.0,281.0,313.0,hard,2.0
0 days 00:20:45.229000,4,0 days 00:01:48.691000,3,"","",0 days 00:00:33.348000,0 days 00:00:43.290000,0 days 00:00:32.053000,73.0,236.0,280.0,277.0,hard,3.0
0 days 00:22:06.922000,4,0 days 00:01:21.693000,4,"","",0 days 00:00:22.774000,0 days 00:00:30.717000,0 days 00:00:28.202000,279.0,295.0,283.0,315.0,hard,4.0
0 days 00:24:07.394000,4,0 days 00:02:00.472000,5,"","",0 days 00:00:34.664000,0 days 00:00:48.803000,0 days 00:00:37.005000,63.0,242.0,285.0,283.0,hard,5.0
0 days 00:25:28.572000,4,0 days 00:01:21.178000,6,"","",0 days 00:00:22.658000,0 days 00:00:30.439000,0 days 00:00:28.081000,281.0,294.0,286.0,325.0,hard,6.0
0 days 00:27:14.064000,4,0 days 00:01:45.492000,7,"",0 days 00:27:11.393000,0 days 00:00:27.672000,0 days 00:00:43.023000,0 days 00:00:34.797000,206.0,178.0,"",292.0,hard,7.0
0 days 00:29:29.683000,4,0 days 00:02:15.619000,8,0 days 00:27:35.919000,0 days 00:29:29.743000,0 days 00:00:49.804000,0 days 00:00:49.868000,0 days 00:00:35.947000,203.0,178.0,"",227.0,hard,8.0
0 days 00:31:34.070000,4,0 days 00:02:04.387000,9,0 days 00:30:00.783000,"",0 days 00:00:57.658000,0 days 00:00:32.796000,0 days 00:00:33.933000,248.0,272.0,281.0,186.0,hard,9.0
0 days 00:32:55.287000,4,0 days 00:01:21.217000,10,"","",0 days 00:00:22.750000,0 days 00:00:30.419000,0 days 00:00:28.048000,279.0,294.0,282.0,314.0,hard,10.0
0 days 00:34:45.147000,4,0 days 00:01:49.860000,11,"","",0 days 00:00:25.414000,0 days 00:00:40.629000,0 days 00:00:43.817000,218.0,154.0,281.0,283.0,hard,11.0
0 days 00:36:05.888000,4,0 days 00:01:20.741000,12,"","",0 days 00:00:22.570000,0 days 00:00:30.229000,0 days 00:00:27.942000,280.0,297.0,283.0,315.0,hard,12.0
0 days 00:37:44.970000,4,0 days 00:01:39.082000,13,"",0 days 00:37:44.324000,0 days 00:00:27.040000,0 days 00:00:38.369000,0 days 00:00:33.673000,238.0,178.0,"",278.0,hard,13.0
0 days 00:39:47.424000,4,0 days 00:02:02.454000,14,0 days 00:38:06.111000,0 days 00:39:44.764000,0 days 00:00:50.882000,0 days 00:00:35.732000,0 days 00:00:35.840000,248.0,177.0,"",225.0,hard,14.0
0 days 00:52:30.925000,4,"",15,0 days 00:50:55.577000,"","",0 days 00:00:37.961000,0 days 00:00:31.686000,231.0,102.0,282.0,233.0,soft,1.0
0 days 00:53:49.869000,4,0 days 00:01:18.944000,16,"","",0 days 00:00:22.102000,0 days 00:00:29.625000,0 days 00:00:27.217000,280.0,299.0,286.0,317.0,soft,2.0
0 days 00:55:47.495000,4,0 days 00:01:57.626000,17,"","",0 days 00:00:36.008000,0 days 00:00:46.701000,0 days 00:00:34.917000,140.0,189.0,281.0,154.0,soft,3.0
0 days 00:57:10.831000,4,0 days 00:01:23.336000,18,"","",0 days 00:00:22.198000,0 days 00:00:29.743000,0 days 00:00:31.395000,281.0,300.0,277.0,315.0,soft,4.0
0 days 01:09:28.684000,4,"",19,"",0 days 00:58:45.568000,0 days 00:00:22.357000,0 days 00:00:31.736000,"",274.0,172.0,"",314.0,soft,5.0
0 days 01:11:23.233000,4,"",20,0 days 01:09:28.684000,"","",0 days 00:00:37.222000,0 days 00:00:35.785000,241.0,205.0,280.0,236.0,soft,6.0
0 days 01:12:43.321000,4,0 days 00:01:20.088000,21,"","",0 days 00:00:22.477000,0 days 00:00:29.962000,0 days 00:00:27.649000,282.0,300.0,282.0,314.0,soft,7.0
0 days 01:14:34.097000,4,0 days 00:01:50.776000,22,"","",0 days 00:00:28.980000,0 days 00:00:48.039000,0 days 00:00:33.757000,215.0,113.0,280.0,287.0,soft,8.0
0 days 01:15:57.519000,4,0 days 00:01:23.422000,23,"","",0 days 00:00:22.929000,0 days 00:00:30.058000,0 days 00:00:30.435000,283.0,299.0,284.0,316.0,soft,9.0
0 days 01:17:30.663000,4,0 days 00:01:33.144000,24,"",0 days 01:17:27.984000,0 days 00:00:26.597000,0 days 00:00:30.377000,0 days 00:00:36.170000,271.0,293.0,"",326.0,soft,10.0
0 days 00:16:46.558000,88,"",1,0 days 00:15:05.949000,"","",0 days 00:00:39.071000,0 days 00:00:33.251000,208.0,210.0,271.0,229.0,hard,1.0
0 days 00:18:13.564000,88,0 days 00:01:27.006000,2,"","",0 days 00:00:24.583000,0 days 00:00:32.968000,0 days 00:00:29.455000,253.0,270.0,281.0,312.0,hard,2.0
0 days 00:20:14.656000,88,0 days 00:02:01.092000,3,"",0 days 00:20:12.201000,0 days 00:00:32.404000,0 days 00:00:48.618000,0 days 00:00:40.070000,90.0,154.0,"",239.0,hard,3.0
0 days 00:34:34.981000,88,"",4,0 days 00:33:00.339000,"","",0 days 00:00:35.733000,0 days 00:00:32.727000,229.0,233.0,279.0,242.0,hard,4.0
0 days 00:35:59.143000,88,0 days 00:01:24.162000,5,"","",0 days 00:00:23.516000,0 days 00:00:31.935000,0 days 00:00:28.711000,268.0,287.0,283.0,319.0,hard,5.0
0 days 00:37:21.416000,88,0 days 00:01:22.273000,6,"","",0 days 00:00:23.099000,0 days 00:00:31.187000,0 days 00:00:27.987000,272.0,290.0,282.0,321.0,hard,6.0
0 days 00:38:43.303000,88,0 days 00:01:21.887000,7,"","",0 days 00:00:22.881000,0 days 00:00:31.137000,0 days 00:00:27.869000,274.0,292.0,283.0,318.0,hard,7.0
0 days 00:40:17.145000,88,0 days 00:01:33.842000,8,"","",0 days 00:00:22.871000,0 days 00:00:36.787000,0 days 00:00:34.184000,273.0,204.0,282.0,321.0,hard,8.0
0 days 00:41:39.085000,88,0 days 00:01:21.940000,9,"","",0 days 00:00:22.880000,0 days 00:00:31.171000,0 days 00:00:27.889000,270.0,292.0,284.0,"",hard,9.0
0 days 00:43:24.815000,88,0 days 00:01:45.730000,10,"",0 days 00:43:21.679000,0 days 00:00:30.296000,0 days 00:00:38.387000,0 days 00:00:37.047000,124.0,186.0,"",306.0,hard,10.0
0 days 00:45:47.412000,88,0 days 00:02:22.597000,11,0 days 00:43:42.147000,0 days 00:45:45.266000,0 days 00:01:10.759000,0 days 00:00:37.034000,0 days 00:00:34.804000,220.0,236.0,"",243.0,hard,11.0
0 days 00:56:51.097000,88,"",12,0 days 00:55:15.645000,"","",0 days 00:00:37.085000,0 days 00:00:31.420000,219.0,247.0,282.0,232.0,soft,1.0
0 days 01:04:14.326000,88,"",13,"",0 days 01:04:14.326000,0 days 00:00:22.487000,0 days 00:00:30.399000,"",280.0,296.0,"",315.0,soft,2.0
0 days 00:17:04.957000,99,"",1,0 days 00:15:28.169000,"","",0 days 00:00:36.378000,0 days 00:00:32.876000,186.0,219.0,270.0,236.0,hard,1.0
0 days 00:18:31.684000,99,0 days 00:01:26.727000,2,"","",0 days 00:00:24.236000,0 days 00:00:31.890000,0 days 00:00:30.601000,273.0,272.0,281.0,296.0,hard,2.0
0 days 00:19:59.496000,99,0 days 00:01:27.812000,3,"","",0 days 00:00:24.899000,0 days 00:00:32.754000,0 days 00:00:30.159000,211.0,245.0,283.0,326.0,hard,3.0
0 days 00:21:22.612000,99,0 days 00:01:23.116000,4,"","",0 days 00:00:23.065000,0 days 00:00:31.152000,0 days 00:00:28.899000,274.0,292.0,284.0,318.0,hard,4.0
0 days 00:23:04.104000,99,0 days 00:01:41.492000,5,"","",0 days 00:00:28.986000,0 days 00:00:37.693000,0 days 00:00:34.813000,169.0,195.0,284.0,260.0,hard,5.0
0 days 00:24:26.468000,99,0 days 00:01:22.364000,6,"","",0 days 00:00:22.985000,0 days 00:00:31.147000,0 days 00:00:28.232000,274.0,287.0,284.0,321.0,hard,6.0
0 days 00:26:08.869000,99,0 days 00:01:42.401000,7,"","",0 days 00:00:28.838000,0 days 00:00:39.151000,0 days 00:00:34.412000,164.0,164.0,284.0,281.0,hard,7.0
0 days 00:27:47.294000,99,0 days 00:01:38.425000,8,"","",0 days 00:00:23.391000,0 days 00:00:40.314000,0 days 00:00:34.720000,262.0,89.0,281.0,324.0,hard,8.0
0 days 00:29:09.417000,99,0 days 00:01:22.123000,9,"","",0 days 00:00:22.834000,0 days 00:00:31.032000,0 days 00:00:28.257000,277.0,280.0,284.0,318.0,hard,9.0
0 days 00:30:42.408000,99,0 days 00:01:32.991000,10,"","",0 days 00:00:25.662000,0 days 00:00:36.257000,0 days 00:00:31.072000,224.0,160.0,282.0,300.0,hard,10.0
0 days 00:32:04.180000,99,0 days 00:01:21.772000,11,"","",0 days 00:00:22.767000,0 days 00:00:30.855000,0 days 00:00:28.150000,277.0,291.0,283.0,315.0,hard,11.0
0 days 00:33:41.347000,99,0 days 00:01:37.167000,12,"",0 days 00:33:40.526000,0 days 00:00:25.055000,0 days 00:00:34.782000,0 days 00:00:37.330000,218.0,205.0,"",299.0,hard,12.0
0 days 00:36:08.225000,99,0 days 00:02:26.878000,13,0 days 00:33:57.531000,0 days 00:36:05.964000,0 days 00:01:07.441000,0 days 00:00:38.737000,0 days 00:00:40.700000,138.0,183.0,"",243.0,hard,13.0
0 days 00:50:20.893000,99,"",14,0 days 00:48:30.004000,"","",0 days 00:00:41.716000,0 days 00:00:37.150000,158.0,186.0,280.0,183.0,soft,1.0
0 days 00:51:40.587000,99,0 days 00:01:19.694000,15,"","",0 days 00:00:22.348000,0 days 00:00:30.074000,0 days 00:00:27.272000,279.0,297.0,283.0,315.0,soft,2.0
0 days 00:53:48.112000,99,0 days 00:02:07.525000,16,"","",0 days 00:00:34.947000,0 days 00:00:51.791000,0 days 00:00:40.787000,134.0,122.0,283.0,134.0,soft,3.0
0 days 00:55:07.815000,99,0 days 00:01:19.703000,17,"","",0 days 00:00:22.230000,0 days 00:00:30.055000,0 days 00:00:27.418000,282.0,296.0,284.0,322.0,soft,4.0
0 days 00:56:51.802000,99,0 days 00:01:43.987000,18,"",0 days 00:56:49.108000,0 days 00:00:32.271000,0 days 00:00:35.341000,0 days 00:00:36.375000,123.0,203.0,"",301.0,soft,5.0
0 days 01:11:27.572000,99,"",19,0 days 01:09:49.844000,"","",0 days 00:00:38.104000,0 days 00:00:31.817000,168.0,197.0,282.0,245.0,soft,6.0
0 days 01:12:48.104000,99,0 days 00:01:20.532000,20,"","",0 days 00:00:22.536000,0 days 00:00:30.209000,0 days 00:00:27.787000,282.0,286.0,283.0,320.0,soft,7.0
0 days 01:14:40.886000,99,0 days 00:01:52.782000,21,"","",0 days 00:00:30.328000,0 days 00:00:48.685000,0 days 00:00:33.769000,128.0,149.0,282.0,301.0,soft,8.0
0 days 01:16:01.722000,99,0 days 00:01:20.836000,22,"","",0 days 00:00:22.579000,0 days 00:00:30.398000,0 days 00:00:27.859000,281.0,296.0,285.0,320.0,soft,9.0
0 days 01:17:35.072000,99,0 days 00:01:33.350000,23,"",0 days 01:17:32.393000,0 days 00:00:24.650000,0 days 00:00:33.360000,0 days 00:00:35.340000,249.0,239.0,"",308.0,soft,10.0
