Time,AirTemp,Humidity,Pressure,Rainfall,TrackTemp,WindDirection,WindSpeed
0 days 00:00:47.765000,21.6,31.1,782.6,false,44.2,337,0.4
0 days 00:01:47.772000,21.7,30.3,782.7,false,44.3,140,0.2
0 days 00:02:47.773000,21.8,30.3,782.6,false,44.5,250,0.4
0 days 00:03:47.771000,21.7,29.7,782.6,false,44.9,123,0.4
0 days 00:04:47.784000,21.5,30.1,782.6,false,44.9,235,0.3
0 days 00:05:47.772000,21.5,30.3,782.5,false,44.7,290,0.1
0 days 00:06:47.773000,21.6,30.4,782.6,false,44.9,217,0.2
0 days 00:07:47.785000,21.6,29.6,782.5,false,44.7,252,0.1
0 days 00:08:47.774000,21.5,29.8,782.6,false,44.3,265,0.3
0 days 00:09:47.772000,21.4,30.4,782.5,false,43.5,0,0.3
0 days 00:10:47.772000,21.4,30.3,782.5,false,43.3,229,0.1
0 days 00:11:47.771000,21.4,30.3,782.6,false,42.8,240,0.1
0 days 00:12:47.776000,21.3,30.2,782.6,false,42.5,253,0.4
0 days 00:13:47.773000,21.2,30.2,782.5,false,42.1,291,0.4
0 days 00:14:47.771000,21.2,29.9,782.5,false,42.2,0,0.4
0 days 00:15:47.773000,21.2,29.8,782.6,false,42.1,285,0.1
0 days 00:16:47.773000,21.2,29.9,782.5,false,42.3,276,0.6
0 days 00:17:47.772000,21.2,30.1,782.6,false,42.4,120,0.2
0 days 00:18:47.773000,21.3,30.0,782.5,false,42.4,285,0.1
0 days 00:19:47.774000,21.5,29.6,782.5,false,43.0,260,0.5
0 days 00:20:47.799000,21.7,30.0,782.5,false,43.0,217,0.7
0 days 00:21:47.774000,21.8,30.2,782.5,false,42.0,265,0.4
0 days 00:22:47.771000,21.9,30.3,782.5,false,41.8,289,0.4
0 days 00:23:47.773000,22.0,30.3,782.5,false,41.7,312,0.4
0 days 00:24:47.797000,22.0,29.8,782.4,false,41.8,288,0.2
0 days 00:25:47.805000,22.0,29.5,782.5,false,41.4,297,0.7
0 days 00:26:47.804000,22.0,29.5,782.6,false,41.2,293,0.5
0 days 00:27:47.825000,21.9,29.4,782.5,false,41.2,288,0.4
0 days 00:28:47.827000,21.9,29.4,782.5,false,41.4,263,0.1
0 days 00:29:47.818000,21.9,29.8,782.4,false,41.4,0,0.4
0 days 00:30:47.820000,22.0,29.6,782.5,false,41.6,278,0.3
0 days 00:31:47.818000,22.0,29.9,782.5,false,41.8,252,0.4
0 days 00:32:47.823000,21.9,29.7,782.5,false,42.2,253,0.5
0 days 00:33:47.835000,21.9,29.1,782.4,false,42.2,273,0.3
0 days 00:34:47.848000,21.9,29.4,782.5,false,42.1,307,0.5
0 days 00:35:47.867000,22.0,29.3,782.5,false,42.1,254,0.5
0 days 00:36:47.882000,22.0,28.9,782.5,false,41.6,282,0.5
0 days 00:37:47.897000,21.9,29.0,782.5,false,41.6,258,0.5
0 days 00:38:47.897000,21.9,28.8,782.5,false,41.2,271,0.4
0 days 00:39:47.897000,21.8,29.2,782.4,false,40.9,261,0.6
0 days 00:40:47.910000,21.7,29.2,782.4,false,40.6,259,0.7
0 days 00:41:47.901000,21.8,29.2,782.4,false,40.5,254,0.7
0 days 00:42:47.898000,21.8,29.5,782.5,false,40.7,279,0.9
0 days 00:43:47.899000,21.9,29.2,782.4,false,41.1,255,0.5
0 days 00:44:47.897000,21.9,29.4,782.5,false,41.2,302,0.9
0 days 00:45:47.909000,22.0,29.0,782.4,false,41.2,239,0.6
0 days 00:46:47.896000,22.0,29.3,782.4,false,41.2,272,0.5
0 days 00:47:47.899000,22.0,29.2,782.4,false,41.3,259,0.7
0 days 00:48:47.904000,22.0,28.6,782.4,false,41.3,279,0.6
0 days 00:49:47.898000,22.1,29.1,782.5,false,41.2,285,0.5
0 days 00:50:47.899000,22.2,29.1,782.4,false,41.1,268,0.8
0 days 00:51:47.899000,22.1,28.5,782.3,false,41.1,280,0.8
0 days 00:52:47.897000,22.0,28.8,782.4,false,40.9,285,0.7
0 days 00:53:47.898000,22.1,28.5,782.4,false,40.8,315,0.5
0 days 00:54:47.898000,22.0,28.7,782.4,false,40.5,191,0.3
0 days 00:55:47.898000,22.1,28.6,782.4,false,40.4,312,0.2
0 days 00:56:47.900000,22.0,28.2,782.5,false,40.2,284,0.2
0 days 00:57:47.897000,22.0,28.2,782.4,false,40.0,0,0.2
0 days 00:58:47.900000,21.9,27.9,782.4,false,40.0,313,0.1
0 days 00:59:47.902000,22.0,27.7,782.5,false,40.0,240,0.3
0 days 01:00:47.898000,22.0,28.2,782.5,false,40.1,262,0.3
0 days 01:01:47.900000,22.1,27.9,782.4,false,40.3,249,0.3
0 days 01:02:47.901000,22.1,28.7,782.4,false,40.3,267,0.6
0 days 01:03:47.899000,22.1,28.5,782.5,false,39.7,240,0.4
0 days 01:04:47.900000,21.9,28.5,782.4,false,39.5,228,0.5
0 days 01:05:47.899000,21.8,27.1,782.5,false,39.2,154,0.5
0 days 01:06:47.903000,21.7,28.1,782.4,false,39.1,276,0.1
0 days 01:07:47.911000,21.5,28.8,782.4,false,39.1,199,0.3
0 days 01:08:47.899000,21.5,29.0,782.4,false,39.2,237,0.3
0 days 01:09:47.903000,21.6,29.6,782.4,false,39.3,296,0.3
0 days 01:10:47.898000,21.6,29.1,782.4,false,39.6,265,0.2
0 days 01:11:47.900000,21.7,29.2,782.4,false,39.7,263,0.5
0 days 01:12:47.903000,21.7,29.4,782.4,false,39.6,286,0.6
0 days 01:13:47.901000,21.7,29.4,782.4,false,39.3,259,0.4
0 days 01:14:47.903000,21.8,28.8,782.4,false,39.2,280,0.4
0 days 01:15:47.898000,21.8,28.7,782.4,false,39.1,181,0.6
0 days 01:16:47.900000,21.9,28.7,782.3,false,38.9,280,0.3
0 days 01:17:47.899000,21.9,28.9,782.4,false,38.8,244,0.6
0 days 01:18:47.898000,21.9,29.0,782.4,false,38.3,260,0.5
0 days 01:19:47.900000,21.9,28.7,782.4,false,38.0,269,0.8
