Time,DriverNumber,LapTime,LapNumber,PitOutTime,PitInTime,Sector1Time,Sector2Time,Sector3Time,SpeedI1,SpeedI2,SpeedFL,SpeedST,Compound,TyreLife
0 days 00:30:03.977000,44,"",1,0 days 00:28:26.021000,"","",0 days 00:00:33.296000,0 days 00:00:37.575000,225.0,255.0,283.0,158.0,medium,1.0
0 days 00:31:22.222000,44,0 days 00:01:18.245000,2,"","",0 days 00:00:22.016000,0 days 00:00:29.207000,0 days 00:00:27.022000,287.0,305.0,284.0,313.0,medium,2.0
0 days 00:33:17.138000,44,0 days 00:01:54.916000,3,"","",0 days 00:00:32.376000,0 days 00:00:43.870000,0 days 00:00:38.670000,182.0,205.0,230.0,267.0,medium,3.0
0 days 00:35:02.385000,44,0 days 00:01:45.247000,4,"","",0 days 00:00:30.060000,0 days 00:00:42.225000,0 days 00:00:32.962000,212.0,217.0,285.0,283.0,medium,4.0
0 days 00:36:22.890000,44,0 days 00:01:20.505000,5,"","",0 days 00:00:21.967000,0 days 00:00:29.319000,0 days 00:00:29.219000,289.0,303.0,254.0,317.0,medium,5.0
0 days 00:38:03.386000,44,0 days 00:01:40.496000,6,"",0 days 00:37:57.618000,0 days 00:00:27.081000,0 days 00:00:34.752000,0 days 00:00:38.663000,235.0,227.0,"",285.0,medium,6.0
0 days 00:42:30.769000,44,"",7,0 days 00:40:49.675000,0 days 00:42:28.049000,"",0 days 00:00:35.447000,0 days 00:00:35.932000,213.0,218.0,"",225.0,soft,1.0
0 days 00:53:07.005000,44,"",8,0 days 00:51:28.556000,"","",0 days 00:00:38.824000,0 days 00:00:32.301000,229.0,217.0,282.0,230.0,soft,1.0
0 days 00:54:24.637000,44,0 days 00:01:17.632000,9,"","",0 days 00:00:22.026000,0 days 00:00:28.831000,0 days 00:00:26.775000,287.0,301.0,285.0,308.0,soft,2.0
0 days 00:56:05.347000,44,0 days 00:01:40.710000,10,"",0 days 00:56:02.536000,0 days 00:00:29.121000,0 days 00:00:35.352000,0 days 00:00:36.237000,210.0,212.0,"",203.0,soft,3.0
0 days 01:04:16.187000,44,"",11,0 days 01:02:23.936000,"","",0 days 00:00:37.015000,0 days 00:00:43.705000,222.0,227.0,283.0,215.0,soft,2.0
0 days 01:05:33.353000,44,0 days 00:01:17.166000,12,"","",0 days 00:00:21.865000,0 days 00:00:28.758000,0 days 00:00:26.543000,288.0,302.0,283.0,312.0,soft,3.0
0 days 01:07:12.339000,44,0 days 00:01:38.986000,13,"",0 days 01:07:09.512000,0 days 00:00:26.575000,0 days 00:00:36.010000,0 days 00:00:36.401000,217.0,207.0,"",290.0,soft,4.0
0 days 01:16:45.683000,44,"",14,0 days 01:14:54.386000,"","",0 days 00:00:41.523000,0 days 00:00:37.040000,205.0,206.0,284.0,212.0,soft,1.0
0 days 01:18:02.424000,44,0 days 00:01:16.741000,15,"","",0 days 00:00:21.798000,0 days 00:00:28.543000,0 days 00:00:26.400000,287.0,304.0,285.0,313.0,soft,2.0
0 days 01:19:33.781000,44,0 days 00:01:31.357000,16,"",0 days 01:19:30.921000,0 days 00:00:24.061000,0 days 00:00:33.907000,0 days 00:00:33.389000,239.0,221.0,"",292.0,soft,3.0
0 days 01:24:21.976000,44,"",17,0 days 01:22:34.394000,"","",0 days 00:00:40.933000,0 days 00:00:32.123000,217.0,235.0,283.0,192.0,soft,1.0
0 days 01:25:39.015000,44,0 days 00:01:17.039000,18,"","",0 days 00:00:21.788000,0 days 00:00:28.756000,0 days 00:00:26.495000,283.0,302.0,283.0,312.0,soft,2.0
0 days 01:27:23.225000,44,"",19,"",0 days 01:27:23.225000,0 days 00:00:25.389000,0 days 00:00:39.835000,"",230.0,183.0,"",290.0,soft,3.0
0 days 00:30:09.646000,33,"",1,0 days 00:28:08.581000,"","",0 days 00:00:48.509000,0 days 00:00:45.328000,234.0,234.0,283.0,235.0,soft,1.0
0 days 00:31:27.736000,33,0 days 00:01:18.090000,2,"","",0 days 00:00:21.961000,0 days 00:00:29.097000,0 days 00:00:27.032000,286.0,305.0,285.0,311.0,soft,2.0
0 days 00:33:46.150000,33,0 days 00:02:18.414000,3,"","",0 days 00:00:35.986000,0 days 00:00:56.314000,0 days 00:00:46.114000,124.0,141.0,182.0,186.0,soft,3.0
0 days 00:35:49.040000,33,0 days 00:02:02.890000,4,"","",0 days 00:00:41.930000,0 days 00:00:46.759000,0 days 00:00:34.201000,174.0,240.0,282.0,211.0,soft,4.0
0 days 00:37:15.535000,33,0 days 00:01:26.495000,5,"",0 days 00:37:12.780000,0 days 00:00:22.096000,0 days 00:00:29.193000,0 days 00:00:35.206000,287.0,305.0,"",311.0,soft,5.0
0 days 00:54:10.101000,33,"",6,0 days 00:52:17.782000,"","",0 days 00:00:41.682000,0 days 00:00:41.069000,205.0,230.0,284.0,226.0,soft,1.0
0 days 00:55:27.023000,33,0 days 00:01:16.922000,7,"","",0 days 00:00:21.800000,0 days 00:00:28.761000,0 days 00:00:26.361000,288.0,305.0,282.0,312.0,soft,2.0
0 days 00:57:04.971000,33,0 days 00:01:37.948000,8,"",0 days 00:57:02.189000,0 days 00:00:26.014000,0 days 00:00:35.102000,0 days 00:00:36.832000,217.0,197.0,"",275.0,soft,3.0
0 days 01:16:50.872000,33,"",9,0 days 01:14:57.847000,"","",0 days 00:00:40.776000,0 days 00:00:39.451000,229.0,238.0,285.0,204.0,soft,1.0
0 days 01:18:07.649000,33,0 days 00:01:16.777000,10,"","",0 days 00:00:21.759000,0 days 00:00:28.723000,0 days 00:00:26.295000,288.0,305.0,284.0,312.0,soft,2.0
0 days 01:19:37.968000,33,0 days 00:01:30.319000,11,"",0 days 01:19:35.275000,0 days 00:00:25.354000,0 days 00:00:32.698000,0 days 00:00:32.267000,221.0,240.0,"",273.0,soft,3.0
0 days 01:24:34.129000,33,"",12,0 days 01:22:42.203000,"","",0 days 00:00:37.379000,0 days 00:00:40.717000,186.0,248.0,284.0,184.0,soft,1.0
0 days 01:25:51.067000,33,0 days 00:01:16.938000,13,"","",0 days 00:00:21.760000,0 days 00:00:28.724000,0 days 00:00:26.454000,288.0,307.0,283.0,313.0,soft,2.0
0 days 01:27:37.737000,33,"",14,"",0 days 01:27:37.737000,0 days 00:00:33.457000,0 days 00:00:34.427000,"",212.0,198.0,"",158.0,soft,3.0
0 days 00:30:15.525000,77,"",1,0 days 00:28:28.804000,"","",0 days 00:00:32.534000,0 days 00:00:47.316000,232.0,237.0,283.0,239.0,medium,1.0
0 days 00:31:33.530000,77,0 days 00:01:18.005000,2,"","",0 days 00:00:21.927000,0 days 00:00:29.144000,0 days 00:00:26.934000,287.0,304.0,286.0,314.0,medium,2.0
0 days 00:33:49.257000,77,0 days 00:02:15.727000,3,"","",0 days 00:00:33.263000,0 days 00:00:56.360000,0 days 00:00:46.104000,174.0,185.0,284.0,244.0,medium,3.0
0 days 00:35:32.309000,77,0 days 00:01:43.052000,4,"",0 days 00:35:25.928000,0 days 00:00:21.970000,0 days 00:00:43.271000,0 days 00:00:37.811000,287.0,224.0,"",315.0,medium,4.0
0 days 00:53:14.596000,77,"",5,0 days 00:51:29.948000,"","",0 days 00:00:40.352000,0 days 00:00:33.141000,215.0,215.0,284.0,197.0,soft,1.0
0 days 00:54:31.996000,77,0 days 00:01:17.400000,6,"","",0 days 00:00:21.911000,0 days 00:00:28.797000,0 days 00:00:26.692000,287.0,302.0,285.0,310.0,soft,2.0
0 days 00:56:11.133000,77,0 days 00:01:39.137000,7,"",0 days 00:56:08.330000,0 days 00:00:27.592000,0 days 00:00:34.779000,0 days 00:00:36.766000,240.0,224.0,"",275.0,soft,3.0
0 days 01:04:27.919000,77,"",8,0 days 01:02:26.078000,"","",0 days 00:00:40.666000,0 days 00:00:45.982000,209.0,218.0,286.0,171.0,soft,1.0
0 days 01:05:45.061000,77,0 days 00:01:17.142000,9,"","",0 days 00:00:21.757000,0 days 00:00:28.759000,0 days 00:00:26.626000,284.0,303.0,283.0,313.0,soft,2.0
0 days 01:07:26.067000,77,0 days 00:01:41.006000,10,"",0 days 01:07:23.182000,0 days 00:00:26.481000,0 days 00:00:36.364000,0 days 00:00:38.161000,234.0,208.0,"",292.0,soft,3.0
0 days 01:16:57.475000,77,"",11,0 days 01:14:56.535000,"","",0 days 00:00:46.314000,0 days 00:00:42.569000,208.0,191.0,283.0,217.0,soft,1.0
0 days 01:18:14.348000,77,0 days 00:01:16.873000,12,"","",0 days 00:00:21.832000,0 days 00:00:28.612000,0 days 00:00:26.429000,282.0,304.0,285.0,312.0,soft,2.0
0 days 01:19:52.785000,77,0 days 00:01:38.437000,13,"",0 days 01:19:49.947000,0 days 00:00:26.511000,0 days 00:00:34.451000,0 days 00:00:37.475000,223.0,227.0,"",292.0,soft,3.0
0 days 01:24:29.200000,77,"",14,0 days 01:22:35.736000,"","",0 days 00:00:40.807000,0 days 00:00:37.065000,213.0,212.0,283.0,187.0,soft,1.0
0 days 01:25:46.334000,77,0 days 00:01:17.134000,15,"","",0 days 00:00:21.837000,0 days 00:00:28.715000,0 days 00:00:26.582000,283.0,303.0,283.0,312.0,soft,2.0
0 days 01:27:36.430000,77,"",16,"",0 days 01:27:36.430000,0 days 00:00:33.256000,0 days 00:00:37.177000,"",199.0,184.0,"",120.0,soft,3.0
0 days 00:31:30.118000,16,"",1,0 days 00:29:41.190000,"","",0 days 00:00:44.483000,0 days 00:00:34.015000,210.0,190.0,284.0,232.0,soft,1.0
0 days 00:32:48.539000,16,0 days 00:01:18.421000,2,"","",0 days 00:00:22.084000,0 days 00:00:29.365000,0 days 00:00:26.972000,284.0,300.0,285.0,318.0,soft,2.0
0 days 00:34:30.065000,16,0 days 00:01:41.526000,3,"",0 days 00:34:27.346000,0 days 00:00:28.714000,0 days 00:00:37.540000,0 days 00:00:35.272000,194.0,222.0,"",272.0,soft,3.0
0 days 00:41:23.988000,16,"",4,0 days 00:39:37.091000,"","",0 days 00:00:40.902000,0 days 00:00:37.217000,224.0,177.0,281.0,233.0,soft,1.0
0 days 00:42:42.029000,16,0 days 00:01:18.041000,5,"","",0 days 00:00:22.116000,0 days 00:00:29.206000,0 days 00:00:26.719000,286.0,302.0,282.0,311.0,soft,2.0
0 days 00:44:28.278000,16,0 days 00:01:46.249000,6,"",0 days 00:44:25.490000,0 days 00:00:27.694000,0 days 00:00:39.516000,0 days 00:00:39.039000,183.0,174.0,"",274.0,soft,3.0
0 days 00:56:30.467000,16,"",7,0 days 00:54:35.208000,"","",0 days 00:00:43.598000,0 days 00:00:41.107000,194.0,176.0,281.0,215.0,soft,1.0
0 days 00:57:48.386000,16,0 days 00:01:17.919000,8,"","",0 days 00:00:21.952000,0 days 00:00:28.988000,0 days 00:00:26.979000,285.0,303.0,281.0,312.0,soft,2.0
0 days 00:59:26.853000,16,0 days 00:01:38.467000,9,"",0 days 00:59:24.064000,0 days 00:00:26.849000,0 days 00:00:35.976000,0 days 00:00:35.642000,216.0,224.0,"",288.0,soft,3.0
0 days 01:03:07.681000,16,"",10,0 days 01:01:24.296000,"","",0 days 00:00:38.278000,0 days 00:00:31.624000,216.0,237.0,278.0,180.0,soft,1.0
0 days 01:04:25.398000,16,0 days 00:01:17.717000,11,"","",0 days 00:00:22.087000,0 days 00:00:29.050000,0 days 00:00:26.580000,284.0,301.0,277.0,307.0,soft,2.0
0 days 01:06:14.873000,16,0 days 00:01:49.475000,12,"",0 days 01:06:12.051000,0 days 00:00:29.406000,0 days 00:00:38.983000,0 days 00:00:41.086000,206.0,145.0,"",205.0,soft,3.0
0 days 01:15:58.234000,16,"",13,0 days 01:14:15.984000,"","",0 days 00:00:37.903000,0 days 00:00:35.439000,227.0,198.0,281.0,156.0,soft,4.0
0 days 01:17:15.942000,16,0 days 00:01:17.708000,14,"","",0 days 00:00:22.044000,0 days 00:00:28.969000,0 days 00:00:26.695000,288.0,303.0,282.0,309.0,soft,5.0
0 days 01:18:51.863000,16,0 days 00:01:35.921000,15,"",0 days 01:18:49.063000,0 days 00:00:27.028000,0 days 00:00:35.268000,0 days 00:00:33.625000,224.0,204.0,"",290.0,soft,6.0
0 days 01:24:49.370000,16,"",16,0 days 01:22:40.098000,"","",0 days 00:00:43.030000,0 days 00:00:52.923000,171.0,181.0,282.0,177.0,soft,1.0
0 days 01:26:06.880000,16,0 days 00:01:17.510000,17,"","",0 days 00:00:21.880000,0 days 00:00:28.822000,0 days 00:00:26.808000,287.0,302.0,278.0,313.0,soft,2.0
0 days 01:27:54.611000,16,"",18,"",0 days 01:27:54.611000,0 days 00:00:29.815000,0 days 00:00:40.274000,"",191.0,123.0,"",197.0,soft,3.0
0 days 00:33:36.664000,31,"",1,0 days 00:31:38.100000,"","",0 days 00:00:42.011000,0 days 00:00:44.118000,231.0,206.0,284.0,188.0,soft,1.0
0 days 00:34:54.945000,31,0 days 00:01:18.281000,2,"","",0 days 00:00:21.989000,0 days 00:00:29.331000,0 days 00:00:26.961000,284.0,302.0,284.0,318.0,soft,2.0
0 days 00:36:37.154000,31,0 days 00:01:42.209000,3,"",0 days 00:36:34.447000,0 days 00:00:29.428000,0 days 00:00:35.977000,0 days 00:00:36.804000,75.0,209.0,"",294.0,soft,3.0
0 days 00:56:11.206000,31,"",4,0 days 00:54:22.510000,"","",0 days 00:00:42.747000,0 days 00:00:33.263000,195.0,244.0,283.0,173.0,soft,1.0
0 days 00:57:29.247000,31,0 days 00:01:18.041000,5,"","",0 days 00:00:22.045000,0 days 00:00:29.076000,0 days 00:00:26.920000,284.0,301.0,282.0,312.0,soft,2.0
0 days 00:59:17.353000,31,0 days 00:01:48.106000,6,"",0 days 00:59:06.156000,0 days 00:00:25.671000,0 days 00:00:36.217000,0 days 00:00:46.218000,231.0,212.0,"",288.0,soft,3.0
0 days 01:03:36.164000,31,"",7,0 days 01:01:39.299000,"","",0 days 00:00:41.710000,0 days 00:00:41.883000,206.0,196.0,284.0,166.0,soft,1.0
0 days 01:04:53.907000,31,0 days 00:01:17.743000,8,"","",0 days 00:00:21.856000,0 days 00:00:29.144000,0 days 00:00:26.743000,286.0,303.0,287.0,318.0,soft,2.0
0 days 01:06:35.958000,31,0 days 00:01:42.051000,9,"",0 days 01:06:33.128000,0 days 00:00:26.792000,0 days 00:00:37.152000,0 days 00:00:38.107000,215.0,196.0,"",298.0,soft,3.0
0 days 01:16:19.358000,31,"",10,0 days 01:14:20.299000,"","",0 days 00:00:43.397000,0 days 00:00:41.634000,178.0,233.0,285.0,164.0,soft,1.0
0 days 01:17:36.938000,31,0 days 00:01:17.580000,11,"","",0 days 00:00:21.861000,0 days 00:00:29.087000,0 days 00:00:26.632000,286.0,304.0,286.0,317.0,soft,2.0
0 days 01:19:18.265000,31,0 days 00:01:41.327000,12,"",0 days 01:19:15.462000,0 days 00:00:26.464000,0 days 00:00:36.978000,0 days 00:00:37.885000,231.0,207.0,"",294.0,soft,3.0
0 days 01:24:54.933000,31,"",13,0 days 01:22:37.734000,"","",0 days 00:00:42.088000,0 days 00:00:57.751000,125.0,206.0,283.0,150.0,soft,1.0
0 days 01:26:12.801000,31,0 days 00:01:17.868000,14,"","",0 days 00:00:21.876000,0 days 00:00:29.134000,0 days 00:00:26.858000,284.0,302.0,285.0,317.0,soft,2.0
0 days 01:27:57.544000,31,"",15,"",0 days 01:27:57.544000,0 days 00:00:28.613000,0 days 00:00:37.698000,"",207.0,174.0,"",294.0,soft,3.0
0 days 00:31:24.235000,55,"",1,0 days 00:29:39.565000,"","",0 days 00:00:39.478000,0 days 00:00:35.399000,206.0,136.0,283.0,229.0,soft,1.0
0 days 00:32:42.440000,55,0 days 00:01:18.205000,2,"","",0 days 00:00:21.991000,0 days 00:00:29.103000,0 days 00:00:27.111000,284.0,298.0,283.0,317.0,soft,2.0
0 days 00:34:21.702000,55,0 days 00:01:39.262000,3,"",0 days 00:34:19.003000,0 days 00:00:26.438000,0 days 00:00:35.836000,0 days 00:00:36.988000,207.0,215.0,"",276.0,soft,3.0
0 days 00:56:23.683000,55,"",4,0 days 00:54:33.859000,"","",0 days 00:00:38.617000,0 days 00:00:40.582000,210.0,207.0,281.0,213.0,soft,1.0
0 days 00:57:41.530000,55,0 days 00:01:17.847000,5,"","",0 days 00:00:21.990000,0 days 00:00:28.986000,0 days 00:00:26.871000,285.0,302.0,279.0,311.0,soft,2.0
0 days 00:59:24.522000,55,0 days 00:01:42.992000,6,"",0 days 00:59:21.737000,0 days 00:00:27.311000,0 days 00:00:38.070000,0 days 00:00:37.611000,201.0,204.0,"",284.0,soft,3.0
0 days 01:03:13.080000,55,"",7,0 days 01:01:22.905000,"","",0 days 00:00:40.608000,0 days 00:00:34.094000,189.0,236.0,280.0,209.0,soft,1.0
0 days 01:04:30.736000,55,0 days 00:01:17.656000,8,"","",0 days 00:00:21.997000,0 days 00:00:29.031000,0 days 00:00:26.628000,287.0,303.0,282.0,309.0,soft,2.0
0 days 01:06:17.592000,55,0 days 00:01:46.856000,9,"",0 days 01:06:14.811000,0 days 00:00:28.591000,0 days 00:00:38.708000,0 days 00:00:39.557000,188.0,182.0,"",241.0,soft,3.0
0 days 01:16:04.331000,55,"",10,0 days 01:14:13.020000,"","",0 days 00:00:42.375000,0 days 00:00:38.481000,205.0,233.0,282.0,220.0,soft,1.0
0 days 01:17:21.951000,55,0 days 00:01:17.620000,11,"","",0 days 00:00:21.942000,0 days 00:00:28.908000,0 days 00:00:26.770000,288.0,302.0,279.0,310.0,soft,2.0
0 days 01:19:05.342000,55,0 days 00:01:43.391000,12,"",0 days 01:19:02.550000,0 days 00:00:28.656000,0 days 00:00:37.946000,0 days 00:00:36.789000,186.0,206.0,"",273.0,soft,3.0
0 days 01:24:38.995000,55,"",13,0 days 01:22:38.904000,"","",0 days 00:00:40.016000,0 days 00:00:45.749000,220.0,234.0,281.0,184.0,soft,1.0
0 days 01:25:56.803000,55,0 days 00:01:17.808000,14,"","",0 days 00:00:21.910000,0 days 00:00:28.965000,0 days 00:00:26.933000,286.0,302.0,281.0,312.0,soft,2.0
0 days 01:27:43.581000,55,"",15,"",0 days 01:27:43.581000,0 days 00:00:29.251000,0 days 00:00:40.904000,"",185.0,165.0,"",232.0,soft,3.0
0 days 00:33:41.501000,3,"",1,0 days 00:31:38.951000,"","",0 days 00:00:44.763000,0 days 00:00:43.812000,218.0,214.0,286.0,203.0,soft,1.0
0 days 00:34:59.765000,3,0 days 00:01:18.264000,2,"","",0 days 00:00:21.879000,0 days 00:00:29.242000,0 days 00:00:27.143000,287.0,306.0,287.0,317.0,soft,2.0
0 days 00:36:40.617000,3,0 days 00:01:40.852000,3,"",0 days 00:36:37.957000,0 days 00:00:29.999000,0 days 00:00:35.261000,0 days 00:00:35.592000,229.0,244.0,"",230.0,soft,3.0
0 days 00:56:36.361000,3,"",4,0 days 00:54:45.857000,"","",0 days 00:00:43.679000,0 days 00:00:35.506000,209.0,235.0,285.0,218.0,soft,1.0
0 days 00:57:54.398000,3,0 days 00:01:18.037000,5,"","",0 days 00:00:21.815000,0 days 00:00:29.180000,0 days 00:00:27.042000,284.0,304.0,288.0,316.0,soft,2.0
0 days 00:59:31.694000,3,0 days 00:01:37.296000,6,"",0 days 00:59:28.892000,0 days 00:00:25.310000,0 days 00:00:34.706000,0 days 00:00:37.280000,243.0,243.0,"",289.0,soft,3.0
0 days 01:04:01.511000,3,"",7,0 days 01:02:07.413000,"","",0 days 00:00:46.729000,0 days 00:00:35.372000,182.0,156.0,286.0,190.0,soft,1.0
0 days 01:05:19.230000,3,0 days 00:01:17.719000,8,"","",0 days 00:00:21.724000,0 days 00:00:29.093000,0 days 00:00:26.902000,284.0,307.0,286.0,316.0,soft,2.0
0 days 01:07:05.434000,3,0 days 00:01:46.204000,9,"",0 days 01:07:02.641000,0 days 00:00:30.049000,0 days 00:00:37.941000,0 days 00:00:38.214000,220.0,231.0,"",253.0,soft,3.0
0 days 01:16:13.311000,3,"",10,0 days 01:14:14.217000,"","",0 days 00:00:45.678000,0 days 00:00:40.285000,198.0,246.0,286.0,171.0,soft,1.0
0 days 01:17:30.933000,3,0 days 00:01:17.622000,11,"","",0 days 00:00:21.773000,0 days 00:00:29.067000,0 days 00:00:26.782000,286.0,303.0,285.0,315.0,soft,2.0
0 days 01:19:08.918000,3,0 days 00:01:37.985000,12,"",0 days 01:19:06.024000,0 days 00:00:25.463000,0 days 00:00:35.099000,0 days 00:00:37.423000,233.0,244.0,"",273.0,soft,3.0
0 days 01:25:01.922000,3,"",13,0 days 01:22:51.331000,"","",0 days 00:00:38.329000,0 days 00:00:52.822000,221.0,235.0,277.0,174.0,soft,1.0
0 days 01:26:47.072000,3,"",14,"",0 days 01:26:47.072000,0 days 00:00:32.966000,0 days 00:00:38.371000,"",188.0,250.0,"",218.0,soft,2.0
0 days 00:29:57.950000,11,"",1,0 days 00:28:01.578000,"","",0 days 00:00:43.934000,0 days 00:00:40.619000,153.0,214.0,280.0,193.0,soft,1.0
0 days 00:31:16.559000,11,0 days 00:01:18.609000,2,"","",0 days 00:00:22.355000,0 days 00:00:29.259000,0 days 00:00:26.995000,285.0,300.0,279.0,304.0,soft,2.0
0 days 00:33:21.254000,11,0 days 00:02:04.695000,3,"","",0 days 00:00:40.812000,0 days 00:00:45.835000,0 days 00:00:38.048000,181.0,167.0,207.0,134.0,soft,3.0
0 days 00:35:36.807000,11,0 days 00:02:15.553000,4,"","",0 days 00:00:39.434000,0 days 00:01:01.846000,0 days 00:00:34.273000,121.0,138.0,281.0,244.0,soft,4.0
0 days 00:36:55.010000,11,0 days 00:01:18.203000,5,"","",0 days 00:00:22.176000,0 days 00:00:29.279000,0 days 00:00:26.748000,287.0,303.0,282.0,310.0,soft,5.0
0 days 00:38:42.838000,11,0 days 00:01:47.828000,6,"",0 days 00:38:40.171000,0 days 00:00:29.486000,0 days 00:00:42.891000,0 days 00:00:35.451000,185.0,218.0,"",267.0,soft,6.0
0 days 00:53:36.333000,11,"",7,0 days 00:51:37.601000,"","",0 days 00:00:47.417000,0 days 00:00:35.847000,201.0,229.0,276.0,150.0,soft,1.0
0 days 00:54:54.402000,11,0 days 00:01:18.069000,8,"","",0 days 00:00:22.234000,0 days 00:00:29.140000,0 days 00:00:26.695000,287.0,304.0,282.0,306.0,soft,2.0
0 days 00:57:04.103000,11,0 days 00:02:09.701000,9,"",0 days 00:56:40.466000,0 days 00:00:30.094000,0 days 00:00:39.947000,0 days 00:00:59.660000,183.0,241.0,"",253.0,soft,3.0
0 days 01:03:42.458000,11,"",10,0 days 01:01:45.385000,"","",0 days 00:00:44.444000,0 days 00:00:39.916000,170.0,253.0,283.0,169.0,soft,1.0
0 days 01:05:00.127000,11,0 days 00:01:17.669000,11,"","",0 days 00:00:21.883000,0 days 00:00:29.082000,0 days 00:00:26.704000,289.0,306.0,281.0,313.0,soft,2.0
0 days 01:06:41.182000,11,0 days 00:01:41.055000,12,"",0 days 01:06:38.373000,0 days 00:00:28.017000,0 days 00:00:35.484000,0 days 00:00:37.554000,226.0,204.0,"",250.0,soft,3.0
0 days 01:16:25.608000,11,"",13,0 days 01:14:17.828000,"","",0 days 00:00:50.313000,0 days 00:00:39.026000,135.0,240.0,284.0,148.0,soft,1.0
0 days 01:18:02.488000,11,0 days 00:01:36.880000,14,"",0 days 01:17:59.681000,0 days 00:00:21.915000,0 days 00:00:29.027000,0 days 00:00:45.938000,289.0,303.0,"",312.0,soft,2.0
0 days 01:24:44.101000,11,"",15,0 days 01:22:41.236000,"","",0 days 00:00:39.882000,0 days 00:00:46.416000,137.0,152.0,284.0,188.0,soft,1.0
0 days 01:26:01.802000,11,0 days 00:01:17.701000,16,"","",0 days 00:00:21.885000,0 days 00:00:28.976000,0 days 00:00:26.840000,289.0,305.0,284.0,314.0,soft,2.0
0 days 01:27:47.301000,11,"",17,"",0 days 01:27:47.301000,0 days 00:00:30.983000,0 days 00:00:37.015000,"",215.0,184.0,"",187.0,soft,3.0
0 days 00:32:38.766000,4,"",1,0 days 00:30:55.802000,"","",0 days 00:00:40.171000,0 days 00:00:32.979000,227.0,244.0,285.0,187.0,soft,1.0
0 days 00:33:57.572000,4,0 days 00:01:18.806000,2,"","",0 days 00:00:21.909000,0 days 00:00:29.323000,0 days 00:00:27.574000,288.0,299.0,299.0,313.0,soft,2.0
0 days 00:35:44.115000,4,0 days 00:01:46.543000,3,"",0 days 00:35:41.373000,0 days 00:00:34.116000,0 days 00:00:35.894000,0 days 00:00:36.533000,209.0,233.0,"",102.0,soft,3.0
0 days 00:42:08.708000,4,"",4,0 days 00:39:58.127000,"","",0 days 00:00:49.375000,0 days 00:00:49.736000,196.0,104.0,286.0,169.0,soft,1.0
0 days 00:43:26.529000,4,0 days 00:01:17.821000,5,"","",0 days 00:00:21.806000,0 days 00:00:29.110000,0 days 00:00:26.905000,284.0,304.0,286.0,316.0,soft,2.0
0 days 00:45:12.984000,4,0 days 00:01:46.455000,6,"",0 days 00:45:10.300000,0 days 00:00:29.018000,0 days 00:00:39.419000,0 days 00:00:38.018000,197.0,176.0,"",269.0,soft,3.0
0 days 00:54:03.905000,4,"",7,0 days 00:51:57.655000,"","",0 days 00:00:45.137000,0 days 00:00:49.020000,195.0,112.0,285.0,177.0,soft,1.0
0 days 00:55:21.601000,4,0 days 00:01:17.696000,8,"","",0 days 00:00:21.830000,0 days 00:00:29.021000,0 days 00:00:26.845000,287.0,302.0,287.0,314.0,soft,2.0
0 days 00:57:03.399000,4,0 days 00:01:41.798000,9,"",0 days 00:57:00.620000,0 days 00:00:28.050000,0 days 00:00:36.788000,0 days 00:00:36.960000,201.0,202.0,"",270.0,soft,3.0
0 days 01:04:10.013000,4,"",10,0 days 01:02:21.574000,"","",0 days 00:00:37.852000,0 days 00:00:38.810000,203.0,217.0,288.0,183.0,soft,1.0
0 days 01:05:57.845000,4,0 days 00:01:47.832000,11,"",0 days 01:05:55.078000,0 days 00:00:21.990000,0 days 00:00:43.834000,0 days 00:00:42.008000,194.0,210.0,"",316.0,soft,2.0
0 days 01:15:51.970000,4,"",12,0 days 01:14:10.157000,"","",0 days 00:00:37.901000,0 days 00:00:34.158000,173.0,109.0,285.0,221.0,soft,3.0
0 days 01:17:09.980000,4,0 days 00:01:18.010000,13,"","",0 days 00:00:21.827000,0 days 00:00:29.167000,0 days 00:00:27.016000,289.0,300.0,287.0,312.0,soft,4.0
0 days 01:18:47.465000,4,0 days 00:01:37.485000,14,"",0 days 01:18:44.700000,0 days 00:00:27.214000,0 days 00:00:35.984000,0 days 00:00:34.287000,211.0,207.0,"",266.0,soft,5.0
0 days 01:24:15.732000,4,"",15,0 days 01:22:32.756000,"","",0 days 00:00:39.149000,0 days 00:00:33.560000,192.0,214.0,285.0,206.0,soft,1.0
0 days 01:25:33.784000,4,0 days 00:01:18.052000,16,"","",0 days 00:00:21.807000,0 days 00:00:29.057000,0 days 00:00:27.188000,289.0,302.0,278.0,311.0,soft,2.0
0 days 01:27:08.700000,4,"",17,"",0 days 01:27:08.700000,0 days 00:00:28.368000,0 days 00:00:33.980000,"",202.0,204.0,"",270.0,soft,3.0
0 days 00:33:28.927000,14,"",1,0 days 00:31:35.830000,"","",0 days 00:00:39.506000,0 days 00:00:41.742000,207.0,236.0,283.0,192.0,soft,1.0
0 days 00:34:47.487000,14,0 days 00:01:18.560000,2,"","",0 days 00:00:22.005000,0 days 00:00:29.388000,0 days 00:00:27.167000,284.0,301.0,282.0,316.0,soft,2.0
0 days 00:36:36.966000,14,0 days 00:01:49.479000,3,"",0 days 00:36:31.342000,0 days 00:00:30.445000,0 days 00:00:39.127000,0 days 00:00:39.907000,188.0,187.0,"",211.0,soft,3.0
0 days 00:41:55.444000,14,"",4,0 days 00:39:46.059000,"","",0 days 00:00:47.281000,0 days 00:00:46.068000,99.0,193.0,283.0,180.0,soft,1.0
0 days 00:43:13.725000,14,0 days 00:01:18.281000,5,"","",0 days 00:00:21.944000,0 days 00:00:29.324000,0 days 00:00:27.013000,285.0,302.0,283.0,317.0,soft,2.0
0 days 00:44:57.649000,14,0 days 00:01:43.924000,6,"",0 days 00:44:54.937000,0 days 00:00:29.405000,0 days 00:00:38.415000,0 days 00:00:36.104000,174.0,203.0,"",226.0,soft,3.0
0 days 00:56:17.204000,14,"",7,0 days 00:54:28.261000,"","",0 days 00:00:41.112000,0 days 00:00:35.245000,184.0,212.0,283.0,170.0,soft,1.0
0 days 00:57:35.170000,14,0 days 00:01:17.966000,8,"","",0 days 00:00:21.928000,0 days 00:00:29.124000,0 days 00:00:26.914000,284.0,302.0,282.0,314.0,soft,2.0
0 days 00:59:20.989000,14,0 days 00:01:45.819000,9,"",0 days 00:59:18.203000,0 days 00:00:28.195000,0 days 00:00:39.145000,0 days 00:00:38.479000,186.0,180.0,"",242.0,soft,3.0
0 days 01:03:47.935000,14,"",10,0 days 01:01:57.565000,"","",0 days 00:00:40.444000,0 days 00:00:36.073000,189.0,229.0,285.0,166.0,soft,1.0
0 days 01:05:23.138000,14,0 days 00:01:35.203000,11,"",0 days 01:05:20.175000,0 days 00:00:21.875000,0 days 00:00:31.850000,0 days 00:00:41.478000,285.0,165.0,"",316.0,soft,2.0
0 days 01:16:40.169000,14,"",12,0 days 01:14:51.093000,"","",0 days 00:00:42.852000,0 days 00:00:34.304000,197.0,243.0,283.0,185.0,soft,3.0
0 days 01:17:58.695000,14,0 days 00:01:18.526000,13,"","",0 days 00:00:22.121000,0 days 00:00:29.406000,0 days 00:00:26.999000,283.0,298.0,281.0,311.0,soft,4.0
0 days 01:19:32.662000,14,0 days 00:01:33.967000,14,"",0 days 01:19:29.864000,0 days 00:00:25.926000,0 days 00:00:33.902000,0 days 00:00:34.139000,190.0,179.0,"",274.0,soft,5.0
0 days 01:24:59.442000,14,"",15,0 days 01:22:44.287000,"","",0 days 00:00:43.650000,0 days 00:00:52.748000,150.0,226.0,278.0,149.0,soft,1.0
0 days 01:26:17.589000,14,0 days 00:01:18.147000,16,"","",0 days 00:00:22.003000,0 days 00:00:29.241000,0 days 00:00:26.903000,283.0,304.0,285.0,315.0,soft,2.0
0 days 01:28:00.614000,14,"",17,"",0 days 01:28:00.614000,0 days 00:00:28.353000,0 days 00:00:40.445000,"",181.0,168.0,"",222.0,soft,3.0
0 days 00:30:40.534000,18,"",1,0 days 00:28:50.457000,"","",0 days 00:00:40.317000,0 days 00:00:34.520000,158.0,168.0,283.0,167.0,soft,1.0
0 days 00:31:59.611000,18,0 days 00:01:19.077000,2,"","",0 days 00:00:22.095000,0 days 00:00:29.606000,0 days 00:00:27.376000,286.0,295.0,285.0,315.0,soft,2.0
0 days 00:33:36.458000,18,0 days 00:01:36.847000,3,"",0 days 00:33:34.033000,0 days 00:00:25.802000,0 days 00:00:33.598000,0 days 00:00:37.447000,221.0,224.0,"",295.0,soft,3.0
0 days 00:41:43.173000,18,"",4,0 days 00:39:43.895000,"","",0 days 00:00:37.629000,0 days 00:00:50.395000,165.0,160.0,285.0,203.0,soft,1.0
0 days 00:43:01.414000,18,0 days 00:01:18.241000,5,"","",0 days 00:00:21.881000,0 days 00:00:29.244000,0 days 00:00:27.116000,285.0,295.0,286.0,317.0,soft,2.0
0 days 00:44:40.317000,18,0 days 00:01:38.903000,6,"",0 days 00:44:37.895000,0 days 00:00:24.731000,0 days 00:00:34.565000,0 days 00:00:39.607000,213.0,172.0,"",296.0,soft,3.0
0 days 00:53:52.210000,18,"",7,0 days 00:51:45.570000,"","",0 days 00:00:50.815000,0 days 00:00:38.749000,129.0,164.0,285.0,169.0,soft,1.0
0 days 00:55:10.184000,18,0 days 00:01:17.974000,8,"","",0 days 00:00:21.925000,0 days 00:00:29.081000,0 days 00:00:26.968000,284.0,297.0,285.0,315.0,soft,2.0
0 days 00:56:51.938000,18,0 days 00:01:41.754000,9,"",0 days 00:56:49.353000,0 days 00:00:24.719000,0 days 00:00:36.864000,0 days 00:00:40.171000,210.0,181.0,"",296.0,soft,3.0
0 days 01:03:30.927000,18,"",10,0 days 01:01:34.881000,"","",0 days 00:00:40.269000,0 days 00:00:40.669000,179.0,171.0,283.0,175.0,soft,1.0
0 days 01:04:49.394000,18,0 days 00:01:18.467000,11,"","",0 days 00:00:21.946000,0 days 00:00:29.277000,0 days 00:00:27.244000,286.0,303.0,281.0,317.0,soft,2.0
0 days 01:06:30.352000,18,0 days 00:01:40.958000,12,"",0 days 01:06:27.574000,0 days 00:00:24.824000,0 days 00:00:36.288000,0 days 00:00:39.846000,197.0,190.0,"",297.0,soft,3.0
0 days 00:33:23.530000,10,"",1,0 days 00:31:34.737000,"","",0 days 00:00:40.247000,0 days 00:00:37.259000,200.0,233.0,283.0,216.0,soft,1.0
0 days 00:34:41.720000,10,0 days 00:01:18.190000,2,"","",0 days 00:00:22.080000,0 days 00:00:29.267000,0 days 00:00:26.843000,285.0,300.0,283.0,312.0,soft,2.0
0 days 00:36:17.194000,10,0 days 00:01:35.474000,3,"",0 days 00:36:14.515000,0 days 00:00:25.005000,0 days 00:00:34.804000,0 days 00:00:35.665000,247.0,226.0,"",292.0,soft,3.0
0 days 00:53:43.501000,10,"",4,0 days 00:51:43.353000,"","",0 days 00:00:45.148000,0 days 00:00:40.265000,182.0,227.0,282.0,193.0,soft,1.0
0 days 00:55:01.483000,10,0 days 00:01:17.982000,5,"","",0 days 00:00:22.037000,0 days 00:00:29.002000,0 days 00:00:26.943000,287.0,306.0,284.0,309.0,soft,2.0
0 days 00:56:50.257000,10,0 days 00:01:48.774000,6,"",0 days 00:56:47.471000,0 days 00:00:28.355000,0 days 00:00:40.046000,0 days 00:00:40.373000,206.0,205.0,"",294.0,soft,3.0
0 days 01:03:20.582000,10,"",7,0 days 01:01:26.017000,"","",0 days 00:00:42.038000,0 days 00:00:34.093000,192.0,239.0,281.0,137.0,soft,1.0
0 days 01:04:38.613000,10,0 days 00:01:18.031000,8,"","",0 days 00:00:22.042000,0 days 00:00:29.162000,0 days 00:00:26.827000,287.0,303.0,283.0,310.0,soft,2.0
0 days 01:06:25.343000,10,0 days 00:01:46.730000,9,"",0 days 01:06:22.574000,0 days 00:00:30.555000,0 days 00:00:36.543000,0 days 00:00:39.632000,196.0,213.0,"",295.0,soft,3.0
0 days 00:30:57.245000,5,"",1,0 days 00:29:08.180000,"","",0 days 00:00:41.769000,0 days 00:00:35.448000,168.0,197.0,285.0,200.0,soft,1.0
0 days 00:32:16.140000,5,0 days 00:01:18.895000,2,"","",0 days 00:00:21.970000,0 days 00:00:29.576000,0 days 00:00:27.349000,288.0,296.0,286.0,317.0,soft,2.0
0 days 00:34:01.434000,5,0 days 00:01:45.294000,3,"",0 days 00:33:58.691000,0 days 00:00:26.155000,0 days 00:00:37.504000,0 days 00:00:41.635000,201.0,185.0,"",297.0,soft,3.0
0 days 00:42:00.288000,5,"",4,0 days 00:39:52.713000,"","",0 days 00:00:45.878000,0 days 00:00:47.584000,156.0,121.0,285.0,188.0,soft,1.0
0 days 00:43:18.577000,5,0 days 00:01:18.289000,5,"","",0 days 00:00:21.934000,0 days 00:00:29.306000,0 days 00:00:27.049000,288.0,295.0,286.0,318.0,soft,2.0
0 days 00:45:00.527000,5,0 days 00:01:41.950000,6,"",0 days 00:44:57.823000,0 days 00:00:27.512000,0 days 00:00:36.690000,0 days 00:00:37.748000,199.0,194.0,"",296.0,soft,3.0
0 days 00:54:14.173000,5,"",7,0 days 00:52:19.994000,"","",0 days 00:00:41.332000,0 days 00:00:41.985000,175.0,185.0,286.0,191.0,soft,1.0
0 days 00:55:32.252000,5,0 days 00:01:18.079000,8,"","",0 days 00:00:21.808000,0 days 00:00:29.269000,0 days 00:00:27.002000,286.0,298.0,285.0,319.0,soft,2.0
0 days 00:57:10.233000,5,0 days 00:01:37.981000,9,"",0 days 00:57:07.391000,0 days 00:00:26.076000,0 days 00:00:34.979000,0 days 00:00:36.926000,207.0,220.0,"",295.0,soft,3.0
0 days 01:03:24.884000,5,"",10,0 days 01:01:32.536000,"","",0 days 00:00:42.613000,0 days 00:00:35.094000,176.0,200.0,285.0,180.0,soft,1.0
0 days 01:04:42.980000,5,0 days 00:01:18.096000,11,"","",0 days 00:00:21.800000,0 days 00:00:29.373000,0 days 00:00:26.923000,289.0,302.0,286.0,318.0,soft,2.0
0 days 01:06:31.785000,5,0 days 00:01:48.805000,12,"",0 days 01:06:25.637000,0 days 00:00:27.263000,0 days 00:00:37.474000,0 days 00:00:44.068000,193.0,206.0,"",269.0,soft,3.0
0 days 00:31:07.049000,99,"",1,0 days 00:29:19.600000,"","",0 days 00:00:42.813000,0 days 00:00:32.358000,146.0,183.0,284.0,235.0,soft,1.0
0 days 00:32:26.081000,99,0 days 00:01:19.032000,2,"","",0 days 00:00:21.978000,0 days 00:00:29.636000,0 days 00:00:27.418000,291.0,296.0,284.0,322.0,soft,2.0
0 days 00:34:08.967000,99,0 days 00:01:42.886000,3,"",0 days 00:34:06.283000,0 days 00:00:26.012000,0 days 00:00:34.854000,0 days 00:00:42.020000,218.0,200.0,"",300.0,soft,3.0
0 days 00:41:50.022000,99,"",4,0 days 00:39:44.646000,"","",0 days 00:00:45.082000,0 days 00:00:46.986000,154.0,128.0,284.0,181.0,soft,1.0
0 days 00:43:08.571000,99,0 days 00:01:18.549000,5,"","",0 days 00:00:21.949000,0 days 00:00:29.384000,0 days 00:00:27.216000,291.0,296.0,285.0,323.0,soft,2.0
0 days 00:44:43.325000,99,0 days 00:01:34.754000,6,"",0 days 00:44:40.578000,0 days 00:00:24.605000,0 days 00:00:33.884000,0 days 00:00:36.265000,236.0,207.0,"",303.0,soft,3.0
0 days 00:54:18.205000,99,"",7,0 days 00:52:23.830000,"","",0 days 00:00:42.172000,0 days 00:00:40.055000,150.0,198.0,285.0,215.0,medium,1.0
0 days 00:55:37.775000,99,0 days 00:01:19.570000,8,"","",0 days 00:00:22.085000,0 days 00:00:30.050000,0 days 00:00:27.435000,289.0,295.0,286.0,322.0,medium,2.0
0 days 00:57:14.316000,99,0 days 00:01:36.541000,9,"",0 days 00:57:11.556000,0 days 00:00:25.125000,0 days 00:00:35.709000,0 days 00:00:35.707000,198.0,210.0,"",299.0,medium,3.0
0 days 01:04:19.463000,99,"",10,0 days 01:02:22.638000,"","",0 days 00:00:41.477000,0 days 00:00:41.446000,167.0,177.0,286.0,193.0,soft,1.0
0 days 01:05:37.819000,99,0 days 00:01:18.356000,11,"","",0 days 00:00:21.843000,0 days 00:00:29.349000,0 days 00:00:27.164000,290.0,302.0,284.0,321.0,soft,2.0
0 days 01:07:14.707000,99,0 days 00:01:36.888000,12,"",0 days 01:07:11.932000,0 days 00:00:24.496000,0 days 00:00:34.888000,0 days 00:00:37.504000,220.0,194.0,"",301.0,soft,3.0
0 days 00:27:10.366000,63,"",1,0 days 00:25:10.760000,"","",0 days 00:00:44.786000,0 days 00:00:40.732000,133.0,133.0,276.0,198.0,soft,1.0
0 days 00:28:45.973000,63,0 days 00:01:35.607000,2,"",0 days 00:28:33.470000,0 days 00:00:22.450000,0 days 00:00:30.062000,0 days 00:00:43.095000,273.0,285.0,"",309.0,soft,2.0
0 days 00:33:53.676000,63,"",3,0 days 00:31:49.770000,"","",0 days 00:00:47.107000,0 days 00:00:43.557000,170.0,129.0,284.0,242.0,soft,1.0
0 days 00:35:12.311000,63,0 days 00:01:18.635000,4,"","",0 days 00:00:21.958000,0 days 00:00:29.503000,0 days 00:00:27.174000,287.0,300.0,285.0,316.0,soft,2.0
0 days 00:36:51.071000,63,0 days 00:01:38.760000,5,"",0 days 00:36:48.366000,0 days 00:00:27.789000,0 days 00:00:34.870000,0 days 00:00:36.101000,180.0,200.0,"",218.0,soft,3.0
0 days 00:42:20.019000,63,"",6,0 days 00:40:01.288000,"","",0 days 00:00:52.126000,0 days 00:00:43.340000,172.0,82.0,283.0,207.0,soft,1.0
0 days 00:43:38.464000,63,0 days 00:01:18.445000,7,"","",0 days 00:00:21.913000,0 days 00:00:29.401000,0 days 00:00:27.131000,283.0,301.0,285.0,314.0,soft,2.0
0 days 00:45:33.608000,63,0 days 00:01:55.144000,8,"",0 days 00:45:30.937000,0 days 00:00:35.612000,0 days 00:00:39.954000,0 days 00:00:39.578000,155.0,172.0,"",98.0,soft,3.0
0 days 01:00:07.242000,63,"",9,0 days 00:58:23.218000,"","",0 days 00:00:37.629000,0 days 00:00:36.312000,147.0,184.0,281.0,240.0,soft,3.0
0 days 01:01:26.396000,63,0 days 00:01:19.154000,10,"","",0 days 00:00:22.136000,0 days 00:00:29.714000,0 days 00:00:27.304000,286.0,299.0,284.0,312.0,soft,4.0
0 days 01:03:19.896000,63,0 days 00:01:53.500000,11,"",0 days 01:03:17.127000,0 days 00:00:33.296000,0 days 00:00:40.064000,0 days 00:00:40.140000,136.0,219.0,"",161.0,soft,5.0
0 days 00:30:52.041000,22,"",1,0 days 00:29:12.833000,"","",0 days 00:00:38.654000,0 days 00:00:31.345000,207.0,237.0,282.0,213.0,soft,1.0
0 days 00:32:10.689000,22,0 days 00:01:18.648000,2,"","",0 days 00:00:22.117000,0 days 00:00:29.412000,0 days 00:00:27.119000,286.0,304.0,281.0,310.0,soft,2.0
0 days 00:34:18.157000,22,0 days 00:02:07.468000,3,"",0 days 00:34:15.493000,0 days 00:00:29.030000,0 days 00:00:43.030000,0 days 00:00:55.408000,173.0,203.0,"",294.0,soft,3.0
0 days 00:41:17.564000,22,"",4,0 days 00:39:38.542000,"","",0 days 00:00:37.288000,0 days 00:00:33.805000,211.0,244.0,282.0,218.0,soft,1.0
0 days 00:42:36.120000,22,0 days 00:01:18.556000,5,"","",0 days 00:00:22.094000,0 days 00:00:29.369000,0 days 00:00:27.093000,288.0,304.0,283.0,309.0,soft,2.0
0 days 00:44:45.246000,22,0 days 00:02:09.126000,6,"",0 days 00:44:24.104000,0 days 00:00:31.160000,0 days 00:00:41.216000,0 days 00:00:56.750000,158.0,162.0,"",292.0,soft,3.0
0 days 00:31:02.922000,7,"",1,0 days 00:29:18.315000,"","",0 days 00:00:41.225000,0 days 00:00:33.661000,197.0,144.0,283.0,240.0,soft,1.0
0 days 00:32:21.995000,7,0 days 00:01:19.073000,2,"","",0 days 00:00:21.941000,0 days 00:00:29.675000,0 days 00:00:27.457000,287.0,298.0,281.0,320.0,soft,2.0
0 days 00:34:08.542000,7,0 days 00:01:46.547000,3,"",0 days 00:34:03.763000,0 days 00:00:27.804000,0 days 00:00:34.357000,0 days 00:00:44.386000,226.0,224.0,"",246.0,soft,3.0
0 days 00:41:31.173000,7,"",4,0 days 00:39:42.701000,"","",0 days 00:00:38.705000,0 days 00:00:39.115000,219.0,206.0,286.0,214.0,soft,1.0
0 days 00:42:50.090000,7,0 days 00:01:18.917000,5,"","",0 days 00:00:21.853000,0 days 00:00:29.670000,0 days 00:00:27.394000,289.0,290.0,283.0,324.0,soft,2.0
0 days 00:44:34.984000,7,0 days 00:01:44.894000,6,"",0 days 00:44:32.274000,0 days 00:00:28.265000,0 days 00:00:36.692000,0 days 00:00:39.937000,200.0,221.0,"",281.0,soft,3.0
0 days 00:26:57.108000,47,"",1,0 days 00:25:04.641000,"","",0 days 00:00:42.067000,0 days 00:00:38.881000,215.0,233.0,282.0,215.0,soft,1.0
0 days 00:28:17.417000,47,0 days 00:01:20.309000,2,"","",0 days 00:00:22.259000,0 days 00:00:29.975000,0 days 00:00:28.075000,286.0,294.0,284.0,317.0,soft,2.0
0 days 00:29:53.873000,47,0 days 00:01:36.456000,3,"",0 days 00:29:51.141000,0 days 00:00:24.797000,0 days 00:00:35.783000,0 days 00:00:35.876000,240.0,197.0,"",299.0,soft,3.0
0 days 00:33:55.496000,47,"",4,0 days 00:31:52.251000,"","",0 days 00:00:47.521000,0 days 00:00:44.011000,198.0,107.0,286.0,246.0,soft,1.0
0 days 00:35:14.901000,47,0 days 00:01:19.405000,5,"","",0 days 00:00:21.984000,0 days 00:00:30.061000,0 days 00:00:27.360000,288.0,299.0,283.0,324.0,soft,2.0
0 days 00:36:44.814000,47,0 days 00:01:29.913000,6,"",0 days 00:36:42.050000,0 days 00:00:24.264000,0 days 00:00:33.137000,0 days 00:00:32.512000,258.0,264.0,"",299.0,soft,3.0
0 days 00:41:35.796000,47,"",7,0 days 00:39:39.671000,"","",0 days 00:00:42.037000,0 days 00:00:45.455000,189.0,173.0,284.0,217.0,soft,1.0
0 days 00:42:54.913000,47,0 days 00:01:19.117000,8,"","",0 days 00:00:22.202000,0 days 00:00:29.604000,0 days 00:00:27.311000,289.0,304.0,284.0,320.0,soft,2.0
0 days 00:44:33.621000,47,0 days 00:01:38.708000,9,"",0 days 00:44:30.897000,0 days 00:00:24.433000,0 days 00:00:36.058000,0 days 00:00:38.217000,244.0,210.0,"",299.0,soft,3.0
0 days 00:26:53.712000,6,"",1,0 days 00:25:02.836000,"","",0 days 00:00:41.527000,0 days 00:00:37.737000,198.0,217.0,281.0,229.0,soft,1.0
0 days 00:28:13.953000,6,0 days 00:01:20.241000,2,"","",0 days 00:00:22.380000,0 days 00:00:30.049000,0 days 00:00:27.812000,286.0,302.0,283.0,311.0,soft,2.0
0 days 00:29:54.956000,6,0 days 00:01:41.003000,3,"",0 days 00:29:49.745000,0 days 00:00:26.086000,0 days 00:00:36.707000,0 days 00:00:38.210000,228.0,171.0,"",291.0,soft,3.0
0 days 00:34:08.396000,6,"",4,0 days 00:32:04.146000,"","",0 days 00:00:44.436000,0 days 00:00:48.287000,161.0,119.0,280.0,228.0,soft,1.0
0 days 00:35:27.827000,6,0 days 00:01:19.431000,5,"","",0 days 00:00:22.234000,0 days 00:00:29.789000,0 days 00:00:27.408000,285.0,303.0,283.0,316.0,soft,2.0
0 days 00:37:11.689000,6,0 days 00:01:43.862000,6,"",0 days 00:37:09.018000,0 days 00:00:26.300000,0 days 00:00:39.140000,0 days 00:00:38.422000,219.0,221.0,"",294.0,soft,3.0
0 days 00:41:28.952000,6,"",7,0 days 00:39:36.834000,"","",0 days 00:00:43.691000,0 days 00:00:39.391000,187.0,183.0,283.0,235.0,soft,1.0
0 days 00:42:48.171000,6,0 days 00:01:19.219000,8,"","",0 days 00:00:22.094000,0 days 00:00:29.759000,0 days 00:00:27.366000,284.0,300.0,277.0,318.0,soft,2.0
0 days 00:44:31.514000,6,0 days 00:01:43.343000,9,"",0 days 00:44:28.818000,0 days 00:00:29.578000,0 days 00:00:37.177000,0 days 00:00:36.588000,214.0,253.0,"",298.0,soft,3.0
0 days 00:27:00.919000,9,"",1,0 days 00:25:06.505000,"","",0 days 00:00:44.967000,0 days 00:00:34.742000,124.0,123.0,281.0,167.0,soft,1.0
0 days 00:28:21.479000,9,0 days 00:01:20.560000,2,"","",0 days 00:00:22.338000,0 days 00:00:30.226000,0 days 00:00:27.996000,283.0,299.0,286.0,319.0,soft,2.0
0 days 00:29:56.488000,9,0 days 00:01:35.009000,3,"",0 days 00:29:53.766000,0 days 00:00:25.469000,0 days 00:00:34.472000,0 days 00:00:35.068000,242.0,252.0,"",298.0,soft,3.0
0 days 00:33:57.306000,9,"",4,0 days 00:31:56.910000,"","",0 days 00:00:50.113000,0 days 00:00:39.191000,132.0,151.0,285.0,233.0,soft,1.0
0 days 00:35:18.464000,9,0 days 00:01:21.158000,5,"","",0 days 00:00:22.543000,0 days 00:00:30.799000,0 days 00:00:27.816000,283.0,295.0,284.0,324.0,soft,2.0
0 days 00:36:52.319000,9,0 days 00:01:33.855000,6,"",0 days 00:36:49.635000,0 days 00:00:25.132000,0 days 00:00:34.239000,0 days 00:00:34.484000,242.0,248.0,"",304.0,soft,3.0
0 days 00:41:45.807000,9,"",7,0 days 00:39:42.014000,"","",0 days 00:00:43.281000,0 days 00:00:50.516000,206.0,89.0,283.0,194.0,soft,1.0
0 days 00:43:05.614000,9,0 days 00:01:19.807000,8,"","",0 days 00:00:22.232000,0 days 00:00:30.036000,0 days 00:00:27.539000,289.0,300.0,284.0,322.0,soft,2.0
0 days 00:44:45.511000,9,0 days 00:01:39.897000,9,"",0 days 00:44:42.797000,0 days 00:00:28.418000,0 days 00:00:36.658000,0 days 00:00:34.821000,162.0,240.0,"",301.0,soft,3.0
