2021-12-04 13:00:40	AIR TEMPERATURE 1 HOUR BEFORE P3 = 30 DEGREES
2021-12-04 13:45:07	RISK OF RAIN FOR F1 THIRD PRACTICE SESSION IS 0%
2021-12-04 13:48:28	DRS DISABLED IN ZONE 2
2021-12-04 13:48:31	DRS DISABLED IN ZONE 3
2021-12-04 13:48:34	DRS DISABLED IN ZONE 1
2021-12-04 13:52:03	DRS ENABLED IN ZONE 3
2021-12-04 13:52:07	DRS DISABLED IN ZONE 3
2021-12-04 13:52:16	DRS ENABLED IN ZONE 3
2021-12-04 13:52:19	DRS ENABLED IN ZONE 2
2021-12-04 13:53:08	DRS ENABLED IN ZONE 1
2021-12-04 14:00:00	GREEN LIGHT - PIT EXIT OPEN
2021-12-04 14:16:13	YELLOW IN TRACK SECTOR 2
2021-12-04 14:16:14	DRS DISABLED IN ZONE 3
2021-12-04 14:16:26	CLEAR IN TRACK SECTOR 2
2021-12-04 14:16:26	DRS ENABLED IN ZONE 3
2021-12-04 14:16:32	CAR 44 (HAM) OFF TRACK AND CONTINUED AT TURN 1
2021-12-04 14:17:18	DOUBLE YELLOW IN TRACK SECTOR 7
2021-12-04 14:17:22	CLEAR IN TRACK SECTOR 7
2021-12-04 14:19:40	CAR 31 (OCO) MISSED THE APEX OF TURN 2
2021-12-04 14:20:02	CAR 33 (VER) MISSED THE APEX OF TURN 5
2021-12-04 14:22:36	DOUBLE YELLOW IN TRACK SECTOR 6
2021-12-04 14:22:38	CLEAR IN TRACK SECTOR 6
2021-12-04 14:22:39	DOUBLE YELLOW IN TRACK SECTOR 6
2021-12-04 14:30:29	DOUBLE YELLOW IN TRACK SECTOR 6
2021-12-04 14:30:31	CLEAR IN TRACK SECTOR 6
2021-12-04 14:40:17	CAR 9 (MAZ) MISSED THE APEX OF TURN 8
2021-12-04 14:43:32	CAR 44 (HAM) MISSED THE APEX OF TURN 2
2021-12-04 14:43:39	CAR 10 (GAS) MISSED THE APEX OF TURN 2
2021-12-04 14:49:53	YELLOW IN TRACK SECTOR 4
2021-12-04 14:49:56	CLEAR IN TRACK SECTOR 4
2021-12-04 15:00:00	CHEQUERED FLAG
2021-12-04 15:00:14	FIRST CAR TO TAKE THE FLAG - CAR 22 (TSU)
