Time,DriverNumber,LapTime,LapNumber,PitOutTime,PitInTime,Sector1Time,Sector2Time,Sector3Time,SpeedI1,SpeedI2,SpeedFL,SpeedST,Compound,TyreLife
0 days 00:21:51.109000,44,"",1,0 days 00:20:18.818000,"","",0 days 00:00:51.690000,0 days 00:00:17.924000,258.0,184.0,311.0,"",soft,1.0
0 days 00:22:59.933000,44,0 days 00:01:08.824000,2,"","",0 days 00:00:17.846000,0 days 00:00:34.796000,0 days 00:00:16.182000,317.0,264.0,311.0,314.0,soft,2.0
0 days 00:25:07.299000,44,0 days 00:02:07.366000,3,"","",0 days 00:00:35.021000,0 days 00:01:09.169000,0 days 00:00:23.176000,139.0,185.0,255.0,226.0,soft,3.0
0 days 00:26:43.096000,44,0 days 00:01:35.797000,4,"","",0 days 00:00:26.489000,0 days 00:00:52.006000,0 days 00:00:17.302000,277.0,202.0,315.0,241.0,soft,4.0
0 days 00:27:51.829000,44,0 days 00:01:08.733000,5,"","",0 days 00:00:17.680000,0 days 00:00:34.968000,0 days 00:00:16.085000,319.0,265.0,319.0,319.0,soft,5.0
0 days 00:29:15.538000,44,0 days 00:01:23.709000,6,"",0 days 00:29:12.665000,0 days 00:00:20.818000,0 days 00:00:39.624000,0 days 00:00:23.267000,287.0,219.0,"",269.0,soft,6.0
0 days 00:32:50.568000,44,"",7,0 days 00:31:05.873000,"","",0 days 00:00:59.852000,0 days 00:00:18.565000,179.0,59.0,322.0,"",soft,7.0
0 days 00:34:01.085000,44,0 days 00:01:10.517000,8,"","",0 days 00:00:17.630000,0 days 00:00:35.139000,0 days 00:00:17.748000,323.0,266.0,289.0,327.0,soft,8.0
0 days 00:35:32.728000,44,0 days 00:01:31.643000,9,"",0 days 00:35:29.824000,0 days 00:00:23.224000,0 days 00:00:41.789000,0 days 00:00:26.630000,290.0,217.0,"",218.0,soft,9.0
0 days 00:45:01.498000,44,"",10,0 days 00:43:26.496000,"","",0 days 00:00:52.423000,0 days 00:00:17.795000,194.0,201.0,314.0,"",soft,1.0
0 days 00:46:10.157000,44,0 days 00:01:08.659000,11,"","",0 days 00:00:17.645000,0 days 00:00:34.932000,0 days 00:00:16.082000,319.0,264.0,318.0,318.0,soft,2.0
0 days 00:48:02.123000,44,0 days 00:01:51.966000,12,"","",0 days 00:00:30.878000,0 days 00:01:03.464000,0 days 00:00:17.624000,161.0,124.0,315.0,263.0,soft,3.0
0 days 00:49:10.509000,44,0 days 00:01:08.386000,13,"","",0 days 00:00:17.675000,0 days 00:00:34.659000,0 days 00:00:16.052000,319.0,266.0,316.0,318.0,soft,4.0
0 days 00:50:30.775000,44,0 days 00:01:20.266000,14,"",0 days 00:50:27.918000,0 days 00:00:19.558000,0 days 00:00:40.026000,0 days 00:00:20.682000,287.0,243.0,"",303.0,soft,5.0
0 days 00:54:29.288000,44,"",15,0 days 00:52:37.074000,"","",0 days 00:00:52.747000,0 days 00:00:20.183000,271.0,52.0,319.0,"",soft,1.0
0 days 00:55:37.356000,44,0 days 00:01:08.068000,16,"","",0 days 00:00:17.465000,0 days 00:00:34.571000,0 days 00:00:16.032000,323.0,267.0,323.0,324.0,soft,2.0
0 days 00:57:08.124000,44,0 days 00:01:30.768000,17,"",0 days 00:57:05.235000,0 days 00:00:22.160000,0 days 00:00:44.898000,0 days 00:00:23.710000,288.0,219.0,"",254.0,soft,3.0
0 days 01:07:48.100000,44,"",18,0 days 01:06:10.913000,"","",0 days 00:00:45.329000,0 days 00:00:18.244000,268.0,181.0,318.0,"",soft,1.0
0 days 01:08:56.207000,44,0 days 00:01:08.107000,19,"","",0 days 00:00:17.461000,0 days 00:00:34.604000,0 days 00:00:16.042000,323.0,267.0,322.0,322.0,soft,2.0
0 days 01:10:32,44,0 days 00:01:35.793000,20,"",0 days 01:10:29.117000,0 days 00:00:22.347000,0 days 00:00:45.001000,0 days 00:00:28.445000,220.0,148.0,"",288.0,soft,3.0
0 days 01:14:21.849000,44,"",21,0 days 01:12:50.638000,"","",0 days 00:00:45.995000,0 days 00:00:16.905000,269.0,225.0,317.0,"",soft,1.0
0 days 01:15:29.783000,44,0 days 00:01:07.934000,22,"","",0 days 00:00:17.498000,0 days 00:00:34.445000,0 days 00:00:15.991000,322.0,265.0,321.0,322.0,soft,2.0
0 days 01:17:10.175000,44,0 days 00:01:40.392000,23,"",0 days 01:17:05.296000,0 days 00:00:26.619000,0 days 00:00:43.483000,0 days 00:00:30.290000,197.0,177.0,"",243.0,soft,3.0
0 days 00:19:16.140000,33,"",1,0 days 00:17:47.486000,"","",0 days 00:00:53.129000,0 days 00:00:17.202000,286.0,227.0,309.0,"",soft,1.0
0 days 00:20:25.469000,33,0 days 00:01:09.329000,2,"","",0 days 00:00:17.882000,0 days 00:00:35.159000,0 days 00:00:16.288000,316.0,263.0,312.0,313.0,soft,2.0
0 days 00:22:12.234000,33,0 days 00:01:46.765000,3,"","",0 days 00:00:29.137000,0 days 00:01:00.251000,0 days 00:00:17.377000,179.0,222.0,311.0,272.0,soft,3.0
0 days 00:23:21.772000,33,0 days 00:01:09.538000,4,"","",0 days 00:00:17.847000,0 days 00:00:35.295000,0 days 00:00:16.396000,317.0,262.0,311.0,315.0,soft,4.0
0 days 00:24:51.456000,33,0 days 00:01:29.684000,5,"",0 days 00:24:48.639000,0 days 00:00:21.765000,0 days 00:00:45.284000,0 days 00:00:22.635000,261.0,217.0,"",258.0,soft,5.0
0 days 00:45:29.103000,33,"",6,0 days 00:43:39.323000,"","",0 days 00:01:08.425000,0 days 00:00:17.196000,291.0,198.0,312.0,"",soft,1.0
0 days 00:46:37.670000,33,0 days 00:01:08.567000,7,"","",0 days 00:00:17.655000,0 days 00:00:34.753000,0 days 00:00:16.159000,317.0,264.0,315.0,317.0,soft,2.0
0 days 00:48:06.699000,33,0 days 00:01:29.029000,8,"",0 days 00:48:03.751000,0 days 00:00:20.681000,0 days 00:00:44.087000,0 days 00:00:24.261000,271.0,194.0,"",280.0,soft,3.0
0 days 00:54:26.192000,33,"",9,0 days 00:52:33.086000,"","",0 days 00:00:50.658000,0 days 00:00:20.904000,259.0,121.0,312.0,"",soft,1.0
0 days 00:55:34.691000,33,0 days 00:01:08.499000,10,"","",0 days 00:00:17.701000,0 days 00:00:34.666000,0 days 00:00:16.132000,318.0,264.0,315.0,316.0,soft,2.0
0 days 00:57:06.386000,33,0 days 00:01:31.695000,11,"",0 days 00:57:03.435000,0 days 00:00:21.735000,0 days 00:00:43.972000,0 days 00:00:25.988000,215.0,177.0,"",269.0,soft,3.0
0 days 01:07:55.938000,33,"",12,0 days 01:06:13.888000,"","",0 days 00:00:46.113000,0 days 00:00:16.872000,259.0,234.0,314.0,"",soft,1.0
0 days 01:09:04.310000,33,0 days 00:01:08.372000,13,"","",0 days 00:00:17.521000,0 days 00:00:34.696000,0 days 00:00:16.155000,320.0,265.0,316.0,318.0,soft,2.0
0 days 01:10:33.566000,33,0 days 00:01:29.256000,14,"",0 days 01:10:30.578000,0 days 00:00:20.175000,0 days 00:00:40.677000,0 days 00:00:28.404000,276.0,163.0,"",276.0,soft,3.0
0 days 01:14:10.617000,33,"",15,0 days 01:12:38.230000,"","",0 days 00:00:46.929000,0 days 00:00:16.647000,260.0,240.0,312.0,"",soft,1.0
0 days 01:15:19.262000,33,0 days 00:01:08.645000,16,"","",0 days 00:00:17.736000,0 days 00:00:34.646000,0 days 00:00:16.263000,318.0,263.0,313.0,316.0,soft,2.0
0 days 01:16:51.588000,33,0 days 00:01:32.326000,17,"",0 days 01:16:47.802000,0 days 00:00:25.048000,0 days 00:00:41.577000,0 days 00:00:25.701000,258.0,218.0,"",237.0,soft,3.0
0 days 00:22:03.901000,77,"",1,0 days 00:20:22.189000,"","",0 days 00:00:59.132000,0 days 00:00:20.390000,264.0,99.0,310.0,"",soft,1.0
0 days 00:23:13.280000,77,0 days 00:01:09.379000,2,"","",0 days 00:00:18.019000,0 days 00:00:35.173000,0 days 00:00:16.187000,317.0,263.0,314.0,317.0,soft,2.0
0 days 00:25:13.353000,77,0 days 00:02:00.073000,3,"","",0 days 00:00:25.540000,0 days 00:01:09.579000,0 days 00:00:24.954000,179.0,79.0,264.0,245.0,soft,3.0
0 days 00:26:57.489000,77,0 days 00:01:44.136000,4,"","",0 days 00:00:27.858000,0 days 00:00:58.860000,0 days 00:00:17.418000,284.0,221.0,312.0,116.0,soft,4.0
0 days 00:28:06.727000,77,0 days 00:01:09.238000,5,"","",0 days 00:00:17.952000,0 days 00:00:35.115000,0 days 00:00:16.171000,315.0,264.0,315.0,317.0,soft,5.0
0 days 00:29:36.076000,77,0 days 00:01:29.349000,6,"",0 days 00:29:33.172000,0 days 00:00:22.250000,0 days 00:00:42.336000,0 days 00:00:24.763000,219.0,169.0,"",272.0,soft,6.0
0 days 00:32:56.214000,77,"",7,0 days 00:31:18.375000,"","",0 days 00:01:01.758000,0 days 00:00:17.440000,280.0,121.0,315.0,"",soft,7.0
0 days 00:34:05.254000,77,0 days 00:01:09.040000,8,"","",0 days 00:00:17.774000,0 days 00:00:35.068000,0 days 00:00:16.198000,322.0,265.0,319.0,321.0,soft,8.0
0 days 00:35:37.043000,77,0 days 00:01:31.789000,9,"",0 days 00:35:34.045000,0 days 00:00:21.208000,0 days 00:00:44.240000,0 days 00:00:26.341000,289.0,201.0,"",268.0,soft,9.0
0 days 00:45:13.799000,77,"",10,0 days 00:43:27.365000,"","",0 days 00:00:57.798000,0 days 00:00:23.074000,241.0,117.0,309.0,"",soft,1.0
0 days 00:46:22.772000,77,0 days 00:01:08.973000,11,"","",0 days 00:00:17.928000,0 days 00:00:34.837000,0 days 00:00:16.208000,318.0,266.0,320.0,317.0,soft,2.0
0 days 00:48:12.264000,77,0 days 00:01:49.492000,12,"","",0 days 00:00:23.639000,0 days 00:01:06.812000,0 days 00:00:19.041000,231.0,162.0,312.0,295.0,soft,3.0
0 days 00:49:20.963000,77,0 days 00:01:08.699000,13,"","",0 days 00:00:17.825000,0 days 00:00:34.813000,0 days 00:00:16.061000,317.0,265.0,318.0,317.0,soft,4.0
0 days 00:50:45.773000,77,0 days 00:01:24.810000,14,"",0 days 00:50:42.708000,0 days 00:00:21.104000,0 days 00:00:40.058000,0 days 00:00:23.648000,286.0,237.0,"",266.0,soft,5.0
0 days 00:54:36.763000,77,"",15,0 days 00:52:38.917000,"","",0 days 00:00:55.807000,0 days 00:00:22.911000,268.0,27.0,315.0,"",soft,1.0
0 days 00:55:45.189000,77,0 days 00:01:08.426000,16,"","",0 days 00:00:17.663000,0 days 00:00:34.670000,0 days 00:00:16.093000,318.0,265.0,318.0,321.0,soft,2.0
0 days 00:57:13.156000,77,0 days 00:01:27.967000,17,"",0 days 00:57:10.051000,0 days 00:00:20.400000,0 days 00:00:41.710000,0 days 00:00:25.857000,289.0,216.0,"",270.0,soft,3.0
0 days 01:07:52.787000,77,"",18,0 days 01:06:12.164000,"","",0 days 00:00:47.289000,0 days 00:00:17.506000,261.0,223.0,315.0,"",soft,1.0
0 days 01:09:01.256000,77,0 days 00:01:08.469000,19,"","",0 days 00:00:17.709000,0 days 00:00:34.666000,0 days 00:00:16.094000,319.0,266.0,318.0,319.0,soft,2.0
0 days 01:10:32.843000,77,0 days 00:01:31.587000,20,"",0 days 01:10:29.795000,0 days 00:00:20.758000,0 days 00:00:42.746000,0 days 00:00:28.083000,291.0,172.0,"",281.0,soft,3.0
0 days 01:14:26.755000,77,"",21,0 days 01:12:52.706000,"","",0 days 00:00:47.313000,0 days 00:00:16.829000,266.0,233.0,316.0,"",soft,1.0
0 days 01:15:35.282000,77,0 days 00:01:08.527000,22,"","",0 days 00:00:17.606000,0 days 00:00:34.869000,0 days 00:00:16.052000,319.0,265.0,319.0,322.0,soft,2.0
0 days 01:17:11.940000,77,0 days 00:01:36.658000,23,"",0 days 01:17:06.621000,0 days 00:00:23.789000,0 days 00:00:42.875000,0 days 00:00:29.994000,196.0,172.0,"",280.0,soft,3.0
0 days 00:19:24.127000,11,"",1,0 days 00:17:53.074000,"","",0 days 00:00:54.231000,0 days 00:00:17.785000,286.0,228.0,309.0,"",soft,1.0
0 days 00:20:33.718000,11,0 days 00:01:09.591000,2,"","",0 days 00:00:18.101000,0 days 00:00:35.123000,0 days 00:00:16.367000,316.0,262.0,311.0,313.0,soft,2.0
0 days 00:22:20.586000,11,0 days 00:01:46.868000,3,"","",0 days 00:00:28.346000,0 days 00:01:00.632000,0 days 00:00:17.890000,153.0,226.0,311.0,244.0,soft,3.0
0 days 00:23:30.162000,11,0 days 00:01:09.576000,4,"","",0 days 00:00:18.010000,0 days 00:00:35.241000,0 days 00:00:16.325000,317.0,262.0,316.0,315.0,soft,4.0
0 days 00:25:14.235000,11,0 days 00:01:44.073000,5,"","",0 days 00:00:27.598000,0 days 00:00:58.832000,0 days 00:00:17.643000,184.0,230.0,316.0,260.0,soft,5.0
0 days 00:26:23.772000,11,0 days 00:01:09.537000,6,"","",0 days 00:00:17.931000,0 days 00:00:35.246000,0 days 00:00:16.360000,317.0,263.0,313.0,318.0,soft,6.0
0 days 00:27:52.528000,11,0 days 00:01:28.756000,7,"",0 days 00:27:48.879000,0 days 00:00:23.408000,0 days 00:00:41.164000,0 days 00:00:24.184000,142.0,239.0,"",269.0,soft,7.0
0 days 00:32:37.565000,11,"",8,0 days 00:30:45.200000,"","",0 days 00:01:11.952000,0 days 00:00:18.095000,269.0,185.0,312.0,"",soft,1.0
0 days 00:33:46.737000,11,0 days 00:01:09.172000,9,"","",0 days 00:00:17.844000,0 days 00:00:34.908000,0 days 00:00:16.420000,318.0,263.0,300.0,317.0,soft,2.0
0 days 00:35:21.012000,11,0 days 00:01:34.275000,10,"",0 days 00:35:18.137000,0 days 00:00:25.650000,0 days 00:00:43.167000,0 days 00:00:25.458000,240.0,218.0,"",233.0,soft,3.0
0 days 00:45:47.745000,11,"",11,0 days 00:43:50.198000,"","",0 days 00:01:00.659000,0 days 00:00:18.845000,270.0,201.0,312.0,"",soft,4.0
0 days 00:46:56.876000,11,0 days 00:01:09.131000,12,"","",0 days 00:00:17.820000,0 days 00:00:35.013000,0 days 00:00:16.298000,317.0,262.0,315.0,316.0,soft,5.0
0 days 00:48:26.697000,11,0 days 00:01:29.821000,13,"",0 days 00:48:23.701000,0 days 00:00:22.595000,0 days 00:00:42.286000,0 days 00:00:24.940000,255.0,227.0,"",264.0,soft,6.0
0 days 00:54:07.066000,11,"",14,0 days 00:52:10.878000,"","",0 days 00:00:58.617000,0 days 00:00:17.857000,274.0,219.0,313.0,"",soft,1.0
0 days 00:55:16.039000,11,0 days 00:01:08.973000,15,"","",0 days 00:00:17.816000,0 days 00:00:34.885000,0 days 00:00:16.272000,318.0,264.0,315.0,316.0,soft,2.0
0 days 00:56:53.681000,11,0 days 00:01:37.642000,16,"",0 days 00:56:50.425000,0 days 00:00:24.371000,0 days 00:00:45.907000,0 days 00:00:27.364000,168.0,214.0,"",253.0,soft,3.0
0 days 01:07:43.825000,11,"",17,0 days 01:06:07.879000,"","",0 days 00:00:49.752000,0 days 00:00:17.562000,275.0,222.0,314.0,"",soft,1.0
0 days 01:08:52.663000,11,0 days 00:01:08.838000,18,"","",0 days 00:00:17.715000,0 days 00:00:34.897000,0 days 00:00:16.226000,320.0,264.0,316.0,316.0,soft,2.0
0 days 01:10:23.652000,11,0 days 00:01:30.989000,19,"",0 days 01:10:19.970000,0 days 00:00:21.979000,0 days 00:00:41.547000,0 days 00:00:27.463000,277.0,232.0,"",250.0,soft,3.0
0 days 01:14:15.829000,11,"",20,0 days 01:12:43.606000,"","",0 days 00:00:47.674000,0 days 00:00:17.071000,272.0,233.0,314.0,"",soft,1.0
0 days 01:15:24.312000,11,0 days 00:01:08.483000,21,"","",0 days 00:00:17.651000,0 days 00:00:34.677000,0 days 00:00:16.155000,320.0,263.0,315.0,318.0,soft,2.0
0 days 01:16:54.587000,11,"",22,"",0 days 01:16:54.587000,0 days 00:00:25.957000,0 days 00:00:42.013000,"",232.0,228.0,"",240.0,soft,3.0
0 days 00:16:57.865000,10,"",1,0 days 00:15:15.759000,"","",0 days 00:00:59.957000,0 days 00:00:20.333000,266.0,212.0,314.0,"",soft,7.0
0 days 00:18:07.927000,10,0 days 00:01:10.062000,2,"","",0 days 00:00:18.138000,0 days 00:00:35.503000,0 days 00:00:16.421000,318.0,264.0,316.0,317.0,soft,8.0
0 days 00:19:35.095000,10,0 days 00:01:27.168000,3,"",0 days 00:19:32.250000,0 days 00:00:20.902000,0 days 00:00:42.380000,0 days 00:00:23.886000,279.0,204.0,"",278.0,soft,9.0
0 days 00:23:56.267000,10,"",4,0 days 00:22:30.246000,"","",0 days 00:00:45.950000,0 days 00:00:17.301000,278.0,240.0,312.0,"",soft,10.0
0 days 00:25:05.614000,10,0 days 00:01:09.347000,5,"","",0 days 00:00:17.926000,0 days 00:00:35.167000,0 days 00:00:16.254000,320.0,265.0,315.0,316.0,soft,11.0
0 days 00:26:41.398000,10,0 days 00:01:35.784000,6,"",0 days 00:26:38.525000,0 days 00:00:20.823000,0 days 00:00:49.734000,0 days 00:00:25.227000,274.0,226.0,"",282.0,soft,12.0
0 days 00:45:19.802000,10,"",7,0 days 00:43:33.506000,"","",0 days 00:01:02.002000,0 days 00:00:20.689000,282.0,102.0,313.0,"",soft,1.0
0 days 00:46:28.705000,10,0 days 00:01:08.903000,8,"","",0 days 00:00:17.814000,0 days 00:00:34.884000,0 days 00:00:16.205000,320.0,267.0,315.0,317.0,soft,2.0
0 days 00:48:03.028000,10,0 days 00:01:34.323000,9,"",0 days 00:48:00.076000,0 days 00:00:21.208000,0 days 00:00:48.775000,0 days 00:00:24.340000,278.0,205.0,"",276.0,soft,3.0
0 days 00:53:35.446000,10,"",10,0 days 00:51:56.336000,"","",0 days 00:00:52.253000,0 days 00:00:17.878000,278.0,238.0,306.0,"",soft,1.0
0 days 00:54:44.496000,10,0 days 00:01:09.050000,11,"","",0 days 00:00:17.887000,0 days 00:00:34.889000,0 days 00:00:16.274000,318.0,264.0,320.0,313.0,soft,2.0
0 days 00:56:17.339000,10,0 days 00:01:32.843000,12,"",0 days 00:56:14.373000,0 days 00:00:23.377000,0 days 00:00:46.528000,0 days 00:00:22.938000,262.0,228.0,"",290.0,soft,3.0
0 days 01:07:39.812000,10,"",13,0 days 01:06:03.817000,"","",0 days 00:00:54.844000,0 days 00:00:17.274000,276.0,234.0,313.0,"",soft,1.0
0 days 01:08:48.777000,10,0 days 00:01:08.965000,14,"","",0 days 00:00:17.723000,0 days 00:00:35.014000,0 days 00:00:16.228000,320.0,265.0,316.0,316.0,soft,2.0
0 days 01:10:20.564000,10,0 days 00:01:31.787000,15,"",0 days 01:10:17.377000,0 days 00:00:20.874000,0 days 00:00:44.867000,0 days 00:00:26.046000,277.0,210.0,"",284.0,soft,3.0
0 days 01:14:07.245000,10,"",16,0 days 01:12:34.314000,"","",0 days 00:00:51.241000,0 days 00:00:17.202000,280.0,237.0,313.0,"",soft,1.0
0 days 01:15:16.022000,10,0 days 00:01:08.777000,17,"","",0 days 00:00:17.709000,0 days 00:00:34.894000,0 days 00:00:16.174000,320.0,265.0,315.0,317.0,soft,2.0
0 days 01:16:46.286000,10,"",18,"",0 days 01:16:46.286000,0 days 00:00:25.105000,0 days 00:00:43.852000,"",265.0,227.0,"",279.0,soft,3.0
0 days 00:16:45.646000,55,"",1,0 days 00:15:10.752000,"","",0 days 00:00:51.386000,0 days 00:00:20.456000,262.0,139.0,315.0,"",soft,8.0
0 days 00:17:56.133000,55,0 days 00:01:10.487000,2,"","",0 days 00:00:18.188000,0 days 00:00:35.825000,0 days 00:00:16.474000,319.0,264.0,312.0,318.0,soft,9.0
0 days 00:19:37.057000,55,0 days 00:01:40.924000,3,"","",0 days 00:00:23.366000,0 days 00:00:59.107000,0 days 00:00:18.451000,240.0,164.0,316.0,257.0,soft,10.0
0 days 00:20:53.449000,55,0 days 00:01:16.392000,4,"",0 days 00:20:50.493000,0 days 00:00:18.050000,0 days 00:00:35.871000,0 days 00:00:22.471000,322.0,262.0,"",319.0,soft,11.0
0 days 00:24:24.962000,55,"",5,0 days 00:22:43.931000,"","",0 days 00:00:49.534000,0 days 00:00:27.803000,271.0,135.0,316.0,"",soft,1.0
0 days 00:25:34.008000,55,0 days 00:01:09.046000,6,"","",0 days 00:00:17.712000,0 days 00:00:35.071000,0 days 00:00:16.263000,323.0,265.0,316.0,321.0,soft,2.0
0 days 00:27:05.584000,55,0 days 00:01:31.576000,7,"",0 days 00:27:02.698000,0 days 00:00:22.284000,0 days 00:00:45.853000,0 days 00:00:23.439000,240.0,194.0,"",265.0,soft,3.0
0 days 00:46:14.797000,55,"",8,0 days 00:44:31.777000,"","",0 days 00:00:56.659000,0 days 00:00:19.909000,276.0,54.0,317.0,"",soft,1.0
0 days 00:47:23.828000,55,0 days 00:01:09.031000,9,"","",0 days 00:00:17.760000,0 days 00:00:34.951000,0 days 00:00:16.320000,322.0,266.0,315.0,322.0,soft,2.0
0 days 00:48:58.842000,55,0 days 00:01:35.014000,10,"",0 days 00:48:55.607000,0 days 00:00:23.407000,0 days 00:00:45.864000,0 days 00:00:25.743000,242.0,181.0,"",254.0,soft,3.0
0 days 00:54:13.492000,55,"",11,0 days 00:52:13.494000,"","",0 days 00:00:56.187000,0 days 00:00:19.436000,276.0,190.0,317.0,"",soft,1.0
0 days 00:55:22.544000,55,0 days 00:01:09.052000,12,"","",0 days 00:00:17.656000,0 days 00:00:35.139000,0 days 00:00:16.257000,323.0,267.0,316.0,321.0,soft,2.0
0 days 00:57:01.062000,55,0 days 00:01:38.518000,13,"",0 days 00:56:58.064000,0 days 00:00:27.467000,0 days 00:00:46.952000,0 days 00:00:24.099000,215.0,184.0,"",258.0,soft,3.0
0 days 01:07:26.584000,55,"",14,0 days 01:05:49.706000,"","",0 days 00:00:50.767000,0 days 00:00:17.156000,258.0,226.0,314.0,"",soft,1.0
0 days 01:08:35.570000,55,0 days 00:01:08.986000,15,"","",0 days 00:00:17.722000,0 days 00:00:35.036000,0 days 00:00:16.228000,320.0,265.0,311.0,315.0,soft,2.0
0 days 01:10:08.633000,55,0 days 00:01:33.063000,16,"",0 days 01:10:05.606000,0 days 00:00:22.758000,0 days 00:00:44.820000,0 days 00:00:25.485000,242.0,192.0,"",258.0,soft,3.0
0 days 01:13:58.278000,55,"",17,0 days 01:12:28.522000,"","",0 days 00:00:47.691000,0 days 00:00:17.504000,267.0,220.0,315.0,"",soft,1.0
0 days 01:15:07.104000,55,0 days 00:01:08.826000,18,"","",0 days 00:00:17.627000,0 days 00:00:34.967000,0 days 00:00:16.232000,321.0,266.0,315.0,319.0,soft,2.0
0 days 01:16:48.332000,55,0 days 00:01:41.228000,19,"",0 days 01:16:40.719000,0 days 00:00:23.511000,0 days 00:00:45.435000,0 days 00:00:32.282000,211.0,201.0,"",281.0,soft,3.0
0 days 00:16:38.754000,16,"",1,0 days 00:15:11.909000,"","",0 days 00:00:46.255000,0 days 00:00:18.003000,224.0,190.0,315.0,"",soft,8.0
0 days 00:17:49.534000,16,0 days 00:01:10.780000,2,"","",0 days 00:00:18.247000,0 days 00:00:36.068000,0 days 00:00:16.465000,318.0,265.0,310.0,317.0,soft,9.0
0 days 00:19:28.821000,16,0 days 00:01:39.287000,3,"","",0 days 00:00:26.757000,0 days 00:00:54.355000,0 days 00:00:18.175000,210.0,190.0,317.0,244.0,soft,10.0
0 days 00:20:42.827000,16,0 days 00:01:14.006000,4,"",0 days 00:20:39.895000,0 days 00:00:17.972000,0 days 00:00:35.888000,0 days 00:00:20.146000,323.0,266.0,"",322.0,soft,11.0
0 days 00:24:13.155000,16,"",5,0 days 00:22:41.506000,"","",0 days 00:00:50.109000,0 days 00:00:17.670000,164.0,212.0,316.0,"",soft,1.0
0 days 00:25:22.290000,16,0 days 00:01:09.135000,6,"","",0 days 00:00:17.828000,0 days 00:00:35.097000,0 days 00:00:16.210000,322.0,267.0,320.0,320.0,soft,2.0
0 days 00:26:55.129000,16,0 days 00:01:32.839000,7,"",0 days 00:26:52.217000,0 days 00:00:24.614000,0 days 00:00:45.959000,0 days 00:00:22.266000,243.0,219.0,"",262.0,soft,3.0
0 days 00:30:26.342000,16,"",8,0 days 00:28:52.818000,"","",0 days 00:00:54.772000,0 days 00:00:17.296000,251.0,215.0,316.0,"",soft,1.0
0 days 00:31:35.497000,16,0 days 00:01:09.155000,9,"","",0 days 00:00:17.783000,0 days 00:00:35.197000,0 days 00:00:16.175000,321.0,268.0,316.0,319.0,soft,2.0
0 days 00:33:08.814000,16,0 days 00:01:33.317000,10,"",0 days 00:33:05.614000,0 days 00:00:23.325000,0 days 00:00:47.142000,0 days 00:00:22.850000,240.0,130.0,"",306.0,soft,3.0
0 days 00:46:07.515000,16,"",11,0 days 00:44:21.736000,"","",0 days 00:01:02.258000,0 days 00:00:19.081000,221.0,88.0,316.0,"",soft,1.0
0 days 00:47:16.454000,16,0 days 00:01:08.939000,12,"","",0 days 00:00:17.746000,0 days 00:00:34.966000,0 days 00:00:16.227000,322.0,267.0,315.0,321.0,soft,2.0
0 days 00:48:48.722000,16,0 days 00:01:32.268000,13,"",0 days 00:48:45.731000,0 days 00:00:23.187000,0 days 00:00:47.364000,0 days 00:00:21.717000,245.0,237.0,"",255.0,soft,3.0
0 days 00:53:55.133000,16,"",14,0 days 00:52:06.652000,"","",0 days 00:00:57.109000,0 days 00:00:17.784000,261.0,104.0,315.0,"",soft,1.0
0 days 00:55:03.992000,16,0 days 00:01:08.859000,15,"","",0 days 00:00:17.646000,0 days 00:00:34.936000,0 days 00:00:16.277000,323.0,266.0,316.0,320.0,soft,2.0
0 days 00:56:35.604000,16,0 days 00:01:31.612000,16,"",0 days 00:56:32.609000,0 days 00:00:25.069000,0 days 00:00:43.699000,0 days 00:00:22.844000,220.0,226.0,"",273.0,soft,3.0
0 days 01:06:51.031000,16,"",17,0 days 01:05:30.318000,"","",0 days 00:00:43.158000,0 days 00:00:16.957000,255.0,224.0,314.0,"",soft,4.0
0 days 01:08:00.434000,16,0 days 00:01:09.403000,18,"","",0 days 00:00:17.867000,0 days 00:00:35.278000,0 days 00:00:16.258000,322.0,265.0,318.0,316.0,soft,5.0
0 days 01:09:30.626000,16,0 days 00:01:30.192000,19,"",0 days 01:09:27.633000,0 days 00:00:27.567000,0 days 00:00:40.404000,0 days 00:00:22.221000,220.0,242.0,"",315.0,soft,6.0
0 days 01:13:50.228000,16,"",20,0 days 01:12:22.184000,"","",0 days 00:00:48.748000,0 days 00:00:16.956000,232.0,204.0,315.0,"",soft,1.0
0 days 01:14:59.188000,16,0 days 00:01:08.960000,21,"","",0 days 00:00:17.666000,0 days 00:00:35.030000,0 days 00:00:16.264000,321.0,265.0,314.0,319.0,soft,2.0
0 days 01:16:36.774000,16,0 days 00:01:37.586000,22,"",0 days 01:16:32.686000,0 days 00:00:24.882000,0 days 00:00:43.184000,0 days 00:00:29.520000,209.0,178.0,"",250.0,soft,3.0
0 days 00:18:56.797000,4,"",1,0 days 00:17:29.226000,"","",0 days 00:00:48.589000,0 days 00:00:17.647000,268.0,199.0,313.0,"",soft,1.0
0 days 00:20:06.334000,4,0 days 00:01:09.537000,2,"","",0 days 00:00:17.968000,0 days 00:00:35.343000,0 days 00:00:16.226000,320.0,264.0,325.0,316.0,soft,2.0
0 days 00:21:58.245000,4,0 days 00:01:51.911000,3,"","",0 days 00:00:26.070000,0 days 00:01:04.953000,0 days 00:00:20.888000,113.0,184.0,314.0,296.0,soft,3.0
0 days 00:23:08.117000,4,0 days 00:01:09.872000,4,"","",0 days 00:00:18.031000,0 days 00:00:35.553000,0 days 00:00:16.288000,320.0,264.0,311.0,319.0,soft,4.0
0 days 00:24:35.663000,4,0 days 00:01:27.546000,5,"",0 days 00:24:32.813000,0 days 00:00:20.582000,0 days 00:00:44.698000,0 days 00:00:22.266000,242.0,200.0,"",290.0,soft,5.0
0 days 00:29:10.227000,4,"",6,0 days 00:27:45.636000,"","",0 days 00:00:47.348000,0 days 00:00:17.698000,277.0,146.0,314.0,"",soft,1.0
0 days 00:30:19.592000,4,0 days 00:01:09.365000,7,"","",0 days 00:00:17.889000,0 days 00:00:35.280000,0 days 00:00:16.196000,320.0,266.0,312.0,316.0,soft,2.0
0 days 00:32:30.461000,4,0 days 00:02:10.869000,8,"","",0 days 00:00:27.329000,0 days 00:01:25.987000,0 days 00:00:17.553000,254.0,168.0,314.0,284.0,soft,3.0
0 days 00:33:39.891000,4,0 days 00:01:09.430000,9,"","",0 days 00:00:17.842000,0 days 00:00:35.426000,0 days 00:00:16.162000,322.0,264.0,315.0,320.0,soft,4.0
0 days 00:35:11.355000,4,0 days 00:01:31.464000,10,"",0 days 00:35:08.518000,0 days 00:00:22.118000,0 days 00:00:45.682000,0 days 00:00:23.664000,222.0,190.0,"",286.0,soft,5.0
0 days 00:45:24.708000,4,"",11,0 days 00:43:38.136000,"","",0 days 00:01:03.796000,0 days 00:00:17.937000,277.0,132.0,315.0,"",soft,1.0
0 days 00:46:33.900000,4,0 days 00:01:09.192000,12,"","",0 days 00:00:17.757000,0 days 00:00:35.235000,0 days 00:00:16.200000,320.0,266.0,317.0,319.0,soft,2.0
0 days 00:48:05.415000,4,0 days 00:01:31.515000,13,"",0 days 00:48:02.316000,0 days 00:00:21.873000,0 days 00:00:45.608000,0 days 00:00:24.034000,236.0,179.0,"",292.0,soft,3.0
0 days 00:54:21.879000,4,"",14,0 days 00:52:23.824000,"","",0 days 00:00:56.865000,0 days 00:00:17.117000,276.0,178.0,316.0,"",soft,1.0
0 days 00:55:30.909000,4,0 days 00:01:09.030000,15,"","",0 days 00:00:17.707000,0 days 00:00:35.192000,0 days 00:00:16.131000,322.0,265.0,317.0,320.0,soft,2.0
0 days 00:57:04.971000,4,0 days 00:01:34.062000,16,"",0 days 00:57:01.983000,0 days 00:00:24.762000,0 days 00:00:44.328000,0 days 00:00:24.972000,226.0,171.0,"",284.0,soft,3.0
0 days 01:08:03.936000,4,"",17,0 days 01:06:17.257000,"","",0 days 00:00:52.377000,0 days 00:00:16.671000,274.0,243.0,318.0,"",soft,1.0
0 days 01:09:13.030000,4,0 days 00:01:09.094000,18,"","",0 days 00:00:17.702000,0 days 00:00:35.245000,0 days 00:00:16.147000,320.0,266.0,317.0,322.0,soft,2.0
0 days 01:10:38.957000,4,0 days 00:01:25.927000,19,"",0 days 01:10:35.978000,0 days 00:00:22.145000,0 days 00:00:40.546000,0 days 00:00:23.236000,252.0,199.0,"",291.0,soft,3.0
0 days 01:14:31.388000,4,"",20,0 days 01:12:59.894000,"","",0 days 00:00:48.729000,0 days 00:00:16.751000,276.0,224.0,317.0,"",soft,1.0
0 days 01:15:40.368000,4,0 days 00:01:08.980000,21,"","",0 days 00:00:17.637000,0 days 00:00:35.192000,0 days 00:00:16.151000,322.0,264.0,320.0,322.0,soft,2.0
0 days 01:17:08.889000,4,"",22,"",0 days 01:17:08.889000,0 days 00:00:22.755000,0 days 00:00:43.830000,"",232.0,214.0,"",283.0,soft,3.0
0 days 00:19:42.333000,3,"",1,0 days 00:18:10.839000,"","",0 days 00:00:49.553000,0 days 00:00:19.969000,262.0,128.0,313.0,"",soft,1.0
0 days 00:20:52.007000,3,0 days 00:01:09.674000,2,"","",0 days 00:00:17.988000,0 days 00:00:35.404000,0 days 00:00:16.282000,319.0,262.0,312.0,315.0,soft,2.0
0 days 00:22:32.617000,3,0 days 00:01:40.610000,3,"","",0 days 00:00:27.817000,0 days 00:00:54.938000,0 days 00:00:17.855000,263.0,216.0,311.0,274.0,soft,3.0
0 days 00:23:48.713000,3,0 days 00:01:16.096000,4,"",0 days 00:23:45.604000,0 days 00:00:17.961000,0 days 00:00:35.501000,0 days 00:00:22.634000,319.0,263.0,"",314.0,soft,4.0
0 days 00:26:39.889000,3,"",5,0 days 00:25:19.110000,0 days 00:26:36.878000,"",0 days 00:00:39.997000,0 days 00:00:22.666000,269.0,202.0,"","",soft,1.0
0 days 00:29:56.305000,3,"",6,0 days 00:28:27.965000,"","",0 days 00:00:49.867000,0 days 00:00:17.502000,270.0,226.0,310.0,"",soft,1.0
0 days 00:31:05.924000,3,0 days 00:01:09.619000,7,"","",0 days 00:00:17.930000,0 days 00:00:35.394000,0 days 00:00:16.295000,316.0,264.0,314.0,313.0,soft,2.0
0 days 00:32:47.217000,3,0 days 00:01:41.293000,8,"","",0 days 00:00:26.488000,0 days 00:00:56.107000,0 days 00:00:18.698000,197.0,120.0,314.0,282.0,soft,3.0
0 days 00:33:56.591000,3,0 days 00:01:09.374000,9,"","",0 days 00:00:17.778000,0 days 00:00:35.322000,0 days 00:00:16.274000,321.0,264.0,318.0,320.0,soft,4.0
0 days 00:35:27.643000,3,0 days 00:01:31.052000,10,"",0 days 00:35:24.771000,0 days 00:00:22.240000,0 days 00:00:44.337000,0 days 00:00:24.475000,290.0,210.0,"",302.0,soft,5.0
0 days 00:45:51.346000,3,"",11,0 days 00:43:54.282000,"","",0 days 00:00:57.125000,0 days 00:00:17.688000,269.0,140.0,315.0,"",soft,1.0
0 days 00:47:00.467000,3,0 days 00:01:09.121000,12,"","",0 days 00:00:17.796000,0 days 00:00:35.133000,0 days 00:00:16.192000,320.0,262.0,318.0,319.0,soft,2.0
0 days 00:48:31.217000,3,0 days 00:01:30.750000,13,"",0 days 00:48:28.254000,0 days 00:00:21.873000,0 days 00:00:44.902000,0 days 00:00:23.975000,285.0,217.0,"",295.0,soft,3.0
0 days 00:54:17.448000,3,"",14,0 days 00:52:16.551000,"","",0 days 00:00:55.586000,0 days 00:00:17.447000,275.0,141.0,315.0,"",soft,1.0
0 days 00:55:26.541000,3,0 days 00:01:09.093000,15,"","",0 days 00:00:17.685000,0 days 00:00:35.214000,0 days 00:00:16.194000,320.0,264.0,316.0,318.0,soft,2.0
0 days 00:57:03.597000,3,0 days 00:01:37.056000,16,"",0 days 00:57:00.679000,0 days 00:00:25.803000,0 days 00:00:46.097000,0 days 00:00:25.156000,285.0,221.0,"",307.0,soft,3.0
0 days 01:08:09.159000,3,"",17,0 days 01:06:23.129000,"","",0 days 00:00:47.972000,0 days 00:00:17.089000,273.0,237.0,315.0,"",soft,1.0
0 days 01:09:18.359000,3,0 days 00:01:09.200000,18,"","",0 days 00:00:17.784000,0 days 00:00:35.193000,0 days 00:00:16.223000,318.0,263.0,316.0,318.0,soft,2.0
0 days 01:10:42.524000,3,0 days 00:01:24.165000,19,"",0 days 01:10:39.600000,0 days 00:00:21.021000,0 days 00:00:40.515000,0 days 00:00:22.629000,291.0,230.0,"",295.0,soft,3.0
0 days 01:14:35.592000,3,"",20,0 days 01:13:03.680000,"","",0 days 00:00:49,0 days 00:00:16.908000,274.0,236.0,314.0,"",soft,1.0
0 days 01:15:44.631000,3,0 days 00:01:09.039000,21,"","",0 days 00:00:17.722000,0 days 00:00:35.103000,0 days 00:00:16.214000,320.0,263.0,318.0,319.0,soft,2.0
0 days 01:17:11.617000,3,"",22,"",0 days 01:17:11.617000,0 days 00:00:22.336000,0 days 00:00:41.289000,"",283.0,209.0,"",309.0,soft,3.0
0 days 00:24:18.308000,14,"",1,0 days 00:22:52.881000,"","",0 days 00:00:43.804000,0 days 00:00:22.207000,273.0,159.0,318.0,"",soft,1.0
0 days 00:25:27.817000,14,0 days 00:01:09.509000,2,"","",0 days 00:00:17.900000,0 days 00:00:35.360000,0 days 00:00:16.249000,321.0,265.0,320.0,324.0,soft,2.0
0 days 00:27:07.375000,14,0 days 00:01:39.558000,3,"","",0 days 00:00:25.144000,0 days 00:00:56.638000,0 days 00:00:17.776000,225.0,194.0,320.0,252.0,soft,3.0
0 days 00:28:24.230000,14,0 days 00:01:16.855000,4,"",0 days 00:28:21.644000,0 days 00:00:17.966000,0 days 00:00:35.591000,0 days 00:00:23.298000,321.0,264.0,"",326.0,soft,4.0
0 days 00:32:04.125000,14,"",5,0 days 00:30:25.105000,"","",0 days 00:00:58.622000,0 days 00:00:19.880000,274.0,159.0,318.0,"",soft,1.0
0 days 00:33:13.516000,14,0 days 00:01:09.391000,6,"","",0 days 00:00:17.963000,0 days 00:00:35.196000,0 days 00:00:16.232000,322.0,265.0,320.0,322.0,soft,2.0
0 days 00:34:50.963000,14,0 days 00:01:37.447000,7,"",0 days 00:34:48.378000,0 days 00:00:25.270000,0 days 00:00:45.299000,0 days 00:00:26.878000,228.0,158.0,"",242.0,soft,3.0
0 days 00:46:19.928000,14,"",8,0 days 00:44:50.961000,"","",0 days 00:00:52.047000,0 days 00:00:19.617000,285.0,43.0,321.0,"",soft,1.0
0 days 00:47:29.065000,14,0 days 00:01:09.137000,9,"","",0 days 00:00:17.770000,0 days 00:00:35.051000,0 days 00:00:16.316000,322.0,266.0,319.0,328.0,soft,2.0
0 days 00:49:01.424000,14,0 days 00:01:32.359000,10,"",0 days 00:48:58.512000,0 days 00:00:24.565000,0 days 00:00:42.457000,0 days 00:00:25.337000,238.0,205.0,"",255.0,soft,3.0
0 days 00:53:22.375000,14,"",11,0 days 00:51:52.053000,"","",0 days 00:00:49.212000,0 days 00:00:17.688000,267.0,219.0,316.0,"",soft,1.0
0 days 00:54:31.764000,14,0 days 00:01:09.389000,12,"","",0 days 00:00:17.829000,0 days 00:00:35.255000,0 days 00:00:16.305000,320.0,264.0,321.0,321.0,soft,2.0
0 days 00:56:12.968000,14,0 days 00:01:41.204000,13,"",0 days 00:56:10.299000,0 days 00:00:29.599000,0 days 00:00:46.534000,0 days 00:00:25.071000,203.0,197.0,"",226.0,soft,3.0
0 days 01:07:31.441000,14,"",14,0 days 01:05:54.556000,"","",0 days 00:00:52.812000,0 days 00:00:18.372000,266.0,209.0,319.0,"",soft,1.0
0 days 01:08:40.621000,14,0 days 00:01:09.180000,15,"","",0 days 00:00:17.763000,0 days 00:00:35.096000,0 days 00:00:16.321000,322.0,266.0,319.0,323.0,soft,2.0
0 days 01:10:19.050000,14,0 days 00:01:38.429000,16,"",0 days 01:10:16.101000,0 days 00:00:27.700000,0 days 00:00:43.195000,0 days 00:00:27.534000,221.0,158.0,"",249.0,soft,3.0
0 days 01:13:38.566000,14,"",17,0 days 01:12:16.702000,"","",0 days 00:00:45.148000,0 days 00:00:17.757000,282.0,191.0,316.0,"",soft,1.0
0 days 01:14:47.679000,14,0 days 00:01:09.113000,18,"","",0 days 00:00:17.748000,0 days 00:00:35.131000,0 days 00:00:16.234000,320.0,264.0,317.0,321.0,soft,2.0
0 days 01:16:32.282000,14,0 days 00:01:44.603000,19,"",0 days 01:16:28.075000,0 days 00:00:27.659000,0 days 00:00:45.507000,0 days 00:00:31.437000,198.0,156.0,"",231.0,soft,3.0
0 days 00:23:36.854000,31,"",1,0 days 00:22:04.333000,"","",0 days 00:00:54.302000,0 days 00:00:18.555000,277.0,146.0,314.0,"",soft,1.0
0 days 00:24:46.779000,31,0 days 00:01:09.925000,2,"","",0 days 00:00:18.050000,0 days 00:00:35.522000,0 days 00:00:16.353000,319.0,265.0,319.0,320.0,soft,2.0
0 days 00:26:30.202000,31,0 days 00:01:43.423000,3,"","",0 days 00:00:27.749000,0 days 00:00:58.579000,0 days 00:00:17.095000,157.0,231.0,317.0,255.0,soft,3.0
0 days 00:27:39.997000,31,0 days 00:01:09.795000,4,"","",0 days 00:00:17.894000,0 days 00:00:35.545000,0 days 00:00:16.356000,319.0,263.0,317.0,323.0,soft,4.0
0 days 00:29:04.874000,31,0 days 00:01:24.877000,5,"",0 days 00:29:02.005000,0 days 00:00:20.726000,0 days 00:00:41.120000,0 days 00:00:23.031000,285.0,227.0,"",238.0,soft,5.0
0 days 00:32:42.888000,31,"",6,0 days 00:30:51.055000,"","",0 days 00:01:13.444000,0 days 00:00:17.574000,268.0,153.0,317.0,"",soft,1.0
0 days 00:33:52.318000,31,0 days 00:01:09.430000,7,"","",0 days 00:00:17.944000,0 days 00:00:35.197000,0 days 00:00:16.289000,321.0,265.0,318.0,324.0,soft,2.0
0 days 00:35:24.553000,31,0 days 00:01:32.235000,8,"",0 days 00:35:21.693000,0 days 00:00:23.761000,0 days 00:00:44.437000,0 days 00:00:24.037000,245.0,215.0,"",246.0,soft,3.0
0 days 00:45:06.795000,31,"",9,0 days 00:43:36.232000,"","",0 days 00:00:49.350000,0 days 00:00:17.213000,283.0,229.0,315.0,"",soft,1.0
0 days 00:46:16.046000,31,0 days 00:01:09.251000,10,"","",0 days 00:00:17.843000,0 days 00:00:35.136000,0 days 00:00:16.272000,320.0,265.0,325.0,321.0,soft,2.0
0 days 00:47:49.442000,31,0 days 00:01:33.396000,11,"",0 days 00:47:46.153000,0 days 00:00:23.927000,0 days 00:00:43.918000,0 days 00:00:25.551000,254.0,204.0,"",279.0,soft,3.0
0 days 00:53:46.979000,31,"",12,0 days 00:52:01.002000,"","",0 days 00:00:51.139000,0 days 00:00:17.580000,276.0,190.0,315.0,"",soft,1.0
0 days 00:54:56.168000,31,0 days 00:01:09.189000,13,"","",0 days 00:00:17.738000,0 days 00:00:35.165000,0 days 00:00:16.286000,321.0,264.0,318.0,323.0,soft,2.0
0 days 00:56:31.566000,31,0 days 00:01:35.398000,14,"",0 days 00:56:28.562000,0 days 00:00:23.159000,0 days 00:00:45.574000,0 days 00:00:26.665000,238.0,206.0,"",284.0,soft,3.0
0 days 00:19:09.926000,5,"",1,0 days 00:17:37.541000,"","",0 days 00:00:51.270000,0 days 00:00:17.764000,252.0,215.0,309.0,"",soft,1.0
0 days 00:20:20.074000,5,0 days 00:01:10.148000,2,"","",0 days 00:00:18.100000,0 days 00:00:35.668000,0 days 00:00:16.380000,317.0,262.0,311.0,313.0,soft,2.0
0 days 00:22:08.033000,5,0 days 00:01:47.959000,3,"","",0 days 00:00:25.664000,0 days 00:00:58.335000,0 days 00:00:23.960000,181.0,102.0,261.0,245.0,soft,3.0
0 days 00:23:46.798000,5,0 days 00:01:38.765000,4,"","",0 days 00:00:24.483000,0 days 00:00:55.765000,0 days 00:00:18.517000,223.0,196.0,309.0,265.0,soft,4.0
0 days 00:24:56.768000,5,0 days 00:01:09.970000,5,"","",0 days 00:00:18.117000,0 days 00:00:35.529000,0 days 00:00:16.324000,317.0,263.0,313.0,313.0,soft,5.0
0 days 00:26:23.574000,5,0 days 00:01:26.806000,6,"",0 days 00:26:20.661000,0 days 00:00:21.989000,0 days 00:00:42.644000,0 days 00:00:22.173000,261.0,231.0,"",249.0,soft,6.0
0 days 00:31:47.543000,5,"",7,0 days 00:30:04.855000,"","",0 days 00:00:55.596000,0 days 00:00:19.413000,189.0,190.0,312.0,"",soft,1.0
0 days 00:32:56.994000,5,0 days 00:01:09.451000,8,"","",0 days 00:00:17.949000,0 days 00:00:35.270000,0 days 00:00:16.232000,318.0,262.0,321.0,315.0,soft,2.0
0 days 00:34:27.513000,5,0 days 00:01:30.519000,9,"",0 days 00:34:24.604000,0 days 00:00:22.339000,0 days 00:00:43.370000,0 days 00:00:24.810000,266.0,221.0,"",256.0,soft,3.0
0 days 00:45:43.227000,5,"",10,0 days 00:43:46.920000,"","",0 days 00:01:01.877000,0 days 00:00:17.938000,179.0,217.0,311.0,"",soft,1.0
0 days 00:46:52.713000,5,0 days 00:01:09.486000,11,"","",0 days 00:00:17.998000,0 days 00:00:35.239000,0 days 00:00:16.249000,318.0,261.0,311.0,316.0,soft,2.0
0 days 00:48:24.310000,5,0 days 00:01:31.597000,12,"",0 days 00:48:21.334000,0 days 00:00:22.108000,0 days 00:00:44.697000,0 days 00:00:24.792000,254.0,215.0,"",259.0,soft,3.0
0 days 00:54:02.434000,5,"",13,0 days 00:52:05.291000,"","",0 days 00:00:54.600000,0 days 00:00:18.393000,179.0,214.0,311.0,"",soft,1.0
0 days 00:55:11.833000,5,0 days 00:01:09.399000,14,"","",0 days 00:00:17.834000,0 days 00:00:35.238000,0 days 00:00:16.327000,317.0,262.0,314.0,315.0,soft,2.0
0 days 00:56:50.566000,5,0 days 00:01:38.733000,15,"",0 days 00:56:47.582000,0 days 00:00:26.100000,0 days 00:00:46.181000,0 days 00:00:26.452000,210.0,186.0,"",251.0,soft,3.0
0 days 00:24:05.726000,22,"",1,0 days 00:22:33.947000,"","",0 days 00:00:49.058000,0 days 00:00:17.573000,271.0,207.0,312.0,"",soft,1.0
0 days 00:25:15.076000,22,0 days 00:01:09.350000,2,"","",0 days 00:00:17.971000,0 days 00:00:35.159000,0 days 00:00:16.220000,319.0,265.0,327.0,316.0,soft,2.0
0 days 00:26:53.337000,22,0 days 00:01:38.261000,3,"",0 days 00:26:50.497000,0 days 00:00:29.304000,0 days 00:00:46.631000,0 days 00:00:22.326000,268.0,232.0,"",163.0,soft,3.0
0 days 00:45:35.919000,22,"",4,0 days 00:43:43.156000,"","",0 days 00:01:03.138000,0 days 00:00:17.536000,271.0,209.0,314.0,"",soft,1.0
0 days 00:46:45.402000,22,0 days 00:01:09.483000,5,"","",0 days 00:00:17.924000,0 days 00:00:35.310000,0 days 00:00:16.249000,319.0,265.0,317.0,319.0,soft,2.0
0 days 00:48:18.508000,22,0 days 00:01:33.106000,6,"",0 days 00:48:15.580000,0 days 00:00:24.137000,0 days 00:00:46.003000,0 days 00:00:22.966000,272.0,216.0,"",268.0,soft,3.0
0 days 00:53:40.827000,22,"",7,0 days 00:51:59.009000,"","",0 days 00:00:49.753000,0 days 00:00:17.902000,272.0,146.0,313.0,"",soft,1.0
0 days 00:54:50.342000,22,0 days 00:01:09.515000,8,"","",0 days 00:00:17.964000,0 days 00:00:35.145000,0 days 00:00:16.406000,320.0,264.0,314.0,318.0,soft,2.0
0 days 00:56:23.916000,22,0 days 00:01:33.574000,9,"",0 days 00:56:20.709000,0 days 00:00:25.867000,0 days 00:00:44.384000,0 days 00:00:23.323000,255.0,220.0,"",258.0,soft,3.0
0 days 00:18:59.403000,7,"",1,0 days 00:17:32.264000,"","",0 days 00:00:51.387000,0 days 00:00:17.063000,283.0,225.0,321.0,"",soft,1.0
0 days 00:20:09.623000,7,0 days 00:01:10.220000,2,"","",0 days 00:00:18.098000,0 days 00:00:35.823000,0 days 00:00:16.299000,325.0,265.0,323.0,327.0,soft,2.0
0 days 00:21:35.387000,7,0 days 00:01:25.764000,3,"",0 days 00:21:32.518000,0 days 00:00:21.302000,0 days 00:00:41.309000,0 days 00:00:23.153000,281.0,233.0,"",259.0,soft,3.0
0 days 00:25:18.261000,7,"",4,0 days 00:23:53.527000,"","",0 days 00:00:45.623000,0 days 00:00:17.105000,255.0,229.0,324.0,"",soft,1.0
0 days 00:26:28.075000,7,0 days 00:01:09.814000,5,"","",0 days 00:00:17.829000,0 days 00:00:35.749000,0 days 00:00:16.236000,327.0,268.0,322.0,329.0,soft,2.0
0 days 00:27:54.881000,7,0 days 00:01:26.806000,6,"",0 days 00:27:50.407000,0 days 00:00:21.454000,0 days 00:00:40.261000,0 days 00:00:25.091000,240.0,236.0,"",288.0,soft,3.0
0 days 00:32:23.014000,7,"",7,0 days 00:30:41.059000,"","",0 days 00:01:03.203000,0 days 00:00:18.556000,269.0,53.0,322.0,"",soft,1.0
0 days 00:33:32.612000,7,0 days 00:01:09.598000,8,"","",0 days 00:00:17.773000,0 days 00:00:35.557000,0 days 00:00:16.268000,327.0,267.0,325.0,329.0,soft,2.0
0 days 00:35:05.003000,7,0 days 00:01:32.391000,9,"",0 days 00:35:02.135000,0 days 00:00:23.136000,0 days 00:00:44.344000,0 days 00:00:24.911000,252.0,192.0,"",263.0,soft,3.0
0 days 00:45:59.864000,7,"",10,0 days 00:44:24.783000,"","",0 days 00:00:55.819000,0 days 00:00:18.138000,272.0,150.0,321.0,"",soft,4.0
0 days 00:47:09.933000,7,0 days 00:01:10.069000,11,"","",0 days 00:00:17.983000,0 days 00:00:35.682000,0 days 00:00:16.404000,325.0,267.0,321.0,327.0,soft,5.0
0 days 00:48:34.920000,7,0 days 00:01:24.987000,12,"",0 days 00:48:31.949000,0 days 00:00:20.284000,0 days 00:00:40.622000,0 days 00:00:24.081000,281.0,241.0,"",310.0,soft,6.0
0 days 00:54:42.752000,7,"",13,0 days 00:52:58.141000,"","",0 days 00:00:59.082000,0 days 00:00:19.705000,176.0,80.0,323.0,"",soft,1.0
0 days 00:55:52.255000,7,0 days 00:01:09.503000,14,"","",0 days 00:00:17.807000,0 days 00:00:35.416000,0 days 00:00:16.280000,325.0,266.0,321.0,330.0,soft,2.0
0 days 00:57:23.038000,7,0 days 00:01:30.783000,15,"",0 days 00:57:19.939000,0 days 00:00:23.583000,0 days 00:00:42.412000,0 days 00:00:24.788000,237.0,203.0,"",247.0,soft,3.0
0 days 00:18:51.520000,99,"",1,0 days 00:17:26.530000,"","",0 days 00:00:47.744000,0 days 00:00:17.620000,217.0,190.0,319.0,"",soft,1.0
0 days 00:20:02.018000,99,0 days 00:01:10.498000,2,"","",0 days 00:00:18.069000,0 days 00:00:36.185000,0 days 00:00:16.244000,324.0,266.0,321.0,324.0,soft,2.0
0 days 00:21:32.933000,99,0 days 00:01:30.915000,3,"",0 days 00:21:29.848000,0 days 00:00:23.642000,0 days 00:00:43.870000,0 days 00:00:23.403000,256.0,230.0,"",249.0,soft,3.0
0 days 00:26:03.636000,99,"",4,0 days 00:24:22.376000,"","",0 days 00:00:58.347000,0 days 00:00:17.916000,107.0,155.0,320.0,"",soft,1.0
0 days 00:27:13.703000,99,0 days 00:01:10.067000,5,"","",0 days 00:00:17.975000,0 days 00:00:35.852000,0 days 00:00:16.240000,325.0,268.0,322.0,325.0,soft,2.0
0 days 00:28:40.832000,99,0 days 00:01:27.129000,6,"",0 days 00:28:37.940000,0 days 00:00:21.900000,0 days 00:00:43.064000,0 days 00:00:22.165000,275.0,237.0,"",244.0,soft,3.0
0 days 00:32:20.105000,99,"",7,0 days 00:30:38.045000,"","",0 days 00:01:02.636000,0 days 00:00:19.273000,191.0,39.0,321.0,"",soft,1.0
0 days 00:33:29.447000,99,0 days 00:01:09.342000,8,"","",0 days 00:00:17.689000,0 days 00:00:35.502000,0 days 00:00:16.151000,327.0,269.0,323.0,328.0,soft,2.0
0 days 00:35:01.377000,99,0 days 00:01:31.930000,9,"",0 days 00:34:58.470000,0 days 00:00:21.703000,0 days 00:00:45.495000,0 days 00:00:24.732000,240.0,218.0,"",277.0,soft,3.0
0 days 00:45:57.066000,99,"",10,0 days 00:44:18.606000,"","",0 days 00:01:00.500000,0 days 00:00:18.092000,199.0,136.0,320.0,"",soft,4.0
0 days 00:47:07.293000,99,0 days 00:01:10.227000,11,"","",0 days 00:00:17.946000,0 days 00:00:35.903000,0 days 00:00:16.378000,325.0,267.0,322.0,326.0,soft,5.0
0 days 00:48:33.045000,99,0 days 00:01:25.752000,12,"",0 days 00:48:30.081000,0 days 00:00:22.149000,0 days 00:00:40.349000,0 days 00:00:23.254000,255.0,232.0,"",294.0,soft,6.0
0 days 00:54:40.416000,99,"",13,0 days 00:52:53.908000,"","",0 days 00:00:59.882000,0 days 00:00:19.233000,224.0,91.0,322.0,"",soft,1.0
0 days 00:56:10.481000,99,0 days 00:01:30.065000,14,"",0 days 00:56:07.490000,0 days 00:00:19.335000,0 days 00:00:47.134000,0 days 00:00:23.596000,202.0,232.0,"",328.0,soft,2.0
0 days 00:18:46.976000,18,"",1,0 days 00:17:27.662000,"","",0 days 00:00:42.862000,0 days 00:00:17.563000,263.0,207.0,311.0,"",soft,1.0
0 days 00:19:56.932000,18,0 days 00:01:09.956000,2,"","",0 days 00:00:18.069000,0 days 00:00:35.521000,0 days 00:00:16.366000,318.0,262.0,316.0,315.0,soft,2.0
0 days 00:21:54.756000,18,0 days 00:01:57.824000,3,"","",0 days 00:00:30.159000,0 days 00:01:08.130000,0 days 00:00:19.535000,141.0,142.0,288.0,263.0,soft,3.0
0 days 00:23:28.047000,18,0 days 00:01:33.291000,4,"","",0 days 00:00:22.926000,0 days 00:00:53.035000,0 days 00:00:17.330000,284.0,222.0,312.0,272.0,soft,4.0
0 days 00:24:38.071000,18,0 days 00:01:10.024000,5,"","",0 days 00:00:18.084000,0 days 00:00:35.614000,0 days 00:00:16.326000,321.0,261.0,321.0,315.0,soft,5.0
0 days 00:26:07.346000,18,0 days 00:01:29.275000,6,"",0 days 00:26:04.513000,0 days 00:00:20.067000,0 days 00:00:45.317000,0 days 00:00:23.891000,289.0,211.0,"",279.0,soft,6.0
0 days 00:32:12.066000,18,"",7,0 days 00:30:42.774000,"","",0 days 00:00:43.635000,0 days 00:00:26.274000,278.0,97.0,314.0,"",soft,1.0
0 days 00:33:21.729000,18,0 days 00:01:09.663000,8,"","",0 days 00:00:18.075000,0 days 00:00:35.292000,0 days 00:00:16.296000,319.0,264.0,317.0,318.0,soft,2.0
0 days 00:34:58.131000,18,0 days 00:01:36.402000,9,"",0 days 00:34:55.057000,0 days 00:00:20.762000,0 days 00:00:44.751000,0 days 00:00:30.889000,254.0,151.0,"",278.0,soft,3.0
0 days 00:17:23.422000,6,"",1,0 days 00:16:01.940000,"","",0 days 00:00:42.675000,0 days 00:00:18.348000,286.0,188.0,311.0,"",soft,1.0
0 days 00:18:34.668000,6,0 days 00:01:11.246000,2,"","",0 days 00:00:18.441000,0 days 00:00:36.192000,0 days 00:00:16.613000,315.0,261.0,312.0,316.0,soft,2.0
0 days 00:20:05.481000,6,0 days 00:01:30.813000,3,"",0 days 00:20:01.929000,0 days 00:00:22.042000,0 days 00:00:44.329000,0 days 00:00:24.442000,277.0,98.0,"",262.0,soft,3.0
0 days 00:24:29.951000,6,"",4,0 days 00:22:46.438000,"","",0 days 00:00:57.963000,0 days 00:00:20.649000,291.0,54.0,314.0,"",soft,1.0
0 days 00:25:39.958000,6,0 days 00:01:10.007000,5,"","",0 days 00:00:18.204000,0 days 00:00:35.524000,0 days 00:00:16.279000,319.0,263.0,315.0,319.0,soft,2.0
0 days 00:27:14.158000,6,0 days 00:01:34.200000,6,"",0 days 00:27:11.331000,0 days 00:00:21.968000,0 days 00:00:47.907000,0 days 00:00:24.325000,288.0,160.0,"",272.0,soft,3.0
0 days 00:31:52.134000,6,"",7,0 days 00:30:15.202000,"","",0 days 00:00:55.390000,0 days 00:00:18.459000,290.0,200.0,314.0,"",soft,1.0
0 days 00:33:02.031000,6,0 days 00:01:09.897000,8,"","",0 days 00:00:17.981000,0 days 00:00:35.524000,0 days 00:00:16.392000,318.0,263.0,320.0,319.0,soft,2.0
0 days 00:34:32.314000,6,0 days 00:01:30.283000,9,"",0 days 00:34:29.384000,0 days 00:00:22.943000,0 days 00:00:45.018000,0 days 00:00:22.322000,289.0,231.0,"",301.0,soft,3.0
0 days 00:16:28.681000,63,"",1,0 days 00:15:04.431000,0 days 00:16:25.786000,"",0 days 00:00:41.270000,0 days 00:00:22.550000,198.0,231.0,"","",soft,11.0
0 days 00:19:47.701000,63,"",2,0 days 00:18:14.760000,"","",0 days 00:00:50.440000,0 days 00:00:20.899000,206.0,169.0,317.0,"",soft,1.0
0 days 00:20:58.096000,63,0 days 00:01:10.395000,3,"","",0 days 00:00:18.033000,0 days 00:00:35.939000,0 days 00:00:16.423000,320.0,262.0,314.0,322.0,soft,2.0
0 days 00:22:40.759000,63,0 days 00:01:42.663000,4,"","",0 days 00:00:27.516000,0 days 00:00:55.082000,0 days 00:00:20.065000,201.0,185.0,293.0,213.0,soft,3.0
0 days 00:24:35.491000,63,0 days 00:01:54.732000,5,"","",0 days 00:00:25.052000,0 days 00:01:08.926000,0 days 00:00:20.754000,282.0,146.0,318.0,219.0,soft,4.0
0 days 00:25:45.682000,63,0 days 00:01:10.191000,6,"","",0 days 00:00:18.067000,0 days 00:00:35.832000,0 days 00:00:16.292000,322.0,263.0,317.0,322.0,soft,5.0
0 days 00:27:17.018000,63,0 days 00:01:31.336000,7,"",0 days 00:27:14.157000,0 days 00:00:20.198000,0 days 00:00:44.729000,0 days 00:00:26.409000,292.0,133.0,"",287.0,soft,6.0
0 days 00:31:39.154000,63,"",8,0 days 00:29:58.660000,"","",0 days 00:00:53.168000,0 days 00:00:21.094000,286.0,107.0,316.0,"",soft,1.0
0 days 00:32:49.107000,63,0 days 00:01:09.953000,9,"","",0 days 00:00:18.037000,0 days 00:00:35.539000,0 days 00:00:16.377000,318.0,263.0,321.0,320.0,soft,2.0
0 days 00:34:25.936000,63,0 days 00:01:36.829000,10,"",0 days 00:34:23.049000,0 days 00:00:24.476000,0 days 00:00:45.347000,0 days 00:00:27.006000,192.0,187.0,"",135.0,soft,3.0
0 days 00:17:03.724000,47,"",1,0 days 00:15:18.688000,"","",0 days 00:01:01.884000,0 days 00:00:18.003000,266.0,209.0,314.0,"",soft,1.0
0 days 00:18:14.569000,47,0 days 00:01:10.845000,2,"","",0 days 00:00:18.207000,0 days 00:00:36.105000,0 days 00:00:16.533000,318.0,264.0,309.0,318.0,soft,2.0
0 days 00:20:05.589000,47,0 days 00:01:51.020000,3,"","",0 days 00:00:24.363000,0 days 00:01:04.689000,0 days 00:00:21.968000,265.0,105.0,315.0,298.0,soft,3.0
0 days 00:21:16.598000,47,0 days 00:01:11.009000,4,"","",0 days 00:00:18.162000,0 days 00:00:36.276000,0 days 00:00:16.571000,318.0,263.0,311.0,319.0,soft,4.0
0 days 00:22:39.663000,47,0 days 00:01:23.065000,5,"",0 days 00:22:36.751000,0 days 00:00:20.812000,0 days 00:00:39.676000,0 days 00:00:22.577000,285.0,235.0,"",303.0,soft,5.0
0 days 00:25:58.371000,47,"",6,0 days 00:24:18.736000,"","",0 days 00:00:57.121000,0 days 00:00:18.048000,278.0,206.0,315.0,"",soft,1.0
0 days 00:27:08.700000,47,0 days 00:01:10.329000,7,"","",0 days 00:00:17.969000,0 days 00:00:35.847000,0 days 00:00:16.513000,321.0,265.0,319.0,318.0,soft,2.0
0 days 00:28:32.323000,47,0 days 00:01:23.623000,8,"",0 days 00:28:29.449000,0 days 00:00:20.991000,0 days 00:00:39.843000,0 days 00:00:22.789000,285.0,230.0,"","",soft,3.0
0 days 00:31:56.311000,47,"",9,0 days 00:30:18.559000,"","",0 days 00:00:58.621000,0 days 00:00:18.050000,286.0,127.0,316.0,"",soft,1.0
0 days 00:33:06.269000,47,0 days 00:01:09.958000,10,"","",0 days 00:00:17.920000,0 days 00:00:35.536000,0 days 00:00:16.502000,321.0,265.0,314.0,"",soft,2.0
0 days 00:34:38.444000,47,0 days 00:01:32.175000,11,"",0 days 00:34:35.261000,0 days 00:00:22.080000,0 days 00:00:44.021000,0 days 00:00:26.074000,286.0,205.0,"",294.0,soft,3.0
0 days 00:16:50.732000,9,"",1,0 days 00:15:13.337000,"","",0 days 00:00:55.701000,0 days 00:00:18.205000,227.0,191.0,315.0,"",soft,1.0
0 days 00:18:02.039000,9,0 days 00:01:11.307000,2,"","",0 days 00:00:18.406000,0 days 00:00:36.248000,0 days 00:00:16.653000,319.0,262.0,311.0,318.0,soft,2.0
0 days 00:19:51.978000,9,0 days 00:01:49.939000,3,"","",0 days 00:00:30.326000,0 days 00:01:02.374000,0 days 00:00:17.239000,162.0,214.0,314.0,247.0,soft,3.0
0 days 00:21:10.328000,9,0 days 00:01:18.350000,4,"",0 days 00:21:07.272000,0 days 00:00:18.191000,0 days 00:00:36.179000,0 days 00:00:23.980000,320.0,261.0,"",319.0,soft,4.0
0 days 00:25:53.022000,9,"",5,0 days 00:24:15.646000,"","",0 days 00:00:57.646000,0 days 00:00:18.012000,261.0,202.0,315.0,"",soft,1.0
0 days 00:27:03.611000,9,0 days 00:01:10.589000,6,"","",0 days 00:00:18.231000,0 days 00:00:35.825000,0 days 00:00:16.533000,320.0,263.0,314.0,318.0,soft,2.0
0 days 00:28:30.345000,9,0 days 00:01:26.734000,7,"",0 days 00:28:27.448000,0 days 00:00:20.988000,0 days 00:00:42.931000,0 days 00:00:22.815000,180.0,239.0,"",275.0,soft,3.0
0 days 00:32:15.023000,9,"",8,0 days 00:30:28.346000,"","",0 days 00:00:59.806000,0 days 00:00:24.078000,185.0,37.0,316.0,"",soft,1.0
0 days 00:33:25.654000,9,0 days 00:01:10.631000,9,"","",0 days 00:00:17.907000,0 days 00:00:36.115000,0 days 00:00:16.609000,323.0,260.0,315.0,321.0,soft,2.0
0 days 00:34:59.422000,9,0 days 00:01:33.768000,10,"",0 days 00:34:56.490000,0 days 00:00:23.835000,0 days 00:00:44.034000,0 days 00:00:25.899000,266.0,230.0,"",255.0,soft,3.0
