2021-03-28 14:45:06	RISK OF RAIN FOR F1 RACE IS 0%
2021-03-28 14:57:06	DRS DISABLED
2021-03-28 14:57:40	YELLOW IN TRACK SECTOR 12
2021-03-28 14:57:41	CLEAR IN TRACK SECTOR 12
2021-03-28 15:03:30	START ABORTED - EXTRA FORMATION LAP
2021-03-28 15:07:10	GREEN LIGHT - PIT EXIT OPEN
2021-03-28 15:07:35	YELLOW IN TRACK SECTOR 3
2021-03-28 15:08:12	SAFETY CAR DEPLOYED
2021-03-28 15:12:00	CLEAR IN TRACK SECTOR 3
2021-03-28 15:12:15	SAFETY CAR IN THIS LAP
2021-03-28 15:13:49	TRACK CLEAR
2021-03-28 15:14:48	YELLOW IN TRACK SECTOR 4
2021-03-28 15:14:48	YELLOW IN TRACK SECTOR 6
2021-03-28 15:14:50	CLEAR IN TRACK SECTOR 6
2021-03-28 15:15:01	CLEAR IN TRACK SECTOR 4
2021-03-28 15:15:33	VIRTUAL SAFETY CAR DEPLOYED
2021-03-28 15:16:16	VIRTUAL SAFETY CAR ENDING
2021-03-28 15:16:30	TRACK CLEAR
2021-03-28 15:16:36	DRS ENABLED
2021-03-28 15:17:34	TURN 3 INCIDENT INVOLVING CAR 9 (MAZ) NOTED
2021-03-28 15:18:03	TURN 4 INCIDENT INVOLVING CAR 10 (GAS) NOTED
2021-03-28 15:21:27	TURN 4 INCIDENT INVOLVING CAR 10 (GAS) - NO INVESTIGATION NECESSARY
2021-03-28 15:24:30	TURN 4 INCIDENT INVOLVING CARS 4 (NOR) AND 16 (LEC) NOTED - NO INVESTIGATION NECESSARY
2021-03-28 15:57:23	WAVED BLUE FLAG FOR CAR 47 (MSC) TIMED AT 18:57:23
2021-03-28 16:03:41	WAVED BLUE FLAG FOR CAR 6 (LAT) TIMED AT 19:03:40
2021-03-28 16:05:20	WAVED BLUE FLAG FOR CAR 10 (GAS) TIMED AT 19:05:20
2021-03-28 16:09:48	WAVED BLUE FLAG FOR CAR 47 (MSC) TIMED AT 19:09:48
2021-03-28 16:11:59	WAVED BLUE FLAG FOR CAR 6 (LAT) TIMED AT 19:11:58
2021-03-28 16:17:30	WAVED BLUE FLAG FOR CAR 47 (MSC) TIMED AT 19:17:30
2021-03-28 16:18:10	WAVED BLUE FLAG FOR CAR 63 (RUS) TIMED AT 19:18:10
2021-03-28 16:20:13	YELLOW IN TRACK SECTOR 2
2021-03-28 16:20:14	DRS DISABLED IN ZONE 3
2021-03-28 16:20:15	DOUBLE YELLOW IN TRACK SECTOR 2
2021-03-28 16:20:21	CLEAR IN TRACK SECTOR 2
2021-03-28 16:20:21	DRS ENABLED IN ZONE 3
2021-03-28 16:21:04	TURN 1 INCIDENT INVOLVING CARS 5 (VET) AND 31 (OCO) NOTED
2021-03-28 16:21:33	WAVED BLUE FLAG FOR CAR 63 (RUS) TIMED AT 19:21:32
2021-03-28 16:22:03	WAVED BLUE FLAG FOR CAR 47 (MSC) TIMED AT 19:22:02
2021-03-28 16:22:51	WAVED BLUE FLAG FOR CAR 31 (OCO) TIMED AT 19:22:50
2021-03-28 16:23:10	WAVED BLUE FLAG FOR CAR 6 (LAT) TIMED AT 19:23:10
2021-03-28 16:24:10	WAVED BLUE FLAG FOR CAR 5 (VET) TIMED AT 19:24:09
2021-03-28 16:24:41	WAVED BLUE FLAG FOR CAR 31 (OCO) TIMED AT 19:24:40
2021-03-28 16:24:42	TURN 1 INCIDENT INVOLVING CARS 5 (VET) AND 31 (OCO) UNDER INVESTIGATION - CAUSING A COLLISION
2021-03-28 16:25:09	WAVED BLUE FLAG FOR CAR 5 (VET) TIMED AT 19:25:08
2021-03-28 16:25:31	WAVED BLUE FLAG FOR CAR 31 (OCO) TIMED AT 19:25:30
2021-03-28 16:25:48	WAVED BLUE FLAG FOR CAR 47 (MSC) TIMED AT 19:25:48
2021-03-28 16:26:28	WAVED BLUE FLAG FOR CAR 6 (LAT) TIMED AT 19:26:27
2021-03-28 16:27:34	WAVED BLUE FLAG FOR CAR 6 (LAT) TIMED AT 19:27:33
2021-03-28 16:30:03	WAVED BLUE FLAG FOR CAR 47 (MSC) TIMED AT 19:30:02
2021-03-28 16:30:36	WAVED BLUE FLAG FOR CAR 6 (LAT) TIMED AT 19:30:35
2021-03-28 16:31:14	10 SECOND TIME PENALTY FOR CAR 5 (VET) - CAUSING A COLLISION
2021-03-28 16:31:26	WAVED BLUE FLAG FOR CAR 47 (MSC) TIMED AT 19:31:26
2021-03-28 16:32:04	WAVED BLUE FLAG FOR CAR 6 (LAT) TIMED AT 19:32:04
2021-03-28 16:32:28	WAVED BLUE FLAG FOR CAR 5 (VET) TIMED AT 19:32:28
2021-03-28 16:32:29	WAVED BLUE FLAG FOR CAR 6 (LAT) TIMED AT 19:32:29
2021-03-28 16:33:02	WAVED BLUE FLAG FOR CAR 99 (GIO) TIMED AT 19:33:01
2021-03-28 16:35:42	WAVED BLUE FLAG FOR CAR 63 (RUS) TIMED AT 19:35:41
2021-03-28 16:39:12	CHEQUERED FLAG
