Time,DriverNumber,LapTime,LapNumber,PitOutTime,PitInTime,Sector1Time,Sector2Time,Sector3Time,SpeedI1,SpeedI2,SpeedFL,SpeedST,Compound,TyreLife
0 days 00:21:10.637000,33,"",1,0 days 00:19:29.277000,"","",0 days 00:00:42.054000,0 days 00:00:35.114000,201.0,169.0,286.0,266.0,soft,1.0
0 days 00:22:15.126000,33,0 days 00:01:04.489000,2,"","",0 days 00:00:16.345000,0 days 00:00:28.765000,0 days 00:00:19.379000,317.0,248.0,288.0,313.0,soft,2.0
0 days 00:23:57.013000,33,0 days 00:01:41.887000,3,"","",0 days 00:00:21.799000,0 days 00:00:47.123000,0 days 00:00:32.965000,169.0,110.0,202.0,130.0,soft,3.0
0 days 00:25:45.976000,33,0 days 00:01:48.963000,4,"","",0 days 00:00:22.995000,0 days 00:00:47.393000,0 days 00:00:38.575000,191.0,95.0,286.0,149.0,soft,4.0
0 days 00:26:50.580000,33,0 days 00:01:04.604000,5,"","",0 days 00:00:16.334000,0 days 00:00:28.757000,0 days 00:00:19.513000,318.0,249.0,287.0,315.0,soft,5.0
0 days 00:28:09.494000,33,0 days 00:01:18.914000,6,"",0 days 00:28:06.304000,0 days 00:00:18.501000,0 days 00:00:34.409000,0 days 00:00:26.004000,250.0,215.0,"",238.0,soft,6.0
0 days 00:43:08.933000,33,"",7,0 days 00:41:52.564000,"","",0 days 00:00:35.596000,0 days 00:00:22.645000,275.0,173.0,287.0,278.0,medium,1.0
0 days 00:44:13.473000,33,0 days 00:01:04.540000,8,"","",0 days 00:00:16.316000,0 days 00:00:28.705000,0 days 00:00:19.519000,314.0,248.0,286.0,311.0,medium,2.0
0 days 00:45:48.308000,33,0 days 00:01:34.835000,9,"","",0 days 00:00:22.477000,0 days 00:00:46.520000,0 days 00:00:25.838000,206.0,144.0,286.0,148.0,medium,3.0
0 days 00:46:52.741000,33,0 days 00:01:04.433000,10,"","",0 days 00:00:16.343000,0 days 00:00:28.690000,0 days 00:00:19.400000,313.0,249.0,288.0,310.0,medium,4.0
0 days 00:48:17.072000,33,0 days 00:01:24.331000,11,"",0 days 00:48:13.764000,0 days 00:00:20.173000,0 days 00:00:36.330000,0 days 00:00:27.828000,255.0,186.0,"",231.0,medium,5.0
0 days 00:54:44.010000,33,"",12,0 days 00:52:30.679000,"","",0 days 00:00:48.077000,0 days 00:00:50.692000,268.0,80.0,282.0,271.0,soft,1.0
0 days 00:56:06.091000,33,0 days 00:01:22.081000,13,"",0 days 00:56:02.774000,0 days 00:00:18.238000,0 days 00:00:35.411000,0 days 00:00:28.432000,215.0,189.0,"",217.0,soft,2.0
0 days 01:07:19.936000,33,"",14,0 days 01:05:53.437000,"","",0 days 00:00:38.915000,0 days 00:00:27.406000,264.0,160.0,289.0,249.0,soft,1.0
0 days 01:08:23.777000,33,0 days 00:01:03.841000,15,"","",0 days 00:00:16.145000,0 days 00:00:28.309000,0 days 00:00:19.387000,316.0,251.0,288.0,313.0,soft,2.0
0 days 01:09:45.338000,33,0 days 00:01:21.561000,16,"",0 days 01:09:42.041000,0 days 00:00:18.156000,0 days 00:00:33.492000,0 days 00:00:29.913000,255.0,217.0,"",261.0,soft,3.0
0 days 01:14:52.185000,33,"",17,0 days 01:12:53.743000,"","",0 days 00:00:47.096000,0 days 00:00:43.116000,223.0,98.0,287.0,277.0,soft,1.0
0 days 01:15:56.104000,33,0 days 00:01:03.919000,18,"","",0 days 00:00:16.225000,0 days 00:00:28.327000,0 days 00:00:19.367000,318.0,249.0,288.0,314.0,soft,2.0
0 days 01:17:23.242000,33,0 days 00:01:27.138000,19,"","",0 days 00:00:22.396000,0 days 00:00:36.781000,0 days 00:00:27.961000,179.0,209.0,75.0,205.0,soft,3.0
0 days 00:22:39.473000,77,"",1,0 days 00:21:24.093000,"","",0 days 00:00:34.859000,0 days 00:00:22.395000,287.0,211.0,285.0,293.0,soft,1.0
0 days 00:23:44.010000,77,0 days 00:01:04.537000,2,"","",0 days 00:00:16.351000,0 days 00:00:28.722000,0 days 00:00:19.464000,312.0,247.0,287.0,310.0,soft,2.0
0 days 00:25:26.323000,77,0 days 00:01:42.313000,3,"","",0 days 00:00:20.700000,0 days 00:00:46.661000,0 days 00:00:34.952000,196.0,153.0,219.0,153.0,soft,3.0
0 days 00:26:56.957000,77,0 days 00:01:30.634000,4,"","",0 days 00:00:22.494000,0 days 00:00:44.420000,0 days 00:00:23.720000,210.0,220.0,286.0,194.0,soft,4.0
0 days 00:28:02.074000,77,0 days 00:01:05.117000,5,"","",0 days 00:00:16.323000,0 days 00:00:28.732000,0 days 00:00:20.062000,314.0,250.0,270.0,312.0,soft,5.0
0 days 00:29:24.044000,77,0 days 00:01:21.970000,6,"",0 days 00:29:20.728000,0 days 00:00:19.444000,0 days 00:00:35.092000,0 days 00:00:27.434000,268.0,222.0,"",267.0,soft,6.0
0 days 00:41:12.192000,77,"",7,0 days 00:40:00.163000,"","",0 days 00:00:32.885000,0 days 00:00:21.180000,286.0,230.0,286.0,283.0,medium,1.0
0 days 00:42:16.916000,77,0 days 00:01:04.724000,8,"","",0 days 00:00:16.441000,0 days 00:00:28.753000,0 days 00:00:19.530000,314.0,244.0,286.0,310.0,medium,2.0
0 days 00:43:37.874000,77,0 days 00:01:20.958000,9,"","",0 days 00:00:21.786000,0 days 00:00:35.770000,0 days 00:00:23.402000,264.0,180.0,286.0,282.0,medium,3.0
0 days 00:44:53.529000,77,0 days 00:01:15.655000,10,"",0 days 00:44:50.142000,0 days 00:00:16.401000,0 days 00:00:30.087000,0 days 00:00:29.167000,314.0,213.0,"",311.0,medium,4.0
0 days 00:48:10.354000,77,"",11,0 days 00:46:57.973000,"","",0 days 00:00:32.752000,0 days 00:00:21.128000,290.0,216.0,286.0,292.0,medium,1.0
0 days 00:49:14.797000,77,0 days 00:01:04.443000,12,"","",0 days 00:00:16.386000,0 days 00:00:28.619000,0 days 00:00:19.438000,313.0,246.0,286.0,309.0,medium,2.0
0 days 00:50:35.826000,77,0 days 00:01:21.029000,13,"",0 days 00:50:32.418000,0 days 00:00:18.602000,0 days 00:00:35.166000,0 days 00:00:27.261000,269.0,203.0,"",267.0,medium,3.0
0 days 00:54:31.142000,77,"",14,0 days 00:53:11.504000,"","",0 days 00:00:34.666000,0 days 00:00:26.370000,284.0,177.0,287.0,290.0,soft,1.0
0 days 00:55:36.811000,77,0 days 00:01:05.669000,15,"","",0 days 00:00:16.292000,0 days 00:00:28.550000,0 days 00:00:20.827000,316.0,245.0,259.0,314.0,soft,2.0
0 days 00:57:01.948000,77,0 days 00:01:25.137000,16,"",0 days 00:56:56.823000,0 days 00:00:18.656000,0 days 00:00:34.094000,0 days 00:00:32.387000,281.0,216.0,"",285.0,soft,3.0
0 days 01:07:59.386000,77,"",17,0 days 01:06:41.284000,"","",0 days 00:00:34.543000,0 days 00:00:22.089000,212.0,221.0,289.0,295.0,soft,1.0
0 days 01:09:03.697000,77,0 days 00:01:04.311000,18,"","",0 days 00:00:16.307000,0 days 00:00:28.523000,0 days 00:00:19.481000,312.0,247.0,286.0,313.0,soft,2.0
0 days 01:10:27.548000,77,0 days 00:01:23.851000,19,"",0 days 01:10:24.091000,0 days 00:00:18.984000,0 days 00:00:37.673000,0 days 00:00:27.194000,268.0,219.0,"",267.0,soft,3.0
0 days 01:14:30.456000,77,"",20,0 days 01:12:59.816000,"","",0 days 00:00:34.648000,0 days 00:00:37.038000,306.0,209.0,285.0,280.0,soft,1.0
0 days 01:15:34.491000,77,0 days 00:01:04.035000,21,"","",0 days 00:00:16.261000,0 days 00:00:28.339000,0 days 00:00:19.435000,315.0,248.0,286.0,311.0,soft,2.0
0 days 01:17:00.763000,77,0 days 00:01:26.272000,22,"","",0 days 00:00:20.539000,0 days 00:00:34.393000,0 days 00:00:31.340000,223.0,201.0,81.0,227.0,soft,3.0
0 days 00:22:44.861000,44,"",1,0 days 00:21:26.574000,"","",0 days 00:00:34.254000,0 days 00:00:24.296000,279.0,206.0,284.0,293.0,soft,1.0
0 days 00:23:49.543000,44,0 days 00:01:04.682000,2,"","",0 days 00:00:16.349000,0 days 00:00:28.799000,0 days 00:00:19.534000,314.0,246.0,285.0,312.0,soft,2.0
0 days 00:25:50.935000,44,0 days 00:02:01.392000,3,"","",0 days 00:00:28.002000,0 days 00:00:58.135000,0 days 00:00:35.255000,120.0,100.0,175.0,141.0,soft,3.0
0 days 00:27:27.926000,44,0 days 00:01:36.991000,4,"","",0 days 00:00:28.383000,0 days 00:00:43.217000,0 days 00:00:25.391000,178.0,170.0,284.0,246.0,soft,4.0
0 days 00:28:32.598000,44,0 days 00:01:04.672000,5,"","",0 days 00:00:16.425000,0 days 00:00:28.770000,0 days 00:00:19.477000,312.0,249.0,285.0,310.0,soft,5.0
0 days 00:29:49.925000,44,0 days 00:01:17.327000,6,"",0 days 00:29:46.635000,0 days 00:00:18.384000,0 days 00:00:32.720000,0 days 00:00:26.223000,267.0,219.0,"",281.0,soft,6.0
0 days 00:43:13.148000,44,"",7,0 days 00:41:55.617000,"","",0 days 00:00:33.990000,0 days 00:00:25.260000,289.0,199.0,286.0,288.0,medium,1.0
0 days 00:44:18.534000,44,0 days 00:01:05.386000,8,"","",0 days 00:00:16.268000,0 days 00:00:29.444000,0 days 00:00:19.674000,316.0,244.0,286.0,311.0,medium,2.0
0 days 00:45:52.943000,44,0 days 00:01:34.409000,9,"","",0 days 00:00:22.515000,0 days 00:00:41.873000,0 days 00:00:30.021000,196.0,153.0,284.0,148.0,medium,3.0
0 days 00:46:57.569000,44,0 days 00:01:04.626000,10,"","",0 days 00:00:16.328000,0 days 00:00:28.873000,0 days 00:00:19.425000,315.0,248.0,287.0,309.0,medium,4.0
0 days 00:48:18.615000,44,0 days 00:01:21.046000,11,"",0 days 00:48:15.218000,0 days 00:00:20.703000,0 days 00:00:33.441000,0 days 00:00:26.902000,247.0,217.0,"",281.0,medium,5.0
0 days 00:51:53.320000,44,"",12,0 days 00:50:39.848000,"","",0 days 00:00:32.779000,0 days 00:00:22.389000,279.0,225.0,284.0,287.0,medium,1.0
0 days 00:52:57.832000,44,0 days 00:01:04.512000,13,"","",0 days 00:00:16.365000,0 days 00:00:28.747000,0 days 00:00:19.400000,312.0,248.0,284.0,309.0,medium,2.0
0 days 00:54:39.690000,44,0 days 00:01:41.858000,14,"","",0 days 00:00:26.701000,0 days 00:00:46.117000,0 days 00:00:29.040000,147.0,201.0,286.0,217.0,medium,3.0
0 days 00:55:55.600000,44,0 days 00:01:15.910000,15,"",0 days 00:55:52.166000,0 days 00:00:16.329000,0 days 00:00:29.465000,0 days 00:00:30.116000,317.0,175.0,"",314.0,medium,4.0
0 days 01:04:15.437000,44,"",16,0 days 01:02:59.294000,"","",0 days 00:00:34.298000,0 days 00:00:23.360000,283.0,216.0,286.0,289.0,soft,1.0
0 days 01:05:19.642000,44,0 days 00:01:04.205000,17,"","",0 days 00:00:16.317000,0 days 00:00:28.521000,0 days 00:00:19.367000,311.0,250.0,287.0,309.0,soft,2.0
0 days 01:06:38.339000,44,0 days 00:01:18.697000,18,"",0 days 01:06:34.879000,0 days 00:00:17.676000,0 days 00:00:33.954000,0 days 00:00:27.067000,285.0,185.0,"",267.0,soft,3.0
0 days 01:09:13.227000,44,"",19,0 days 01:07:57.903000,"",0 days 00:01:39.771000,0 days 00:00:32.922000,0 days 00:00:22.209000,287.0,224.0,287.0,292.0,soft,1.0
0 days 01:10:17.294000,44,0 days 00:01:04.067000,20,"","",0 days 00:00:16.267000,0 days 00:00:28.441000,0 days 00:00:19.359000,311.0,250.0,288.0,310.0,soft,2.0
0 days 01:11:34.511000,44,0 days 00:01:17.217000,21,"",0 days 01:11:31.064000,0 days 00:00:18.202000,0 days 00:00:33.314000,0 days 00:00:25.701000,268.0,220.0,"",267.0,soft,3.0
0 days 01:14:25.321000,44,"",22,0 days 01:13:02.828000,"","",0 days 00:00:35.607000,0 days 00:00:29.161000,282.0,167.0,284.0,276.0,soft,1.0
0 days 01:15:31.706000,44,0 days 00:01:06.385000,23,"","",0 days 00:00:16.401000,0 days 00:00:28.503000,0 days 00:00:21.481000,315.0,247.0,252.0,311.0,soft,2.0
0 days 01:17:10.300000,44,0 days 00:01:38.594000,24,"","",0 days 00:00:23.495000,0 days 00:00:35.071000,0 days 00:00:40.028000,234.0,194.0,34.0,242.0,soft,3.0
0 days 00:20:52.625000,4,"",1,0 days 00:19:14.485000,"","",0 days 00:00:43.890000,0 days 00:00:30.518000,279.0,173.0,288.0,278.0,soft,1.0
0 days 00:21:57.209000,4,0 days 00:01:04.584000,2,"","",0 days 00:00:16.313000,0 days 00:00:28.644000,0 days 00:00:19.627000,317.0,249.0,288.0,315.0,soft,2.0
0 days 00:23:41.737000,4,0 days 00:01:44.528000,3,"","",0 days 00:00:23.211000,0 days 00:00:52.704000,0 days 00:00:28.613000,258.0,134.0,287.0,198.0,soft,3.0
0 days 00:24:47.618000,4,0 days 00:01:05.881000,4,"","",0 days 00:00:16.478000,0 days 00:00:28.914000,0 days 00:00:20.489000,314.0,247.0,283.0,313.0,soft,4.0
0 days 00:26:23.103000,4,0 days 00:01:35.485000,5,"",0 days 00:26:19.752000,0 days 00:00:20.804000,0 days 00:00:39.284000,0 days 00:00:35.397000,272.0,196.0,"",240.0,soft,5.0
0 days 00:46:36.675000,4,"",6,0 days 00:44:39.980000,"","",0 days 00:00:46.239000,0 days 00:00:44.440000,289.0,134.0,290.0,285.0,soft,1.0
0 days 00:47:41.128000,4,0 days 00:01:04.453000,7,"","",0 days 00:00:16.197000,0 days 00:00:28.642000,0 days 00:00:19.614000,318.0,248.0,288.0,313.0,soft,2.0
0 days 00:49:10.258000,4,0 days 00:01:29.130000,8,"",0 days 00:49:06.873000,0 days 00:00:20.233000,0 days 00:00:38.458000,0 days 00:00:30.439000,208.0,201.0,"",248.0,soft,3.0
0 days 00:54:21.194000,4,"",9,0 days 00:52:16.446000,"","",0 days 00:00:43.338000,0 days 00:00:49.695000,286.0,107.0,287.0,282.0,soft,1.0
0 days 00:55:25.492000,4,0 days 00:01:04.298000,10,"","",0 days 00:00:16.253000,0 days 00:00:28.498000,0 days 00:00:19.547000,318.0,248.0,287.0,317.0,soft,2.0
0 days 00:56:58.116000,4,0 days 00:01:32.624000,11,"",0 days 00:56:53.920000,0 days 00:00:20.145000,0 days 00:00:37.768000,0 days 00:00:34.711000,201.0,196.0,"",219.0,soft,3.0
0 days 01:07:35.750000,4,"",12,0 days 01:05:55.637000,"","",0 days 00:00:48.301000,0 days 00:00:31.432000,291.0,125.0,291.0,260.0,soft,1.0
0 days 01:08:39.994000,4,0 days 00:01:04.244000,13,"","",0 days 00:00:16.160000,0 days 00:00:28.567000,0 days 00:00:19.517000,318.0,248.0,289.0,315.0,soft,2.0
0 days 01:10:02.848000,4,0 days 00:01:22.854000,14,"",0 days 01:09:59.477000,0 days 00:00:19.641000,0 days 00:00:35.710000,0 days 00:00:27.503000,221.0,199.0,"",214.0,soft,3.0
0 days 01:14:42.478000,4,"",15,0 days 01:12:47.950000,"","",0 days 00:00:39.538000,0 days 00:00:46.935000,288.0,170.0,290.0,270.0,soft,1.0
0 days 01:15:46.598000,4,0 days 00:01:04.120000,16,"","",0 days 00:00:16.225000,0 days 00:00:28.400000,0 days 00:00:19.495000,320.0,247.0,290.0,317.0,soft,2.0
0 days 01:17:13.721000,4,"",17,"",0 days 01:17:13.721000,0 days 00:00:23.460000,0 days 00:00:35.372000,"",243.0,190.0,"",228.0,soft,3.0
0 days 00:21:13.926000,11,"",1,0 days 00:19:27.343000,"","",0 days 00:00:43.516000,0 days 00:00:34.226000,209.0,80.0,284.0,256.0,soft,1.0
0 days 00:22:19.285000,11,0 days 00:01:05.359000,2,"","",0 days 00:00:16.611000,0 days 00:00:28.855000,0 days 00:00:19.893000,315.0,244.0,286.0,313.0,soft,2.0
0 days 00:23:59.273000,11,0 days 00:01:39.988000,3,"","",0 days 00:00:21.468000,0 days 00:00:48.948000,0 days 00:00:29.572000,186.0,94.0,210.0,143.0,soft,3.0
0 days 00:25:57,11,0 days 00:01:57.727000,4,"","",0 days 00:00:23.026000,0 days 00:00:52.217000,0 days 00:00:42.484000,201.0,103.0,283.0,168.0,soft,4.0
0 days 00:27:02.277000,11,0 days 00:01:05.277000,5,"","",0 days 00:00:16.526000,0 days 00:00:29.019000,0 days 00:00:19.732000,314.0,249.0,285.0,312.0,soft,5.0
0 days 00:28:25.853000,11,0 days 00:01:23.576000,6,"",0 days 00:28:22.630000,0 days 00:00:18.835000,0 days 00:00:34.979000,0 days 00:00:29.762000,277.0,198.0,"",260.0,soft,6.0
0 days 00:32:36.071000,11,"",7,0 days 00:30:23.864000,"","",0 days 00:00:45.840000,0 days 00:00:59.583000,223.0,97.0,286.0,184.0,soft,1.0
0 days 00:33:40.709000,11,0 days 00:01:04.638000,8,"","",0 days 00:00:16.352000,0 days 00:00:28.691000,0 days 00:00:19.595000,319.0,247.0,286.0,312.0,soft,2.0
0 days 00:35:10.931000,11,0 days 00:01:30.222000,9,"",0 days 00:35:07.400000,0 days 00:00:21.776000,0 days 00:00:39.758000,0 days 00:00:28.688000,219.0,198.0,"",197.0,soft,3.0
0 days 00:43:55.646000,11,"",10,0 days 00:42:23.033000,"","",0 days 00:00:43.713000,0 days 00:00:28.557000,238.0,150.0,284.0,173.0,soft,1.0
0 days 00:45:00.229000,11,0 days 00:01:04.583000,11,"","",0 days 00:00:16.430000,0 days 00:00:28.613000,0 days 00:00:19.540000,314.0,248.0,285.0,310.0,soft,2.0
0 days 00:47:13.477000,11,0 days 00:02:13.248000,12,"",0 days 00:46:34.291000,0 days 00:00:21.482000,0 days 00:00:39.426000,0 days 00:01:12.340000,213.0,180.0,"",217.0,soft,3.0
0 days 00:54:34.554000,11,"",13,0 days 00:52:17.838000,"","",0 days 00:00:50.718000,0 days 00:00:51.123000,187.0,137.0,284.0,157.0,soft,1.0
0 days 00:55:38.751000,11,0 days 00:01:04.197000,14,"","",0 days 00:00:16.260000,0 days 00:00:28.424000,0 days 00:00:19.513000,317.0,250.0,286.0,315.0,soft,2.0
0 days 00:57:07.175000,11,0 days 00:01:28.424000,15,"",0 days 00:57:03.517000,0 days 00:00:21.071000,0 days 00:00:35.919000,0 days 00:00:31.434000,262.0,203.0,"",220.0,soft,3.0
0 days 01:07:32.218000,11,"",16,0 days 01:05:52.076000,"","",0 days 00:00:48.044000,0 days 00:00:29.645000,181.0,167.0,288.0,174.0,soft,4.0
0 days 01:08:36.542000,11,0 days 00:01:04.324000,17,"","",0 days 00:00:16.291000,0 days 00:00:28.498000,0 days 00:00:19.535000,317.0,246.0,286.0,313.0,soft,5.0
0 days 01:09:59.824000,11,0 days 00:01:23.282000,18,"",0 days 01:09:56.485000,0 days 00:00:19.855000,0 days 00:00:34.232000,0 days 00:00:29.195000,250.0,215.0,"",251.0,soft,6.0
0 days 01:14:46.895000,11,"",19,0 days 01:12:42.783000,"","",0 days 00:00:38.097000,0 days 00:00:51.025000,107.0,179.0,286.0,284.0,soft,1.0
0 days 01:15:51.063000,11,0 days 00:01:04.168000,20,"","",0 days 00:00:16.342000,0 days 00:00:28.369000,0 days 00:00:19.457000,318.0,248.0,287.0,313.0,soft,2.0
0 days 01:17:20.217000,11,"",21,"",0 days 01:17:20.217000,0 days 00:00:24.621000,0 days 00:00:39.914000,"",173.0,209.0,"",188.0,soft,3.0
0 days 00:20:37.964000,10,"",1,0 days 00:19:00.671000,"","",0 days 00:00:46.695000,0 days 00:00:30.046000,288.0,147.0,285.0,244.0,soft,1.0
0 days 00:21:42.983000,10,0 days 00:01:05.019000,2,"","",0 days 00:00:16.411000,0 days 00:00:28.977000,0 days 00:00:19.631000,313.0,244.0,287.0,311.0,soft,2.0
0 days 00:23:38.703000,10,0 days 00:01:55.720000,3,"","",0 days 00:00:26.319000,0 days 00:00:53.856000,0 days 00:00:35.545000,143.0,85.0,227.0,170.0,soft,3.0
0 days 00:25:22.713000,10,0 days 00:01:44.010000,4,"","",0 days 00:00:21.353000,0 days 00:00:48.500000,0 days 00:00:34.157000,270.0,138.0,286.0,266.0,soft,4.0
0 days 00:26:27.540000,10,0 days 00:01:04.827000,5,"","",0 days 00:00:16.351000,0 days 00:00:28.851000,0 days 00:00:19.625000,318.0,244.0,286.0,315.0,soft,5.0
0 days 00:27:49.176000,10,0 days 00:01:21.636000,6,"",0 days 00:27:45.889000,0 days 00:00:19.310000,0 days 00:00:34.229000,0 days 00:00:28.097000,271.0,212.0,"",273.0,soft,6.0
0 days 00:32:05.797000,10,"",7,0 days 00:30:05.177000,"","",0 days 00:00:44.216000,0 days 00:00:52.109000,284.0,171.0,287.0,227.0,soft,1.0
0 days 00:33:10.562000,10,0 days 00:01:04.765000,8,"","",0 days 00:00:16.426000,0 days 00:00:28.720000,0 days 00:00:19.619000,317.0,249.0,287.0,313.0,soft,2.0
0 days 00:34:49.331000,10,0 days 00:01:38.769000,9,"",0 days 00:34:46.020000,0 days 00:00:22.135000,0 days 00:00:43.828000,0 days 00:00:32.806000,189.0,153.0,"",211.0,soft,3.0
0 days 00:46:17.324000,10,"",10,0 days 00:44:32.994000,"","",0 days 00:00:46.064000,0 days 00:00:36.094000,274.0,148.0,287.0,259.0,soft,1.0
0 days 00:47:21.753000,10,0 days 00:01:04.429000,11,"","",0 days 00:00:16.307000,0 days 00:00:28.517000,0 days 00:00:19.605000,317.0,250.0,287.0,312.0,soft,2.0
0 days 00:48:53.830000,10,0 days 00:01:32.077000,12,"",0 days 00:48:50.395000,0 days 00:00:20.891000,0 days 00:00:39.925000,0 days 00:00:31.261000,248.0,171.0,"",235.0,soft,3.0
0 days 01:07:05.649000,10,"",13,0 days 01:05:29.798000,"","",0 days 00:00:44.061000,0 days 00:00:25.575000,250.0,180.0,287.0,264.0,soft,1.0
0 days 01:08:10.102000,10,0 days 00:01:04.453000,14,"","",0 days 00:00:16.300000,0 days 00:00:28.577000,0 days 00:00:19.576000,313.0,248.0,287.0,311.0,soft,2.0
0 days 01:09:39.006000,10,0 days 00:01:28.904000,15,"",0 days 01:09:35.621000,0 days 00:00:19.988000,0 days 00:00:39.120000,0 days 00:00:29.796000,232.0,181.0,"",251.0,soft,3.0
0 days 01:14:34.203000,10,"",16,0 days 01:12:36.808000,"","",0 days 00:00:51.257000,0 days 00:00:39.590000,246.0,172.0,287.0,236.0,soft,1.0
0 days 01:15:38.439000,10,0 days 00:01:04.236000,17,"","",0 days 00:00:16.221000,0 days 00:00:28.489000,0 days 00:00:19.526000,319.0,250.0,286.0,314.0,soft,2.0
0 days 01:17:03.941000,10,"",18,"",0 days 01:17:03.941000,0 days 00:00:25.427000,0 days 00:00:34.550000,"",230.0,205.0,"",276.0,soft,3.0
0 days 00:20:58.304000,16,"",1,0 days 00:19:15.723000,"","",0 days 00:00:45.037000,0 days 00:00:33.992000,184.0,130.0,283.0,183.0,soft,1.0
0 days 00:22:03.240000,16,0 days 00:01:04.936000,2,"","",0 days 00:00:16.580000,0 days 00:00:28.707000,0 days 00:00:19.649000,312.0,248.0,282.0,309.0,soft,2.0
0 days 00:23:55.720000,16,0 days 00:01:52.480000,3,"","",0 days 00:00:23.836000,0 days 00:00:50.124000,0 days 00:00:38.520000,182.0,146.0,231.0,167.0,soft,3.0
0 days 00:25:43.506000,16,0 days 00:01:47.786000,4,"","",0 days 00:00:22.457000,0 days 00:00:46.219000,0 days 00:00:39.110000,248.0,161.0,274.0,156.0,soft,4.0
0 days 00:26:48.818000,16,0 days 00:01:05.312000,5,"","",0 days 00:00:16.668000,0 days 00:00:28.847000,0 days 00:00:19.797000,312.0,247.0,281.0,309.0,soft,5.0
0 days 00:28:16.471000,16,0 days 00:01:27.653000,6,"",0 days 00:28:13.146000,0 days 00:00:22.025000,0 days 00:00:37.646000,0 days 00:00:27.982000,198.0,214.0,"",280.0,soft,6.0
0 days 00:32:28.021000,16,"",7,0 days 00:30:08.149000,"","",0 days 00:00:50.035000,0 days 00:01:00.201000,293.0,178.0,283.0,225.0,soft,1.0
0 days 00:33:32.766000,16,0 days 00:01:04.745000,8,"","",0 days 00:00:16.501000,0 days 00:00:28.629000,0 days 00:00:19.615000,315.0,249.0,283.0,308.0,soft,2.0
0 days 00:34:56.412000,16,0 days 00:01:23.646000,9,"",0 days 00:34:53.131000,0 days 00:00:19.528000,0 days 00:00:35.415000,0 days 00:00:28.703000,234.0,203.0,"",265.0,soft,3.0
0 days 00:46:12.480000,16,"",10,0 days 00:44:29.100000,"","",0 days 00:00:44.574000,0 days 00:00:37.083000,247.0,196.0,282.0,166.0,soft,1.0
0 days 00:47:17.304000,16,0 days 00:01:04.824000,11,"","",0 days 00:00:16.455000,0 days 00:00:28.701000,0 days 00:00:19.668000,313.0,248.0,280.0,307.0,soft,2.0
0 days 00:48:43.179000,16,0 days 00:01:25.875000,12,"",0 days 00:48:39.776000,0 days 00:00:20.333000,0 days 00:00:36.287000,0 days 00:00:29.255000,246.0,195.0,"",275.0,soft,3.0
0 days 00:53:32.697000,16,"",13,0 days 00:51:48.714000,"","",0 days 00:00:43.388000,0 days 00:00:27.768000,234.0,190.0,281.0,275.0,soft,1.0
0 days 00:54:37.343000,16,0 days 00:01:04.646000,14,"","",0 days 00:00:16.514000,0 days 00:00:28.532000,0 days 00:00:19.600000,311.0,248.0,280.0,307.0,soft,2.0
0 days 00:56:07.261000,16,0 days 00:01:29.918000,15,"",0 days 00:56:03.838000,0 days 00:00:23.553000,0 days 00:00:38.502000,0 days 00:00:27.863000,161.0,218.0,"",217.0,soft,3.0
0 days 01:07:29.033000,16,"",16,0 days 01:05:49.015000,"","",0 days 00:00:46.265000,0 days 00:00:33.550000,239.0,177.0,284.0,186.0,soft,1.0
0 days 01:08:33.505000,16,0 days 00:01:04.472000,17,"","",0 days 00:00:16.434000,0 days 00:00:28.461000,0 days 00:00:19.577000,311.0,249.0,283.0,307.0,soft,2.0
0 days 01:09:56.820000,16,0 days 00:01:23.315000,18,"",0 days 01:09:53.361000,0 days 00:00:19.726000,0 days 00:00:35.014000,0 days 00:00:28.575000,250.0,191.0,"",276.0,soft,3.0
0 days 01:14:21.375000,16,"",19,0 days 01:12:32.869000,"","",0 days 00:00:47.655000,0 days 00:00:33.668000,201.0,165.0,281.0,133.0,soft,4.0
0 days 01:15:26.669000,16,0 days 00:01:05.294000,20,"","",0 days 00:00:16.639000,0 days 00:00:28.803000,0 days 00:00:19.852000,310.0,247.0,281.0,306.0,soft,5.0
0 days 01:16:49.029000,16,"",21,"",0 days 01:16:49.029000,0 days 00:00:21.898000,0 days 00:00:35.893000,"",209.0,209.0,"",209.0,soft,6.0
0 days 00:20:29.797000,22,"",1,0 days 00:18:51.352000,"","",0 days 00:00:46.242000,0 days 00:00:31.117000,274.0,141.0,285.0,261.0,soft,1.0
0 days 00:21:34.933000,22,0 days 00:01:05.136000,2,"","",0 days 00:00:16.471000,0 days 00:00:29.001000,0 days 00:00:19.664000,312.0,248.0,285.0,310.0,soft,2.0
0 days 00:23:24.603000,22,0 days 00:01:49.670000,3,"","",0 days 00:00:25.653000,0 days 00:00:47.171000,0 days 00:00:36.846000,163.0,127.0,196.0,240.0,soft,3.0
0 days 00:25:09.729000,22,0 days 00:01:45.126000,4,"","",0 days 00:00:25.403000,0 days 00:00:49.248000,0 days 00:00:30.475000,206.0,119.0,286.0,203.0,soft,4.0
0 days 00:26:14.783000,22,0 days 00:01:05.054000,5,"","",0 days 00:00:16.425000,0 days 00:00:28.976000,0 days 00:00:19.653000,316.0,247.0,287.0,314.0,soft,5.0
0 days 00:27:41.025000,22,0 days 00:01:26.242000,6,"",0 days 00:27:37.733000,0 days 00:00:21.612000,0 days 00:00:36.209000,0 days 00:00:28.421000,264.0,221.0,"",269.0,soft,6.0
0 days 00:32:32.147000,22,"",7,0 days 00:30:15.324000,"","",0 days 00:00:44.542000,0 days 00:01:00.693000,282.0,112.0,285.0,267.0,soft,1.0
0 days 00:33:36.755000,22,0 days 00:01:04.608000,8,"","",0 days 00:00:16.378000,0 days 00:00:28.721000,0 days 00:00:19.509000,319.0,248.0,287.0,313.0,soft,2.0
0 days 00:35:09.753000,22,0 days 00:01:32.998000,9,"",0 days 00:35:06.335000,0 days 00:00:21.846000,0 days 00:00:41.992000,0 days 00:00:29.160000,237.0,181.0,"",221.0,soft,3.0
0 days 00:46:27.442000,22,"",10,0 days 00:44:36.015000,"","",0 days 00:00:44.787000,0 days 00:00:38.834000,277.0,138.0,286.0,271.0,soft,1.0
0 days 00:47:32.073000,22,0 days 00:01:04.631000,11,"","",0 days 00:00:16.385000,0 days 00:00:28.748000,0 days 00:00:19.498000,316.0,246.0,287.0,311.0,soft,2.0
0 days 00:48:59.648000,22,0 days 00:01:27.575000,12,"",0 days 00:48:56.276000,0 days 00:00:21.442000,0 days 00:00:38.449000,0 days 00:00:27.684000,266.0,210.0,"",244.0,soft,3.0
0 days 00:53:37.796000,22,"",13,0 days 00:51:52.112000,"","",0 days 00:00:42.181000,0 days 00:00:30.980000,278.0,171.0,286.0,268.0,soft,1.0
0 days 00:54:42.452000,22,0 days 00:01:04.656000,14,"","",0 days 00:00:16.321000,0 days 00:00:28.682000,0 days 00:00:19.653000,316.0,248.0,286.0,312.0,soft,2.0
0 days 00:56:24.322000,22,0 days 00:01:41.870000,15,"",0 days 00:56:20.921000,0 days 00:00:22.152000,0 days 00:00:45.420000,0 days 00:00:34.298000,154.0,142.0,"",149.0,soft,3.0
0 days 01:06:46.952000,22,"",16,0 days 01:05:08.971000,"","",0 days 00:00:46.880000,0 days 00:00:28.206000,273.0,151.0,284.0,241.0,soft,4.0
0 days 01:07:51.932000,22,0 days 00:01:04.980000,17,"","",0 days 00:00:16.389000,0 days 00:00:28.930000,0 days 00:00:19.661000,311.0,246.0,287.0,309.0,soft,5.0
0 days 01:09:13.226000,22,0 days 00:01:21.294000,18,"",0 days 01:09:09.879000,0 days 00:00:20.086000,0 days 00:00:34.828000,0 days 00:00:26.380000,268.0,219.0,"",267.0,soft,6.0
0 days 01:14:01.884000,22,"",19,0 days 01:12:26.125000,"","",0 days 00:00:45.451000,0 days 00:00:28.548000,269.0,141.0,286.0,252.0,soft,1.0
0 days 01:15:06.398000,22,0 days 00:01:04.514000,20,"","",0 days 00:00:16.373000,0 days 00:00:28.653000,0 days 00:00:19.488000,313.0,248.0,284.0,309.0,soft,2.0
0 days 01:16:35.656000,22,"",21,"",0 days 01:16:35.656000,0 days 00:00:23.623000,0 days 00:00:38.418000,"",223.0,219.0,"",262.0,soft,3.0
0 days 00:25:37.511000,14,"",1,0 days 00:23:57.885000,"","",0 days 00:00:42.746000,0 days 00:00:37.777000,283.0,132.0,283.0,223.0,soft,1.0
0 days 00:26:42.630000,14,0 days 00:01:05.119000,2,"","",0 days 00:00:16.416000,0 days 00:00:28.848000,0 days 00:00:19.855000,316.0,246.0,285.0,315.0,soft,2.0
0 days 00:28:15.691000,14,0 days 00:01:33.061000,3,"",0 days 00:28:12.374000,0 days 00:00:27.133000,0 days 00:00:38.292000,0 days 00:00:27.636000,231.0,215.0,"",244.0,soft,3.0
0 days 00:32:16.395000,14,"",4,0 days 00:30:12.437000,"","",0 days 00:00:44.920000,0 days 00:00:53.418000,300.0,102.0,286.0,265.0,soft,1.0
0 days 00:33:21.366000,14,0 days 00:01:04.971000,5,"","",0 days 00:00:16.511000,0 days 00:00:28.737000,0 days 00:00:19.723000,318.0,247.0,285.0,312.0,soft,2.0
0 days 00:34:53.112000,14,0 days 00:01:31.746000,6,"",0 days 00:34:49.686000,0 days 00:00:20.873000,0 days 00:00:39.014000,0 days 00:00:31.859000,217.0,187.0,"",247.0,soft,3.0
0 days 00:46:31.981000,14,"",7,0 days 00:44:45.759000,"","",0 days 00:00:44.998000,0 days 00:00:41.287000,289.0,151.0,287.0,253.0,soft,1.0
0 days 00:47:36.674000,14,0 days 00:01:04.693000,8,"","",0 days 00:00:16.270000,0 days 00:00:28.646000,0 days 00:00:19.777000,319.0,248.0,285.0,310.0,soft,2.0
0 days 00:49:06.176000,14,0 days 00:01:29.502000,9,"",0 days 00:49:02.741000,0 days 00:00:20.438000,0 days 00:00:39.259000,0 days 00:00:29.805000,251.0,199.0,"",258.0,soft,3.0
0 days 00:54:00.848000,14,"",10,0 days 00:52:14.884000,"","",0 days 00:00:42.876000,0 days 00:00:39.100000,296.0,116.0,285.0,288.0,soft,1.0
0 days 00:55:05.430000,14,0 days 00:01:04.582000,11,"","",0 days 00:00:16.332000,0 days 00:00:28.581000,0 days 00:00:19.669000,318.0,247.0,284.0,313.0,soft,2.0
0 days 00:56:34.066000,14,0 days 00:01:28.636000,12,"",0 days 00:56:30.556000,0 days 00:00:20.530000,0 days 00:00:37.777000,0 days 00:00:30.329000,249.0,195.0,"",268.0,soft,3.0
0 days 01:07:14.565000,14,"",13,0 days 01:05:43.438000,"","",0 days 00:00:45.644000,0 days 00:00:27.295000,237.0,183.0,286.0,134.0,soft,4.0
0 days 01:08:19.634000,14,0 days 00:01:05.069000,14,"","",0 days 00:00:16.443000,0 days 00:00:28.742000,0 days 00:00:19.884000,314.0,245.0,285.0,310.0,soft,5.0
0 days 01:09:44.493000,14,0 days 00:01:24.859000,15,"",0 days 01:09:41.109000,0 days 00:00:19.594000,0 days 00:00:34.844000,0 days 00:00:30.421000,271.0,221.0,"",265.0,soft,6.0
0 days 01:14:39.162000,14,"",16,0 days 01:12:39.857000,"","",0 days 00:00:49.009000,0 days 00:00:43.828000,204.0,196.0,285.0,162.0,soft,1.0
0 days 01:15:43.736000,14,0 days 00:01:04.574000,17,"","",0 days 00:00:16.428000,0 days 00:00:28.477000,0 days 00:00:19.669000,319.0,246.0,286.0,312.0,soft,2.0
0 days 01:17:10.894000,14,"",18,"",0 days 01:17:10.894000,0 days 00:00:19.537000,0 days 00:00:36.389000,"",217.0,207.0,"",251.0,soft,3.0
0 days 00:20:23.114000,18,"",1,0 days 00:18:56.317000,"","",0 days 00:00:37.471000,0 days 00:00:29.955000,262.0,192.0,284.0,250.0,soft,1.0
0 days 00:21:28.332000,18,0 days 00:01:05.218000,2,"","",0 days 00:00:16.524000,0 days 00:00:28.894000,0 days 00:00:19.800000,314.0,245.0,285.0,310.0,soft,2.0
0 days 00:23:25.461000,18,0 days 00:01:57.129000,3,"","",0 days 00:00:22.278000,0 days 00:00:51.990000,0 days 00:00:42.861000,172.0,100.0,202.0,166.0,soft,3.0
0 days 00:25:14.332000,18,0 days 00:01:48.871000,4,"","",0 days 00:00:25.870000,0 days 00:00:49.022000,0 days 00:00:33.979000,177.0,186.0,283.0,171.0,soft,4.0
0 days 00:26:19.683000,18,0 days 00:01:05.351000,5,"","",0 days 00:00:16.468000,0 days 00:00:29.068000,0 days 00:00:19.815000,316.0,245.0,286.0,316.0,soft,5.0
0 days 00:27:37.741000,18,0 days 00:01:18.058000,6,"",0 days 00:27:34.648000,0 days 00:00:18.528000,0 days 00:00:33.026000,0 days 00:00:26.504000,283.0,223.0,"",287.0,soft,6.0
0 days 00:32:21.640000,18,"",7,0 days 00:30:25.981000,"","",0 days 00:00:36.470000,0 days 00:00:52.869000,211.0,201.0,284.0,251.0,soft,1.0
0 days 00:33:26.461000,18,0 days 00:01:04.821000,8,"","",0 days 00:00:16.310000,0 days 00:00:28.763000,0 days 00:00:19.748000,319.0,244.0,286.0,313.0,soft,2.0
0 days 00:34:54.582000,18,0 days 00:01:28.121000,9,"",0 days 00:34:51.487000,0 days 00:00:19.288000,0 days 00:00:36.769000,0 days 00:00:32.064000,271.0,198.0,"",235.0,soft,3.0
0 days 00:46:04.747000,18,"",10,0 days 00:44:33.868000,"","","","",249.0,"",286.0,215.0,soft,1.0
0 days 00:47:09.410000,18,0 days 00:01:04.663000,11,"","",0 days 00:00:16.302000,0 days 00:00:28.714000,0 days 00:00:19.647000,316.0,246.0,287.0,313.0,soft,2.0
0 days 00:48:52.851000,18,0 days 00:01:43.441000,12,"",0 days 00:48:24.858000,0 days 00:00:18.324000,0 days 00:00:32.688000,0 days 00:00:52.429000,278.0,223.0,"",270.0,soft,3.0
0 days 00:54:08.782000,18,"",13,0 days 00:52:19.224000,"","",0 days 00:00:37.914000,0 days 00:00:42.544000,300.0,172.0,284.0,243.0,soft,1.0
0 days 00:55:13.557000,18,0 days 00:01:04.775000,14,"","",0 days 00:00:16.423000,0 days 00:00:28.564000,0 days 00:00:19.788000,315.0,246.0,285.0,313.0,soft,2.0
0 days 00:56:35.951000,18,0 days 00:01:22.394000,15,"",0 days 00:56:32.792000,0 days 00:00:18.420000,0 days 00:00:33.380000,0 days 00:00:30.594000,283.0,205.0,"",280.0,soft,3.0
0 days 01:10:14.305000,18,"",16,0 days 01:08:48.650000,"","",0 days 00:00:37.717000,0 days 00:00:24.605000,199.0,189.0,284.0,250.0,soft,1.0
0 days 01:11:19.013000,18,0 days 00:01:04.708000,17,"","",0 days 00:00:16.380000,0 days 00:00:28.715000,0 days 00:00:19.613000,310.0,246.0,288.0,309.0,soft,2.0
0 days 01:12:42.756000,18,0 days 00:01:23.743000,18,"",0 days 01:12:39.662000,0 days 00:00:17.994000,0 days 00:00:32.424000,0 days 00:00:33.325000,286.0,218.0,"",270.0,soft,3.0
0 days 00:19:40.552000,63,"",1,0 days 00:18:16.731000,"","",0 days 00:00:38.048000,0 days 00:00:26.166000,282.0,209.0,287.0,288.0,soft,1.0
0 days 00:20:46.304000,63,0 days 00:01:05.752000,2,"","",0 days 00:00:16.493000,0 days 00:00:29.341000,0 days 00:00:19.918000,317.0,248.0,288.0,314.0,soft,2.0
0 days 00:22:17.577000,63,0 days 00:01:31.273000,3,"","",0 days 00:00:19.960000,0 days 00:00:42.617000,0 days 00:00:28.696000,282.0,175.0,289.0,281.0,soft,3.0
0 days 00:23:23.641000,63,0 days 00:01:06.064000,4,"","",0 days 00:00:16.487000,0 days 00:00:29.585000,0 days 00:00:19.992000,318.0,238.0,278.0,315.0,soft,4.0
0 days 00:25:28.282000,63,0 days 00:02:04.641000,5,"",0 days 00:24:47.839000,0 days 00:00:18.853000,0 days 00:00:39.009000,0 days 00:01:06.779000,271.0,204.0,"",182.0,soft,5.0
0 days 00:31:38.369000,63,"",6,0 days 00:29:56.675000,"","",0 days 00:00:41.987000,0 days 00:00:37.394000,302.0,206.0,288.0,283.0,soft,1.0
0 days 00:32:43.402000,63,0 days 00:01:05.033000,7,"","",0 days 00:00:16.432000,0 days 00:00:29.039000,0 days 00:00:19.562000,317.0,249.0,292.0,314.0,soft,2.0
0 days 00:34:13.180000,63,0 days 00:01:29.778000,8,"",0 days 00:34:09.857000,0 days 00:00:21.292000,0 days 00:00:38.688000,0 days 00:00:29.798000,239.0,196.0,"",234.0,soft,3.0
0 days 00:42:21.288000,63,"",9,0 days 00:41:03.498000,"","",0 days 00:00:33.855000,0 days 00:00:24.492000,290.0,126.0,289.0,295.0,soft,1.0
0 days 00:43:26.230000,63,0 days 00:01:04.942000,10,"","",0 days 00:00:16.445000,0 days 00:00:28.938000,0 days 00:00:19.559000,317.0,249.0,289.0,314.0,soft,2.0
0 days 00:44:51.634000,63,0 days 00:01:25.404000,11,"",0 days 00:44:48.240000,0 days 00:00:18.849000,0 days 00:00:33.814000,0 days 00:00:32.741000,289.0,222.0,"",288.0,soft,3.0
0 days 00:53:54.253000,63,"",12,0 days 00:52:01.560000,"","",0 days 00:00:49.923000,0 days 00:00:39.146000,267.0,174.0,289.0,232.0,soft,1.0
0 days 00:54:58.924000,63,0 days 00:01:04.671000,13,"","",0 days 00:00:16.308000,0 days 00:00:28.849000,0 days 00:00:19.514000,319.0,249.0,289.0,316.0,soft,2.0
0 days 00:56:29.220000,63,0 days 00:01:30.296000,14,"",0 days 00:56:25.784000,0 days 00:00:19.508000,0 days 00:00:37.820000,0 days 00:00:32.968000,235.0,181.0,"",270.0,soft,3.0
0 days 00:21:07.730000,55,"",1,0 days 00:19:22.601000,"","",0 days 00:00:44.280000,0 days 00:00:33.749000,266.0,169.0,281.0,252.0,soft,1.0
0 days 00:22:13.033000,55,0 days 00:01:05.303000,2,"","",0 days 00:00:16.693000,0 days 00:00:28.871000,0 days 00:00:19.739000,312.0,245.0,281.0,309.0,soft,2.0
0 days 00:24:15.337000,55,0 days 00:02:02.304000,3,"","",0 days 00:00:27.545000,0 days 00:00:55.880000,0 days 00:00:38.879000,145.0,138.0,152.0,150.0,soft,3.0
0 days 00:26:05.835000,55,0 days 00:01:50.498000,4,"","",0 days 00:00:29.227000,0 days 00:00:49.122000,0 days 00:00:32.149000,220.0,126.0,277.0,272.0,soft,4.0
0 days 00:27:11.465000,55,0 days 00:01:05.630000,5,"","",0 days 00:00:16.710000,0 days 00:00:29.027000,0 days 00:00:19.893000,311.0,244.0,280.0,308.0,soft,5.0
0 days 00:28:36.299000,55,0 days 00:01:24.834000,6,"",0 days 00:28:32.946000,0 days 00:00:20.234000,0 days 00:00:35.187000,0 days 00:00:29.413000,241.0,190.0,"",260.0,soft,6.0
0 days 00:32:11.287000,55,"",7,0 days 00:30:06.376000,"","",0 days 00:00:39.594000,0 days 00:00:55.406000,264.0,177.0,282.0,285.0,soft,1.0
0 days 00:33:16.146000,55,0 days 00:01:04.859000,8,"","",0 days 00:00:16.508000,0 days 00:00:28.622000,0 days 00:00:19.729000,315.0,246.0,280.0,309.0,soft,2.0
0 days 00:34:50.168000,55,0 days 00:01:34.022000,9,"",0 days 00:34:46.698000,0 days 00:00:21.956000,0 days 00:00:40.677000,0 days 00:00:31.389000,221.0,156.0,"",204.0,soft,3.0
0 days 00:45:59.949000,55,"",10,0 days 00:44:26.680000,"","",0 days 00:00:43.905000,0 days 00:00:28.112000,256.0,154.0,282.0,269.0,soft,1.0
0 days 00:47:04.749000,55,0 days 00:01:04.800000,11,"","",0 days 00:00:16.536000,0 days 00:00:28.725000,0 days 00:00:19.539000,313.0,246.0,281.0,308.0,soft,2.0
0 days 00:48:39.242000,55,0 days 00:01:34.493000,12,"",0 days 00:48:35.882000,0 days 00:00:26.753000,0 days 00:00:38.829000,0 days 00:00:28.911000,206.0,164.0,"",235.0,soft,3.0
0 days 00:53:44.378000,55,"",13,0 days 00:51:46.726000,"","",0 days 00:00:47.186000,0 days 00:00:37.055000,247.0,141.0,282.0,253.0,soft,1.0
0 days 00:54:49.089000,55,0 days 00:01:04.711000,14,"","",0 days 00:00:16.505000,0 days 00:00:28.602000,0 days 00:00:19.604000,313.0,245.0,280.0,309.0,soft,2.0
0 days 00:56:55.999000,55,0 days 00:02:06.910000,15,"",0 days 00:56:19.091000,0 days 00:00:22.739000,0 days 00:00:38.425000,0 days 00:01:05.746000,216.0,170.0,"",217.0,soft,3.0
0 days 00:21:23.135000,3,"",1,0 days 00:19:38.749000,"","",0 days 00:00:53.104000,0 days 00:00:28.111000,146.0,165.0,286.0,91.0,soft,1.0
0 days 00:22:28.651000,3,0 days 00:01:05.516000,2,"","",0 days 00:00:16.423000,0 days 00:00:29.154000,0 days 00:00:19.939000,314.0,245.0,285.0,313.0,soft,2.0
0 days 00:24:14.088000,3,0 days 00:01:45.437000,3,"","",0 days 00:00:28.183000,0 days 00:00:44.217000,0 days 00:00:33.037000,195.0,152.0,223.0,233.0,soft,3.0
0 days 00:26:12.052000,3,0 days 00:01:57.964000,4,"","",0 days 00:00:25.724000,0 days 00:00:43.812000,0 days 00:00:48.428000,185.0,159.0,284.0,248.0,soft,4.0
0 days 00:27:53.767000,3,0 days 00:01:41.715000,5,"",0 days 00:27:23.118000,0 days 00:00:16.494000,0 days 00:00:30.836000,0 days 00:00:54.385000,313.0,214.0,"",317.0,soft,5.0
0 days 00:32:40.445000,3,"",6,0 days 00:30:29.579000,"","",0 days 00:00:42.618000,0 days 00:01:00.919000,266.0,190.0,286.0,275.0,soft,1.0
0 days 00:33:45.587000,3,0 days 00:01:05.142000,7,"","",0 days 00:00:16.267000,0 days 00:00:28.944000,0 days 00:00:19.931000,320.0,246.0,285.0,314.0,soft,2.0
0 days 00:35:13.864000,3,0 days 00:01:28.277000,8,"",0 days 00:35:10.586000,0 days 00:00:21.568000,0 days 00:00:38.090000,0 days 00:00:28.619000,278.0,182.0,"",264.0,soft,3.0
0 days 00:46:40.510000,3,"",9,0 days 00:44:48.198000,"","",0 days 00:00:44.190000,0 days 00:00:41.471000,212.0,178.0,287.0,261.0,soft,1.0
0 days 00:47:45.655000,3,0 days 00:01:05.145000,10,"","",0 days 00:00:16.267000,0 days 00:00:29.032000,0 days 00:00:19.846000,320.0,246.0,287.0,315.0,soft,2.0
0 days 00:49:13.968000,3,0 days 00:01:28.313000,11,"",0 days 00:49:10.606000,0 days 00:00:18.677000,0 days 00:00:39.155000,0 days 00:00:30.481000,272.0,185.0,"",240.0,soft,3.0
0 days 00:54:25.516000,3,"",12,0 days 00:52:22.690000,"","",0 days 00:00:42.298000,0 days 00:00:53.314000,278.0,117.0,288.0,246.0,soft,1.0
0 days 00:55:30.324000,3,0 days 00:01:04.808000,13,"","",0 days 00:00:16.260000,0 days 00:00:28.761000,0 days 00:00:19.787000,320.0,247.0,286.0,317.0,soft,2.0
0 days 00:56:59.953000,3,0 days 00:01:29.629000,14,"",0 days 00:56:55.145000,0 days 00:00:19.286000,0 days 00:00:36.707000,0 days 00:00:33.636000,250.0,207.0,"",257.0,soft,3.0
0 days 00:20:49.092000,5,"",1,0 days 00:19:18.691000,"","",0 days 00:00:40.528000,0 days 00:00:29.530000,214.0,137.0,286.0,236.0,soft,1.0
0 days 00:21:54.420000,5,0 days 00:01:05.328000,2,"","",0 days 00:00:16.433000,0 days 00:00:28.951000,0 days 00:00:19.944000,311.0,246.0,286.0,310.0,soft,2.0
0 days 00:23:41.417000,5,0 days 00:01:46.997000,3,"","",0 days 00:00:21.127000,0 days 00:00:52.325000,0 days 00:00:33.545000,197.0,149.0,153.0,168.0,soft,3.0
0 days 00:25:32.281000,5,0 days 00:01:50.864000,4,"","",0 days 00:00:28.257000,0 days 00:00:45.847000,0 days 00:00:36.760000,158.0,74.0,283.0,176.0,soft,4.0
0 days 00:26:37.641000,5,0 days 00:01:05.360000,5,"","",0 days 00:00:16.434000,0 days 00:00:29.079000,0 days 00:00:19.847000,315.0,246.0,285.0,311.0,soft,5.0
0 days 00:27:58.573000,5,0 days 00:01:20.932000,6,"",0 days 00:27:55.535000,0 days 00:00:18.629000,0 days 00:00:34.072000,0 days 00:00:28.231000,248.0,214.0,"",254.0,soft,6.0
0 days 00:32:46.378000,5,"",7,0 days 00:30:41.308000,"","",0 days 00:00:44.695000,0 days 00:00:57.968000,176.0,99.0,287.0,193.0,soft,1.0
0 days 00:33:51.429000,5,0 days 00:01:05.051000,8,"","",0 days 00:00:16.428000,0 days 00:00:28.851000,0 days 00:00:19.772000,316.0,247.0,286.0,309.0,soft,2.0
0 days 00:35:18.821000,5,0 days 00:01:27.392000,9,"",0 days 00:35:15.833000,0 days 00:00:20.210000,0 days 00:00:36.361000,0 days 00:00:30.821000,232.0,195.0,"",238.0,soft,3.0
0 days 00:45:30.299000,5,"",10,0 days 00:43:57.804000,"","",0 days 00:00:41.533000,0 days 00:00:29.131000,179.0,131.0,285.0,244.0,soft,1.0
0 days 00:46:35.174000,5,0 days 00:01:04.875000,11,"","",0 days 00:00:16.299000,0 days 00:00:28.821000,0 days 00:00:19.755000,312.0,247.0,289.0,310.0,soft,2.0
0 days 00:48:01.407000,5,0 days 00:01:26.233000,12,"",0 days 00:47:58.308000,0 days 00:00:24.064000,0 days 00:00:33.676000,0 days 00:00:28.493000,267.0,208.0,"",271.0,soft,3.0
0 days 00:54:16.547000,5,"",13,0 days 00:52:09.285000,"","",0 days 00:00:47.462000,0 days 00:00:50.362000,252.0,133.0,285.0,256.0,soft,1.0
0 days 00:55:21.258000,5,0 days 00:01:04.711000,14,"","",0 days 00:00:16.337000,0 days 00:00:28.744000,0 days 00:00:19.630000,315.0,247.0,287.0,312.0,soft,2.0
0 days 00:56:55.622000,5,0 days 00:01:34.364000,15,"",0 days 00:56:52.097000,0 days 00:00:20.344000,0 days 00:00:37.878000,0 days 00:00:36.142000,186.0,189.0,"",201.0,soft,3.0
0 days 00:19:58.721000,99,"",1,0 days 00:18:28.856000,"","",0 days 00:00:38.313000,0 days 00:00:26.190000,232.0,182.0,283.0,187.0,soft,1.0
0 days 00:21:04.257000,99,0 days 00:01:05.536000,2,"","",0 days 00:00:16.474000,0 days 00:00:29.144000,0 days 00:00:19.918000,318.0,245.0,286.0,314.0,soft,2.0
0 days 00:23:08.285000,99,0 days 00:02:04.028000,3,"","",0 days 00:00:28.577000,0 days 00:00:51.988000,0 days 00:00:43.463000,148.0,130.0,125.0,141.0,soft,3.0
0 days 00:24:58.327000,99,0 days 00:01:50.042000,4,"","",0 days 00:00:26.322000,0 days 00:00:47.448000,0 days 00:00:36.272000,258.0,171.0,281.0,174.0,soft,4.0
0 days 00:26:04.232000,99,0 days 00:01:05.905000,5,"","",0 days 00:00:16.473000,0 days 00:00:29.311000,0 days 00:00:20.121000,318.0,245.0,285.0,317.0,soft,5.0
0 days 00:27:27.703000,99,0 days 00:01:23.471000,6,"",0 days 00:27:24.408000,0 days 00:00:19.632000,0 days 00:00:36.466000,0 days 00:00:27.373000,270.0,218.0,"",273.0,soft,6.0
0 days 00:31:56.453000,99,"",7,0 days 00:29:50.704000,"","",0 days 00:00:45.682000,0 days 00:00:54.845000,185.0,113.0,284.0,140.0,soft,1.0
0 days 00:33:01.545000,99,0 days 00:01:05.092000,8,"","",0 days 00:00:16.466000,0 days 00:00:28.873000,0 days 00:00:19.753000,318.0,248.0,285.0,313.0,soft,2.0
0 days 00:34:25.368000,99,0 days 00:01:23.823000,9,"",0 days 00:34:22.016000,0 days 00:00:19.415000,0 days 00:00:34.429000,0 days 00:00:29.979000,267.0,223.0,"",256.0,soft,3.0
0 days 00:41:42.370000,99,"",10,0 days 00:40:16.959000,"","",0 days 00:00:38.627000,0 days 00:00:25.125000,223.0,212.0,283.0,208.0,medium,1.0
0 days 00:42:47.776000,99,0 days 00:01:05.406000,11,"","",0 days 00:00:16.454000,0 days 00:00:29.045000,0 days 00:00:19.907000,315.0,246.0,285.0,312.0,medium,2.0
0 days 00:44:34.238000,99,0 days 00:01:46.462000,12,"","",0 days 00:00:23.529000,0 days 00:00:47.501000,0 days 00:00:35.432000,190.0,118.0,228.0,206.0,medium,3.0
0 days 00:46:22.622000,99,0 days 00:01:48.384000,13,"","",0 days 00:00:29.626000,0 days 00:00:41.198000,0 days 00:00:37.560000,123.0,178.0,283.0,264.0,medium,4.0
0 days 00:48:05.963000,99,0 days 00:01:43.341000,14,"",0 days 00:47:36.965000,0 days 00:00:16.438000,0 days 00:00:33.373000,0 days 00:00:53.530000,318.0,124.0,"",269.0,medium,5.0
0 days 00:53:48.004000,99,"",15,0 days 00:51:49.846000,"","",0 days 00:00:46.042000,0 days 00:00:38.966000,220.0,106.0,284.0,220.0,soft,1.0
0 days 00:54:52.917000,99,0 days 00:01:04.913000,16,"","",0 days 00:00:16.361000,0 days 00:00:28.760000,0 days 00:00:19.792000,320.0,246.0,285.0,316.0,soft,2.0
0 days 00:56:25.490000,99,0 days 00:01:32.573000,17,"",0 days 00:56:22.109000,0 days 00:00:20.342000,0 days 00:00:38.043000,0 days 00:00:34.188000,250.0,182.0,"",192.0,soft,3.0
0 days 00:17:59.977000,6,"",1,0 days 00:16:22.056000,"","",0 days 00:00:41.367000,0 days 00:00:31.645000,303.0,172.0,284.0,290.0,soft,1.0
0 days 00:19:05.940000,6,0 days 00:01:05.963000,2,"","",0 days 00:00:16.581000,0 days 00:00:29.486000,0 days 00:00:19.896000,312.0,248.0,284.0,313.0,soft,2.0
0 days 00:20:33.117000,6,0 days 00:01:27.177000,3,"",0 days 00:20:29.824000,0 days 00:00:19.257000,0 days 00:00:38.130000,0 days 00:00:29.790000,287.0,208.0,"",202.0,soft,3.0
0 days 00:25:18.614000,6,"",4,0 days 00:23:38.282000,"","",0 days 00:00:45.451000,0 days 00:00:33.254000,292.0,156.0,286.0,285.0,soft,1.0
0 days 00:26:23.789000,6,0 days 00:01:05.175000,5,"","",0 days 00:00:16.410000,0 days 00:00:29.133000,0 days 00:00:19.632000,319.0,245.0,290.0,316.0,soft,2.0
0 days 00:27:45.666000,6,0 days 00:01:21.877000,6,"",0 days 00:27:42.408000,0 days 00:00:19.201000,0 days 00:00:36.494000,0 days 00:00:26.182000,276.0,222.0,"",284.0,soft,3.0
0 days 00:31:24.642000,6,"",7,0 days 00:29:34.615000,"","",0 days 00:00:44.907000,0 days 00:00:33.539000,306.0,98.0,288.0,286.0,soft,1.0
0 days 00:32:29.911000,6,0 days 00:01:05.269000,8,"","",0 days 00:00:16.517000,0 days 00:00:28.997000,0 days 00:00:19.755000,315.0,246.0,291.0,313.0,soft,2.0
0 days 00:34:05.353000,6,0 days 00:01:35.442000,9,"",0 days 00:34:02.071000,0 days 00:00:24.365000,0 days 00:00:43.239000,0 days 00:00:27.838000,211.0,220.0,"",274.0,soft,3.0
0 days 00:25:04.383000,31,"",1,0 days 00:23:21.375000,"","",0 days 00:00:45.370000,0 days 00:00:37.358000,267.0,59.0,282.0,201.0,soft,1.0
0 days 00:26:09.863000,31,0 days 00:01:05.480000,2,"","",0 days 00:00:16.508000,0 days 00:00:29.048000,0 days 00:00:19.924000,315.0,245.0,283.0,312.0,soft,2.0
0 days 00:27:34.427000,31,0 days 00:01:24.564000,3,"",0 days 00:27:31.107000,0 days 00:00:20.859000,0 days 00:00:34.686000,0 days 00:00:29.019000,269.0,209.0,"",278.0,soft,3.0
0 days 00:31:50.630000,31,"",4,0 days 00:29:49.526000,"","",0 days 00:00:46.527000,0 days 00:00:50.630000,228.0,150.0,283.0,230.0,soft,1.0
0 days 00:32:55.847000,31,0 days 00:01:05.217000,5,"","",0 days 00:00:16.485000,0 days 00:00:28.887000,0 days 00:00:19.845000,315.0,246.0,284.0,308.0,soft,2.0
0 days 00:34:52.141000,31,0 days 00:01:56.294000,6,"",0 days 00:34:20.492000,0 days 00:00:19.939000,0 days 00:00:37.407000,0 days 00:00:58.948000,242.0,201.0,"",206.0,soft,3.0
0 days 00:19:54.556000,7,"",1,0 days 00:18:28.004000,"","",0 days 00:00:35.501000,0 days 00:00:27.836000,253.0,194.0,282.0,267.0,soft,1.0
0 days 00:21:00.371000,7,0 days 00:01:05.815000,2,"","",0 days 00:00:16.664000,0 days 00:00:29.189000,0 days 00:00:19.962000,314.0,243.0,285.0,311.0,soft,2.0
0 days 00:23:05.571000,7,0 days 00:02:05.200000,3,"","",0 days 00:00:31.143000,0 days 00:00:51.544000,0 days 00:00:42.513000,139.0,146.0,124.0,139.0,soft,3.0
0 days 00:24:49.098000,7,0 days 00:01:43.527000,4,"","",0 days 00:00:25.881000,0 days 00:00:46.253000,0 days 00:00:31.393000,222.0,187.0,283.0,200.0,soft,4.0
0 days 00:26:49.273000,7,0 days 00:02:00.175000,5,"",0 days 00:26:18.497000,0 days 00:00:16.743000,0 days 00:00:41.205000,0 days 00:01:02.227000,315.0,206.0,"",313.0,soft,5.0
0 days 00:32:00.786000,7,"",6,0 days 00:29:53.777000,"","",0 days 00:00:50.724000,0 days 00:00:50.977000,252.0,90.0,283.0,135.0,soft,1.0
0 days 00:33:06.215000,7,0 days 00:01:05.429000,7,"","",0 days 00:00:16.603000,0 days 00:00:28.924000,0 days 00:00:19.902000,317.0,245.0,285.0,314.0,soft,2.0
0 days 00:34:43.084000,7,0 days 00:01:36.869000,8,"",0 days 00:34:39.786000,0 days 00:00:23.798000,0 days 00:00:41.553000,0 days 00:00:31.518000,187.0,171.0,"",226.0,soft,3.0
0 days 00:18:06.580000,47,"",1,0 days 00:16:29.621000,"","",0 days 00:00:45.292000,0 days 00:00:29.663000,197.0,164.0,281.0,227.0,soft,1.0
0 days 00:19:12.621000,47,0 days 00:01:06.041000,2,"","",0 days 00:00:16.623000,0 days 00:00:29.326000,0 days 00:00:20.092000,313.0,243.0,281.0,311.0,soft,2.0
0 days 00:21:06.602000,47,0 days 00:01:53.981000,3,"",0 days 00:20:32.212000,0 days 00:00:18.543000,0 days 00:00:34.513000,0 days 00:01:00.925000,275.0,209.0,"",282.0,soft,3.0
0 days 00:24:43.835000,47,"",4,0 days 00:23:08.559000,"","",0 days 00:00:48.524000,0 days 00:00:27.527000,229.0,146.0,281.0,188.0,soft,1.0
0 days 00:25:49.972000,47,0 days 00:01:06.137000,5,"","",0 days 00:00:16.722000,0 days 00:00:29.349000,0 days 00:00:20.066000,312.0,242.0,284.0,311.0,soft,2.0
0 days 00:27:09.853000,47,0 days 00:01:19.881000,6,"",0 days 00:27:06.620000,0 days 00:00:18.158000,0 days 00:00:36.347000,0 days 00:00:25.376000,270.0,218.0,"",282.0,soft,3.0
0 days 00:31:31.440000,47,"",7,0 days 00:29:45.797000,"","",0 days 00:00:45.842000,0 days 00:00:35.820000,208.0,119.0,283.0,199.0,soft,1.0
0 days 00:32:58.979000,47,0 days 00:01:27.539000,8,"",0 days 00:32:54.792000,0 days 00:00:17.818000,0 days 00:00:38.664000,0 days 00:00:31.057000,257.0,103.0,"",252.0,soft,2.0
0 days 00:18:09.964000,9,"",1,0 days 00:16:32.282000,"","",0 days 00:00:44.386000,0 days 00:00:29.594000,204.0,163.0,279.0,205.0,soft,1.0
0 days 00:19:17.193000,9,0 days 00:01:07.229000,2,"","",0 days 00:00:16.956000,0 days 00:00:29.825000,0 days 00:00:20.448000,315.0,240.0,281.0,313.0,soft,2.0
0 days 00:20:42.934000,9,0 days 00:01:25.741000,3,"",0 days 00:20:39.468000,0 days 00:00:19.950000,0 days 00:00:36.008000,0 days 00:00:29.783000,263.0,190.0,"",259.0,soft,3.0
0 days 00:24:54.001000,9,"",4,0 days 00:23:11.306000,"","",0 days 00:00:45.266000,0 days 00:00:34.559000,213.0,95.0,281.0,219.0,soft,1.0
0 days 00:26:00.318000,9,0 days 00:01:06.317000,5,"","",0 days 00:00:16.815000,0 days 00:00:29.381000,0 days 00:00:20.121000,316.0,243.0,283.0,313.0,soft,2.0
0 days 00:27:32.411000,9,0 days 00:01:32.093000,6,"",0 days 00:27:29.026000,0 days 00:00:23.449000,0 days 00:00:39.137000,0 days 00:00:29.507000,171.0,152.0,"",201.0,soft,3.0
0 days 00:31:42.446000,9,"",7,0 days 00:29:48.146000,"","",0 days 00:00:44.895000,0 days 00:00:44.526000,203.0,112.0,282.0,269.0,soft,1.0
0 days 00:32:48.638000,9,0 days 00:01:06.192000,8,"","",0 days 00:00:16.763000,0 days 00:00:29.307000,0 days 00:00:20.122000,316.0,242.0,285.0,310.0,soft,2.0
0 days 00:34:14.838000,9,0 days 00:01:26.200000,9,"",0 days 00:34:11.505000,0 days 00:00:20.646000,0 days 00:00:35.995000,0 days 00:00:29.559000,198.0,199.0,"",276.0,soft,3.0
