Time,AirTemp,Humidity,Pressure,Rainfall,TrackTemp,WindDirection,WindSpeed
0 days 00:00:18.370000,23.9,56.7,927.1,false,55.9,0,0.3
0 days 00:01:18.368000,23.9,57.0,927.1,false,55.7,154,0.1
0 days 00:02:18.369000,23.8,57.0,927.2,false,55.5,187,0.6
0 days 00:03:18.376000,23.6,57.5,927.1,false,55.5,147,0.6
0 days 00:04:18.384000,23.6,57.4,927.2,false,55.1,190,0.3
0 days 00:05:18.399000,23.6,56.2,927.2,false,56.3,154,0.2
0 days 00:06:18.413000,23.7,56.2,927.2,false,56.3,154,0.2
0 days 00:07:18.413000,23.7,56.2,927.2,false,56.3,154,0.2
0 days 00:08:18.418000,23.6,56.2,927.2,false,56.3,154,0.2
0 days 00:09:18.404000,23.8,56.2,927.2,false,56.3,154,0.2
0 days 00:10:18.413000,23.8,57.0,927.2,false,55.1,169,0.3
0 days 00:11:18.414000,23.5,57.7,927.2,false,54.7,179,0.6
0 days 00:12:18.415000,23.5,57.8,927.1,false,54.7,158,0.5
0 days 00:13:18.415000,23.4,57.4,927.1,false,55.3,168,0.4
0 days 00:14:18.414000,23.6,57.2,927.2,false,55.5,211,0.3
0 days 00:15:18.414000,23.9,56.6,927.1,false,55.5,154,0.3
0 days 00:16:18.417000,23.9,56.3,927.0,false,55.6,210,0.3
0 days 00:17:18.414000,23.9,56.3,927.0,false,55.6,213,0.3
0 days 00:18:18.418000,23.9,55.8,927.1,false,55.4,198,0.5
0 days 00:19:18.432000,23.7,56.6,927.0,false,54.7,166,0.4
0 days 00:20:18.439000,23.6,56.3,926.9,false,54.6,194,0.3
0 days 00:21:18.445000,23.6,54.6,927.0,false,56.3,189,0.3
0 days 00:22:18.461000,24.0,55.2,926.9,false,56.3,175,0.3
0 days 00:23:18.453000,24.0,55.4,927.0,false,55.2,0,0.3
0 days 00:24:18.463000,23.9,56.9,927.0,false,55.2,168,0.3
0 days 00:25:18.803000,24.0,56.8,926.9,false,55.4,176,0.3
0 days 00:26:18.462000,23.7,55.9,926.8,false,55.4,172,0.5
0 days 00:27:18.478000,23.7,57.0,926.9,false,55.0,200,0.5
0 days 00:28:18.470000,23.7,56.6,926.9,false,54.7,152,0.2
0 days 00:29:18.492000,23.6,57.0,926.9,false,54.8,214,0.4
0 days 00:30:18.491000,23.6,57.0,926.9,false,55.2,245,0.4
0 days 00:31:18.492000,23.6,57.6,926.9,false,55.2,164,0.4
0 days 00:32:18.485000,23.4,58.1,926.9,false,54.5,197,0.4
0 days 00:33:18.493000,23.3,59.3,926.8,false,54.1,152,0.4
0 days 00:34:18.492000,23.1,59.5,926.8,false,54.1,183,0.4
0 days 00:35:18.492000,23.1,59.5,926.8,false,54.3,188,0.1
0 days 00:36:18.492000,23.0,59.2,926.7,false,54.3,130,0.2
0 days 00:37:18.490000,23.2,58.2,926.7,false,55.0,126,0.1
0 days 00:38:18.494000,23.2,58.0,926.7,false,55.1,126,0.2
0 days 00:39:18.493000,23.4,56.7,926.8,false,55.1,189,0.2
0 days 00:40:18.494000,23.3,56.8,926.8,false,54.9,162,0.3
0 days 00:41:18.498000,23.4,58.2,926.8,false,54.5,177,0.6
0 days 00:42:18.492000,23.4,58.5,926.7,false,54.5,198,0.4
0 days 00:43:18.495000,23.3,59.1,926.8,false,54.1,179,0.3
0 days 00:44:18.497000,23.3,58.7,926.9,false,54.1,146,0.5
0 days 00:45:18.493000,23.3,58.8,926.9,false,54.7,169,0.5
0 days 00:46:18.536000,23.2,58.4,926.9,false,54.7,173,0.4
0 days 00:47:18.512000,23.5,58.2,926.8,false,53.9,176,0.3
0 days 00:48:18.510000,23.5,59.1,926.9,false,54.0,187,0.3
0 days 00:49:18.511000,23.5,59.6,926.9,false,54.0,235,0.5
0 days 00:50:18.537000,23.2,58.8,927.0,false,53.7,162,0.2
0 days 00:51:18.540000,23.2,59.6,926.9,false,54.1,197,0.4
0 days 00:52:18.555000,23.1,59.8,927.0,false,54.1,171,0.3
0 days 00:53:18.551000,23.1,60.2,927.1,false,54.1,158,0.3
0 days 00:54:18.553000,23.1,60.5,927.0,false,54.0,191,0.3
0 days 00:55:18.585000,23.2,60.4,927.0,false,54.1,151,0.3
0 days 00:56:18.570000,23.4,60.5,927.0,false,54.1,205,0.5
0 days 00:57:18.587000,23.4,60.1,927.0,false,54.0,176,0.6
0 days 00:58:18.592000,23.3,60.9,926.9,false,53.9,177,0.5
0 days 00:59:18.586000,23.3,61.3,927.0,false,53.1,168,0.6
0 days 01:00:18.588000,22.9,60.6,926.9,false,53.5,168,0.5
0 days 01:01:18.588000,22.9,61.2,927.0,false,53.4,172,0.5
0 days 01:02:18.594000,22.8,61.9,927.0,false,52.1,164,0.5
0 days 01:03:18.593000,22.8,61.9,927.0,false,52.1,164,0.5
0 days 01:04:18.586000,23.0,62.5,926.9,false,51.8,178,0.4
0 days 01:05:18.584000,23.1,61.6,927.0,false,51.7,193,0.8
0 days 01:06:18.603000,23.1,62.9,927.0,false,51.9,339,0.5
0 days 01:07:18.602000,23.0,62.9,927.0,false,51.9,339,0.5
0 days 01:08:18.625000,23.0,61.9,926.8,false,51.9,156,0.5
0 days 01:09:18.618000,22.9,60.9,927.0,false,51.7,173,0.5
0 days 01:10:18.621000,22.9,61.6,927.0,false,51.4,212,0.5
0 days 01:11:18.621000,22.8,61.2,927.0,false,51.8,163,0.3
0 days 01:12:18.617000,22.8,61.5,927.1,false,51.5,175,0.4
0 days 01:13:18.608000,22.8,61.5,927.2,false,51.9,160,0.6
0 days 01:14:18.619000,22.8,61.2,927.0,false,51.8,198,0.2
0 days 01:15:18.621000,22.8,61.2,927.0,false,51.8,198,0.2
0 days 01:16:18.619000,22.8,61.1,927.0,false,52.1,148,0.4
0 days 01:17:18.619000,22.7,60.2,926.9,false,52.3,239,0.4
0 days 01:18:18.617000,22.7,60.2,926.9,false,52.3,239,0.4
0 days 01:19:18.617000,22.7,60.7,926.9,false,51.2,1,0.3
0 days 01:20:18.620000,22.6,60.2,926.9,false,51.2,93,0.3
0 days 01:21:18.616000,22.7,62.1,927.1,false,50.0,251,0.4
0 days 01:22:18.618000,22.6,62.1,927.1,false,50.0,251,0.4
0 days 01:23:18.625000,22.6,62.3,927.0,false,50.0,135,0.5
0 days 01:24:18.634000,22.7,63.0,927.0,false,50.2,206,0.3
0 days 01:25:18.638000,22.7,62.4,927.0,false,50.4,137,0.3
0 days 01:26:18.638000,22.6,62.1,927.2,false,50.5,40,0.4
0 days 01:27:18.645000,22.6,62.7,927.0,false,50.2,181,0.5
0 days 01:28:18.666000,22.7,62.7,927.0,false,50.2,181,0.5
0 days 01:29:18.682000,22.7,63.0,927.1,false,50.2,199,0.4
0 days 01:30:18.700000,22.6,62.9,927.1,false,49.8,152,0.5
0 days 01:31:18.694000,22.6,63.0,927.1,false,49.6,151,0.3
0 days 01:32:18.712000,22.8,63.0,927.1,false,49.6,151,0.3
0 days 01:33:18.718000,22.8,62.8,927.1,false,49.6,147,0.5
0 days 01:34:18.713000,22.9,62.8,927.1,false,49.6,147,0.5
0 days 01:35:18.711000,22.8,62.2,927.1,false,49.1,173,0.4
0 days 01:36:18.727000,22.9,62.2,927.1,false,49.1,173,0.4
0 days 01:37:18.749000,23.0,61.5,927.0,false,49.2,182,0.2
0 days 01:38:18.742000,23.0,61.0,927.0,false,49.2,169,0.5
0 days 01:39:18.742000,23.0,61.0,927.0,false,49.2,169,0.5
0 days 01:40:18.754000,23.1,61.3,927.0,false,49.0,196,0.5
0 days 01:41:18.744000,23.1,61.3,927.0,false,49.0,196,0.5
0 days 01:42:18.747000,23.2,62.0,926.9,false,49.3,169,0.3
0 days 01:43:18.744000,23.2,62.0,926.9,false,49.3,169,0.3
0 days 01:44:18.760000,23.3,60.6,927.0,false,50.8,160,0.3
0 days 01:45:18.738000,23.3,60.6,927.0,false,50.8,160,0.3
0 days 01:46:18.741000,23.1,61.6,926.9,false,51.7,229,0.4
0 days 01:47:18.745000,23.0,61.6,926.9,false,51.7,229,0.4
0 days 01:48:18.743000,23.1,61.1,927.0,false,50.7,172,0.3
0 days 01:49:18.741000,23.1,60.3,926.9,false,51.2,148,0.3
0 days 01:50:18.742000,23.2,60.5,926.9,false,51.2,207,0.3
0 days 01:51:18.742000,23.2,60.7,927.0,false,51.3,161,0.4
0 days 01:52:18.744000,23.2,60.7,927.0,false,51.3,161,0.4
0 days 01:53:18.741000,23.1,59.9,926.9,false,51.3,184,0.4
0 days 01:54:18.742000,23.2,59.4,926.9,false,51.0,253,0.5
0 days 01:55:18.743000,23.2,59.5,927.0,false,51.0,185,0.7
0 days 01:56:18.742000,23.2,58.9,926.9,false,50.4,238,0.3
0 days 01:57:18.746000,23.2,58.6,926.9,false,50.4,160,0.3
0 days 01:58:18.744000,23.2,58.7,927.0,false,50.4,198,0.6
0 days 01:59:18.743000,23.1,59.2,927.0,false,50.7,196,0.6
0 days 02:00:18.746000,23.0,60.2,926.9,false,49.6,184,0.7
0 days 02:01:18.742000,22.9,60.1,926.9,false,49.6,207,0.6
0 days 02:02:18.744000,22.9,61.4,926.7,false,49.3,184,0.5
0 days 02:03:18.753000,22.9,60.9,926.9,false,49.7,152,0.4
0 days 02:04:18.781000,22.9,59.1,926.8,false,49.8,167,0.3
0 days 02:05:18.743000,22.9,59.6,926.9,false,49.6,123,0.3
0 days 02:06:18.744000,23.0,58.8,926.8,false,49.6,150,0.2
0 days 02:07:18.742000,23.0,57.9,926.7,false,49.8,175,0.3
0 days 02:08:18.743000,23.2,58.7,926.8,false,50.1,180,0.3
0 days 02:09:18.744000,23.2,59.6,926.8,false,49.7,170,0.4
0 days 02:10:18.746000,23.2,59.6,926.8,false,49.7,170,0.4
0 days 02:11:18.741000,23.3,60.8,926.8,false,48.6,175,0.3
0 days 02:12:18.743000,23.2,60.6,926.8,false,48.6,164,0.5
0 days 02:13:18.759000,23.2,62.4,926.8,false,48.3,192,0.7
0 days 02:14:18.743000,22.9,61.7,926.7,false,48.3,192,0.3
0 days 02:15:18.742000,22.9,60.8,926.8,false,48.5,144,0.5
0 days 02:16:18.744000,22.8,61.4,926.8,false,48.5,179,0.4
0 days 02:17:18.743000,22.8,62.0,926.8,false,47.8,173,0.4
0 days 02:18:18.744000,22.7,61.4,926.8,false,47.8,165,0.3
0 days 02:19:18.743000,22.8,61.7,926.9,false,47.8,192,0.4
0 days 02:20:18.750000,22.8,62.0,926.8,false,47.0,157,0.4
0 days 02:21:18.744000,22.8,62.0,926.8,false,47.0,157,0.4
0 days 02:22:18.742000,22.9,62.4,926.8,false,47.0,164,0.4
0 days 02:23:18.745000,22.9,63.3,926.8,false,47.0,192,0.5
0 days 02:24:18.743000,22.9,64.2,926.8,false,46.7,157,0.2
0 days 02:25:18.747000,22.6,64.2,926.8,false,46.7,157,0.2
0 days 02:26:18.745000,22.8,64.1,926.8,false,46.4,173,0.3
0 days 02:27:18.744000,22.8,63.5,926.7,false,46.3,231,0.5
0 days 02:28:18.742000,22.8,63.5,926.7,false,46.3,231,0.5
0 days 02:29:18.743000,22.8,63.2,926.7,false,46.3,169,0.4
0 days 02:30:18.742000,22.8,63.0,926.7,false,46.1,178,0.3
0 days 02:31:18.743000,22.8,62.7,926.7,false,46.0,182,0.4
0 days 02:32:18.744000,22.7,62.8,926.7,false,45.5,197,0.4
0 days 02:33:18.744000,22.7,63.2,926.6,false,44.6,184,0.5
0 days 02:34:18.741000,22.6,63.7,926.6,false,43.9,181,0.5
0 days 02:35:18.745000,22.5,63.7,926.6,false,43.9,181,0.5
0 days 02:36:18.741000,22.6,62.8,926.6,false,43.4,195,0.5
0 days 02:37:18.742000,22.7,63.2,926.7,false,42.7,174,0.6
