Time,DriverNumber,LapTime,LapNumber,PitOutTime,PitInTime,Sector1Time,Sector2Time,Sector3Time,SpeedI1,SpeedI2,SpeedFL,SpeedST,Compound,TyreLife
0 days 00:18:33.835000,3,"",1.0,0 days 00:16:16.005000,"",0 days 00:01:05.921000,0 days 00:00:39.339000,0 days 00:00:45.552000,204.0,251.0,303.0,203.0,medium,1.0
0 days 00:19:59.676000,3,0 days 00:01:25.841000,2.0,"","",0 days 00:00:28.437000,0 days 00:00:28.742000,0 days 00:00:28.662000,240.0,278.0,307.0,310.0,medium,2.0
0 days 00:22:23.960000,3,0 days 00:02:24.284000,3.0,"","",0 days 00:00:52.353000,0 days 00:00:48.344000,0 days 00:00:43.587000,196.0,228.0,306.0,297.0,medium,3.0
0 days 00:23:49.165000,3,0 days 00:01:25.205000,4.0,"","",0 days 00:00:28.108000,0 days 00:00:28.666000,0 days 00:00:28.431000,241.0,278.0,309.0,314.0,medium,4.0
0 days 00:26:07.087000,3,0 days 00:02:17.922000,5.0,"","",0 days 00:00:43.797000,0 days 00:00:43.254000,0 days 00:00:50.871000,163.0,238.0,229.0,308.0,medium,5.0
0 days 00:28:08.129000,3,0 days 00:02:01.042000,6.0,"","",0 days 00:00:43.497000,0 days 00:00:37.587000,0 days 00:00:39.958000,178.0,259.0,303.0,237.0,medium,6.0
0 days 00:29:33.084000,3,0 days 00:01:24.955000,7.0,"","",0 days 00:00:28.116000,0 days 00:00:28.536000,0 days 00:00:28.303000,240.0,278.0,306.0,309.0,medium,7.0
0 days 00:44:39.688000,3,"",8.0,"",0 days 00:31:11.877000,0 days 00:00:33.361000,0 days 00:00:33.710000,"",176.0,260.0,"",303.0,medium,8.0
0 days 00:46:55.089000,3,0 days 00:02:15.401000,9.0,0 days 00:44:43.203000,"",0 days 00:00:50.631000,0 days 00:00:43.884000,0 days 00:00:40.886000,119.0,254.0,309.0,123.0,soft,1.0
0 days 00:48:19.224000,3,0 days 00:01:24.135000,10.0,"","",0 days 00:00:27.701000,0 days 00:00:28.318000,0 days 00:00:28.116000,245.0,281.0,305.0,315.0,soft,2.0
0 days 00:50:21.942000,3,0 days 00:02:02.718000,11.0,"","",0 days 00:00:39.901000,0 days 00:00:42.861000,0 days 00:00:39.956000,197.0,241.0,306.0,299.0,soft,3.0
0 days 00:51:46.239000,3,0 days 00:01:24.297000,12.0,"","",0 days 00:00:27.682000,0 days 00:00:28.432000,0 days 00:00:28.183000,243.0,277.0,299.0,313.0,soft,4.0
0 days 00:59:53.136000,3,"",13.0,"",0 days 00:53:23.487000,0 days 00:00:32.309000,0 days 00:00:32.159000,"",196.0,255.0,"",298.0,soft,5.0
0 days 01:01:39.849000,3,0 days 00:01:46.713000,14.0,0 days 00:59:57.155000,"",0 days 00:00:45.807000,0 days 00:00:30.376000,0 days 00:00:30.530000,229.0,266.0,284.0,208.0,soft,6.0
0 days 01:03:09.844000,3,0 days 00:01:29.995000,15.0,"","",0 days 00:00:29.506000,0 days 00:00:30.239000,0 days 00:00:30.250000,231.0,271.0,287.0,290.0,soft,7.0
0 days 01:04:39.689000,3,0 days 00:01:29.845000,16.0,"","",0 days 00:00:29.527000,0 days 00:00:30.108000,0 days 00:00:30.210000,228.0,272.0,288.0,291.0,soft,8.0
0 days 01:06:09.073000,3,0 days 00:01:29.384000,17.0,"","",0 days 00:00:29.235000,0 days 00:00:30.087000,0 days 00:00:30.062000,231.0,275.0,288.0,293.0,soft,9.0
0 days 01:07:40.836000,3,0 days 00:01:31.763000,18.0,"","",0 days 00:00:29.810000,0 days 00:00:30.561000,0 days 00:00:31.392000,227.0,275.0,294.0,"",soft,10.0
0 days 01:09:11.112000,3,0 days 00:01:30.276000,19.0,"","",0 days 00:00:29.678000,0 days 00:00:30.448000,0 days 00:00:30.150000,228.0,274.0,293.0,300.0,soft,11.0
0 days 01:10:40.890000,3,0 days 00:01:29.778000,20.0,"","",0 days 00:00:29.486000,0 days 00:00:30.291000,0 days 00:00:30.001000,232.0,275.0,292.0,298.0,soft,12.0
0 days 01:12:10.420000,3,0 days 00:01:29.530000,21.0,"","",0 days 00:00:29.348000,0 days 00:00:30.273000,0 days 00:00:29.909000,228.0,275.0,291.0,296.0,soft,13.0
0 days 01:14:01.530000,3,0 days 00:01:51.110000,22.0,"",0 days 01:13:38.441000,0 days 00:00:29.332000,0 days 00:00:30.341000,0 days 00:00:51.437000,229.0,276.0,"","",soft,14.0
0 days 01:15:36.564000,3,0 days 00:01:35.034000,23.0,0 days 01:14:04.232000,"",0 days 00:00:34.861000,0 days 00:00:30.038000,0 days 00:00:30.135000,232.0,275.0,291.0,215.0,medium,9.0
0 days 01:17:08.803000,3,"",24.0,"",0 days 01:17:08.803000,0 days 00:00:29.557000,0 days 00:00:33.372000,"",231.0,232.0,"",286.0,medium,10.0
0 days 00:21:31.583000,63,0 days 00:02:25.366000,1.0,0 days 00:19:11.108000,"",0 days 00:00:54.947000,0 days 00:00:37.052000,0 days 00:00:53.367000,188.0,243.0,306.0,211.0,medium,1.0
0 days 00:22:58.084000,63,0 days 00:01:26.501000,2.0,"","",0 days 00:00:28.576000,0 days 00:00:29.008000,0 days 00:00:28.917000,239.0,277.0,302.0,314.0,medium,2.0
0 days 00:25:01.943000,63,0 days 00:02:03.859000,3.0,"","",0 days 00:00:43.729000,0 days 00:00:36.885000,0 days 00:00:43.245000,196.0,241.0,305.0,300.0,medium,3.0
0 days 00:26:27.544000,63,0 days 00:01:25.601000,4.0,"","",0 days 00:00:28.130000,0 days 00:00:28.982000,0 days 00:00:28.489000,240.0,277.0,304.0,313.0,medium,4.0
0 days 00:28:35.950000,63,0 days 00:02:08.406000,5.0,"","",0 days 00:00:45.302000,0 days 00:00:41.176000,0 days 00:00:41.928000,176.0,215.0,310.0,302.0,medium,5.0
0 days 00:30:01.316000,63,0 days 00:01:25.366000,6.0,"","",0 days 00:00:27.987000,0 days 00:00:28.812000,0 days 00:00:28.567000,242.0,277.0,302.0,318.0,medium,6.0
0 days 00:38:11.660000,63,"",7.0,"",0 days 00:31:54.867000,0 days 00:00:40.003000,0 days 00:00:38.934000,"",184.0,180.0,"",300.0,medium,7.0
0 days 00:40:20.774000,63,0 days 00:02:09.114000,8.0,0 days 00:38:14.448000,"",0 days 00:00:44.114000,0 days 00:00:40.854000,0 days 00:00:44.146000,203.0,218.0,307.0,205.0,soft,1.0
0 days 00:41:45.765000,63,0 days 00:01:24.991000,9.0,"","",0 days 00:00:27.976000,0 days 00:00:28.518000,0 days 00:00:28.497000,243.0,281.0,302.0,312.0,soft,2.0
0 days 00:44:11.708000,63,0 days 00:02:25.943000,10.0,"","",0 days 00:00:49.984000,0 days 00:00:47.879000,0 days 00:00:48.080000,131.0,187.0,304.0,298.0,soft,3.0
0 days 00:45:36.662000,63,0 days 00:01:24.954000,11.0,"","",0 days 00:00:27.973000,0 days 00:00:28.607000,0 days 00:00:28.374000,244.0,277.0,305.0,313.0,soft,4.0
0 days 00:53:48.049000,63,"",12.0,"",0 days 00:47:21.897000,0 days 00:00:38.568000,0 days 00:00:34.258000,"",200.0,252.0,"",297.0,soft,5.0
0 days 00:55:36.549000,63,0 days 00:01:48.500000,13.0,0 days 00:53:54.024000,"",0 days 00:00:46.431000,0 days 00:00:31.159000,0 days 00:00:30.910000,219.0,265.0,286.0,210.0,medium,8.0
0 days 00:57:10.922000,63,0 days 00:01:34.373000,14.0,"","",0 days 00:00:30.173000,0 days 00:00:30.571000,0 days 00:00:33.629000,228.0,272.0,286.0,290.0,medium,9.0
0 days 00:58:41.117000,63,0 days 00:01:30.195000,15.0,"","",0 days 00:00:29.844000,0 days 00:00:30.227000,0 days 00:00:30.124000,229.0,270.0,287.0,291.0,medium,10.0
0 days 01:00:10.871000,63,0 days 00:01:29.754000,16.0,"","",0 days 00:00:29.719000,0 days 00:00:30.134000,0 days 00:00:29.901000,230.0,272.0,287.0,"",medium,11.0
0 days 01:01:42.851000,63,0 days 00:01:31.980000,17.0,"","",0 days 00:00:29.682000,0 days 00:00:30.418000,0 days 00:00:31.880000,232.0,275.0,290.0,290.0,medium,12.0
0 days 01:03:12.570000,63,0 days 00:01:29.719000,18.0,"","",0 days 00:00:29.630000,0 days 00:00:30.023000,0 days 00:00:30.066000,231.0,274.0,291.0,295.0,medium,13.0
0 days 01:04:42.070000,63,0 days 00:01:29.500000,19.0,"","",0 days 00:00:29.395000,0 days 00:00:30.198000,0 days 00:00:29.907000,"",274.0,291.0,294.0,medium,14.0
0 days 01:06:11.540000,63,0 days 00:01:29.470000,20.0,"","",0 days 00:00:29.444000,0 days 00:00:30.182000,0 days 00:00:29.844000,"",273.0,291.0,295.0,medium,15.0
0 days 01:07:41.488000,63,0 days 00:01:29.948000,21.0,"","",0 days 00:00:29.358000,0 days 00:00:30.277000,0 days 00:00:30.313000,232.0,275.0,310.0,296.0,medium,16.0
0 days 01:09:12.011000,63,0 days 00:01:30.523000,22.0,"","",0 days 00:00:30.047000,0 days 00:00:30.622000,0 days 00:00:29.854000,230.0,273.0,310.0,322.0,medium,17.0
0 days 01:10:41.854000,63,0 days 00:01:29.843000,23.0,"","",0 days 00:00:29.654000,0 days 00:00:30.311000,0 days 00:00:29.878000,232.0,274.0,310.0,320.0,medium,18.0
0 days 01:12:11.396000,63,0 days 00:01:29.542000,24.0,"","",0 days 00:00:29.502000,0 days 00:00:30.220000,0 days 00:00:29.820000,"",273.0,311.0,321.0,medium,19.0
0 days 01:14:03.085000,63,0 days 00:01:51.689000,25.0,"",0 days 01:13:39.513000,0 days 00:00:29.581000,0 days 00:00:30.375000,0 days 00:00:51.733000,228.0,274.0,"","",medium,20.0
0 days 01:15:36.977000,63,0 days 00:01:33.892000,26.0,0 days 01:14:05.888000,"",0 days 00:00:34.392000,0 days 00:00:29.786000,0 days 00:00:29.714000,235.0,280.0,312.0,220.0,soft,6.0
0 days 01:17:13.599000,63,"",27.0,"",0 days 01:17:13.599000,0 days 00:00:33.345000,0 days 00:00:31.627000,"",215.0,262.0,"",322.0,soft,7.0
0 days 00:17:37.375000,55,0 days 00:01:59.253000,1.0,0 days 00:15:40.850000,"",0 days 00:00:40.463000,0 days 00:00:33.682000,0 days 00:00:45.108000,192.0,264.0,301.0,188.0,hard,1.0
0 days 00:19:03.739000,55,0 days 00:01:26.364000,2.0,"","",0 days 00:00:28.269000,0 days 00:00:28.926000,0 days 00:00:29.169000,240.0,277.0,320.0,309.0,hard,2.0
0 days 00:21:13.132000,55,0 days 00:02:09.393000,3.0,"","",0 days 00:00:41.472000,0 days 00:00:47.404000,0 days 00:00:40.517000,140.0,135.0,301.0,314.0,hard,3.0
0 days 00:22:38.831000,55,0 days 00:01:25.699000,4.0,"","",0 days 00:00:28.179000,0 days 00:00:28.689000,0 days 00:00:28.831000,241.0,277.0,298.0,307.0,hard,4.0
0 days 00:24:56.374000,55,0 days 00:02:17.543000,5.0,"","",0 days 00:00:51.727000,0 days 00:00:46.760000,0 days 00:00:39.056000,97.0,205.0,300.0,288.0,hard,5.0
0 days 00:26:21.871000,55,0 days 00:01:25.497000,6.0,"","",0 days 00:00:28.233000,0 days 00:00:28.788000,0 days 00:00:28.476000,240.0,277.0,302.0,306.0,hard,6.0
0 days 00:28:34.821000,55,0 days 00:02:12.950000,7.0,"",0 days 00:28:13.322000,0 days 00:00:37.923000,0 days 00:00:38.415000,0 days 00:00:56.612000,169.0,195.0,"",292.0,hard,7.0
0 days 00:38:36.045000,55,"",8.0,0 days 00:28:38.899000,0 days 00:30:40.167000,0 days 00:00:59.983000,0 days 00:00:32.436000,"",212.0,250.0,"",210.0,hard,8.0
0 days 00:40:43.058000,55,0 days 00:02:07.013000,9.0,0 days 00:38:38.808000,"",0 days 00:00:46.528000,0 days 00:00:42.151000,0 days 00:00:38.334000,155.0,215.0,304.0,152.0,soft,1.0
0 days 00:42:07.091000,55,0 days 00:01:24.033000,10.0,"","",0 days 00:00:27.614000,0 days 00:00:28.232000,0 days 00:00:28.187000,239.0,278.0,302.0,311.0,soft,2.0
0 days 00:44:36.649000,55,0 days 00:02:29.558000,11.0,"",0 days 00:44:15.394000,0 days 00:00:47.272000,0 days 00:00:41.588000,0 days 00:01:00.698000,146.0,186.0,"",270.0,soft,3.0
0 days 00:47:01.897000,55,0 days 00:02:25.248000,12.0,0 days 00:44:40.281000,"",0 days 00:01:11.410000,0 days 00:00:34.492000,0 days 00:00:39.346000,193.0,252.0,303.0,210.0,soft,4.0
0 days 00:53:35.603000,55,"",13.0,"",0 days 00:48:25.417000,0 days 00:00:27.626000,0 days 00:00:28.543000,"",240.0,264.0,"",309.0,soft,5.0
0 days 00:55:28.430000,55,0 days 00:01:52.827000,14.0,0 days 00:53:39.671000,"",0 days 00:00:51.998000,0 days 00:00:30.602000,0 days 00:00:30.227000,232.0,270.0,284.0,199.0,hard,9.0
0 days 00:56:58.639000,55,0 days 00:01:30.209000,15.0,"","",0 days 00:00:29.650000,0 days 00:00:30.184000,0 days 00:00:30.375000,229.0,271.0,286.0,288.0,hard,10.0
0 days 00:58:28.511000,55,0 days 00:01:29.872000,16.0,"","",0 days 00:00:29.618000,0 days 00:00:30.291000,0 days 00:00:29.963000,233.0,272.0,289.0,292.0,hard,11.0
0 days 00:59:58.702000,55,0 days 00:01:30.191000,17.0,"","",0 days 00:00:29.693000,0 days 00:00:30.573000,0 days 00:00:29.925000,231.0,274.0,304.0,295.0,hard,12.0
0 days 01:01:28.599000,55,0 days 00:01:29.897000,18.0,"","",0 days 00:00:29.680000,0 days 00:00:30.501000,0 days 00:00:29.716000,232.0,276.0,312.0,314.0,hard,13.0
0 days 01:02:57.355000,55,0 days 00:01:28.756000,19.0,"","",0 days 00:00:29.010000,0 days 00:00:30.081000,0 days 00:00:29.665000,234.0,272.0,286.0,"",hard,14.0
0 days 01:04:26.376000,55,0 days 00:01:29.021000,20.0,"","",0 days 00:00:29.293000,0 days 00:00:30.103000,0 days 00:00:29.625000,"",272.0,286.0,290.0,hard,15.0
0 days 01:05:55.634000,55,0 days 00:01:29.258000,21.0,"","",0 days 00:00:29.401000,0 days 00:00:30.136000,0 days 00:00:29.721000,236.0,273.0,287.0,"",hard,16.0
0 days 01:07:24.698000,55,0 days 00:01:29.064000,22.0,"","",0 days 00:00:29.306000,0 days 00:00:30.175000,0 days 00:00:29.583000,231.0,273.0,286.0,291.0,hard,17.0
0 days 01:08:53.815000,55,0 days 00:01:29.117000,23.0,"","",0 days 00:00:29.204000,0 days 00:00:30.159000,0 days 00:00:29.754000,234.0,272.0,285.0,290.0,hard,18.0
0 days 01:10:42.420000,55,0 days 00:01:48.605000,24.0,"",0 days 01:10:20.440000,0 days 00:00:29.282000,0 days 00:00:30.324000,0 days 00:00:48.999000,231.0,272.0,"",289.0,hard,19.0
0 days 01:12:43.274000,55,0 days 00:02:00.854000,25.0,0 days 01:10:45.283000,0 days 01:12:25.319000,0 days 00:00:39.641000,0 days 00:00:31.260000,0 days 00:00:49.953000,200.0,266.0,"",212.0,soft,6.0
0 days 01:14:47.582000,55,0 days 00:02:04.308000,26.0,0 days 01:12:46.958000,"",0 days 00:01:03.673000,0 days 00:00:30.284000,0 days 00:00:30.351000,231.0,271.0,286.0,210.0,soft,7.0
0 days 01:16:15.404000,55,0 days 00:01:27.822000,27.0,"","",0 days 00:00:28.997000,0 days 00:00:29.490000,0 days 00:00:29.335000,236.0,273.0,288.0,290.0,soft,8.0
0 days 01:17:41.076000,55,"",28.0,"",0 days 01:17:41.076000,0 days 00:00:29.094000,0 days 00:00:29.787000,"",232.0,272.0,"",293.0,soft,9.0
0 days 00:18:11.720000,47,0 days 00:02:29.521000,1.0,0 days 00:15:46.423000,"",0 days 00:01:01.412000,0 days 00:00:38.162000,0 days 00:00:49.947000,201.0,252.0,307.0,214.0,medium,1.0
0 days 00:19:38.814000,47,0 days 00:01:27.094000,2.0,"","",0 days 00:00:28.891000,0 days 00:00:29.217000,0 days 00:00:28.986000,239.0,281.0,311.0,317.0,medium,2.0
0 days 00:21:54.172000,47,0 days 00:02:15.358000,3.0,"","",0 days 00:00:41.532000,0 days 00:00:41.845000,0 days 00:00:51.981000,159.0,220.0,311.0,311.0,medium,3.0
0 days 00:23:21.114000,47,0 days 00:01:26.942000,4.0,"","",0 days 00:00:28.882000,0 days 00:00:29.137000,0 days 00:00:28.923000,241.0,281.0,311.0,320.0,medium,4.0
0 days 00:34:50.998000,47,"",5.0,"",0 days 00:25:21.502000,0 days 00:00:45.282000,0 days 00:00:40.750000,"",146.0,244.0,"",312.0,medium,5.0
0 days 00:36:48.964000,47,0 days 00:01:57.966000,6.0,0 days 00:34:53.759000,"",0 days 00:00:45.551000,0 days 00:00:36.156000,0 days 00:00:36.259000,200.0,269.0,306.0,168.0,soft,1.0
0 days 00:38:14.662000,47,0 days 00:01:25.698000,7.0,"","",0 days 00:00:28.172000,0 days 00:00:28.671000,0 days 00:00:28.855000,244.0,282.0,304.0,313.0,soft,2.0
0 days 00:40:23.981000,47,0 days 00:02:09.319000,8.0,"","",0 days 00:00:41.372000,0 days 00:00:42.671000,0 days 00:00:45.276000,136.0,241.0,310.0,300.0,soft,3.0
0 days 00:41:49.582000,47,0 days 00:01:25.601000,9.0,"","",0 days 00:00:28.124000,0 days 00:00:28.764000,0 days 00:00:28.713000,244.0,282.0,310.0,318.0,soft,4.0
0 days 00:44:15.894000,47,0 days 00:02:26.312000,10.0,"","",0 days 00:00:48.448000,0 days 00:00:50.199000,0 days 00:00:47.665000,154.0,243.0,309.0,306.0,soft,5.0
0 days 00:45:41.469000,47,0 days 00:01:25.575000,11.0,"","",0 days 00:00:28.078000,0 days 00:00:28.777000,0 days 00:00:28.720000,240.0,281.0,306.0,317.0,soft,6.0
0 days 00:54:10.542000,47,"",12.0,"",0 days 00:47:26.698000,0 days 00:00:34.849000,0 days 00:00:33.740000,"",216.0,255.0,"",307.0,soft,7.0
0 days 00:56:00.515000,47,0 days 00:01:49.973000,13.0,0 days 00:54:14.651000,"",0 days 00:00:47.688000,0 days 00:00:30.985000,0 days 00:00:31.300000,227.0,273.0,295.0,210.0,medium,6.0
0 days 00:57:32.204000,47,0 days 00:01:31.689000,14.0,"","",0 days 00:00:29.931000,0 days 00:00:30.982000,0 days 00:00:30.776000,231.0,274.0,288.0,301.0,medium,7.0
0 days 00:59:03.412000,47,0 days 00:01:31.208000,15.0,"","",0 days 00:00:29.730000,0 days 00:00:30.720000,0 days 00:00:30.758000,"",273.0,288.0,294.0,medium,8.0
0 days 01:00:35.986000,47,0 days 00:01:32.574000,16.0,"","",0 days 00:00:30.945000,0 days 00:00:31.104000,0 days 00:00:30.525000,228.0,272.0,287.0,293.0,medium,9.0
0 days 01:02:07.259000,47,0 days 00:01:31.273000,17.0,"","",0 days 00:00:29.904000,0 days 00:00:30.812000,0 days 00:00:30.557000,230.0,274.0,291.0,292.0,medium,10.0
0 days 01:03:59.767000,47,0 days 00:01:52.508000,18.0,"",0 days 01:03:36.500000,0 days 00:00:30.098000,0 days 00:00:30.885000,0 days 00:00:51.525000,229.0,275.0,"",297.0,medium,11.0
0 days 01:05:34.696000,47,0 days 00:01:34.929000,19.0,0 days 01:04:02.491000,"",0 days 00:00:34.765000,0 days 00:00:30.162000,0 days 00:00:30.002000,231.0,274.0,288.0,222.0,soft,8.0
0 days 01:07:04.853000,47,0 days 00:01:30.157000,20.0,"","",0 days 00:00:29.751000,0 days 00:00:30.200000,0 days 00:00:30.206000,228.0,274.0,287.0,291.0,soft,9.0
0 days 01:08:35.315000,47,0 days 00:01:30.462000,21.0,"","",0 days 00:00:29.615000,0 days 00:00:30.574000,0 days 00:00:30.273000,226.0,274.0,287.0,292.0,soft,10.0
0 days 01:10:05.572000,47,0 days 00:01:30.257000,22.0,"","",0 days 00:00:29.686000,0 days 00:00:30.370000,0 days 00:00:30.201000,232.0,274.0,289.0,293.0,soft,11.0
0 days 01:11:35.964000,47,0 days 00:01:30.392000,23.0,"","",0 days 00:00:29.650000,0 days 00:00:30.482000,0 days 00:00:30.260000,"",274.0,288.0,"",soft,12.0
0 days 01:13:06.180000,47,0 days 00:01:30.216000,24.0,"","",0 days 00:00:29.701000,0 days 00:00:30.515000,0 days 00:00:30,227.0,274.0,288.0,"",soft,13.0
0 days 01:14:36.089000,47,0 days 00:01:29.909000,25.0,"","",0 days 00:00:29.450000,0 days 00:00:30.586000,0 days 00:00:29.873000,232.0,275.0,288.0,"",soft,14.0
0 days 01:16:06.080000,47,0 days 00:01:29.991000,26.0,"","",0 days 00:00:29.343000,0 days 00:00:30.582000,0 days 00:00:30.066000,231.0,274.0,289.0,294.0,soft,15.0
0 days 01:17:35.053000,47,"",27.0,"",0 days 01:17:35.053000,0 days 00:00:29.443000,0 days 00:00:30.839000,"",232.0,274.0,"",293.0,soft,16.0
0 days 00:19:09.928000,44,0 days 00:02:29.103000,1.0,0 days 00:17:00.915000,"",0 days 00:01:04.082000,0 days 00:00:45.488000,0 days 00:00:39.533000,175.0,247.0,303.0,207.0,medium,1.0
0 days 00:20:35.016000,44,0 days 00:01:25.088000,2.0,"","",0 days 00:00:27.870000,0 days 00:00:28.415000,0 days 00:00:28.803000,240.0,277.0,306.0,311.0,medium,2.0
0 days 00:23:05.567000,44,"",3.0,"","",0 days 00:01:03.385000,0 days 00:00:48.331000,0 days 00:00:38.822000,99.0,178.0,310.0,247.0,medium,3.0
0 days 00:24:30.257000,44,0 days 00:01:24.690000,4.0,"","",0 days 00:00:27.683000,0 days 00:00:28.337000,0 days 00:00:28.670000,241.0,278.0,303.0,318.0,medium,4.0
0 days 00:27:10.520000,44,"",5.0,"","",0 days 00:00:58.097000,0 days 00:00:59.514000,0 days 00:00:42.670000,107.0,141.0,307.0,297.0,medium,5.0
0 days 00:28:34.124000,44,0 days 00:01:23.604000,6.0,"","",0 days 00:00:27.367000,0 days 00:00:27.974000,0 days 00:00:28.263000,247.0,281.0,308.0,313.0,medium,6.0
0 days 00:38:18.074000,44,"",7.0,"",0 days 00:30:07.287000,0 days 00:00:33.026000,0 days 00:00:30.425000,"",223.0,256.0,"",301.0,medium,7.0
0 days 00:40:30.095000,44,0 days 00:02:12.021000,8.0,0 days 00:38:20.812000,"",0 days 00:00:51.362000,0 days 00:00:41.220000,0 days 00:00:39.439000,178.0,245.0,304.0,153.0,soft,1.0
0 days 00:41:53.665000,44,0 days 00:01:23.570000,9.0,"","",0 days 00:00:27.319000,0 days 00:00:27.974000,0 days 00:00:28.277000,244.0,276.0,303.0,312.0,soft,2.0
0 days 00:45:11.713000,44,"",10.0,"",0 days 00:44:43.674000,0 days 00:01:02.927000,0 days 00:00:57.051000,0 days 00:01:18.058000,94.0,180.0,"",221.0,soft,3.0
0 days 00:47:24.264000,44,0 days 00:02:12.551000,11.0,0 days 00:45:14.430000,"",0 days 00:00:54.482000,0 days 00:00:42.052000,0 days 00:00:36.017000,184.0,255.0,299.0,133.0,soft,4.0
0 days 00:48:47.971000,44,0 days 00:01:23.707000,12.0,"","",0 days 00:00:27.398000,0 days 00:00:28.013000,0 days 00:00:28.296000,246.0,276.0,300.0,306.0,soft,5.0
0 days 00:51:01.407000,44,0 days 00:02:13.436000,13.0,"","",0 days 00:00:45.484000,0 days 00:00:42.610000,0 days 00:00:45.342000,124.0,181.0,300.0,295.0,soft,6.0
0 days 00:58:47.383000,44,"",14.0,"",0 days 00:52:28.882000,0 days 00:00:27.552000,0 days 00:00:29.287000,"",247.0,255.0,"",305.0,soft,7.0
0 days 01:01:01.807000,44,0 days 00:02:14.424000,15.0,0 days 00:58:52.259000,0 days 01:00:44.627000,0 days 00:00:53.277000,0 days 00:00:31.036000,0 days 00:00:50.111000,220.0,258.0,"",206.0,medium,8.0
0 days 01:03:22.645000,44,0 days 00:02:20.838000,16.0,0 days 01:01:23.226000,0 days 01:02:59.960000,0 days 00:00:58.799000,0 days 00:00:30.972000,0 days 00:00:51.067000,217.0,258.0,"",208.0,medium,9.0
0 days 01:05:00.269000,44,0 days 00:01:37.624000,17.0,0 days 01:03:25.310000,"",0 days 00:00:34.277000,0 days 00:00:29.579000,0 days 00:00:33.768000,230.0,266.0,286.0,216.0,soft,8.0
0 days 01:06:28.562000,44,0 days 00:01:28.293000,18.0,"","",0 days 00:00:28.933000,0 days 00:00:29.604000,0 days 00:00:29.756000,232.0,267.0,287.0,292.0,soft,9.0
0 days 01:07:56.620000,44,0 days 00:01:28.058000,19.0,"","",0 days 00:00:28.852000,0 days 00:00:29.598000,0 days 00:00:29.608000,235.0,271.0,289.0,294.0,soft,10.0
0 days 01:09:28.925000,44,0 days 00:01:32.305000,20.0,"","",0 days 00:00:32.277000,0 days 00:00:29.623000,0 days 00:00:30.405000,236.0,272.0,289.0,297.0,soft,11.0
0 days 01:10:57.160000,44,0 days 00:01:28.235000,21.0,"","",0 days 00:00:28.995000,0 days 00:00:29.647000,0 days 00:00:29.593000,234.0,272.0,294.0,295.0,soft,12.0
0 days 01:12:29.138000,44,0 days 00:01:31.978000,22.0,"","",0 days 00:00:29.495000,0 days 00:00:30.176000,0 days 00:00:32.307000,233.0,274.0,290.0,301.0,soft,13.0
0 days 01:14:00.904000,44,0 days 00:01:31.766000,23.0,"","",0 days 00:00:29.014000,0 days 00:00:29.891000,0 days 00:00:32.861000,234.0,271.0,289.0,298.0,soft,14.0
0 days 01:15:29.041000,44,0 days 00:01:28.137000,24.0,"","",0 days 00:00:28.874000,0 days 00:00:29.700000,0 days 00:00:29.563000,231.0,271.0,289.0,296.0,soft,15.0
0 days 01:17:06.122000,44,"",25.0,"",0 days 01:17:06.122000,0 days 00:00:34.396000,0 days 00:00:30.992000,"",211.0,264.0,"",297.0,soft,16.0
0 days 00:21:44.456000,33,0 days 00:02:07.094000,1.0,0 days 00:19:40.084000,"",0 days 00:00:40.239000,0 days 00:00:38.517000,0 days 00:00:48.338000,173.0,270.0,302.0,190.0,medium,1.0
0 days 00:23:08.741000,33,0 days 00:01:24.285000,2.0,"","",0 days 00:00:27.762000,0 days 00:00:28.257000,0 days 00:00:28.266000,243.0,278.0,309.0,310.0,medium,2.0
0 days 00:25:21.291000,33,0 days 00:02:12.550000,3.0,"","",0 days 00:00:43.991000,0 days 00:00:50.665000,0 days 00:00:37.894000,126.0,148.0,301.0,298.0,medium,3.0
0 days 00:26:45.034000,33,0 days 00:01:23.743000,4.0,"","",0 days 00:00:27.556000,0 days 00:00:28.218000,0 days 00:00:27.969000,241.0,279.0,304.0,308.0,medium,4.0
0 days 00:29:04.819000,33,0 days 00:02:19.785000,5.0,"","",0 days 00:00:47.769000,0 days 00:00:50.594000,0 days 00:00:41.422000,113.0,165.0,285.0,299.0,medium,5.0
0 days 00:30:30.324000,33,0 days 00:01:25.505000,6.0,"","",0 days 00:00:27.754000,0 days 00:00:28.171000,0 days 00:00:29.580000,246.0,279.0,272.0,287.0,medium,6.0
0 days 00:47:32.234000,33,"",7.0,"",0 days 00:32:02.011000,0 days 00:00:31.241000,0 days 00:00:30.405000,"",218.0,261.0,"",270.0,medium,7.0
0 days 00:49:42.735000,33,0 days 00:02:10.501000,8.0,0 days 00:47:34.947000,"",0 days 00:00:46.279000,0 days 00:00:43.049000,0 days 00:00:41.173000,169.0,207.0,296.0,177.0,soft,1.0
0 days 00:51:06.314000,33,0 days 00:01:23.579000,9.0,"","",0 days 00:00:27.387000,0 days 00:00:28.149000,0 days 00:00:28.043000,247.0,275.0,305.0,302.0,soft,2.0
0 days 00:53:44.858000,33,"",10.0,"",0 days 00:53:21.207000,0 days 00:00:42.152000,0 days 00:00:46.693000,0 days 00:01:09.705000,143.0,168.0,"",293.0,soft,3.0
0 days 00:55:59.219000,33,0 days 00:02:14.361000,11.0,0 days 00:53:47.567000,"",0 days 00:00:49.571000,0 days 00:00:44.107000,0 days 00:00:40.683000,156.0,226.0,298.0,170.0,soft,4.0
0 days 00:57:22.717000,33,0 days 00:01:23.498000,12.0,"","",0 days 00:00:27.351000,0 days 00:00:28.075000,0 days 00:00:28.072000,245.0,277.0,302.0,304.0,soft,5.0
0 days 01:06:12.472000,33,"",13.0,"",0 days 00:58:52.157000,0 days 00:00:30.160000,0 days 00:00:30.443000,"",222.0,254.0,"",298.0,soft,6.0
0 days 01:08:03.947000,33,0 days 00:01:51.475000,14.0,0 days 01:06:17.136000,"",0 days 00:00:48.141000,0 days 00:00:29.971000,0 days 00:00:33.363000,228.0,268.0,286.0,205.0,soft,7.0
0 days 01:09:32.343000,33,0 days 00:01:28.396000,15.0,"","",0 days 00:00:29.200000,0 days 00:00:29.702000,0 days 00:00:29.494000,229.0,270.0,289.0,291.0,soft,8.0
0 days 01:11:00.606000,33,0 days 00:01:28.263000,16.0,"","",0 days 00:00:29.037000,0 days 00:00:29.822000,0 days 00:00:29.404000,230.0,270.0,291.0,294.0,soft,9.0
0 days 01:12:34.022000,33,0 days 00:01:33.416000,17.0,"","",0 days 00:00:29.348000,0 days 00:00:30.057000,0 days 00:00:34.011000,228.0,267.0,292.0,"",soft,10.0
0 days 01:14:02.198000,33,0 days 00:01:28.176000,18.0,"","",0 days 00:00:28.978000,0 days 00:00:29.779000,0 days 00:00:29.419000,233.0,271.0,296.0,292.0,soft,11.0
0 days 01:15:30.878000,33,0 days 00:01:28.680000,19.0,"","",0 days 00:00:29.181000,0 days 00:00:30.057000,0 days 00:00:29.442000,227.0,269.0,295.0,298.0,soft,12.0
0 days 01:17:11.052000,33,"",20.0,"",0 days 01:17:11.052000,0 days 00:00:33.207000,0 days 00:00:35.880000,"",215.0,139.0,"",292.0,soft,13.0
0 days 00:17:50.453000,31,0 days 00:02:23.289000,1.0,0 days 00:15:31.573000,"",0 days 00:00:55.716000,0 days 00:00:32.867000,0 days 00:00:54.706000,219.0,258.0,299.0,192.0,hard,1.0
0 days 00:19:17.108000,31,0 days 00:01:26.655000,2.0,"","",0 days 00:00:28.679000,0 days 00:00:29.031000,0 days 00:00:28.945000,238.0,275.0,307.0,308.0,hard,2.0
0 days 00:21:26.088000,31,0 days 00:02:08.980000,3.0,"","",0 days 00:00:41.507000,0 days 00:00:37.807000,0 days 00:00:49.666000,193.0,216.0,300.0,306.0,hard,3.0
0 days 00:22:51.892000,31,0 days 00:01:25.804000,4.0,"","",0 days 00:00:28.229000,0 days 00:00:28.960000,0 days 00:00:28.615000,235.0,275.0,303.0,308.0,hard,4.0
0 days 00:25:08.372000,31,0 days 00:02:16.480000,5.0,"","",0 days 00:00:45.654000,0 days 00:00:40.889000,0 days 00:00:49.937000,158.0,253.0,303.0,300.0,hard,5.0
0 days 00:26:33.668000,31,0 days 00:01:25.296000,6.0,"","",0 days 00:00:27.986000,0 days 00:00:28.787000,0 days 00:00:28.523000,240.0,277.0,307.0,311.0,hard,6.0
0 days 00:34:44.073000,31,"",7.0,"",0 days 00:28:16.704000,0 days 00:00:33.777000,0 days 00:00:33.339000,"",206.0,257.0,"",300.0,hard,7.0
0 days 00:36:35.350000,31,0 days 00:01:51.277000,8.0,0 days 00:34:46.771000,"",0 days 00:00:42.844000,0 days 00:00:33.463000,0 days 00:00:34.970000,216.0,257.0,301.0,171.0,soft,1.0
0 days 00:37:59.391000,31,0 days 00:01:24.041000,9.0,"","",0 days 00:00:27.638000,0 days 00:00:28.249000,0 days 00:00:28.154000,244.0,277.0,295.0,308.0,soft,2.0
0 days 00:40:21.058000,31,0 days 00:02:21.667000,10.0,"","",0 days 00:00:45.418000,0 days 00:00:44.560000,0 days 00:00:51.689000,154.0,162.0,171.0,292.0,soft,3.0
0 days 00:42:21.811000,31,0 days 00:02:00.753000,11.0,"","",0 days 00:00:43.897000,0 days 00:00:38.484000,0 days 00:00:38.372000,209.0,253.0,302.0,149.0,soft,4.0
0 days 00:50:52.576000,31,"",12.0,"",0 days 00:43:56.211000,0 days 00:00:27.637000,0 days 00:00:28.245000,"",244.0,276.0,"",309.0,soft,5.0
0 days 00:53:00.902000,31,0 days 00:02:08.326000,13.0,0 days 00:50:55.277000,0 days 00:52:41.782000,0 days 00:00:43.268000,0 days 00:00:34.039000,0 days 00:00:51.019000,203.0,255.0,"",180.0,soft,6.0
0 days 00:54:51.106000,31,0 days 00:01:50.204000,14.0,0 days 00:53:07.404000,"",0 days 00:00:48.680000,0 days 00:00:30.427000,0 days 00:00:31.097000,231.0,271.0,282.0,209.0,soft,7.0
0 days 00:56:20.282000,31,0 days 00:01:29.176000,15.0,"","",0 days 00:00:29.392000,0 days 00:00:29.821000,0 days 00:00:29.963000,227.0,273.0,286.0,287.0,soft,8.0
0 days 00:57:48.994000,31,0 days 00:01:28.712000,16.0,"","",0 days 00:00:29.212000,0 days 00:00:29.775000,0 days 00:00:29.725000,"",273.0,285.0,285.0,soft,9.0
0 days 00:59:17.902000,31,0 days 00:01:28.908000,17.0,"","",0 days 00:00:29.341000,0 days 00:00:29.896000,0 days 00:00:29.671000,228.0,272.0,286.0,284.0,soft,10.0
0 days 01:00:46.886000,31,0 days 00:01:28.984000,18.0,"","",0 days 00:00:29.098000,0 days 00:00:30.031000,0 days 00:00:29.855000,229.0,274.0,285.0,285.0,soft,11.0
0 days 01:02:15.596000,31,0 days 00:01:28.710000,19.0,"","",0 days 00:00:29.183000,0 days 00:00:29.964000,0 days 00:00:29.563000,"",273.0,287.0,"",soft,12.0
0 days 01:03:44.343000,31,0 days 00:01:28.747000,20.0,"","",0 days 00:00:29.118000,0 days 00:00:29.947000,0 days 00:00:29.682000,"",273.0,287.0,286.0,soft,13.0
0 days 01:05:13.532000,31,0 days 00:01:29.189000,21.0,"","",0 days 00:00:29.199000,0 days 00:00:30.173000,0 days 00:00:29.817000,228.0,273.0,289.0,287.0,soft,14.0
0 days 01:06:42.046000,31,0 days 00:01:28.514000,22.0,"","",0 days 00:00:29.008000,0 days 00:00:29.960000,0 days 00:00:29.546000,230.0,273.0,289.0,293.0,soft,15.0
0 days 01:08:11.357000,31,0 days 00:01:29.311000,23.0,"","",0 days 00:00:29.142000,0 days 00:00:30.482000,0 days 00:00:29.687000,226.0,277.0,310.0,292.0,soft,16.0
0 days 01:09:41.967000,31,0 days 00:01:30.610000,24.0,"","",0 days 00:00:30.219000,0 days 00:00:30.547000,0 days 00:00:29.844000,228.0,276.0,312.0,322.0,soft,17.0
0 days 01:11:36.348000,31,0 days 00:01:54.381000,25.0,"",0 days 01:11:13.603000,0 days 00:00:33.182000,0 days 00:00:30.088000,0 days 00:00:51.111000,227.0,274.0,"",325.0,soft,18.0
0 days 01:13:13.643000,31,0 days 00:01:37.295000,26.0,0 days 01:11:39.070000,"",0 days 00:00:35.067000,0 days 00:00:30.003000,0 days 00:00:32.225000,229.0,272.0,287.0,217.0,hard,8.0
0 days 01:14:41.892000,31,0 days 00:01:28.249000,27.0,"","",0 days 00:00:29.078000,0 days 00:00:29.746000,0 days 00:00:29.425000,232.0,273.0,289.0,287.0,hard,9.0
0 days 01:16:10.189000,31,0 days 00:01:28.297000,28.0,"","",0 days 00:00:29.003000,0 days 00:00:29.905000,0 days 00:00:29.389000,230.0,272.0,290.0,288.0,hard,10.0
0 days 01:17:48.235000,31,"",29.0,"",0 days 01:17:48.235000,0 days 00:00:33.822000,0 days 00:00:32.654000,"",142.0,261.0,"",282.0,hard,11.0
0 days 00:18:26.769000,22,0 days 00:02:04.649000,1.0,0 days 00:16:24.832000,"",0 days 00:00:44.213000,0 days 00:00:36.313000,0 days 00:00:44.123000,180.0,216.0,299.0,168.0,medium,1.0
0 days 00:19:51.989000,22,0 days 00:01:25.220000,2.0,"","",0 days 00:00:28.090000,0 days 00:00:28.585000,0 days 00:00:28.545000,243.0,278.0,304.0,307.0,medium,2.0
0 days 00:22:14.082000,22,0 days 00:02:22.093000,3.0,"","",0 days 00:00:48.962000,0 days 00:00:45.713000,0 days 00:00:47.418000,144.0,166.0,302.0,303.0,medium,3.0
0 days 00:23:38.315000,22,0 days 00:01:24.233000,4.0,"","",0 days 00:00:27.658000,0 days 00:00:28.201000,0 days 00:00:28.374000,245.0,281.0,308.0,310.0,medium,4.0
0 days 00:25:57.725000,22,0 days 00:02:19.410000,5.0,"","",0 days 00:00:47.481000,0 days 00:00:46.225000,0 days 00:00:45.704000,118.0,173.0,241.0,301.0,medium,5.0
0 days 00:28:02.243000,22,0 days 00:02:04.518000,6.0,"","",0 days 00:00:43.914000,0 days 00:00:41.200000,0 days 00:00:39.404000,168.0,222.0,298.0,258.0,medium,6.0
0 days 00:29:27.041000,22,0 days 00:01:24.798000,7.0,"","",0 days 00:00:27.876000,0 days 00:00:28.340000,0 days 00:00:28.582000,237.0,277.0,302.0,304.0,medium,7.0
0 days 00:37:53.726000,22,"",8.0,"",0 days 00:31:09.390000,0 days 00:00:38.591000,0 days 00:00:32.328000,"",205.0,255.0,"",294.0,medium,8.0
0 days 00:40:03.776000,22,0 days 00:02:10.050000,9.0,0 days 00:37:57.566000,"",0 days 00:00:45.146000,0 days 00:00:37.107000,0 days 00:00:47.797000,182.0,218.0,299.0,160.0,soft,1.0
0 days 00:41:27.511000,22,0 days 00:01:23.735000,10.0,"","",0 days 00:00:27.388000,0 days 00:00:28.135000,0 days 00:00:28.212000,244.0,277.0,303.0,307.0,soft,2.0
0 days 00:44:06.649000,22,"",11.0,"","",0 days 00:00:49.657000,0 days 00:00:53.599000,0 days 00:00:55.913000,109.0,157.0,116.0,301.0,soft,3.0
0 days 00:46:11.937000,22,0 days 00:02:05.288000,12.0,"","",0 days 00:00:49.198000,0 days 00:00:38.370000,0 days 00:00:37.720000,159.0,224.0,299.0,209.0,soft,4.0
0 days 00:47:36.013000,22,0 days 00:01:24.076000,13.0,"","",0 days 00:00:27.269000,0 days 00:00:28.291000,0 days 00:00:28.516000,249.0,276.0,302.0,306.0,soft,5.0
0 days 00:55:39.829000,22,"",14.0,"",0 days 00:49:23.130000,0 days 00:00:35.997000,0 days 00:00:34.529000,"",207.0,222.0,"",301.0,soft,6.0
0 days 00:57:27.915000,22,0 days 00:01:48.086000,15.0,0 days 00:55:43.560000,"",0 days 00:00:44.726000,0 days 00:00:33.148000,0 days 00:00:30.212000,235.0,272.0,284.0,203.0,soft,7.0
0 days 00:58:58.028000,22,0 days 00:01:30.113000,16.0,"","",0 days 00:00:29.685000,0 days 00:00:30.007000,0 days 00:00:30.421000,"",274.0,284.0,289.0,soft,8.0
0 days 01:00:28.331000,22,0 days 00:01:30.303000,17.0,"","",0 days 00:00:29.600000,0 days 00:00:30.097000,0 days 00:00:30.606000,234.0,274.0,284.0,287.0,soft,9.0
0 days 01:01:59.258000,22,0 days 00:01:30.927000,18.0,"","",0 days 00:00:29.831000,0 days 00:00:30.359000,0 days 00:00:30.737000,233.0,274.0,284.0,"",soft,10.0
0 days 01:03:31.374000,22,0 days 00:01:32.116000,19.0,"","",0 days 00:00:29.966000,0 days 00:00:30.880000,0 days 00:00:31.270000,230.0,273.0,286.0,"",soft,11.0
0 days 01:05:03.351000,22,0 days 00:01:31.977000,20.0,"","",0 days 00:00:30.285000,0 days 00:00:30.776000,0 days 00:00:30.916000,228.0,277.0,290.0,289.0,soft,12.0
0 days 01:07:04.692000,22,0 days 00:02:01.341000,21.0,"",0 days 01:06:34.682000,0 days 00:00:30.084000,0 days 00:00:30.712000,0 days 00:01:00.545000,231.0,277.0,"",294.0,soft,13.0
0 days 01:08:46.528000,22,0 days 00:01:41.836000,22.0,0 days 01:07:07.407000,"",0 days 00:00:36.083000,0 days 00:00:31.003000,0 days 00:00:34.750000,229.0,239.0,282.0,216.0,soft,14.0
0 days 01:10:18.330000,22,0 days 00:01:31.802000,23.0,"","",0 days 00:00:30.167000,0 days 00:00:30.840000,0 days 00:00:30.795000,231.0,272.0,283.0,285.0,soft,15.0
0 days 01:11:49.940000,22,0 days 00:01:31.610000,24.0,"","",0 days 00:00:30.068000,0 days 00:00:30.671000,0 days 00:00:30.871000,230.0,273.0,283.0,286.0,soft,16.0
0 days 01:13:21.516000,22,0 days 00:01:31.576000,25.0,"","",0 days 00:00:30.050000,0 days 00:00:30.637000,0 days 00:00:30.889000,229.0,274.0,286.0,"",soft,17.0
0 days 01:14:52.991000,22,0 days 00:01:31.475000,26.0,"","",0 days 00:00:30.031000,0 days 00:00:30.659000,0 days 00:00:30.785000,"",275.0,287.0,289.0,soft,18.0
0 days 01:16:24.403000,22,0 days 00:01:31.412000,27.0,"","",0 days 00:00:29.937000,0 days 00:00:30.676000,0 days 00:00:30.799000,228.0,275.0,287.0,291.0,soft,19.0
0 days 01:18:17.253000,22,"",28.0,"",0 days 01:18:17.253000,0 days 00:00:43.737000,0 days 00:00:37.803000,"",152.0,211.0,"",231.0,soft,20.0
0 days 00:17:44.006000,18,0 days 00:02:04.358000,1.0,0 days 00:15:42.321000,"",0 days 00:00:40.423000,0 days 00:00:36.394000,0 days 00:00:47.541000,214.0,163.0,304.0,206.0,medium,1.0
0 days 00:19:25.397000,18,0 days 00:01:41.391000,2.0,"","",0 days 00:00:28.190000,0 days 00:00:37.128000,0 days 00:00:36.073000,242.0,185.0,305.0,313.0,medium,2.0
0 days 00:20:50.601000,18,0 days 00:01:25.204000,3.0,"","",0 days 00:00:27.956000,0 days 00:00:28.769000,0 days 00:00:28.479000,241.0,280.0,306.0,314.0,medium,3.0
0 days 00:23:34.053000,18,"",4.0,"","",0 days 00:00:54.364000,0 days 00:01:03.786000,0 days 00:00:45.328000,131.0,87.0,281.0,200.0,medium,4.0
0 days 00:25:47.713000,18,0 days 00:02:13.660000,5.0,"","",0 days 00:00:39.063000,0 days 00:00:50.375000,0 days 00:00:44.222000,124.0,181.0,303.0,293.0,medium,5.0
0 days 00:27:12.446000,18,0 days 00:01:24.733000,6.0,"","",0 days 00:00:27.735000,0 days 00:00:28.439000,0 days 00:00:28.559000,241.0,278.0,312.0,311.0,medium,6.0
0 days 00:36:48.748000,18,"",7.0,"",0 days 00:28:51.755000,0 days 00:00:34.636000,0 days 00:00:32.621000,"",201.0,256.0,"",310.0,medium,7.0
0 days 00:39:02.837000,18,0 days 00:02:14.089000,8.0,0 days 00:36:51.431000,"",0 days 00:00:52.097000,0 days 00:00:40.680000,0 days 00:00:41.312000,181.0,180.0,304.0,149.0,soft,1.0
0 days 00:40:26.542000,18,0 days 00:01:23.705000,9.0,"","",0 days 00:00:27.528000,0 days 00:00:28.176000,0 days 00:00:28.001000,243.0,282.0,315.0,312.0,soft,2.0
0 days 00:43:02.419000,18,"",10.0,"","",0 days 00:00:55.035000,0 days 00:00:48.104000,0 days 00:00:52.752000,117.0,147.0,191.0,302.0,soft,3.0
0 days 00:45:08.889000,18,0 days 00:02:06.470000,11.0,"","",0 days 00:00:44.233000,0 days 00:00:41.627000,0 days 00:00:40.610000,188.0,208.0,302.0,249.0,soft,4.0
0 days 00:46:33.419000,18,0 days 00:01:24.530000,12.0,"","",0 days 00:00:27.751000,0 days 00:00:28.473000,0 days 00:00:28.306000,242.0,278.0,309.0,311.0,soft,5.0
0 days 00:56:08.992000,18,"",13.0,"",0 days 00:48:08.543000,0 days 00:00:32.045000,0 days 00:00:32.976000,"",192.0,253.0,"",309.0,soft,6.0
0 days 00:58:06.775000,18,0 days 00:01:57.783000,14.0,0 days 00:56:24.223000,"",0 days 00:00:52.164000,0 days 00:00:33.395000,0 days 00:00:32.224000,204.0,251.0,283.0,211.0,soft,7.0
0 days 00:59:36.172000,18,0 days 00:01:29.397000,15.0,"","",0 days 00:00:29.347000,0 days 00:00:29.811000,0 days 00:00:30.239000,231.0,273.0,284.0,288.0,soft,8.0
0 days 01:01:06.723000,18,0 days 00:01:30.551000,16.0,"","",0 days 00:00:29.823000,0 days 00:00:30.030000,0 days 00:00:30.698000,230.0,272.0,285.0,"",soft,9.0
0 days 01:02:37.225000,18,0 days 00:01:30.502000,17.0,"","",0 days 00:00:29.777000,0 days 00:00:30.195000,0 days 00:00:30.530000,229.0,272.0,286.0,289.0,soft,10.0
0 days 01:04:08.038000,18,0 days 00:01:30.813000,18.0,"","",0 days 00:00:29.688000,0 days 00:00:30.364000,0 days 00:00:30.761000,"",273.0,286.0,290.0,soft,11.0
0 days 01:05:38.623000,18,0 days 00:01:30.585000,19.0,"","",0 days 00:00:29.842000,0 days 00:00:30.295000,0 days 00:00:30.448000,228.0,272.0,289.0,"",soft,12.0
0 days 01:07:08.510000,18,0 days 00:01:29.887000,20.0,"","",0 days 00:00:29.687000,0 days 00:00:30.128000,0 days 00:00:30.072000,231.0,272.0,289.0,293.0,soft,13.0
0 days 01:09:08.474000,18,0 days 00:01:59.964000,21.0,"",0 days 01:08:38.265000,0 days 00:00:31.322000,0 days 00:00:30.710000,0 days 00:00:57.932000,218.0,275.0,"",289.0,soft,14.0
0 days 01:10:45.622000,18,0 days 00:01:37.148000,22.0,0 days 01:09:11.172000,"",0 days 00:00:36.611000,0 days 00:00:30.314000,0 days 00:00:30.223000,226.0,274.0,305.0,211.0,medium,8.0
0 days 01:12:14.484000,18,0 days 00:01:28.862000,23.0,"","",0 days 00:00:29.109000,0 days 00:00:29.764000,0 days 00:00:29.989000,229.0,271.0,305.0,304.0,medium,9.0
0 days 01:13:44.202000,18,0 days 00:01:29.718000,24.0,"","",0 days 00:00:29.310000,0 days 00:00:30.046000,0 days 00:00:30.362000,231.0,274.0,289.0,301.0,medium,10.0
0 days 01:15:13.112000,18,0 days 00:01:28.910000,25.0,"","",0 days 00:00:29.148000,0 days 00:00:29.858000,0 days 00:00:29.904000,230.0,273.0,290.0,294.0,medium,11.0
0 days 01:17:01.029000,18,"",26.0,"",0 days 01:17:01.029000,0 days 00:00:34.357000,0 days 00:00:43.952000,"",141.0,254.0,"",290.0,medium,12.0
0 days 00:18:00.897000,16,0 days 00:02:16.065000,1.0,0 days 00:15:47.537000,"",0 days 00:00:43.394000,0 days 00:00:35.149000,0 days 00:00:57.522000,207.0,246.0,301.0,185.0,hard,1.0
0 days 00:19:26.747000,16,0 days 00:01:25.850000,2.0,"","",0 days 00:00:28.371000,0 days 00:00:28.869000,0 days 00:00:28.610000,239.0,276.0,311.0,313.0,hard,2.0
0 days 00:21:51.626000,16,0 days 00:02:24.879000,3.0,"","",0 days 00:00:44.674000,0 days 00:00:49.603000,0 days 00:00:50.602000,128.0,210.0,302.0,"",hard,3.0
0 days 00:23:16.906000,16,0 days 00:01:25.280000,4.0,"","",0 days 00:00:28.128000,0 days 00:00:28.735000,0 days 00:00:28.417000,239.0,277.0,298.0,310.0,hard,4.0
0 days 00:25:39.358000,16,0 days 00:02:22.452000,5.0,"","",0 days 00:00:50.408000,0 days 00:00:46.576000,0 days 00:00:45.468000,112.0,222.0,302.0,304.0,hard,5.0
0 days 00:27:04.272000,16,0 days 00:01:24.914000,6.0,"","",0 days 00:00:27.790000,0 days 00:00:28.764000,0 days 00:00:28.360000,242.0,276.0,298.0,309.0,hard,6.0
0 days 00:29:10.424000,16,0 days 00:02:06.152000,7.0,"",0 days 00:28:47.032000,0 days 00:00:40.601000,0 days 00:00:32.825000,0 days 00:00:52.726000,199.0,249.0,"",303.0,hard,7.0
0 days 00:40:56.620000,16,"",8.0,0 days 00:29:14.725000,0 days 00:31:12.712000,0 days 00:00:57.273000,0 days 00:00:34.557000,"",219.0,246.0,"",201.0,hard,8.0
0 days 00:43:00.637000,16,0 days 00:02:04.017000,9.0,0 days 00:40:59.300000,"",0 days 00:00:48.088000,0 days 00:00:38.849000,0 days 00:00:37.080000,190.0,239.0,303.0,157.0,soft,1.0
0 days 00:44:24.732000,16,0 days 00:01:24.095000,10.0,"","",0 days 00:00:27.466000,0 days 00:00:28.356000,0 days 00:00:28.273000,244.0,279.0,299.0,308.0,soft,2.0
0 days 00:46:51.296000,16,0 days 00:02:26.564000,11.0,"","",0 days 00:00:46.703000,0 days 00:00:51.698000,0 days 00:00:48.163000,124.0,154.0,234.0,303.0,soft,3.0
0 days 00:49:13.170000,16,0 days 00:02:21.874000,12.0,"","","","",0 days 00:00:45.956000,"",174.0,301.0,239.0,soft,4.0
0 days 00:50:39.716000,16,0 days 00:01:26.546000,13.0,"","",0 days 00:00:27.429000,0 days 00:00:28.547000,0 days 00:00:30.570000,244.0,277.0,255.0,308.0,soft,5.0
0 days 00:53:06.126000,16,0 days 00:02:26.410000,14.0,"","",0 days 00:00:47.591000,0 days 00:00:54.920000,0 days 00:00:43.899000,107.0,138.0,285.0,237.0,soft,6.0
0 days 01:03:04.566000,16,"",15.0,"",0 days 00:54:31.886000,0 days 00:00:30.147000,0 days 00:00:28.234000,"",243.0,277.0,"",287.0,soft,7.0
0 days 01:05:34.195000,16,0 days 00:02:29.629000,16.0,0 days 01:03:34.312000,0 days 01:05:16.784000,0 days 00:01:05.909000,0 days 00:00:33.608000,0 days 00:00:50.112000,228.0,232.0,"",203.0,soft,8.0
0 days 01:07:46.850000,16,0 days 00:02:12.655000,17.0,0 days 01:05:38.972000,"",0 days 00:00:55.564000,0 days 00:00:35.946000,0 days 00:00:41.145000,210.0,"",287.0,208.0,soft,9.0
0 days 01:09:16.304000,16,0 days 00:01:29.454000,18.0,"","",0 days 00:00:29.664000,0 days 00:00:30.056000,0 days 00:00:29.734000,231.0,272.0,291.0,292.0,soft,10.0
0 days 01:10:46.321000,16,0 days 00:01:30.017000,19.0,"","",0 days 00:00:29.426000,0 days 00:00:30.739000,0 days 00:00:29.852000,232.0,273.0,311.0,296.0,soft,11.0
0 days 01:12:15.598000,16,0 days 00:01:29.277000,20.0,"","",0 days 00:00:29.371000,0 days 00:00:30.191000,0 days 00:00:29.715000,231.0,276.0,297.0,322.0,soft,12.0
0 days 01:13:45.636000,16,0 days 00:01:30.038000,21.0,"","",0 days 00:00:29.401000,0 days 00:00:30.646000,0 days 00:00:29.991000,228.0,275.0,292.0,301.0,soft,13.0
0 days 01:15:14.890000,16,0 days 00:01:29.254000,22.0,"","",0 days 00:00:29.373000,0 days 00:00:30.217000,0 days 00:00:29.664000,231.0,275.0,291.0,298.0,soft,14.0
0 days 01:16:49.555000,16,"",23.0,"",0 days 01:16:49.555000,0 days 00:00:32.124000,0 days 00:00:32.421000,"",215.0,272.0,"",297.0,soft,15.0
0 days 00:18:46.593000,14,0 days 00:02:09.009000,1.0,0 days 00:16:44.051000,"",0 days 00:00:53.578000,0 days 00:00:34.930000,0 days 00:00:40.501000,199.0,255.0,307.0,191.0,medium,1.0
0 days 00:20:11.316000,14,0 days 00:01:24.723000,2.0,"","",0 days 00:00:27.721000,0 days 00:00:28.394000,0 days 00:00:28.608000,242.0,279.0,306.0,316.0,medium,2.0
0 days 00:22:18.353000,14,0 days 00:02:07.037000,3.0,"","",0 days 00:00:39.322000,0 days 00:00:43.574000,0 days 00:00:44.141000,172.0,190.0,317.0,277.0,medium,3.0
0 days 00:23:43.310000,14,0 days 00:01:24.957000,4.0,"","",0 days 00:00:27.820000,0 days 00:00:28.546000,0 days 00:00:28.591000,243.0,276.0,307.0,323.0,medium,4.0
0 days 00:37:59.425000,14,"",5.0,"",0 days 00:25:35.574000,0 days 00:00:40.425000,0 days 00:00:35.741000,"",181.0,240.0,"",214.0,medium,5.0
0 days 00:40:10.822000,14,0 days 00:02:11.397000,6.0,0 days 00:38:02.111000,"",0 days 00:00:43.848000,0 days 00:00:39.609000,0 days 00:00:47.940000,175.0,176.0,305.0,184.0,soft,1.0
0 days 00:41:34.878000,14,0 days 00:01:24.056000,7.0,"","",0 days 00:00:27.397000,0 days 00:00:28.197000,0 days 00:00:28.462000,247.0,277.0,305.0,313.0,soft,2.0
0 days 00:44:06.223000,14,"",8.0,"","",0 days 00:00:47.889000,0 days 00:00:50.856000,0 days 00:00:52.624000,114.0,127.0,304.0,252.0,soft,3.0
0 days 00:45:30.658000,14,0 days 00:01:24.435000,9.0,"","",0 days 00:00:27.568000,0 days 00:00:28.463000,0 days 00:00:28.404000,246.0,276.0,294.0,311.0,soft,4.0
0 days 00:53:49.890000,14,"",10.0,"",0 days 00:47:04.847000,0 days 00:00:29.328000,0 days 00:00:30.096000,"",227.0,251.0,"",292.0,soft,5.0
0 days 00:55:43.036000,14,0 days 00:01:53.146000,11.0,0 days 00:54:08.580000,"",0 days 00:00:51.712000,0 days 00:00:30.946000,0 days 00:00:30.488000,233.0,272.0,276.0,211.0,medium,6.0
0 days 00:57:12.330000,14,0 days 00:01:29.294000,12.0,"","",0 days 00:00:29.483000,0 days 00:00:29.934000,0 days 00:00:29.877000,230.0,273.0,291.0,285.0,medium,7.0
0 days 00:58:41.705000,14,0 days 00:01:29.375000,13.0,"","",0 days 00:00:29.310000,0 days 00:00:30.254000,0 days 00:00:29.811000,229.0,277.0,309.0,293.0,medium,8.0
0 days 01:00:16.485000,14,0 days 00:01:34.780000,14.0,"","",0 days 00:00:29.816000,0 days 00:00:30.714000,0 days 00:00:34.250000,228.0,275.0,288.0,316.0,medium,9.0
0 days 01:01:45.642000,14,0 days 00:01:29.157000,15.0,"","",0 days 00:00:29.253000,0 days 00:00:30.091000,0 days 00:00:29.813000,233.0,274.0,291.0,291.0,medium,10.0
0 days 01:03:15.086000,14,0 days 00:01:29.444000,16.0,"","",0 days 00:00:29.231000,0 days 00:00:30.190000,0 days 00:00:30.023000,230.0,275.0,291.0,288.0,medium,11.0
0 days 01:04:44.150000,14,0 days 00:01:29.064000,17.0,"","",0 days 00:00:29.262000,0 days 00:00:30.113000,0 days 00:00:29.689000,229.0,273.0,292.0,290.0,medium,12.0
0 days 01:06:12.843000,14,0 days 00:01:28.693000,18.0,"","",0 days 00:00:29.060000,0 days 00:00:30.125000,0 days 00:00:29.508000,230.0,275.0,294.0,293.0,medium,13.0
0 days 01:07:42.504000,14,0 days 00:01:29.661000,19.0,"","",0 days 00:00:29.077000,0 days 00:00:30.446000,0 days 00:00:30.138000,231.0,276.0,298.0,296.0,medium,14.0
0 days 01:09:12.793000,14,0 days 00:01:30.289000,20.0,"","",0 days 00:00:29.849000,0 days 00:00:30.685000,0 days 00:00:29.755000,229.0,277.0,314.0,300.0,medium,15.0
0 days 01:10:55.805000,14,0 days 00:01:43.012000,21.0,"","",0 days 00:00:29.591000,0 days 00:00:35.642000,0 days 00:00:37.779000,228.0,42.0,291.0,319.0,medium,16.0
0 days 01:12:25.293000,14,0 days 00:01:29.488000,22.0,"","",0 days 00:00:29.319000,0 days 00:00:30.289000,0 days 00:00:29.880000,233.0,275.0,292.0,293.0,medium,17.0
0 days 01:13:54.333000,14,0 days 00:01:29.040000,23.0,"","",0 days 00:00:29.238000,0 days 00:00:30.196000,0 days 00:00:29.606000,230.0,274.0,292.0,288.0,medium,18.0
0 days 01:15:22.992000,14,0 days 00:01:28.659000,24.0,"","",0 days 00:00:29.025000,0 days 00:00:30.079000,0 days 00:00:29.555000,"",273.0,290.0,291.0,medium,19.0
0 days 01:17:00.679000,14,"",25.0,"",0 days 01:17:00.679000,0 days 00:00:30.215000,0 days 00:00:30.558000,"",232.0,256.0,"",290.0,medium,20.0
0 days 00:19:03.640000,11,0 days 00:02:06.445000,1.0,0 days 00:17:02.079000,"",0 days 00:00:47.780000,0 days 00:00:42.865000,0 days 00:00:35.800000,183.0,210.0,300.0,181.0,medium,1.0
0 days 00:20:29.391000,11,0 days 00:01:25.751000,2.0,"","",0 days 00:00:28.520000,0 days 00:00:28.501000,0 days 00:00:28.730000,235.0,278.0,307.0,308.0,medium,2.0
0 days 00:22:39.945000,11,0 days 00:02:10.554000,3.0,"",0 days 00:22:14.527000,0 days 00:00:35.262000,0 days 00:00:33.253000,0 days 00:01:02.039000,202.0,241.0,"","",medium,3.0
0 days 00:24:36.018000,11,0 days 00:01:56.073000,4.0,0 days 00:22:42.691000,"",0 days 00:00:43.436000,0 days 00:00:34.723000,0 days 00:00:37.914000,199.0,254.0,301.0,194.0,medium,4.0
0 days 00:26:00.356000,11,0 days 00:01:24.338000,5.0,"","",0 days 00:00:27.767000,0 days 00:00:28.160000,0 days 00:00:28.411000,241.0,278.0,305.0,308.0,medium,5.0
0 days 00:28:14.081000,11,0 days 00:02:13.725000,6.0,"","",0 days 00:00:42.446000,0 days 00:00:43.388000,0 days 00:00:47.891000,146.0,226.0,302.0,277.0,medium,6.0
0 days 00:29:38.061000,11,0 days 00:01:23.980000,7.0,"","",0 days 00:00:27.527000,0 days 00:00:28.338000,0 days 00:00:28.115000,244.0,277.0,306.0,309.0,medium,7.0
0 days 00:44:51.620000,11,"",8.0,"",0 days 00:31:26.343000,0 days 00:00:36.681000,0 days 00:00:40.660000,"",198.0,271.0,"",307.0,medium,8.0
0 days 00:47:05.941000,11,0 days 00:02:14.321000,9.0,0 days 00:44:54.344000,"",0 days 00:00:48.776000,0 days 00:00:40.846000,0 days 00:00:44.699000,178.0,222.0,300.0,191.0,soft,1.0
0 days 00:49:04.581000,11,0 days 00:01:58.640000,10.0,"","",0 days 00:00:28.235000,0 days 00:00:46.848000,0 days 00:00:43.557000,165.0,125.0,301.0,308.0,soft,2.0
0 days 00:50:28.368000,11,0 days 00:01:23.787000,11.0,"","",0 days 00:00:27.583000,0 days 00:00:28.164000,0 days 00:00:28.040000,244.0,276.0,304.0,"",soft,3.0
0 days 01:03:48.814000,11,"",12.0,"",0 days 00:52:27.888000,0 days 00:00:41.183000,0 days 00:00:41.570000,"",155.0,182.0,"",301.0,soft,4.0
0 days 01:05:57.350000,11,0 days 00:02:08.536000,13.0,0 days 01:03:53.250000,0 days 01:05:39.824000,0 days 00:00:50.693000,0 days 00:00:30.234000,0 days 00:00:47.609000,223.0,272.0,"",202.0,soft,5.0
0 days 01:07:50.583000,11,0 days 00:01:53.233000,14.0,0 days 01:06:01.438000,"",0 days 00:00:49.571000,0 days 00:00:30.711000,0 days 00:00:32.951000,231.0,269.0,297.0,206.0,soft,6.0
0 days 01:09:19.403000,11,0 days 00:01:28.820000,15.0,"","",0 days 00:00:29.237000,0 days 00:00:29.912000,0 days 00:00:29.671000,233.0,273.0,291.0,308.0,soft,7.0
0 days 01:10:48.094000,11,0 days 00:01:28.691000,16.0,"","",0 days 00:00:29.109000,0 days 00:00:29.993000,0 days 00:00:29.589000,232.0,274.0,296.0,296.0,soft,8.0
0 days 01:12:19.548000,11,0 days 00:01:31.454000,17.0,"","",0 days 00:00:31.365000,0 days 00:00:30.128000,0 days 00:00:29.961000,227.0,275.0,292.0,303.0,soft,9.0
0 days 01:13:49.761000,11,0 days 00:01:30.213000,18.0,"","",0 days 00:00:29.551000,0 days 00:00:30.253000,0 days 00:00:30.409000,233.0,276.0,290.0,297.0,soft,10.0
0 days 01:15:18.837000,11,0 days 00:01:29.076000,19.0,"","",0 days 00:00:29.580000,0 days 00:00:29.944000,0 days 00:00:29.552000,234.0,278.0,293.0,"",soft,11.0
0 days 01:16:51.015000,11,"",20.0,"",0 days 01:16:51.015000,0 days 00:00:29.396000,0 days 00:00:31.866000,"",223.0,271.0,"","",soft,12.0
0 days 00:18:07.736000,10,0 days 00:02:15.248000,1.0,0 days 00:15:55.341000,"",0 days 00:00:44.713000,0 days 00:00:35.451000,0 days 00:00:55.084000,193.0,270.0,300.0,144.0,hard,1.0
0 days 00:19:34.738000,10,0 days 00:01:27.002000,2.0,"","",0 days 00:00:28.945000,0 days 00:00:29.165000,0 days 00:00:28.892000,236.0,280.0,306.0,309.0,hard,2.0
0 days 00:21:39.039000,10,0 days 00:02:04.301000,3.0,"","",0 days 00:00:41.389000,0 days 00:00:39.255000,0 days 00:00:43.657000,191.0,261.0,303.0,306.0,hard,3.0
0 days 00:23:04.403000,10,0 days 00:01:25.364000,4.0,"","",0 days 00:00:28.052000,0 days 00:00:28.666000,0 days 00:00:28.646000,242.0,280.0,306.0,311.0,hard,4.0
0 days 00:25:28.152000,10,0 days 00:02:23.749000,5.0,"","",0 days 00:00:50.742000,0 days 00:00:51.628000,0 days 00:00:41.379000,110.0,253.0,303.0,263.0,hard,5.0
0 days 00:26:53.516000,10,0 days 00:01:25.364000,6.0,"","",0 days 00:00:27.944000,0 days 00:00:28.880000,0 days 00:00:28.540000,242.0,279.0,305.0,311.0,hard,6.0
0 days 00:37:42.959000,10,"",7.0,"",0 days 00:28:41.632000,0 days 00:00:37.747000,0 days 00:00:30.787000,"",205.0,261.0,"",303.0,hard,7.0
0 days 00:39:43.642000,10,0 days 00:02:00.683000,8.0,0 days 00:37:45.723000,"",0 days 00:00:49.128000,0 days 00:00:36.787000,0 days 00:00:34.768000,165.0,265.0,299.0,144.0,soft,1.0
0 days 00:41:11.013000,10,0 days 00:01:27.371000,9.0,"","",0 days 00:00:27.525000,0 days 00:00:28.044000,0 days 00:00:31.802000,246.0,280.0,297.0,307.0,soft,2.0
0 days 00:43:56.196000,10,"",10.0,"","",0 days 00:00:55.702000,0 days 00:00:55.773000,0 days 00:00:53.685000,105.0,128.0,258.0,238.0,soft,3.0
0 days 00:46:03.203000,10,0 days 00:02:07.007000,11.0,"","",0 days 00:00:49.059000,0 days 00:00:42.387000,0 days 00:00:35.561000,112.0,254.0,303.0,274.0,soft,4.0
0 days 00:47:26.560000,10,0 days 00:01:23.357000,12.0,"","",0 days 00:00:27.341000,0 days 00:00:28.130000,0 days 00:00:27.886000,248.0,281.0,312.0,310.0,soft,5.0
0 days 00:55:17.066000,10,"",13.0,"",0 days 00:49:13.235000,0 days 00:00:39.544000,0 days 00:00:33.224000,"",205.0,257.0,"",313.0,soft,6.0
0 days 00:57:06.605000,10,0 days 00:01:49.539000,14.0,0 days 00:55:30.287000,"",0 days 00:00:47.982000,0 days 00:00:30.584000,0 days 00:00:30.973000,225.0,274.0,285.0,203.0,soft,7.0
0 days 00:58:35.721000,10,0 days 00:01:29.116000,15.0,"","",0 days 00:00:29.534000,0 days 00:00:29.670000,0 days 00:00:29.912000,235.0,276.0,287.0,288.0,soft,8.0
0 days 01:00:26.148000,10,0 days 00:01:50.427000,16.0,"",0 days 01:00:03.077000,0 days 00:00:29.314000,0 days 00:00:29.863000,0 days 00:00:51.250000,233.0,276.0,"",291.0,soft,9.0
0 days 01:02:05.465000,10,0 days 00:01:39.317000,17.0,0 days 01:00:28.870000,"",0 days 00:00:36.567000,0 days 00:00:30.932000,0 days 00:00:31.818000,225.0,274.0,287.0,216.0,hard,8.0
0 days 01:03:35.180000,10,0 days 00:01:29.715000,18.0,"","",0 days 00:00:29.512000,0 days 00:00:30.239000,0 days 00:00:29.964000,233.0,275.0,289.0,289.0,hard,9.0
0 days 01:05:05.509000,10,0 days 00:01:30.329000,19.0,"","",0 days 00:00:30.112000,0 days 00:00:30.363000,0 days 00:00:29.854000,230.0,281.0,312.0,293.0,hard,10.0
0 days 01:06:36.236000,10,0 days 00:01:30.727000,20.0,"","",0 days 00:00:30.029000,0 days 00:00:30.692000,0 days 00:00:30.006000,231.0,281.0,314.0,322.0,hard,11.0
0 days 01:08:10.406000,10,0 days 00:01:34.170000,21.0,"","",0 days 00:00:33.721000,0 days 00:00:30.375000,0 days 00:00:30.074000,225.0,274.0,289.0,325.0,hard,12.0
0 days 01:09:41.384000,10,0 days 00:01:30.978000,22.0,"","",0 days 00:00:30.418000,0 days 00:00:30.647000,0 days 00:00:29.913000,232.0,275.0,290.0,294.0,hard,13.0
0 days 01:11:10.700000,10,0 days 00:01:29.316000,23.0,"","",0 days 00:00:29.518000,0 days 00:00:30.124000,0 days 00:00:29.674000,234.0,276.0,290.0,"",hard,14.0
0 days 01:12:39.910000,10,0 days 00:01:29.210000,24.0,"","",0 days 00:00:29.336000,0 days 00:00:30.205000,0 days 00:00:29.669000,"",276.0,291.0,295.0,hard,15.0
0 days 01:14:09.404000,10,0 days 00:01:29.494000,25.0,"","",0 days 00:00:29.503000,0 days 00:00:30.289000,0 days 00:00:29.702000,233.0,278.0,308.0,296.0,hard,16.0
0 days 01:15:40.393000,10,0 days 00:01:30.989000,26.0,"","",0 days 00:00:30.223000,0 days 00:00:30.861000,0 days 00:00:29.905000,191.0,278.0,310.0,317.0,hard,17.0
0 days 01:17:21.358000,10,"",27.0,"",0 days 01:17:21.358000,0 days 00:00:30.747000,0 days 00:00:31.771000,"",206.0,258.0,"",320.0,hard,18.0
0 days 00:16:59.752000,7,0 days 00:01:57.770000,1.0,0 days 00:15:05.913000,"",0 days 00:00:46.843000,0 days 00:00:35.784000,0 days 00:00:35.143000,198.0,247.0,304.0,158.0,hard,1.0
0 days 00:18:41.473000,7,0 days 00:01:41.721000,2.0,"","",0 days 00:00:29.805000,0 days 00:00:36.005000,0 days 00:00:35.911000,139.0,245.0,310.0,313.0,hard,2.0
0 days 00:20:08.031000,7,0 days 00:01:26.558000,3.0,"","",0 days 00:00:28.331000,0 days 00:00:29.108000,0 days 00:00:29.119000,231.0,282.0,310.0,318.0,hard,3.0
0 days 00:22:06.226000,7,0 days 00:01:58.195000,4.0,"","",0 days 00:00:38.961000,0 days 00:00:39.167000,0 days 00:00:40.067000,173.0,126.0,313.0,270.0,hard,4.0
0 days 00:23:32.370000,7,0 days 00:01:26.144000,5.0,"","",0 days 00:00:28.081000,0 days 00:00:29.073000,0 days 00:00:28.990000,240.0,282.0,310.0,321.0,hard,5.0
0 days 00:25:32.896000,7,0 days 00:02:00.526000,6.0,"","",0 days 00:00:44.287000,0 days 00:00:38.138000,0 days 00:00:38.101000,168.0,141.0,311.0,272.0,hard,6.0
0 days 00:26:58.621000,7,0 days 00:01:25.725000,7.0,"","",0 days 00:00:28.112000,0 days 00:00:28.931000,0 days 00:00:28.682000,241.0,282.0,308.0,319.0,hard,7.0
0 days 00:28:54.101000,7,0 days 00:01:55.480000,8.0,"",0 days 00:28:32.467000,0 days 00:00:33.177000,0 days 00:00:32.038000,0 days 00:00:50.265000,215.0,253.0,"",285.0,hard,8.0
0 days 00:30:59.053000,7,0 days 00:02:04.952000,9.0,0 days 00:28:58.202000,"",0 days 00:00:55.924000,0 days 00:00:34.661000,0 days 00:00:34.367000,212.0,161.0,307.0,214.0,hard,9.0
0 days 00:32:24.372000,7,0 days 00:01:25.319000,10.0,"","",0 days 00:00:27.976000,0 days 00:00:28.904000,0 days 00:00:28.439000,241.0,282.0,304.0,314.0,hard,10.0
0 days 00:44:38.412000,7,"",11.0,"",0 days 00:33:57.646000,0 days 00:00:31.676000,0 days 00:00:31.885000,"",216.0,254.0,"",305.0,hard,11.0
0 days 00:46:30.873000,7,0 days 00:01:52.461000,12.0,0 days 00:44:41.439000,"",0 days 00:00:43.270000,0 days 00:00:36.451000,0 days 00:00:32.740000,203.0,249.0,311.0,176.0,soft,1.0
0 days 00:47:55.825000,7,0 days 00:01:24.952000,13.0,"","",0 days 00:00:27.729000,0 days 00:00:28.693000,0 days 00:00:28.530000,236.0,280.0,301.0,319.0,soft,2.0
0 days 00:50:08.475000,7,0 days 00:02:12.650000,14.0,"","",0 days 00:00:45.010000,0 days 00:00:42.287000,0 days 00:00:45.353000,148.0,105.0,235.0,242.0,soft,3.0
0 days 00:52:09.965000,7,0 days 00:02:01.490000,15.0,"","",0 days 00:00:42.570000,0 days 00:00:40.392000,0 days 00:00:38.528000,126.0,236.0,306.0,250.0,soft,4.0
0 days 00:53:34.596000,7,0 days 00:01:24.631000,16.0,"","",0 days 00:00:27.735000,0 days 00:00:28.533000,0 days 00:00:28.363000,240.0,280.0,304.0,313.0,soft,5.0
0 days 01:03:29.222000,7,"",17.0,"",0 days 00:55:12.057000,0 days 00:00:33.599000,0 days 00:00:31.913000,"",215.0,245.0,"",278.0,soft,6.0
0 days 01:05:04.873000,7,0 days 00:01:35.651000,18.0,0 days 01:03:34.016000,"",0 days 00:00:35.171000,0 days 00:00:30.370000,0 days 00:00:30.110000,223.0,275.0,294.0,213.0,hard,12.0
0 days 01:06:35.694000,7,0 days 00:01:30.821000,19.0,"","",0 days 00:00:30.182000,0 days 00:00:30.546000,0 days 00:00:30.093000,222.0,277.0,305.0,299.0,hard,13.0
0 days 01:08:05.553000,7,0 days 00:01:29.859000,20.0,"","",0 days 00:00:29.467000,0 days 00:00:30.339000,0 days 00:00:30.053000,228.0,275.0,296.0,314.0,hard,14.0
0 days 01:09:36.024000,7,0 days 00:01:30.471000,21.0,"","",0 days 00:00:29.980000,0 days 00:00:30.428000,0 days 00:00:30.063000,226.0,276.0,293.0,302.0,hard,15.0
0 days 01:11:05.940000,7,0 days 00:01:29.916000,22.0,"","",0 days 00:00:29.612000,0 days 00:00:30.413000,0 days 00:00:29.891000,230.0,276.0,292.0,298.0,hard,16.0
0 days 01:12:36.386000,7,0 days 00:01:30.446000,23.0,"","",0 days 00:00:29.797000,0 days 00:00:30.501000,0 days 00:00:30.148000,"",275.0,294.0,"",hard,17.0
0 days 01:14:08.403000,7,0 days 00:01:32.017000,24.0,"","",0 days 00:00:31.203000,0 days 00:00:30.830000,0 days 00:00:29.984000,224.0,276.0,292.0,300.0,hard,18.0
0 days 01:15:39.484000,7,0 days 00:01:31.081000,25.0,"","",0 days 00:00:30.244000,0 days 00:00:30.884000,0 days 00:00:29.953000,223.0,275.0,297.0,297.0,hard,19.0
0 days 01:17:14.303000,7,"",26.0,"",0 days 01:17:14.303000,0 days 00:00:31.240000,0 days 00:00:31.774000,"",218.0,282.0,"",302.0,hard,20.0
0 days 00:18:47.520000,6,0 days 00:02:13.291000,1.0,0 days 00:16:39.856000,"",0 days 00:00:58.388000,0 days 00:00:36.930000,0 days 00:00:37.973000,178.0,213.0,307.0,186.0,hard,1.0
0 days 00:20:27.544000,6,0 days 00:01:40.024000,2.0,"","",0 days 00:00:32.586000,0 days 00:00:33.382000,0 days 00:00:34.056000,207.0,256.0,303.0,316.0,hard,2.0
0 days 00:21:55.987000,6,0 days 00:01:28.443000,3.0,"","",0 days 00:00:28.840000,0 days 00:00:29.764000,0 days 00:00:29.839000,238.0,276.0,310.0,310.0,hard,3.0
0 days 00:23:44.469000,6,0 days 00:01:48.482000,4.0,"","",0 days 00:00:34.753000,0 days 00:00:39.962000,0 days 00:00:33.767000,125.0,246.0,313.0,"",hard,4.0
0 days 00:25:11.394000,6,0 days 00:01:26.925000,5.0,"","",0 days 00:00:28.578000,0 days 00:00:29.345000,0 days 00:00:29.002000,236.0,278.0,305.0,321.0,hard,5.0
0 days 00:34:05.604000,6,"",6.0,"",0 days 00:27:04.353000,0 days 00:00:34.272000,0 days 00:00:41.632000,"",220.0,196.0,"",307.0,hard,6.0
0 days 00:36:17.478000,6,0 days 00:02:11.874000,7.0,0 days 00:34:08.768000,"",0 days 00:00:42.484000,0 days 00:00:43.147000,0 days 00:00:46.243000,207.0,190.0,302.0,185.0,soft,1.0
0 days 00:37:42.687000,6,0 days 00:01:25.209000,8.0,"","",0 days 00:00:28.112000,0 days 00:00:28.530000,0 days 00:00:28.567000,241.0,281.0,301.0,308.0,soft,2.0
0 days 00:39:52.804000,6,0 days 00:02:10.117000,9.0,"","",0 days 00:00:45.657000,0 days 00:00:43.164000,0 days 00:00:41.296000,200.0,240.0,302.0,299.0,soft,3.0
0 days 00:41:18.289000,6,0 days 00:01:25.485000,10.0,"","",0 days 00:00:28.011000,0 days 00:00:28.698000,0 days 00:00:28.776000,241.0,278.0,301.0,310.0,soft,4.0
0 days 00:43:46.944000,6,0 days 00:02:28.655000,11.0,"","",0 days 00:00:43.023000,0 days 00:00:48.734000,0 days 00:00:56.898000,196.0,135.0,301.0,300.0,soft,5.0
0 days 00:45:12.175000,6,0 days 00:01:25.231000,12.0,"","",0 days 00:00:27.902000,0 days 00:00:28.783000,0 days 00:00:28.546000,239.0,277.0,304.0,308.0,soft,6.0
0 days 00:52:52.885000,6,"",13.0,"",0 days 00:47:00.098000,0 days 00:00:34.574000,0 days 00:00:36.820000,"",200.0,205.0,"",305.0,soft,7.0
0 days 00:55:18.288000,6,0 days 00:02:25.403000,14.0,0 days 00:52:58.055000,0 days 00:54:58.229000,0 days 00:00:50.380000,0 days 00:00:37.836000,0 days 00:00:57.187000,208.0,199.0,"",209.0,soft,8.0
0 days 00:56:56.108000,6,0 days 00:01:37.820000,15.0,0 days 00:55:21.043000,"",0 days 00:00:35.622000,0 days 00:00:31.405000,0 days 00:00:30.793000,229.0,271.0,282.0,217.0,hard,7.0
0 days 00:58:27.146000,6,0 days 00:01:31.038000,16.0,"","",0 days 00:00:30.228000,0 days 00:00:30.440000,0 days 00:00:30.370000,"",268.0,284.0,287.0,hard,8.0
0 days 00:59:57.960000,6,0 days 00:01:30.814000,17.0,"","",0 days 00:00:29.960000,0 days 00:00:30.606000,0 days 00:00:30.248000,222.0,274.0,285.0,288.0,hard,9.0
0 days 01:01:28.449000,6,0 days 00:01:30.489000,18.0,"","",0 days 00:00:29.679000,0 days 00:00:30.490000,0 days 00:00:30.320000,226.0,273.0,284.0,289.0,hard,10.0
0 days 01:03:00.721000,6,0 days 00:01:32.272000,19.0,"","",0 days 00:00:30.963000,0 days 00:00:30.915000,0 days 00:00:30.394000,"",274.0,289.0,"",hard,11.0
0 days 01:04:31.335000,6,0 days 00:01:30.614000,20.0,"","",0 days 00:00:29.832000,0 days 00:00:30.525000,0 days 00:00:30.257000,228.0,271.0,289.0,293.0,hard,12.0
0 days 01:06:01.354000,6,0 days 00:01:30.019000,21.0,"","",0 days 00:00:29.604000,0 days 00:00:30.377000,0 days 00:00:30.038000,230.0,273.0,288.0,292.0,hard,13.0
0 days 01:07:32.631000,6,0 days 00:01:31.277000,22.0,"","",0 days 00:00:29.734000,0 days 00:00:30.563000,0 days 00:00:30.980000,224.0,272.0,287.0,"",hard,14.0
0 days 01:09:02.973000,6,0 days 00:01:30.342000,23.0,"","",0 days 00:00:29.739000,0 days 00:00:30.401000,0 days 00:00:30.202000,230.0,272.0,287.0,291.0,hard,15.0
0 days 01:10:33.035000,6,0 days 00:01:30.062000,24.0,"","",0 days 00:00:29.654000,0 days 00:00:30.416000,0 days 00:00:29.992000,227.0,271.0,287.0,"",hard,16.0
0 days 01:12:02.883000,6,0 days 00:01:29.848000,25.0,"","",0 days 00:00:29.573000,0 days 00:00:30.318000,0 days 00:00:29.957000,230.0,273.0,287.0,"",hard,17.0
0 days 01:13:32.493000,6,0 days 00:01:29.610000,26.0,"","",0 days 00:00:29.439000,0 days 00:00:30.249000,0 days 00:00:29.922000,228.0,271.0,288.0,"",hard,18.0
0 days 01:15:02.425000,6,0 days 00:01:29.932000,27.0,"","",0 days 00:00:29.432000,0 days 00:00:30.475000,0 days 00:00:30.025000,230.0,272.0,289.0,292.0,hard,19.0
0 days 01:16:46.023000,6,"",28.0,"",0 days 01:16:46.023000,0 days 00:00:37.357000,0 days 00:00:34.958000,"",209.0,228.0,"","",hard,20.0
0 days 00:17:26.663000,5,0 days 00:01:50.955000,1.0,0 days 00:15:38.405000,"",0 days 00:00:41.964000,0 days 00:00:34.288000,0 days 00:00:34.703000,203.0,260.0,302.0,185.0,medium,1.0
0 days 00:18:53.517000,5,0 days 00:01:26.854000,2.0,"","",0 days 00:00:28.558000,0 days 00:00:29.071000,0 days 00:00:29.225000,240.0,278.0,308.0,311.0,medium,2.0
0 days 00:20:52.173000,5,0 days 00:01:58.656000,3.0,"","",0 days 00:00:37.995000,0 days 00:00:39.879000,0 days 00:00:40.782000,130.0,197.0,309.0,306.0,medium,3.0
0 days 00:22:17.948000,5,0 days 00:01:25.775000,4.0,"","",0 days 00:00:28.185000,0 days 00:00:28.683000,0 days 00:00:28.907000,242.0,278.0,309.0,315.0,medium,4.0
0 days 00:24:25.939000,5,0 days 00:02:07.991000,5.0,"","",0 days 00:00:41.663000,0 days 00:00:44.761000,0 days 00:00:41.567000,161.0,169.0,300.0,276.0,medium,5.0
0 days 00:25:51.165000,5,0 days 00:01:25.226000,6.0,"","",0 days 00:00:28.167000,0 days 00:00:28.549000,0 days 00:00:28.510000,240.0,278.0,305.0,308.0,medium,6.0
0 days 00:37:03.367000,5,"",7.0,"",0 days 00:27:39.412000,0 days 00:00:35.706000,0 days 00:00:38.066000,"",189.0,211.0,"",304.0,medium,7.0
0 days 00:39:14.082000,5,0 days 00:02:10.715000,8.0,0 days 00:37:06.068000,"",0 days 00:00:46.140000,0 days 00:00:41.640000,0 days 00:00:42.935000,154.0,165.0,304.0,181.0,soft,1.0
0 days 00:40:38.102000,5,0 days 00:01:24.020000,9.0,"","",0 days 00:00:27.635000,0 days 00:00:28.200000,0 days 00:00:28.185000,242.0,280.0,309.0,311.0,soft,2.0
0 days 00:42:57.828000,5,0 days 00:02:19.726000,10.0,"","",0 days 00:00:46.083000,0 days 00:00:44.667000,0 days 00:00:48.976000,127.0,160.0,188.0,304.0,soft,3.0
0 days 00:45:00.999000,5,0 days 00:02:03.171000,11.0,"","",0 days 00:00:45.107000,0 days 00:00:39.163000,0 days 00:00:38.901000,178.0,205.0,302.0,141.0,soft,4.0
0 days 00:46:25.690000,5,0 days 00:01:24.691000,12.0,"","",0 days 00:00:27.702000,0 days 00:00:28.495000,0 days 00:00:28.494000,241.0,275.0,296.0,308.0,soft,5.0
0 days 00:48:49.370000,5,0 days 00:02:23.680000,13.0,"","",0 days 00:00:46.278000,0 days 00:00:49.590000,0 days 00:00:47.812000,142.0,170.0,307.0,223.0,soft,6.0
0 days 00:50:48.161000,5,0 days 00:01:58.791000,14.0,"","",0 days 00:00:37.853000,0 days 00:00:43.033000,0 days 00:00:37.905000,178.0,206.0,303.0,316.0,soft,7.0
0 days 00:57:48.720000,5,"",15.0,"",0 days 00:52:18.531000,0 days 00:00:27.550000,0 days 00:00:33.130000,"",244.0,243.0,"",309.0,soft,8.0
0 days 00:59:47.084000,5,0 days 00:01:58.364000,16.0,0 days 00:57:53.390000,"",0 days 00:00:56.058000,0 days 00:00:31.257000,0 days 00:00:31.049000,207.0,271.0,283.0,209.0,soft,9.0
0 days 01:01:15.622000,5,0 days 00:01:28.538000,17.0,"","",0 days 00:00:29.252000,0 days 00:00:29.594000,0 days 00:00:29.692000,232.0,267.0,284.0,287.0,soft,10.0
0 days 01:02:44.605000,5,0 days 00:01:28.983000,18.0,"","",0 days 00:00:29.196000,0 days 00:00:29.935000,0 days 00:00:29.852000,231.0,273.0,287.0,288.0,soft,11.0
0 days 01:04:13.113000,5,0 days 00:01:28.508000,19.0,"","",0 days 00:00:29.035000,0 days 00:00:29.764000,0 days 00:00:29.709000,233.0,273.0,287.0,289.0,soft,12.0
0 days 01:06:02.854000,5,0 days 00:01:49.741000,20.0,"",0 days 01:05:40.069000,0 days 00:00:29.100000,0 days 00:00:29.932000,0 days 00:00:50.709000,"",273.0,"",291.0,soft,13.0
0 days 01:07:39.628000,5,0 days 00:01:36.774000,21.0,0 days 01:06:05.555000,"",0 days 00:00:34.732000,0 days 00:00:30.089000,0 days 00:00:31.953000,"",270.0,287.0,216.0,medium,8.0
0 days 01:09:09.095000,5,0 days 00:01:29.467000,22.0,"","",0 days 00:00:29.589000,0 days 00:00:29.870000,0 days 00:00:30.008000,231.0,270.0,290.0,287.0,medium,9.0
0 days 01:10:38.401000,5,0 days 00:01:29.306000,23.0,"","",0 days 00:00:29.337000,0 days 00:00:29.925000,0 days 00:00:30.044000,233.0,273.0,289.0,291.0,medium,10.0
0 days 01:12:07.512000,5,0 days 00:01:29.111000,24.0,"","",0 days 00:00:29.307000,0 days 00:00:29.812000,0 days 00:00:29.992000,"",278.0,293.0,294.0,medium,11.0
0 days 01:13:36.851000,5,0 days 00:01:29.339000,25.0,"","",0 days 00:00:29.863000,0 days 00:00:29.865000,0 days 00:00:29.611000,232.0,273.0,312.0,297.0,medium,12.0
0 days 01:15:06.202000,5,0 days 00:01:29.351000,26.0,"","",0 days 00:00:29.140000,0 days 00:00:30.308000,0 days 00:00:29.903000,231.0,273.0,311.0,324.0,medium,13.0
0 days 01:16:32.880000,5,"",27.0,"",0 days 01:16:32.880000,0 days 00:00:30.375000,0 days 00:00:29.647000,"",233.0,270.0,"",323.0,medium,14.0
0 days 00:18:19.641000,4,0 days 00:02:23.978000,1.0,0 days 00:16:01.774000,"",0 days 00:00:55.765000,0 days 00:00:34.600000,0 days 00:00:53.613000,202.0,182.0,300.0,208.0,hard,1.0
0 days 00:19:45.769000,4,0 days 00:01:26.128000,2.0,"","",0 days 00:00:28.587000,0 days 00:00:28.978000,0 days 00:00:28.563000,224.0,277.0,306.0,309.0,hard,2.0
0 days 00:22:03.028000,4,0 days 00:02:17.259000,3.0,"","",0 days 00:00:46.632000,0 days 00:00:42.016000,0 days 00:00:48.611000,185.0,190.0,304.0,274.0,hard,3.0
0 days 00:23:28.327000,4,0 days 00:01:25.299000,4.0,"","",0 days 00:00:27.956000,0 days 00:00:28.694000,0 days 00:00:28.649000,241.0,277.0,306.0,310.0,hard,4.0
0 days 00:25:53.727000,4,0 days 00:02:25.400000,5.0,"",0 days 00:25:30.892000,0 days 00:00:49.268000,0 days 00:00:38.160000,0 days 00:00:57.972000,192.0,222.0,"",161.0,hard,5.0
0 days 00:27:45.126000,4,0 days 00:01:51.399000,6.0,0 days 00:25:56.493000,"",0 days 00:00:40.900000,0 days 00:00:33.396000,0 days 00:00:37.103000,210.0,229.0,302.0,172.0,hard,6.0
0 days 00:29:10.379000,4,0 days 00:01:25.253000,7.0,"","",0 days 00:00:27.942000,0 days 00:00:28.771000,0 days 00:00:28.540000,244.0,277.0,305.0,306.0,hard,7.0
0 days 00:41:15.701000,4,"",8.0,"",0 days 00:30:41.397000,0 days 00:00:31.259000,0 days 00:00:30.247000,"",231.0,258.0,"",293.0,hard,8.0
0 days 00:43:11.096000,4,0 days 00:01:55.395000,9.0,0 days 00:41:18.444000,"",0 days 00:00:42.156000,0 days 00:00:36.909000,0 days 00:00:36.330000,170.0,231.0,307.0,170.0,soft,1.0
0 days 00:44:34.728000,4,0 days 00:01:23.632000,10.0,"","",0 days 00:00:27.387000,0 days 00:00:28.154000,0 days 00:00:28.091000,245.0,280.0,304.0,312.0,soft,2.0
0 days 00:46:51.238000,4,0 days 00:02:16.510000,11.0,"","",0 days 00:00:43.034000,0 days 00:00:49.392000,0 days 00:00:44.084000,135.0,187.0,279.0,289.0,soft,3.0
0 days 00:48:55.413000,4,0 days 00:02:04.175000,12.0,"","",0 days 00:00:43.507000,0 days 00:00:41.648000,0 days 00:00:39.020000,"",249.0,303.0,"",soft,4.0
0 days 00:50:19.975000,4,0 days 00:01:24.562000,13.0,"","",0 days 00:00:27.684000,0 days 00:00:28.473000,0 days 00:00:28.405000,238.0,276.0,302.0,309.0,soft,5.0
0 days 01:00:50.907000,4,"",14.0,"",0 days 00:51:58.199000,0 days 00:00:35.078000,0 days 00:00:31.772000,"",204.0,256.0,"",241.0,soft,6.0
0 days 01:03:00.536000,4,0 days 00:02:09.629000,15.0,0 days 01:00:55.983000,0 days 01:02:42.523000,0 days 00:00:51.284000,0 days 00:00:30.277000,0 days 00:00:48.068000,227.0,266.0,"",211.0,soft,7.0
0 days 01:04:52.721000,4,0 days 00:01:52.185000,16.0,0 days 01:03:05.375000,"",0 days 00:00:51.735000,0 days 00:00:30.062000,0 days 00:00:30.388000,232.0,271.0,286.0,210.0,soft,8.0
0 days 01:06:22.305000,4,0 days 00:01:29.584000,17.0,"","",0 days 00:00:29.614000,0 days 00:00:29.912000,0 days 00:00:30.058000,230.0,273.0,286.0,289.0,soft,9.0
0 days 01:07:51.269000,4,0 days 00:01:28.964000,18.0,"","",0 days 00:00:29.230000,0 days 00:00:29.955000,0 days 00:00:29.779000,231.0,273.0,312.0,291.0,soft,10.0
0 days 01:09:21.064000,4,0 days 00:01:29.795000,19.0,"","",0 days 00:00:29.698000,0 days 00:00:30.339000,0 days 00:00:29.758000,233.0,275.0,294.0,324.0,soft,11.0
0 days 01:10:51.108000,4,0 days 00:01:30.044000,20.0,"","",0 days 00:00:30.135000,0 days 00:00:30.180000,0 days 00:00:29.729000,232.0,273.0,293.0,299.0,soft,12.0
0 days 01:12:20.990000,4,0 days 00:01:29.882000,21.0,"","",0 days 00:00:29.618000,0 days 00:00:30.452000,0 days 00:00:29.812000,233.0,275.0,295.0,298.0,soft,13.0
0 days 01:14:12.376000,4,0 days 00:01:51.386000,22.0,"",0 days 01:13:48.480000,0 days 00:00:29.465000,0 days 00:00:30.352000,0 days 00:00:51.569000,231.0,272.0,"",299.0,soft,14.0
0 days 01:15:47.105000,4,0 days 00:01:34.729000,23.0,0 days 01:14:15.785000,"",0 days 00:00:34.795000,0 days 00:00:30.290000,0 days 00:00:29.644000,231.0,273.0,289.0,216.0,hard,9.0
0 days 01:17:19.971000,4,"",24.0,"",0 days 01:17:19.971000,0 days 00:00:29.716000,0 days 00:00:30.220000,"",232.0,270.0,"",294.0,hard,10.0
0 days 00:17:30.558000,77,0 days 00:02:23.488000,1.0,0 days 00:15:11.952000,"",0 days 00:01:00.433000,0 days 00:00:39.056000,0 days 00:00:43.999000,179.0,248.0,302.0,212.0,medium,1.0
0 days 00:19:16.138000,77,0 days 00:01:45.580000,2.0,"","",0 days 00:00:27.919000,0 days 00:00:37.461000,0 days 00:00:40.200000,242.0,173.0,270.0,311.0,medium,2.0
0 days 00:21:18.725000,77,0 days 00:02:02.587000,3.0,"","",0 days 00:00:39.471000,0 days 00:00:38.001000,0 days 00:00:45.115000,217.0,134.0,304.0,275.0,medium,3.0
0 days 00:22:43.146000,77,0 days 00:01:24.421000,4.0,"","",0 days 00:00:27.616000,0 days 00:00:28.279000,0 days 00:00:28.526000,240.0,277.0,307.0,311.0,medium,4.0
0 days 00:25:12.388000,77,0 days 00:02:29.242000,5.0,"",0 days 00:24:53.940000,0 days 00:00:41.425000,0 days 00:00:45.849000,0 days 00:01:01.968000,155.0,225.0,"",310.0,medium,5.0
0 days 00:27:51.156000,77,"",6.0,0 days 00:25:17.522000,"",0 days 00:01:23.734000,0 days 00:00:36.637000,0 days 00:00:38.383000,180.0,248.0,307.0,211.0,medium,6.0
0 days 00:29:14.480000,77,0 days 00:01:23.324000,7.0,"","",0 days 00:00:27.276000,0 days 00:00:28.024000,0 days 00:00:28.024000,247.0,281.0,311.0,312.0,medium,7.0
0 days 00:37:45.720000,77,"",8.0,"",0 days 00:30:51.906000,0 days 00:00:34.100000,0 days 00:00:31.761000,"",217.0,258.0,"",304.0,medium,8.0
0 days 00:39:57.791000,77,0 days 00:02:12.071000,9.0,0 days 00:37:48.448000,"",0 days 00:00:48.623000,0 days 00:00:38.210000,0 days 00:00:45.238000,161.0,196.0,302.0,136.0,soft,1.0
0 days 00:41:20.945000,77,0 days 00:01:23.154000,10.0,"","",0 days 00:00:27.226000,0 days 00:00:27.884000,0 days 00:00:28.044000,246.0,277.0,307.0,309.0,soft,2.0
0 days 00:44:06.513000,77,"",11.0,"",0 days 00:43:46.545000,0 days 00:00:46.442000,0 days 00:00:55.130000,0 days 00:01:03.977000,107.0,186.0,"",304.0,soft,3.0
0 days 00:46:26.680000,77,0 days 00:02:20.167000,12.0,0 days 00:44:10.524000,"",0 days 00:01:05.075000,0 days 00:00:39.723000,0 days 00:00:35.369000,154.0,216.0,309.0,211.0,soft,4.0
0 days 00:47:49.828000,77,0 days 00:01:23.148000,13.0,"","",0 days 00:00:27.127000,0 days 00:00:27.972000,0 days 00:00:28.049000,244.0,277.0,302.0,314.0,soft,5.0
0 days 00:54:45.947000,77,"",14.0,"",0 days 00:49:30.699000,0 days 00:00:32.245000,0 days 00:00:32.815000,"",190.0,231.0,"",299.0,soft,6.0
0 days 00:57:14.390000,77,"",15.0,0 days 00:54:45.947000,0 days 00:56:54.281000,0 days 00:01:02.167000,0 days 00:00:31.456000,0 days 00:00:58.912000,222.0,217.0,"",209.0,soft,7.0
0 days 00:59:25.438000,77,0 days 00:02:11.048000,16.0,0 days 00:57:19.280000,0 days 00:59:03.490000,0 days 00:00:49.765000,0 days 00:00:29.562000,0 days 00:00:51.721000,235.0,274.0,"",209.0,soft,8.0
0 days 01:00:57.923000,77,0 days 00:01:32.485000,17.0,0 days 00:59:28.805000,"",0 days 00:00:33.401000,0 days 00:00:29.356000,0 days 00:00:29.728000,237.0,270.0,285.0,216.0,medium,9.0
0 days 01:02:26.488000,77,0 days 00:01:28.565000,18.0,"","",0 days 00:00:28.909000,0 days 00:00:29.987000,0 days 00:00:29.669000,236.0,271.0,287.0,291.0,medium,10.0
0 days 01:03:54.726000,77,0 days 00:01:28.238000,19.0,"","",0 days 00:00:29.135000,0 days 00:00:29.466000,0 days 00:00:29.637000,"",274.0,288.0,293.0,medium,11.0
0 days 01:05:22.931000,77,0 days 00:01:28.205000,20.0,"","",0 days 00:00:28.947000,0 days 00:00:29.658000,0 days 00:00:29.600000,235.0,273.0,289.0,294.0,medium,12.0
0 days 01:06:51.058000,77,0 days 00:01:28.127000,21.0,"","",0 days 00:00:28.933000,0 days 00:00:29.550000,0 days 00:00:29.644000,236.0,274.0,288.0,295.0,medium,13.0
0 days 01:08:19.361000,77,0 days 00:01:28.303000,22.0,"","",0 days 00:00:29.095000,0 days 00:00:29.605000,0 days 00:00:29.603000,233.0,274.0,290.0,"",medium,14.0
0 days 01:09:47.561000,77,0 days 00:01:28.200000,23.0,"","",0 days 00:00:28.975000,0 days 00:00:29.734000,0 days 00:00:29.491000,237.0,273.0,291.0,296.0,medium,15.0
0 days 01:11:20.541000,77,0 days 00:01:32.980000,24.0,"","",0 days 00:00:29.109000,0 days 00:00:30.142000,0 days 00:00:33.729000,235.0,268.0,290.0,297.0,medium,16.0
0 days 01:12:48.226000,77,0 days 00:01:27.685000,25.0,"","",0 days 00:00:28.783000,0 days 00:00:29.465000,0 days 00:00:29.437000,"",273.0,289.0,295.0,medium,17.0
0 days 01:14:15.888000,77,0 days 00:01:27.662000,26.0,"","",0 days 00:00:28.791000,0 days 00:00:29.495000,0 days 00:00:29.376000,238.0,274.0,291.0,"",medium,18.0
0 days 01:15:51.376000,77,"",27.0,"",0 days 01:15:51.376000,0 days 00:00:28.776000,0 days 00:00:32.445000,"",235.0,171.0,"",298.0,medium,19.0
0 days 00:17:20.869000,99,0 days 00:02:05.552000,1.0,0 days 00:15:18.037000,"",0 days 00:00:46.571000,0 days 00:00:39.277000,0 days 00:00:39.704000,180.0,146.0,304.0,197.0,medium,1.0
0 days 00:18:47.561000,99,0 days 00:01:26.692000,2.0,"","",0 days 00:00:28.800000,0 days 00:00:28.996000,0 days 00:00:28.896000,242.0,283.0,327.0,313.0,medium,2.0
0 days 00:21:00.273000,99,0 days 00:02:12.712000,3.0,"","",0 days 00:00:48.126000,0 days 00:00:43.451000,0 days 00:00:41.135000,162.0,142.0,311.0,251.0,medium,3.0
0 days 00:22:25.707000,99,0 days 00:01:25.434000,4.0,"","",0 days 00:00:28.097000,0 days 00:00:28.742000,0 days 00:00:28.595000,242.0,284.0,318.0,318.0,medium,4.0
0 days 00:24:44.093000,99,0 days 00:02:18.386000,5.0,"","",0 days 00:00:48.227000,0 days 00:00:47.211000,0 days 00:00:42.948000,151.0,138.0,309.0,303.0,medium,5.0
0 days 00:26:09.435000,99,0 days 00:01:25.342000,6.0,"","",0 days 00:00:28.054000,0 days 00:00:28.771000,0 days 00:00:28.517000,241.0,283.0,313.0,316.0,medium,6.0
0 days 00:28:27.484000,99,0 days 00:02:18.049000,7.0,"","",0 days 00:00:45.765000,0 days 00:00:49.731000,0 days 00:00:42.553000,121.0,135.0,309.0,"",medium,7.0
0 days 00:29:52.925000,99,0 days 00:01:25.441000,8.0,"","",0 days 00:00:28.118000,0 days 00:00:28.750000,0 days 00:00:28.573000,241.0,283.0,310.0,315.0,medium,8.0
0 days 00:31:56.561000,99,0 days 00:02:03.636000,9.0,"",0 days 00:31:36.874000,0 days 00:00:34.586000,0 days 00:00:37.162000,0 days 00:00:51.888000,174.0,248.0,"",310.0,medium,9.0
0 days 00:44:49.962000,99,"",10.0,0 days 00:32:17.141000,0 days 00:34:07.210000,0 days 00:01:03.328000,0 days 00:00:33.853000,"",191.0,252.0,"",210.0,medium,10.0
0 days 00:47:11.737000,99,0 days 00:02:21.775000,11.0,0 days 00:44:53.210000,"",0 days 00:00:52.918000,0 days 00:00:43.704000,0 days 00:00:45.153000,148.0,112.0,310.0,192.0,soft,1.0
0 days 00:48:36.809000,99,0 days 00:01:25.072000,12.0,"","",0 days 00:00:27.792000,0 days 00:00:28.817000,0 days 00:00:28.463000,240.0,281.0,307.0,317.0,soft,2.0
0 days 00:51:12.163000,99,"",13.0,"","",0 days 00:00:53.898000,0 days 00:00:50.015000,0 days 00:00:51.469000,122.0,124.0,264.0,308.0,soft,3.0
0 days 00:53:23.456000,99,0 days 00:02:11.293000,14.0,"","",0 days 00:00:46.111000,0 days 00:00:43.291000,0 days 00:00:41.891000,158.0,156.0,306.0,177.0,soft,4.0
0 days 00:55:13.167000,99,0 days 00:01:49.711000,15.0,"","",0 days 00:00:27.837000,0 days 00:00:40.394000,0 days 00:00:41.480000,244.0,137.0,307.0,314.0,soft,5.0
0 days 01:05:40.459000,99,"",16.0,"",0 days 00:56:47.556000,0 days 00:00:28.274000,0 days 00:00:31.808000,"",245.0,241.0,"",315.0,soft,6.0
0 days 01:07:36.910000,99,0 days 00:01:56.451000,17.0,0 days 01:05:43.150000,"",0 days 00:00:41.578000,0 days 00:00:36.931000,0 days 00:00:37.942000,199.0,251.0,289.0,204.0,medium,11.0
0 days 01:09:06.974000,99,0 days 00:01:30.064000,18.0,"","",0 days 00:00:29.769000,0 days 00:00:30.091000,0 days 00:00:30.204000,231.0,277.0,292.0,294.0,medium,12.0
0 days 01:10:36.699000,99,0 days 00:01:29.725000,19.0,"","",0 days 00:00:29.630000,0 days 00:00:30.098000,0 days 00:00:29.997000,230.0,277.0,292.0,297.0,medium,13.0
0 days 01:12:06.652000,99,0 days 00:01:29.953000,20.0,"","",0 days 00:00:29.663000,0 days 00:00:30.226000,0 days 00:00:30.064000,231.0,276.0,292.0,"",medium,14.0
0 days 01:13:36.245000,99,0 days 00:01:29.593000,21.0,"","",0 days 00:00:29.482000,0 days 00:00:30.191000,0 days 00:00:29.920000,229.0,277.0,305.0,298.0,medium,15.0
0 days 01:15:05.804000,99,0 days 00:01:29.559000,22.0,"","",0 days 00:00:29.286000,0 days 00:00:30.329000,0 days 00:00:29.944000,234.0,276.0,296.0,316.0,medium,16.0
0 days 01:16:47.843000,99,"",23.0,"",0 days 01:16:47.843000,0 days 00:00:35.898000,0 days 00:00:34.510000,"",169.0,270.0,"",302.0,medium,17.0
