2021-09-12 12:03:17	DRS DISABLED IN ZONE 1
2021-09-12 12:03:17	DRS DISABLED IN ZONE 2
2021-09-12 12:08:49	CLEAR IN TRACK SECTOR 2
2021-09-12 12:08:52	CLEAR IN TRACK SECTOR 4
2021-09-12 12:08:53	CLEAR IN TRACK SECTOR 3
2021-09-12 12:08:54	DRS ENABLED IN ZONE 2
2021-09-12 12:08:56	CLEAR IN TRACK SECTOR 5
2021-09-12 12:08:59	CLEAR IN TRACK SECTOR 13
2021-09-12 12:08:59	DRS ENABLED IN ZONE 1
2021-09-12 12:16:37	DRS DISABLED
2021-09-12 12:20:01	GREEN LIGHT - PIT EXIT OPEN
2021-09-12 12:30:01	PIT EXIT CLOSED
2021-09-12 12:45:11	RISK OF RAIN FOR F1 RACE IS 0%
2021-09-12 12:57:50	DRS DISABLED
2021-09-12 13:03:16	GREEN LIGHT - PIT EXIT OPEN
2021-09-12 13:04:03	YELLOW IN TRACK SECTOR 8
2021-09-12 13:04:12	CLEAR IN TRACK SECTOR 8
2021-09-12 13:04:23	VIRTUAL SAFETY CAR DEPLOYED
2021-09-12 13:05:02	VIRTUAL SAFETY CAR ENDING
2021-09-12 13:05:12	TRACK CLEAR
2021-09-12 13:07:00	DRS ENABLED
2021-09-12 13:08:13	TURN 5 INCIDENT INVOLVING CARS 14 (ALO) 31 AND 6 (LAT) NOTED
2021-09-12 13:09:32	CAR 9 (MAZ) TIME 1:29.945 DELETED - TRACK LIMITS AT TURN 5
2021-09-12 13:09:57	TURN 4 INCIDENT INVOLVING CARS 44 (HAM) AND 33 (VER) - NO INVESTIGATION NECESSARY
2021-09-12 13:10:38	TURN 5 INCIDENT INVOLVING CARS 99 (GIO) AND 55 (SAI) UNDER INVESTIGATION
2021-09-12 13:11:18	CAR 3 (RIC) TIME 1:26.410 DELETED - TRACK LIMITS AT TURN 11
2021-09-12 13:12:19	CAR 3 (RIC) TIME 1:26.419 DELETED - TRACK LIMITS AT TURN 11
2021-09-12 13:13:30	5 SECOND TIME PENALTY FOR CAR 99 (GIO) - UNSAFE REJOIN
2021-09-12 13:14:35	TURN 5 INCIDENT INVOLVING CARS 14 (ALO) 31 AND 6 (LAT) NO INVESTIGATION NECESSARY
2021-09-12 13:20:03	CAR 4 (NOR) TIME 1:26.663 DELETED - TRACK LIMITS AT TURN 11
2021-09-12 13:20:59	CAR 4 (NOR) TIME 1:27.304 DELETED - TRACK LIMITS AT TURN 11
2021-09-12 13:25:32	TURN 4 INCIDENT INVOLVING CARS 5 (VET) AND 31 (OCO) NOTED
2021-09-12 13:25:48	TURN 4 INCIDENT INVOLVING CARS 5 (VET) AND 31 (OCO) UNDER INVESTIGATION
2021-09-12 13:32:00	5 SECOND TIME PENALTY FOR CAR 31 (OCO) - CAUSING A COLLISION AT TURN 4
2021-09-12 13:32:56	CAR 63 (RUS) MISSED THE APEX OF TURN 2
2021-09-12 13:33:14	CAR 33 (VER) MISSED THE APEX OF TURN 2
2021-09-12 13:34:11	TURN 2 INCIDENT INVOLVING CAR 33 (VER) - NOTED
2021-09-12 13:35:26	TURN 2 INCIDENT INVOLVING CAR 33 (VER) - NO INVESTIGATION NECESSARY
2021-09-12 13:40:28	YELLOW IN TRACK SECTOR 3
2021-09-12 13:40:29	DRS DISABLED IN ZONE 2
2021-09-12 13:40:29	DOUBLE YELLOW IN TRACK SECTOR 3
2021-09-12 13:40:42	SAFETY CAR DEPLOYED
2021-09-12 13:45:03	TURN 2 INCIDENT INVOLVING CARS 44 (HAM) AND 33 (VER) - WILL BE INVESTIGATED AFTER THE RACE
2021-09-12 13:50:56	SAFETY CAR IN THIS LAP
2021-09-12 13:51:54	TRACK CLEAR
2021-09-12 13:51:54	CLEAR IN TRACK SECTOR 3
2021-09-12 13:52:30	CAR 4 (NOR) TIME 2:30.238 DELETED - TRACK LIMITS AT TURN 11
2021-09-12 13:54:09	YELLOW IN TRACK SECTOR 7
2021-09-12 13:54:11	DOUBLE YELLOW IN TRACK SECTOR 7
2021-09-12 13:54:19	CAR 4 (NOR) TIME 1:26.782 DELETED - TRACK LIMITS AT TURN 11
2021-09-12 13:54:19	CLEAR IN TRACK SECTOR 7
2021-09-12 13:54:30	CAR 47 (MSC) SPUN AND CONTINUED AT TURN 4
2021-09-12 13:55:05	DRS ENABLED
2021-09-12 13:55:27	TURN 5 INCIDENT INVOLVING CAR 16 (LEC) NOTED
2021-09-12 13:55:34	CAR 16 (LEC) MISSED THE APEX OF TURN 2
2021-09-12 13:56:13	TURN 4 INCIDENT INVOLVING CARS 47 (MSC) AND 9 (MAZ) NOTED
2021-09-12 13:56:57	TURN 1 INCIDENT INVOLVING CARS 5 (VET) 99 AND 47 (MSC) NOTED
2021-09-12 13:57:34	CAR 11 (PER) TIME 1:26.594 DELETED - TRACK LIMITS AT TURN 5
2021-09-12 13:57:55	CAR 47 (MSC) TIME 1:38.648 DELETED - TRACK LIMITS AT TURN 5
2021-09-12 14:01:36	5 SECOND TIME PENALTY FOR CAR 11 (PER) - LEAVING THE TRACK AND GAINING AN ADVANTAGE AT TURN 5
2021-09-12 14:04:47	5 SECOND TIME PENALTY FOR CAR 9 (MAZ) - CAUSING A COLLISION AT TURN 4
2021-09-12 14:05:10	CAR 9 (MAZ) MISSED THE APEX OF TURN 2
2021-09-12 14:07:07	DOUBLE YELLOW IN TRACK SECTOR 3
2021-09-12 14:07:09	DRS DISABLED IN ZONE 2
2021-09-12 14:07:22	DOUBLE YELLOW IN TRACK SECTOR 2
2021-09-12 14:07:34	CLEAR IN TRACK SECTOR 2
2021-09-12 14:07:34	CLEAR IN TRACK SECTOR 3
2021-09-12 14:07:34	DRS ENABLED IN ZONE 2
2021-09-12 14:10:02	CAR 18 (STR) MISSED THE APEX OF TURN 2
2021-09-12 14:10:27	YELLOW IN TRACK SECTOR 13
2021-09-12 14:10:28	DRS DISABLED IN ZONE 1
2021-09-12 14:10:58	CAR 9 (MAZ) STOPPED AT TURN 10
2021-09-12 14:11:06	VIRTUAL SAFETY CAR DEPLOYED
2021-09-12 14:12:01	VIRTUAL SAFETY CAR ENDING
2021-09-12 14:12:12	TRACK CLEAR
2021-09-12 14:12:13	CLEAR IN TRACK SECTOR 13
2021-09-12 14:12:38	DRS ENABLED
2021-09-12 14:12:56	CAR 14 (ALO) TIME 1:45.578 DELETED - TRACK LIMITS AT TURN 11
2021-09-12 14:13:04	TURN 1 INCIDENT INVOLVING CARS 5 (VET) 99 AND 47 (MSC) - NO FURTHER ACTION
2021-09-12 14:14:11	CAR 14 (ALO) TIME 1:26.574 DELETED - TRACK LIMITS AT TURN 11
2021-09-12 14:14:17	CAR 5 (VET) TIME 1:26.631 DELETED - TRACK LIMITS AT TURN 11
2021-09-12 14:14:36	CAR 14 (ALO) TIME 1:26.574 DELETED - TRACK LIMITS AT TURN 11
2021-09-12 14:15:01	CAR 63 (RUS) TIME 1:27.102 DELETED - TRACK LIMITS AT TURN 11
2021-09-12 14:15:31	CAR 14 (ALO) TIME 1:26.474 DELETED - TRACK LIMITS AT TURN 11
2021-09-12 14:15:32	CAR 63 (RUS) TIME 1:26.513 DELETED - TRACK LIMITS AT TURN 11
2021-09-12 14:17:17	CAR 5 (VET) TIME 1:26.498 DELETED - TRACK LIMITS AT TURN 11
2021-09-12 14:21:51	INCIDENT INVOLVING CAR 18 (STR) UNDER INVESTIGATION - ALLEDGEDLY FAILING TO SLOW UNDER YELLOW FLAGS
2021-09-12 14:25:11	CHEQUERED FLAG
