2021-05-07 09:15:16	RISK OF RAIN FOR F1 FIRST PRACTICE SESSION IS 0%
2021-05-07 09:15:55	RED FLAG
2021-05-07 09:16:02	TRACK CLEAR
2021-05-07 09:16:04	DRS ENABLED
2021-05-07 09:17:14	VIRTUAL SAFETY CAR DEPLOYED
2021-05-07 09:17:20	VIRTUAL SAFETY CAR ENDING
2021-05-07 09:17:31	TRACK CLEAR
2021-05-07 09:17:32	DRS ENABLED
2021-05-07 09:18:03	GREEN LIGHT - PIT EXIT OPEN
2021-05-07 09:18:13	VIRTUAL SAFETY CAR DEPLOYED
2021-05-07 09:18:23	VIRTUAL SAFETY CAR ENDING
2021-05-07 09:18:36	TRACK CLEAR
2021-05-07 09:18:38	DRS ENABLED
2021-05-07 09:18:54	VIRTUAL SAFETY CAR DEPLOYED
2021-05-07 09:18:57	VIRTUAL SAFETY CAR ENDING
2021-05-07 09:19:09	TRACK CLEAR
2021-05-07 09:19:11	DRS ENABLED
2021-05-07 09:19:23	VIRTUAL SAFETY CAR DEPLOYED
2021-05-07 09:19:29	VIRTUAL SAFETY CAR ENDING
2021-05-07 09:19:43	TRACK CLEAR
2021-05-07 09:30:00	GREEN LIGHT - PIT EXIT OPEN
2021-05-07 09:33:16	YELLOW IN TRACK SECTOR 9
2021-05-07 09:33:22	YELLOW IN TRACK SECTOR 8
2021-05-07 09:33:46	DOUBLE YELLOW IN TRACK SECTOR 8
2021-05-07 09:33:48	YELLOW IN TRACK SECTOR 8
2021-05-07 09:33:54	CLEAR IN TRACK SECTOR 9
2021-05-07 09:33:55	CLEAR IN TRACK SECTOR 8
2021-05-07 09:34:19	CAR 9 (MAZ) OFF TRACK AND CONTINUED AT TURN 7
2021-05-07 09:44:26	CAR 44 (HAM) OFF TRACK AND CONTINUED AT TURN 2
2021-05-07 10:08:03	CAR 55 (SAI) OFF TRACK AND CONTINUED AT TURN 2
2021-05-07 10:09:27	CAR 55 (SAI) TIME 1:50.541 DELETED - TRACK LIMITS AT TURN 2
2021-05-07 10:09:53	CAR 16 (LEC) OFF TRACK AND CONTINUED AT TURN 2
2021-05-07 10:10:50	CAR 55 (SAI) OFF TRACK AND CONTINUED AT TURN 13
2021-05-07 10:11:05	CAR 16 (LEC) TIME 1:34.401 DELETED - TRACK LIMITS AT TURN 2
2021-05-07 10:12:52	YELLOW IN TRACK SECTOR 12
2021-05-07 10:12:53	DRS DISABLED IN ZONE 1
2021-05-07 10:13:12	YELLOW IN TRACK SECTOR 11
2021-05-07 10:13:24	RED FLAG
2021-05-07 10:13:24	CLEAR IN TRACK SECTOR 11
2021-05-07 10:13:24	CLEAR IN TRACK SECTOR 12
2021-05-07 10:19:06	SESSION WILL RE-START AT 12:21
2021-05-07 10:20:02	TRACK CLEAR
2021-05-07 10:20:04	DRS ENABLED
2021-05-07 10:21:00	GREEN LIGHT - PIT EXIT OPEN
2021-05-07 10:30:00	CHEQUERED FLAG
