Time,DriverNumber,LapTime,LapNumber,PitOutTime,PitInTime,Sector1Time,Sector2Time,Sector3Time,SpeedI1,SpeedI2,SpeedFL,SpeedST,Compound,TyreLife
0 days 00:31:37.415000,1,0 days 00:02:25.178000,1,0 days 00:29:18.481000,"",0 days 00:00:42.557000,0 days 00:00:42.312000,0 days 00:01:00.309000,80.0,170.0,298.0,207.0,medium,1.0
0 days 00:33:11.587000,1,0 days 00:01:34.172000,2,"","",0 days 00:00:23.544000,0 days 00:00:28.789000,0 days 00:00:41.839000,106.0,278.0,298.0,334.0,medium,2.0
0 days 00:45:35.904000,1,"",3,"",0 days 00:34:45.986000,0 days 00:00:26.863000,0 days 00:00:32.165000,"",103.0,255.0,"",256.0,medium,3.0
0 days 00:48:22.593000,1,"",4,0 days 00:45:35.904000,"",0 days 00:00:49.230000,0 days 00:00:53.359000,0 days 00:01:10.213000,92.0,138.0,299.0,131.0,soft,1.0
0 days 00:49:55.670000,1,0 days 00:01:33.077000,5,"","",0 days 00:00:23.457000,0 days 00:00:28.413000,0 days 00:00:41.207000,110.0,278.0,299.0,333.0,soft,2.0
0 days 00:52:38.188000,1,"",6,"",0 days 00:52:07.047000,0 days 00:00:35.070000,0 days 00:00:39.670000,0 days 00:01:27.748000,84.0,251.0,"",239.0,soft,3.0
0 days 00:55:37.081000,1,"",7,0 days 00:52:44.262000,"",0 days 00:00:49.646000,0 days 00:00:58.232000,0 days 00:01:10.973000,83.0,146.0,298.0,94.0,soft,4.0
0 days 00:57:10.511000,1,0 days 00:01:33.430000,8,"","",0 days 00:00:23.727000,0 days 00:00:28.355000,0 days 00:00:41.348000,112.0,278.0,298.0,334.0,soft,5.0
0 days 01:05:03.033000,1,"",9,"",0 days 00:58:42.088000,0 days 00:00:24.317000,0 days 00:00:33.115000,"",111.0,234.0,"",293.0,soft,6.0
0 days 01:06:59.875000,1,0 days 00:01:56.842000,10,0 days 01:05:19.404000,"",0 days 00:00:42.761000,0 days 00:00:29.773000,0 days 00:00:44.308000,108.0,271.0,285.0,323.0,medium,4.0
0 days 01:08:37.245000,1,0 days 00:01:37.370000,11,"","",0 days 00:00:24.589000,0 days 00:00:29.715000,0 days 00:00:43.066000,106.0,272.0,286.0,314.0,medium,5.0
0 days 01:10:15.094000,1,0 days 00:01:37.849000,12,"","",0 days 00:00:24.697000,0 days 00:00:29.780000,0 days 00:00:43.372000,108.0,273.0,285.0,316.0,medium,6.0
0 days 01:11:53.039000,1,0 days 00:01:37.945000,13,"","",0 days 00:00:24.763000,0 days 00:00:29.799000,0 days 00:00:43.383000,105.0,273.0,285.0,317.0,medium,7.0
0 days 01:13:39.571000,1,0 days 00:01:46.532000,14,"","",0 days 00:00:24.719000,0 days 00:00:29.956000,0 days 00:00:51.857000,107.0,273.0,288.0,317.0,medium,8.0
0 days 01:15:17.306000,1,0 days 00:01:37.735000,15,"","",0 days 00:00:24.661000,0 days 00:00:29.739000,0 days 00:00:43.335000,104.0,276.0,289.0,317.0,medium,9.0
0 days 01:17:45.256000,1,0 days 00:02:27.950000,16,"","",0 days 00:00:27.350000,0 days 00:00:31.291000,0 days 00:01:29.309000,109.0,260.0,128.0,284.0,medium,10.0
0 days 01:19:17.868000,1,"",17,"",0 days 01:19:17.868000,0 days 00:00:26.824000,0 days 00:00:31.377000,"",104.0,259.0,"",283.0,medium,11.0
0 days 00:34:14.800000,55,0 days 00:02:24.205000,1,0 days 00:31:56.797000,"",0 days 00:00:47.014000,0 days 00:00:39.830000,0 days 00:00:57.361000,83.0,215.0,293.0,207.0,soft,1.0
0 days 00:35:48.122000,55,0 days 00:01:33.322000,2,"","",0 days 00:00:23.524000,0 days 00:00:28.512000,0 days 00:00:41.286000,113.0,276.0,291.0,326.0,soft,2.0
0 days 00:38:38.814000,55,"",3,"",0 days 00:38:05.112000,0 days 00:00:37.765000,0 days 00:00:46.232000,0 days 00:01:26.585000,83.0,177.0,"",161.0,soft,3.0
0 days 00:41:35.775000,55,"",4,0 days 00:39:02.550000,"",0 days 00:01:04.612000,0 days 00:00:49.926000,0 days 00:01:02.431000,80.0,144.0,293.0,176.0,soft,4.0
0 days 00:44:21.399000,55,"",5,"","",0 days 00:00:23.456000,0 days 00:00:59.779000,0 days 00:01:22.505000,115.0,85.0,296.0,113.0,soft,5.0
0 days 00:45:53.926000,55,0 days 00:01:32.527000,6,"","",0 days 00:00:23.210000,0 days 00:00:28.358000,0 days 00:00:40.959000,119.0,278.0,301.0,328.0,soft,6.0
0 days 00:53:36.470000,55,"",7,"",0 days 00:47:38.110000,0 days 00:00:29.272000,0 days 00:00:37.722000,"",98.0,210.0,"",254.0,soft,7.0
0 days 00:55:48.354000,55,0 days 00:02:11.884000,8,0 days 00:53:44.364000,"",0 days 00:00:46.963000,0 days 00:00:31.194000,0 days 00:00:53.727000,103.0,270.0,281.0,293.0,medium,1.0
0 days 00:57:26.283000,55,0 days 00:01:37.929000,9,"","",0 days 00:00:24.840000,0 days 00:00:29.875000,0 days 00:00:43.214000,115.0,271.0,282.0,300.0,medium,2.0
0 days 00:59:04.230000,55,0 days 00:01:37.947000,10,"","",0 days 00:00:24.780000,0 days 00:00:29.868000,0 days 00:00:43.299000,110.0,272.0,282.0,296.0,medium,3.0
0 days 01:00:42.849000,55,0 days 00:01:38.619000,11,"","",0 days 00:00:25.031000,0 days 00:00:30.182000,0 days 00:00:43.406000,112.0,270.0,281.0,296.0,medium,4.0
0 days 01:02:21.150000,55,0 days 00:01:38.301000,12,"","",0 days 00:00:24.829000,0 days 00:00:30.192000,0 days 00:00:43.280000,109.0,270.0,281.0,296.0,medium,5.0
0 days 01:04:22.441000,55,0 days 00:02:01.291000,13,"",0 days 01:03:50.845000,0 days 00:00:24.885000,0 days 00:00:29.148000,0 days 00:01:07.258000,107.0,265.0,"",295.0,medium,6.0
0 days 01:06:12.432000,55,0 days 00:01:49.991000,14,0 days 01:04:28.558000,"",0 days 00:00:33.701000,0 days 00:00:30.593000,0 days 00:00:45.697000,107.0,270.0,282.0,297.0,medium,7.0
0 days 01:07:50.804000,55,0 days 00:01:38.372000,15,"","",0 days 00:00:24.859000,0 days 00:00:30.110000,0 days 00:00:43.403000,109.0,271.0,283.0,297.0,medium,8.0
0 days 01:09:29.454000,55,0 days 00:01:38.650000,16,"","",0 days 00:00:24.903000,0 days 00:00:30.305000,0 days 00:00:43.442000,"",271.0,283.0,297.0,medium,9.0
0 days 01:11:08.019000,55,0 days 00:01:38.565000,17,"","",0 days 00:00:24.823000,0 days 00:00:30.231000,0 days 00:00:43.511000,108.0,270.0,283.0,297.0,medium,10.0
0 days 01:12:46.928000,55,0 days 00:01:38.909000,18,"","",0 days 00:00:24.899000,0 days 00:00:30.268000,0 days 00:00:43.742000,107.0,271.0,284.0,297.0,medium,11.0
0 days 01:14:25.951000,55,0 days 00:01:39.023000,19,"","",0 days 00:00:24.975000,0 days 00:00:30.441000,0 days 00:00:43.607000,106.0,272.0,294.0,300.0,medium,12.0
0 days 01:16:04.960000,55,0 days 00:01:39.009000,20,"","",0 days 00:00:24.916000,0 days 00:00:30.159000,0 days 00:00:43.934000,109.0,273.0,297.0,320.0,medium,13.0
0 days 01:18:40.135000,55,"",21,"","",0 days 00:00:26.626000,0 days 00:00:33.764000,0 days 00:01:34.755000,104.0,264.0,193.0,241.0,medium,14.0
0 days 01:20:18.365000,55,"",22,"",0 days 01:20:18.365000,0 days 00:00:27.014000,0 days 00:00:30.913000,"",103.0,273.0,"",294.0,medium,15.0
0 days 00:17:18.457000,47,0 days 00:02:18.330000,1,0 days 00:15:06.300000,"",0 days 00:00:40.696000,0 days 00:00:36.367000,0 days 00:01:01.267000,85.0,252.0,291.0,279.0,medium,1.0
0 days 00:18:54.786000,47,0 days 00:01:36.329000,2,"","",0 days 00:00:24.556000,0 days 00:00:29.384000,0 days 00:00:42.389000,105.0,273.0,295.0,323.0,medium,2.0
0 days 00:21:14.943000,47,0 days 00:02:20.157000,3,"","",0 days 00:00:33.228000,0 days 00:00:46.471000,0 days 00:01:00.458000,77.0,202.0,293.0,170.0,medium,3.0
0 days 00:22:50.705000,47,0 days 00:01:35.762000,4,"","",0 days 00:00:24.291000,0 days 00:00:29.121000,0 days 00:00:42.350000,114.0,274.0,297.0,324.0,medium,4.0
0 days 00:25:21.026000,47,"",5,"","",0 days 00:00:34.234000,0 days 00:00:51.820000,0 days 00:01:04.166000,73.0,161.0,293.0,146.0,medium,5.0
0 days 00:42:53.220000,47,"",6,"",0 days 00:27:08.458000,0 days 00:00:24.286000,0 days 00:00:29.192000,"",116.0,274.0,"",323.0,medium,6.0
0 days 00:45:21.921000,47,"",7,0 days 00:42:53.220000,"",0 days 00:00:49.857000,0 days 00:00:40.243000,0 days 00:01:04.802000,86.0,257.0,293.0,244.0,soft,1.0
0 days 00:47:24.676000,47,0 days 00:02:02.755000,8,"","",0 days 00:00:23.829000,0 days 00:00:38.567000,0 days 00:01:00.359000,118.0,188.0,293.0,238.0,soft,2.0
0 days 00:48:59.871000,47,0 days 00:01:35.195000,9,"","",0 days 00:00:24.021000,0 days 00:00:29.077000,0 days 00:00:42.097000,111.0,274.0,292.0,326.0,soft,3.0
0 days 00:51:33.539000,47,"",10,"","",0 days 00:00:38.027000,0 days 00:00:41.911000,0 days 00:01:13.643000,80.0,202.0,182.0,237.0,soft,4.0
0 days 00:53:54.777000,47,0 days 00:02:21.238000,11,"","",0 days 00:00:39.978000,0 days 00:00:45.982000,0 days 00:00:55.278000,73.0,248.0,292.0,220.0,soft,5.0
0 days 00:55:30.465000,47,0 days 00:01:35.688000,12,"","",0 days 00:00:24.043000,0 days 00:00:28.866000,0 days 00:00:42.779000,117.0,276.0,292.0,325.0,soft,6.0
0 days 01:03:42.103000,47,"",13,"",0 days 00:57:19.862000,0 days 00:00:27.365000,0 days 00:00:39.998000,"",91.0,254.0,"",190.0,soft,7.0
0 days 01:05:51.257000,47,0 days 00:02:09.154000,14,0 days 01:04:08.600000,"",0 days 00:00:53.935000,0 days 00:00:30.437000,0 days 00:00:44.782000,114.0,269.0,279.0,292.0,soft,8.0
0 days 01:07:32.803000,47,0 days 00:01:41.546000,15,"","",0 days 00:00:26.326000,0 days 00:00:30.643000,0 days 00:00:44.577000,109.0,270.0,281.0,301.0,soft,9.0
0 days 01:09:14.247000,47,0 days 00:01:41.444000,16,"","",0 days 00:00:26.156000,0 days 00:00:30.675000,0 days 00:00:44.613000,108.0,269.0,283.0,302.0,soft,10.0
0 days 01:10:54.885000,47,0 days 00:01:40.638000,17,"","",0 days 00:00:25.373000,0 days 00:00:30.517000,0 days 00:00:44.748000,111.0,270.0,282.0,298.0,soft,11.0
0 days 01:12:36.953000,47,0 days 00:01:42.068000,18,"","",0 days 00:00:25.788000,0 days 00:00:30.967000,0 days 00:00:45.313000,108.0,272.0,281.0,297.0,soft,12.0
0 days 01:14:18.296000,47,0 days 00:01:41.343000,19,"","",0 days 00:00:25.610000,0 days 00:00:30.760000,0 days 00:00:44.973000,110.0,268.0,281.0,296.0,soft,13.0
0 days 01:15:59.056000,47,0 days 00:01:40.760000,20,"","",0 days 00:00:25.510000,0 days 00:00:30.713000,0 days 00:00:44.537000,105.0,269.0,281.0,298.0,soft,14.0
0 days 01:18:36.603000,47,"",21,"","",0 days 00:00:29.095000,0 days 00:00:39.308000,0 days 00:01:29.133000,89.0,219.0,182.0,192.0,soft,15.0
0 days 01:20:19.877000,47,"",22,"",0 days 01:20:19.877000,0 days 00:00:28.559000,0 days 00:00:34.901000,"",100.0,269.0,"",199.0,soft,16.0
0 days 00:20:20.672000,44,"",1,0 days 00:18:09.255000,"",0 days 00:01:13.444000,0 days 00:00:40.362000,0 days 00:00:49.210000,97.0,266.0,293.0,104.0,medium,1.0
0 days 00:21:57.041000,44,0 days 00:01:36.369000,2,"","",0 days 00:00:24.371000,0 days 00:00:29.296000,0 days 00:00:42.702000,116.0,273.0,294.0,324.0,medium,2.0
0 days 00:25:01.284000,44,"",3,"",0 days 00:24:24.992000,0 days 00:00:43.982000,0 days 00:00:56.090000,0 days 00:01:24.063000,51.0,213.0,"",142.0,medium,3.0
0 days 00:27:34.792000,44,"",4,0 days 00:25:24.420000,"",0 days 00:01:00.343000,0 days 00:00:40.439000,0 days 00:00:52.854000,47.0,212.0,294.0,262.0,medium,4.0
0 days 00:29:31.222000,44,0 days 00:01:56.430000,5,"","",0 days 00:00:24.108000,0 days 00:00:30.751000,0 days 00:01:01.571000,116.0,162.0,266.0,325.0,medium,5.0
0 days 00:31:46.605000,44,0 days 00:02:15.383000,6,"","",0 days 00:00:32.162000,0 days 00:00:45.104000,0 days 00:00:58.117000,91.0,191.0,295.0,177.0,medium,6.0
0 days 00:33:41.616000,44,0 days 00:01:55.011000,7,"","",0 days 00:00:24.455000,0 days 00:00:36.191000,0 days 00:00:54.365000,114.0,211.0,295.0,264.0,medium,7.0
0 days 00:35:17.183000,44,0 days 00:01:35.567000,8,"","",0 days 00:00:24.068000,0 days 00:00:28.968000,0 days 00:00:42.531000,118.0,277.0,293.0,326.0,medium,8.0
0 days 00:46:12.299000,44,"",9,"",0 days 00:36:53.330000,0 days 00:00:31.150000,0 days 00:00:30.740000,"",116.0,254.0,"",302.0,medium,9.0
0 days 00:48:40.554000,44,0 days 00:02:28.255000,10,0 days 00:46:18.572000,"",0 days 00:00:46.289000,0 days 00:00:48.380000,0 days 00:00:53.586000,44.0,214.0,299.0,181.0,soft,1.0
0 days 00:50:14.071000,44,0 days 00:01:33.517000,11,"","",0 days 00:00:23.489000,0 days 00:00:28.551000,0 days 00:00:41.477000,115.0,277.0,296.0,326.0,soft,2.0
0 days 00:53:08.519000,44,"",12,"",0 days 00:52:35.035000,0 days 00:00:40.381000,0 days 00:00:50.208000,0 days 00:01:23.851000,80.0,189.0,"",151.0,soft,3.0
0 days 00:55:41.849000,44,"",13,0 days 00:53:14.667000,"",0 days 00:00:48.514000,0 days 00:00:45.173000,0 days 00:00:59.616000,36.0,150.0,295.0,254.0,soft,4.0
0 days 00:57:21.907000,44,0 days 00:01:40.058000,14,"","",0 days 00:00:23.646000,0 days 00:00:28.949000,0 days 00:00:47.463000,118.0,274.0,232.0,325.0,soft,5.0
0 days 00:59:29.471000,44,0 days 00:02:07.564000,15,"","",0 days 00:00:31.639000,0 days 00:00:40.401000,0 days 00:00:55.524000,98.0,205.0,297.0,234.0,soft,6.0
0 days 01:06:45.827000,44,"",16,"",0 days 01:00:56.006000,0 days 00:00:23.721000,0 days 00:00:29.020000,"",113.0,274.0,"",326.0,soft,7.0
0 days 01:08:49.552000,44,0 days 00:02:03.725000,17,0 days 01:07:06.010000,"",0 days 00:00:49.175000,0 days 00:00:30.346000,0 days 00:00:44.204000,111.0,268.0,280.0,318.0,medium,10.0
0 days 01:10:28.282000,44,0 days 00:01:38.730000,18,"","",0 days 00:00:24.876000,0 days 00:00:30.161000,0 days 00:00:43.693000,"",269.0,280.0,302.0,medium,11.0
0 days 01:12:06.986000,44,0 days 00:01:38.704000,19,"","",0 days 00:00:24.711000,0 days 00:00:30.181000,0 days 00:00:43.812000,110.0,270.0,281.0,303.0,medium,12.0
0 days 01:13:46.025000,44,0 days 00:01:39.039000,20,"","",0 days 00:00:24.890000,0 days 00:00:30.396000,0 days 00:00:43.753000,111.0,268.0,281.0,300.0,medium,13.0
0 days 01:15:25.122000,44,0 days 00:01:39.097000,21,"","",0 days 00:00:24.956000,0 days 00:00:30.140000,0 days 00:00:44.001000,109.0,270.0,281.0,303.0,medium,14.0
0 days 01:18:15.070000,44,"",22,"","",0 days 00:00:34.706000,0 days 00:00:37.661000,0 days 00:01:37.595000,97.0,215.0,178.0,199.0,medium,15.0
0 days 01:20:28.877000,44,"",23,"",0 days 01:20:28.877000,0 days 00:00:31.766000,0 days 00:00:37.677000,"",107.0,239.0,"",264.0,medium,16.0
0 days 00:18:02.551000,31,"",1,0 days 00:15:30.335000,"",0 days 00:00:45.602000,0 days 00:00:41.137000,0 days 00:01:11.554000,85.0,244.0,294.0,133.0,medium,1.0
0 days 00:19:38.151000,31,0 days 00:01:35.600000,2,"","",0 days 00:00:24.136000,0 days 00:00:29.265000,0 days 00:00:42.199000,112.0,273.0,293.0,318.0,medium,2.0
0 days 00:22:27.975000,31,"",3,"","",0 days 00:00:37.765000,0 days 00:00:54.606000,0 days 00:01:17.396000,78.0,167.0,294.0,128.0,medium,3.0
0 days 00:24:03.695000,31,0 days 00:01:35.720000,4,"","",0 days 00:00:24.050000,0 days 00:00:29.250000,0 days 00:00:42.420000,115.0,272.0,293.0,319.0,medium,4.0
0 days 00:26:30.063000,31,0 days 00:02:26.368000,5,"","",0 days 00:00:35.166000,0 days 00:00:51.884000,0 days 00:00:59.318000,80.0,179.0,291.0,154.0,medium,5.0
0 days 00:28:06.137000,31,0 days 00:01:36.074000,6,"","",0 days 00:00:24.050000,0 days 00:00:29.426000,0 days 00:00:42.598000,114.0,270.0,292.0,315.0,medium,6.0
0 days 00:38:57.053000,31,"",7,"",0 days 00:29:47.242000,0 days 00:00:28.310000,0 days 00:00:34.023000,"",101.0,251.0,"",282.0,medium,7.0
0 days 00:41:21.569000,31,0 days 00:02:24.516000,8,0 days 00:39:03.442000,"",0 days 00:00:44.151000,0 days 00:00:40.050000,0 days 00:01:00.315000,83.0,206.0,294.0,163.0,soft,1.0
0 days 00:42:56.229000,31,0 days 00:01:34.660000,9,"","",0 days 00:00:23.765000,0 days 00:00:28.935000,0 days 00:00:41.960000,114.0,272.0,290.0,321.0,soft,2.0
0 days 00:45:47.335000,31,"",10,"",0 days 00:45:22.625000,0 days 00:00:42.750000,0 days 00:00:50.751000,0 days 00:01:17.575000,82.0,164.0,"",121.0,soft,3.0
0 days 00:48:15.062000,31,0 days 00:02:27.727000,11,0 days 00:45:53.469000,"",0 days 00:00:47.101000,0 days 00:00:42.367000,0 days 00:00:58.259000,91.0,194.0,294.0,205.0,soft,4.0
0 days 00:49:50.213000,31,0 days 00:01:35.151000,12,"","",0 days 00:00:24.055000,0 days 00:00:29.086000,0 days 00:00:42.010000,111.0,272.0,294.0,315.0,soft,5.0
0 days 00:56:59.251000,31,"",13,"",0 days 00:51:24.835000,0 days 00:00:25.955000,0 days 00:00:31.759000,"",112.0,255.0,"",298.0,soft,6.0
0 days 00:59:12.809000,31,0 days 00:02:13.558000,14,0 days 00:57:23.492000,"",0 days 00:00:57.234000,0 days 00:00:31.132000,0 days 00:00:45.192000,103.0,269.0,279.0,291.0,medium,8.0
0 days 01:00:52.091000,31,0 days 00:01:39.282000,15,"","",0 days 00:00:25.172000,0 days 00:00:30.363000,0 days 00:00:43.747000,110.0,269.0,280.0,291.0,medium,9.0
0 days 01:02:31.614000,31,0 days 00:01:39.523000,16,"","",0 days 00:00:25.219000,0 days 00:00:30.494000,0 days 00:00:43.810000,109.0,269.0,279.0,291.0,medium,10.0
0 days 01:04:11.111000,31,0 days 00:01:39.497000,17,"","",0 days 00:00:25.132000,0 days 00:00:30.481000,0 days 00:00:43.884000,106.0,269.0,279.0,290.0,medium,11.0
0 days 01:05:51.603000,31,0 days 00:01:40.492000,18,"","",0 days 00:00:25.647000,0 days 00:00:30.397000,0 days 00:00:44.448000,109.0,272.0,293.0,312.0,medium,12.0
0 days 01:07:31.615000,31,0 days 00:01:40.012000,19,"","",0 days 00:00:25.469000,0 days 00:00:30.211000,0 days 00:00:44.332000,107.0,270.0,278.0,306.0,medium,13.0
0 days 01:09:11.774000,31,0 days 00:01:40.159000,20,"","",0 days 00:00:25.403000,0 days 00:00:30.722000,0 days 00:00:44.034000,108.0,270.0,284.0,290.0,medium,14.0
0 days 01:10:52.883000,31,0 days 00:01:41.109000,21,"","",0 days 00:00:25.288000,0 days 00:00:31.081000,0 days 00:00:44.740000,109.0,272.0,275.0,289.0,medium,15.0
0 days 01:12:33.400000,31,0 days 00:01:40.517000,22,"","",0 days 00:00:25.519000,0 days 00:00:30.710000,0 days 00:00:44.288000,"",270.0,275.0,293.0,medium,16.0
0 days 01:14:13.771000,31,0 days 00:01:40.371000,23,"","",0 days 00:00:25.422000,0 days 00:00:30.672000,0 days 00:00:44.277000,"",269.0,278.0,289.0,medium,17.0
0 days 01:15:54.117000,31,0 days 00:01:40.346000,24,"","",0 days 00:00:25.390000,0 days 00:00:30.681000,0 days 00:00:44.275000,108.0,269.0,279.0,290.0,medium,18.0
0 days 01:18:44.381000,31,"",25,"","",0 days 00:00:31.605000,0 days 00:00:41.625000,0 days 00:01:37.019000,97.0,200.0,187.0,172.0,medium,19.0
0 days 01:20:20.853000,31,"",26,"",0 days 01:20:20.853000,0 days 00:00:26.718000,0 days 00:00:32.316000,"",108.0,252.0,"",280.0,medium,20.0
0 days 00:17:11.222000,24,0 days 00:02:18.629000,1,0 days 00:14:58.730000,"",0 days 00:00:42.988000,0 days 00:00:37.004000,0 days 00:00:58.637000,92.0,256.0,290.0,270.0,medium,1.0
0 days 00:18:47.679000,24,0 days 00:01:36.457000,2,"","",0 days 00:00:24.596000,0 days 00:00:29.379000,0 days 00:00:42.482000,109.0,275.0,288.0,324.0,medium,2.0
0 days 00:21:04.112000,24,0 days 00:02:16.433000,3,"","",0 days 00:00:35.764000,0 days 00:00:41.363000,0 days 00:00:59.306000,92.0,237.0,291.0,234.0,medium,3.0
0 days 00:22:40.038000,24,0 days 00:01:35.926000,4,"","",0 days 00:00:24.175000,0 days 00:00:29.259000,0 days 00:00:42.492000,111.0,275.0,288.0,326.0,medium,4.0
0 days 00:24:57.214000,24,0 days 00:02:17.176000,5,"","",0 days 00:00:35.890000,0 days 00:00:39.706000,0 days 00:01:01.580000,86.0,241.0,295.0,249.0,medium,5.0
0 days 00:26:33.390000,24,0 days 00:01:36.176000,6,"","",0 days 00:00:24.327000,0 days 00:00:29.294000,0 days 00:00:42.555000,112.0,278.0,298.0,327.0,medium,6.0
0 days 00:28:56.229000,24,0 days 00:02:22.839000,7,"","",0 days 00:00:34.770000,0 days 00:00:43.492000,0 days 00:01:04.577000,93.0,249.0,291.0,170.0,medium,7.0
0 days 00:30:32.056000,24,0 days 00:01:35.827000,8,"","",0 days 00:00:24.225000,0 days 00:00:29.199000,0 days 00:00:42.403000,112.0,274.0,294.0,323.0,medium,8.0
0 days 00:32:42.645000,24,0 days 00:02:10.589000,9,"",0 days 00:32:17.936000,0 days 00:00:29.408000,0 days 00:00:38.051000,0 days 00:01:03.130000,42.0,234.0,"",287.0,medium,9.0
0 days 00:43:02.664000,24,"",10,0 days 00:32:51.206000,0 days 00:34:52.933000,0 days 00:01:00.832000,0 days 00:00:32.290000,"",100.0,255.0,"",296.0,medium,10.0
0 days 00:45:28.189000,24,"",11,0 days 00:43:02.664000,"",0 days 00:00:45.603000,0 days 00:00:42.618000,0 days 00:01:03.497000,87.0,187.0,292.0,263.0,soft,1.0
0 days 00:47:02.843000,24,0 days 00:01:34.654000,12,"","",0 days 00:00:23.936000,0 days 00:00:28.825000,0 days 00:00:41.893000,114.0,274.0,290.0,325.0,soft,2.0
0 days 00:49:25.174000,24,0 days 00:02:22.331000,13,"",0 days 00:49:00.510000,0 days 00:00:34.148000,0 days 00:00:41.675000,0 days 00:01:06.508000,91.0,239.0,"",256.0,soft,3.0
0 days 00:51:54.879000,24,0 days 00:02:29.705000,14,0 days 00:49:33.043000,"",0 days 00:00:57.805000,0 days 00:00:38.402000,0 days 00:00:53.498000,87.0,245.0,291.0,203.0,soft,4.0
0 days 00:53:29.898000,24,0 days 00:01:35.019000,15,"","",0 days 00:00:23.970000,0 days 00:00:29.131000,0 days 00:00:41.918000,112.0,274.0,292.0,325.0,soft,5.0
0 days 01:01:47.324000,24,"",16,"",0 days 00:55:11.186000,0 days 00:00:28.921000,0 days 00:00:33.933000,"",103.0,242.0,"",225.0,soft,6.0
0 days 01:04:09.441000,24,0 days 00:02:22.117000,17,0 days 01:01:53.467000,0 days 01:03:28.264000,0 days 00:00:36.477000,0 days 00:00:30.356000,0 days 00:01:15.284000,111.0,268.0,"",294.0,soft,7.0
0 days 01:05:59.975000,24,0 days 00:01:50.534000,18,0 days 01:04:15.603000,"",0 days 00:00:35.387000,0 days 00:00:30.817000,0 days 00:00:44.330000,108.0,269.0,280.0,294.0,medium,11.0
0 days 01:07:40.219000,24,0 days 00:01:40.244000,19,"","",0 days 00:00:25.119000,0 days 00:00:30.419000,0 days 00:00:44.706000,"",269.0,281.0,299.0,medium,12.0
0 days 01:09:21.534000,24,0 days 00:01:41.315000,20,"","",0 days 00:00:25.655000,0 days 00:00:30.654000,0 days 00:00:45.006000,110.0,269.0,282.0,295.0,medium,13.0
0 days 01:11:01.564000,24,0 days 00:01:40.030000,21,"","",0 days 00:00:25.348000,0 days 00:00:30.525000,0 days 00:00:44.157000,108.0,270.0,281.0,295.0,medium,14.0
0 days 01:12:42.151000,24,0 days 00:01:40.587000,22,"","",0 days 00:00:25.495000,0 days 00:00:30.503000,0 days 00:00:44.589000,"",270.0,280.0,300.0,medium,15.0
0 days 01:14:22.695000,24,0 days 00:01:40.544000,23,"","",0 days 00:00:25.493000,0 days 00:00:30.699000,0 days 00:00:44.352000,110.0,269.0,281.0,296.0,medium,16.0
0 days 01:16:02.608000,24,0 days 00:01:39.913000,24,"","",0 days 00:00:25.401000,0 days 00:00:30.526000,0 days 00:00:43.986000,107.0,270.0,281.0,306.0,medium,17.0
0 days 01:18:54.613000,24,"",25,"","",0 days 00:00:33.928000,0 days 00:00:42.069000,0 days 00:01:35.958000,92.0,199.0,211.0,184.0,medium,18.0
0 days 01:20:34.576000,24,"",26,"",0 days 01:20:34.576000,0 days 00:00:28.713000,0 days 00:00:33.123000,"",103.0,251.0,"",281.0,medium,19.0
0 days 00:24:44.703000,23,0 days 00:02:16.883000,1,0 days 00:22:33.984000,"",0 days 00:00:44.560000,0 days 00:00:33.480000,0 days 00:00:58.843000,99.0,261.0,293.0,294.0,medium,3.0
0 days 00:26:21.112000,23,0 days 00:01:36.409000,2,"","",0 days 00:00:24.356000,0 days 00:00:29.456000,0 days 00:00:42.597000,114.0,274.0,298.0,324.0,medium,4.0
0 days 00:28:42.460000,23,0 days 00:02:21.348000,3,"","",0 days 00:00:35.067000,0 days 00:00:41.771000,0 days 00:01:04.510000,83.0,249.0,299.0,179.0,medium,5.0
0 days 00:30:17.567000,23,0 days 00:01:35.107000,4,"","",0 days 00:00:24.010000,0 days 00:00:28.928000,0 days 00:00:42.169000,111.0,278.0,296.0,328.0,medium,6.0
0 days 00:32:46.414000,23,0 days 00:02:28.847000,5,"","",0 days 00:00:37.712000,0 days 00:00:43.474000,0 days 00:01:07.661000,81.0,182.0,294.0,267.0,medium,7.0
0 days 00:38:55.115000,23,"",6,"",0 days 00:34:20.682000,0 days 00:00:24.084000,0 days 00:00:29.273000,"",109.0,267.0,"",323.0,medium,8.0
0 days 00:41:14.927000,23,0 days 00:02:19.812000,7,0 days 00:39:01.266000,"",0 days 00:00:40.164000,0 days 00:00:37.714000,0 days 00:01:01.934000,90.0,216.0,294.0,299.0,soft,1.0
0 days 00:43:30.785000,23,0 days 00:02:15.858000,8,"","",0 days 00:00:31.783000,0 days 00:00:42.700000,0 days 00:01:01.375000,87.0,205.0,294.0,280.0,soft,2.0
0 days 00:45:05.438000,23,0 days 00:01:34.653000,9,"","",0 days 00:00:23.849000,0 days 00:00:28.894000,0 days 00:00:41.910000,116.0,273.0,296.0,324.0,soft,3.0
0 days 00:56:49.561000,23,"",10,"",0 days 00:47:10.528000,0 days 00:00:33.034000,0 days 00:00:47.299000,"",85.0,191.0,"",122.0,soft,4.0
0 days 00:58:52.581000,23,"",11,0 days 00:56:49.561000,0 days 00:58:21.905000,0 days 00:01:13.091000,0 days 00:00:30.410000,0 days 00:01:05.379000,105.0,269.0,"",297.0,soft,5.0
0 days 01:00:46.469000,23,0 days 00:01:53.888000,12,0 days 00:58:58.700000,"",0 days 00:00:35.363000,0 days 00:00:32.646000,0 days 00:00:45.879000,105.0,269.0,280.0,265.0,medium,9.0
0 days 01:02:26.364000,23,0 days 00:01:39.895000,13,"","",0 days 00:00:25.281000,0 days 00:00:30.306000,0 days 00:00:44.308000,112.0,270.0,280.0,303.0,medium,10.0
0 days 01:04:05.939000,23,0 days 00:01:39.575000,14,"","",0 days 00:00:25.241000,0 days 00:00:30.194000,0 days 00:00:44.140000,"",270.0,279.0,302.0,medium,11.0
0 days 01:05:45.554000,23,0 days 00:01:39.615000,15,"","",0 days 00:00:25.059000,0 days 00:00:30.337000,0 days 00:00:44.219000,109.0,270.0,279.0,302.0,medium,12.0
0 days 01:07:25.372000,23,0 days 00:01:39.818000,16,"","",0 days 00:00:25.165000,0 days 00:00:30.363000,0 days 00:00:44.290000,"",270.0,281.0,302.0,medium,13.0
0 days 01:09:04.996000,23,0 days 00:01:39.624000,17,"","",0 days 00:00:25.113000,0 days 00:00:30.343000,0 days 00:00:44.168000,"",270.0,280.0,303.0,medium,14.0
0 days 01:10:44.632000,23,0 days 00:01:39.636000,18,"","",0 days 00:00:25.047000,0 days 00:00:30.433000,0 days 00:00:44.156000,111.0,270.0,280.0,303.0,medium,15.0
0 days 01:12:24.428000,23,0 days 00:01:39.796000,19,"","",0 days 00:00:25.141000,0 days 00:00:30.398000,0 days 00:00:44.257000,109.0,270.0,279.0,303.0,medium,16.0
0 days 01:14:04.198000,23,0 days 00:01:39.770000,20,"","",0 days 00:00:25.222000,0 days 00:00:30.214000,0 days 00:00:44.334000,110.0,270.0,280.0,304.0,medium,17.0
0 days 01:15:44.063000,23,0 days 00:01:39.865000,21,"","",0 days 00:00:25.306000,0 days 00:00:30.420000,0 days 00:00:44.139000,108.0,270.0,282.0,303.0,medium,18.0
0 days 01:18:33.625000,23,"",22,"","",0 days 00:00:29.171000,0 days 00:00:39.297000,"",100.0,205.0,172.0,203.0,medium,19.0
0 days 01:20:15.621000,23,"",23,"",0 days 01:20:15.621000,0 days 00:00:28.365000,0 days 00:00:33.247000,"",106.0,259.0,"",279.0,medium,20.0
0 days 00:25:26.195000,22,0 days 00:02:29.548000,1,0 days 00:23:02.835000,"",0 days 00:00:43.985000,0 days 00:00:40.301000,0 days 00:01:05.262000,89.0,209.0,292.0,281.0,medium,1.0
0 days 00:27:08.048000,22,0 days 00:01:41.853000,2,"","",0 days 00:00:24.695000,0 days 00:00:31.457000,0 days 00:00:45.701000,115.0,270.0,294.0,288.0,medium,2.0
0 days 00:29:17.401000,22,0 days 00:02:09.353000,3,"","",0 days 00:00:33.784000,0 days 00:00:40.721000,0 days 00:00:54.848000,87.0,225.0,294.0,209.0,medium,3.0
0 days 00:30:53.332000,22,0 days 00:01:35.931000,4,"","",0 days 00:00:24.257000,0 days 00:00:29.088000,0 days 00:00:42.586000,110.0,275.0,294.0,326.0,medium,4.0
0 days 00:33:03.358000,22,0 days 00:02:10.026000,5,"","",0 days 00:00:36.300000,0 days 00:00:39.565000,0 days 00:00:54.161000,92.0,207.0,297.0,268.0,medium,5.0
0 days 00:34:38.705000,22,0 days 00:01:35.347000,6,"","",0 days 00:00:24.190000,0 days 00:00:28.981000,0 days 00:00:42.176000,105.0,279.0,297.0,327.0,medium,6.0
0 days 00:36:46.560000,22,0 days 00:02:07.855000,7,"","",0 days 00:00:31.879000,0 days 00:00:39.859000,0 days 00:00:56.117000,91.0,191.0,293.0,253.0,medium,7.0
0 days 00:38:21.966000,22,0 days 00:01:35.406000,8,"","",0 days 00:00:24.171000,0 days 00:00:29.027000,0 days 00:00:42.208000,116.0,276.0,295.0,325.0,medium,8.0
0 days 00:45:51.793000,22,"",9,"",0 days 00:40:14.242000,0 days 00:00:32.125000,0 days 00:00:40.568000,"",100.0,244.0,"",121.0,medium,9.0
0 days 00:48:29.459000,22,"",10,0 days 00:45:51.793000,"",0 days 00:00:48.249000,0 days 00:00:44.092000,0 days 00:01:12.178000,85.0,185.0,295.0,150.0,soft,1.0
0 days 00:50:38.295000,22,0 days 00:02:08.836000,11,"","",0 days 00:00:23.947000,0 days 00:00:45.667000,0 days 00:00:59.222000,112.0,177.0,294.0,155.0,soft,2.0
0 days 00:52:12.835000,22,0 days 00:01:34.540000,12,"","",0 days 00:00:23.768000,0 days 00:00:28.865000,0 days 00:00:41.907000,113.0,277.0,295.0,326.0,soft,3.0
0 days 00:54:28.069000,22,0 days 00:02:15.234000,13,"","",0 days 00:00:33.688000,0 days 00:00:45.252000,0 days 00:00:56.294000,90.0,192.0,294.0,257.0,soft,4.0
0 days 00:56:03.467000,22,0 days 00:01:35.398000,14,"","",0 days 00:00:24.080000,0 days 00:00:28.960000,0 days 00:00:42.358000,115.0,276.0,295.0,326.0,soft,5.0
0 days 01:02:52.334000,22,"",15,"",0 days 00:57:41.673000,0 days 00:00:27.052000,0 days 00:00:29.574000,"",103.0,257.0,"",329.0,soft,6.0
0 days 01:04:49.859000,22,0 days 00:01:57.525000,16,0 days 01:03:05.375000,"",0 days 00:00:42.730000,0 days 00:00:30.455000,0 days 00:00:44.340000,107.0,270.0,279.0,305.0,medium,10.0
0 days 01:06:29.554000,22,0 days 00:01:39.695000,17,"","",0 days 00:00:25.339000,0 days 00:00:30.383000,0 days 00:00:43.973000,108.0,270.0,281.0,304.0,medium,11.0
0 days 01:08:09.176000,22,0 days 00:01:39.622000,18,"","",0 days 00:00:25.113000,0 days 00:00:30.253000,0 days 00:00:44.256000,109.0,271.0,283.0,304.0,medium,12.0
0 days 01:09:48.835000,22,0 days 00:01:39.659000,19,"","",0 days 00:00:25.126000,0 days 00:00:30.365000,0 days 00:00:44.168000,104.0,270.0,282.0,302.0,medium,13.0
0 days 01:11:28.839000,22,0 days 00:01:40.004000,20,"","",0 days 00:00:25.160000,0 days 00:00:30.328000,0 days 00:00:44.516000,107.0,275.0,286.0,306.0,medium,14.0
0 days 01:13:08.510000,22,0 days 00:01:39.671000,21,"","",0 days 00:00:25.273000,0 days 00:00:30.241000,0 days 00:00:44.157000,111.0,276.0,286.0,307.0,medium,15.0
0 days 01:14:48.296000,22,0 days 00:01:39.786000,22,"","",0 days 00:00:25.188000,0 days 00:00:30.254000,0 days 00:00:44.344000,108.0,276.0,287.0,311.0,medium,16.0
0 days 01:17:08.664000,22,0 days 00:02:20.368000,23,"","",0 days 00:00:27.449000,0 days 00:00:32.913000,0 days 00:01:20.006000,102.0,246.0,144.0,278.0,medium,17.0
0 days 01:18:50.617000,22,"",24,"",0 days 01:18:50.617000,0 days 00:00:28.064000,0 days 00:00:34.911000,"",101.0,247.0,"",246.0,medium,18.0
0 days 00:17:50.710000,20,0 days 00:02:13.602000,1,0 days 00:15:43.786000,"",0 days 00:00:38.317000,0 days 00:00:34.293000,0 days 00:01:00.992000,96.0,264.0,292.0,286.0,medium,1.0
0 days 00:19:26.652000,20,0 days 00:01:35.942000,2,"","",0 days 00:00:24.263000,0 days 00:00:29.346000,0 days 00:00:42.333000,106.0,273.0,293.0,320.0,medium,2.0
0 days 00:22:22.162000,20,"",3,"","",0 days 00:00:37.150000,0 days 00:00:57.978000,0 days 00:01:20.361000,72.0,147.0,294.0,144.0,medium,3.0
0 days 00:24:29.864000,20,0 days 00:02:07.702000,4,"","",0 days 00:00:24.226000,0 days 00:00:37.176000,0 days 00:01:06.300000,104.0,216.0,293.0,287.0,medium,4.0
0 days 00:26:05.250000,20,0 days 00:01:35.386000,5,"","",0 days 00:00:23.891000,0 days 00:00:29.211000,0 days 00:00:42.284000,112.0,274.0,294.0,321.0,medium,5.0
0 days 00:28:49.224000,20,"",6,"","",0 days 00:00:39.322000,0 days 00:00:50.898000,0 days 00:01:13.681000,44.0,187.0,294.0,173.0,medium,6.0
0 days 00:30:24.746000,20,0 days 00:01:35.522000,7,"","",0 days 00:00:23.975000,0 days 00:00:29.214000,0 days 00:00:42.333000,111.0,273.0,295.0,322.0,medium,7.0
0 days 00:41:27.816000,20,"",8,"",0 days 00:32:07.606000,0 days 00:00:25.616000,0 days 00:00:37.228000,"",92.0,254.0,"",199.0,medium,8.0
0 days 00:43:54.696000,20,"",9,0 days 00:41:27.816000,"",0 days 00:00:57.621000,0 days 00:00:35.788000,0 days 00:01:03.046000,90.0,259.0,293.0,284.0,soft,1.0
0 days 00:45:28.624000,20,0 days 00:01:33.928000,10,"","",0 days 00:00:23.572000,0 days 00:00:28.699000,0 days 00:00:41.657000,114.0,275.0,299.0,324.0,soft,2.0
0 days 00:48:00.815000,20,"",11,"","",0 days 00:00:36.070000,0 days 00:00:49.355000,0 days 00:01:06.719000,55.0,239.0,293.0,135.0,soft,3.0
0 days 00:50:19.584000,20,0 days 00:02:18.769000,12,"","",0 days 00:00:27.728000,0 days 00:00:48.508000,0 days 00:01:02.533000,83.0,173.0,293.0,154.0,soft,4.0
0 days 01:00:47.701000,20,"",13,"",0 days 00:52:08.069000,0 days 00:00:30.627000,0 days 00:00:38.122000,"",88.0,232.0,"",255.0,soft,5.0
0 days 01:02:59.169000,20,0 days 00:02:11.468000,14,0 days 01:00:55.846000,"",0 days 00:00:53.940000,0 days 00:00:30.807000,0 days 00:00:46.721000,105.0,268.0,280.0,291.0,medium,9.0
0 days 01:04:38.700000,20,0 days 00:01:39.531000,15,"","",0 days 00:00:25.065000,0 days 00:00:30.440000,0 days 00:00:44.026000,109.0,270.0,280.0,291.0,medium,10.0
0 days 01:06:18.825000,20,0 days 00:01:40.125000,16,"","",0 days 00:00:25.323000,0 days 00:00:30.572000,0 days 00:00:44.230000,111.0,269.0,280.0,293.0,medium,11.0
0 days 01:07:59.264000,20,0 days 00:01:40.439000,17,"","",0 days 00:00:25.497000,0 days 00:00:30.685000,0 days 00:00:44.257000,103.0,268.0,282.0,293.0,medium,12.0
0 days 01:09:39.678000,20,0 days 00:01:40.414000,18,"","",0 days 00:00:25.535000,0 days 00:00:30.635000,0 days 00:00:44.244000,108.0,269.0,281.0,294.0,medium,13.0
0 days 01:11:20.146000,20,0 days 00:01:40.468000,19,"","",0 days 00:00:25.459000,0 days 00:00:30.706000,0 days 00:00:44.303000,107.0,268.0,281.0,294.0,medium,14.0
0 days 01:13:00.310000,20,0 days 00:01:40.164000,20,"","",0 days 00:00:25.364000,0 days 00:00:30.542000,0 days 00:00:44.258000,109.0,269.0,281.0,294.0,medium,15.0
0 days 01:14:40.845000,20,0 days 00:01:40.535000,21,"","",0 days 00:00:25.368000,0 days 00:00:30.750000,0 days 00:00:44.417000,107.0,269.0,281.0,293.0,medium,16.0
0 days 01:16:21.083000,20,0 days 00:01:40.238000,22,"","",0 days 00:00:25.319000,0 days 00:00:30.763000,0 days 00:00:44.156000,"",269.0,280.0,293.0,medium,17.0
0 days 01:18:45.226000,20,0 days 00:02:24.143000,23,"","",0 days 00:00:26.847000,0 days 00:00:30.952000,0 days 00:01:26.344000,95.0,269.0,203.0,304.0,medium,18.0
0 days 01:20:52.494000,20,"",24,"",0 days 01:20:52.494000,0 days 00:00:26.382000,0 days 00:00:36.687000,"",107.0,131.0,"",263.0,medium,19.0
0 days 00:18:22.958000,18,0 days 00:02:19.926000,1,0 days 00:16:09.343000,"",0 days 00:00:37.442000,0 days 00:00:32.020000,0 days 00:01:10.464000,98.0,257.0,292.0,304.0,hard,1.0
0 days 00:20:00.965000,18,0 days 00:01:38.007000,2,"","",0 days 00:00:25.037000,0 days 00:00:29.899000,0 days 00:00:43.071000,105.0,272.0,290.0,322.0,hard,2.0
0 days 00:22:16.365000,18,0 days 00:02:15.400000,3,"","",0 days 00:00:30.234000,0 days 00:00:37.788000,0 days 00:01:07.378000,92.0,249.0,293.0,224.0,hard,3.0
0 days 00:23:53.617000,18,0 days 00:01:37.252000,4,"","",0 days 00:00:24.563000,0 days 00:00:29.759000,0 days 00:00:42.930000,109.0,273.0,288.0,322.0,hard,4.0
0 days 00:26:20.268000,18,0 days 00:02:26.651000,5,"","",0 days 00:00:40.725000,0 days 00:00:42.092000,0 days 00:01:03.834000,78.0,239.0,294.0,224.0,hard,5.0
0 days 00:27:57.206000,18,0 days 00:01:36.938000,6,"","",0 days 00:00:24.544000,0 days 00:00:29.603000,0 days 00:00:42.791000,108.0,274.0,294.0,323.0,hard,6.0
0 days 00:35:58.179000,18,"",7,"",0 days 00:29:40.866000,0 days 00:00:29.707000,0 days 00:00:35.724000,"",36.0,254.0,"",273.0,hard,7.0
0 days 00:38:27.733000,18,0 days 00:02:29.554000,8,0 days 00:36:04.336000,"",0 days 00:00:43.945000,0 days 00:00:44.971000,0 days 00:01:00.638000,88.0,195.0,298.0,170.0,soft,1.0
0 days 00:40:02.328000,18,0 days 00:01:34.595000,9,"","",0 days 00:00:23.748000,0 days 00:00:28.893000,0 days 00:00:41.954000,112.0,276.0,292.0,325.0,soft,2.0
0 days 00:42:50.789000,18,"",10,"",0 days 00:42:18.068000,0 days 00:00:38.148000,0 days 00:00:46.004000,0 days 00:01:24.294000,82.0,174.0,"",180.0,soft,3.0
0 days 00:45:42.175000,18,"",11,0 days 00:42:56.948000,"",0 days 00:00:47.307000,0 days 00:00:53.793000,0 days 00:01:10.238000,75.0,179.0,298.0,126.0,soft,4.0
0 days 00:47:16.781000,18,0 days 00:01:34.606000,12,"","",0 days 00:00:23.851000,0 days 00:00:28.819000,0 days 00:00:41.936000,109.0,278.0,294.0,324.0,soft,5.0
0 days 00:55:55.429000,18,"",13,"",0 days 00:49:02.334000,0 days 00:00:27.951000,0 days 00:00:36.147000,"",103.0,255.0,"",215.0,soft,6.0
0 days 00:58:14.276000,18,0 days 00:02:18.847000,14,0 days 00:56:30.359000,"",0 days 00:01:03.790000,0 days 00:00:30.910000,0 days 00:00:44.147000,105.0,268.0,280.0,297.0,hard,8.0
0 days 00:59:53.709000,18,0 days 00:01:39.433000,15,"","",0 days 00:00:24.947000,0 days 00:00:30.589000,0 days 00:00:43.897000,108.0,270.0,281.0,298.0,hard,9.0
0 days 01:01:33.096000,18,0 days 00:01:39.387000,16,"","",0 days 00:00:25.215000,0 days 00:00:30.474000,0 days 00:00:43.698000,107.0,270.0,281.0,299.0,hard,10.0
0 days 01:03:12.222000,18,0 days 00:01:39.126000,17,"","",0 days 00:00:24.981000,0 days 00:00:30.499000,0 days 00:00:43.646000,105.0,270.0,280.0,298.0,hard,11.0
0 days 01:04:51.859000,18,0 days 00:01:39.637000,18,"","",0 days 00:00:25.093000,0 days 00:00:30.546000,0 days 00:00:43.998000,101.0,271.0,282.0,302.0,hard,12.0
0 days 01:06:45.096000,18,0 days 00:01:53.237000,19,"","",0 days 00:00:25.320000,0 days 00:00:31.942000,0 days 00:00:55.975000,106.0,267.0,281.0,298.0,hard,13.0
0 days 01:08:25.629000,18,0 days 00:01:40.533000,20,"","",0 days 00:00:25.227000,0 days 00:00:30.579000,0 days 00:00:44.727000,101.0,269.0,281.0,293.0,hard,14.0
0 days 01:10:05.489000,18,0 days 00:01:39.860000,21,"","",0 days 00:00:25.130000,0 days 00:00:30.465000,0 days 00:00:44.265000,105.0,270.0,281.0,298.0,hard,15.0
0 days 01:11:45.368000,18,0 days 00:01:39.879000,22,"","",0 days 00:00:25.415000,0 days 00:00:30.581000,0 days 00:00:43.883000,108.0,270.0,282.0,296.0,hard,16.0
0 days 01:13:51.364000,18,0 days 00:02:05.996000,23,"",0 days 01:13:16.509000,0 days 00:00:25.241000,0 days 00:00:30.629000,0 days 00:01:10.126000,105.0,270.0,"",296.0,hard,17.0
0 days 01:15:40.135000,18,0 days 00:01:48.771000,24,0 days 01:13:57.468000,"",0 days 00:00:33.755000,0 days 00:00:30.378000,0 days 00:00:44.638000,106.0,268.0,264.0,302.0,soft,7.0
0 days 01:18:25.251000,18,"",25,"","",0 days 00:00:31.049000,0 days 00:00:38.241000,0 days 00:01:35.804000,96.0,246.0,143.0,156.0,soft,8.0
0 days 01:20:14.568000,18,"",26,"",0 days 01:20:14.568000,0 days 00:00:30.410000,0 days 00:00:34.726000,"","",247.0,"",242.0,soft,9.0
0 days 00:27:24.647000,16,0 days 00:02:18.643000,1,0 days 00:25:12.106000,"",0 days 00:00:43.296000,0 days 00:00:37.279000,0 days 00:00:58.068000,83.0,255.0,293.0,256.0,medium,1.0
0 days 00:28:58.829000,16,0 days 00:01:34.182000,2,"","",0 days 00:00:23.729000,0 days 00:00:28.798000,0 days 00:00:41.655000,115.0,278.0,287.0,329.0,medium,2.0
0 days 00:31:22.083000,16,0 days 00:02:23.254000,3,"","",0 days 00:00:37.003000,0 days 00:00:46.402000,0 days 00:00:59.849000,80.0,187.0,293.0,171.0,medium,3.0
0 days 00:39:46.814000,16,"",4,"",0 days 00:32:56.099000,0 days 00:00:23.652000,0 days 00:00:30.324000,"",109.0,250.0,"",326.0,medium,4.0
0 days 00:42:08.659000,16,0 days 00:02:21.845000,5,0 days 00:39:53,"",0 days 00:00:44.491000,0 days 00:00:41.188000,0 days 00:00:56.166000,85.0,203.0,294.0,201.0,soft,1.0
0 days 00:43:41.795000,16,0 days 00:01:33.136000,6,"","",0 days 00:00:23.323000,0 days 00:00:28.554000,0 days 00:00:41.259000,117.0,276.0,292.0,324.0,soft,2.0
0 days 00:46:19.701000,16,"",7,"",0 days 00:45:44.460000,0 days 00:00:33.850000,0 days 00:00:42.293000,0 days 00:01:21.708000,91.0,203.0,"",213.0,soft,3.0
0 days 00:49:08.193000,16,"",8,0 days 00:46:43.489000,"",0 days 00:01:02.435000,0 days 00:00:42.823000,0 days 00:01:03.264000,81.0,211.0,296.0,185.0,soft,4.0
0 days 00:50:40.821000,16,0 days 00:01:32.628000,9,"","",0 days 00:00:23.186000,0 days 00:00:28.472000,0 days 00:00:40.970000,116.0,279.0,298.0,327.0,soft,5.0
0 days 00:58:43.895000,16,"",10,"",0 days 00:52:35.834000,0 days 00:00:29.471000,0 days 00:00:43.638000,"",75.0,199.0,"",193.0,soft,6.0
0 days 01:01:00.235000,16,0 days 00:02:16.340000,11,0 days 00:59:05.925000,"",0 days 00:00:51.741000,0 days 00:00:36.428000,0 days 00:00:48.171000,97.0,263.0,281.0,285.0,medium,5.0
0 days 01:02:37.824000,16,0 days 00:01:37.589000,12,"","",0 days 00:00:24.589000,0 days 00:00:30.042000,0 days 00:00:42.958000,113.0,270.0,282.0,301.0,medium,6.0
0 days 01:04:15.988000,16,0 days 00:01:38.164000,13,"","",0 days 00:00:24.715000,0 days 00:00:30.237000,0 days 00:00:43.212000,109.0,270.0,281.0,295.0,medium,7.0
0 days 01:05:54.170000,16,0 days 00:01:38.182000,14,"","",0 days 00:00:24.806000,0 days 00:00:30.185000,0 days 00:00:43.191000,110.0,271.0,281.0,295.0,medium,8.0
0 days 01:07:32.962000,16,0 days 00:01:38.792000,15,"","",0 days 00:00:24.990000,0 days 00:00:29.800000,0 days 00:00:44.002000,106.0,272.0,296.0,318.0,medium,9.0
0 days 01:09:12.277000,16,0 days 00:01:39.315000,16,"","",0 days 00:00:25.059000,0 days 00:00:30.215000,0 days 00:00:44.041000,108.0,274.0,292.0,315.0,medium,10.0
0 days 01:10:51.648000,16,0 days 00:01:39.371000,17,"","",0 days 00:00:25.373000,0 days 00:00:30.056000,0 days 00:00:43.942000,107.0,270.0,275.0,323.0,medium,11.0
0 days 01:12:30.770000,16,0 days 00:01:39.122000,18,"","",0 days 00:00:25.095000,0 days 00:00:30.432000,0 days 00:00:43.595000,109.0,270.0,276.0,291.0,medium,12.0
0 days 01:14:09.269000,16,0 days 00:01:38.499000,19,"","",0 days 00:00:24.924000,0 days 00:00:30.148000,0 days 00:00:43.427000,"",270.0,281.0,296.0,medium,13.0
0 days 01:15:48.011000,16,0 days 00:01:38.742000,20,"","",0 days 00:00:25.046000,0 days 00:00:30.335000,0 days 00:00:43.361000,"",272.0,281.0,294.0,medium,14.0
0 days 01:18:48.653000,16,"",21,"","",0 days 00:00:32,0 days 00:00:47.299000,"",84.0,176.0,202.0,159.0,medium,15.0
0 days 01:20:24.071000,16,"",22,"",0 days 01:20:24.071000,0 days 00:00:25.521000,0 days 00:00:31.236000,"",103.0,271.0,"",300.0,medium,16.0
0 days 00:18:34.863000,14,0 days 00:02:23.164000,1,0 days 00:16:17.837000,"",0 days 00:00:40.437000,0 days 00:00:36.303000,0 days 00:01:06.424000,92.0,230.0,295.0,273.0,medium,1.0
0 days 00:20:10.394000,14,0 days 00:01:35.531000,2,"","",0 days 00:00:24.063000,0 days 00:00:29.415000,0 days 00:00:42.053000,116.0,270.0,295.0,321.0,medium,2.0
0 days 00:22:47.055000,14,"",3,"","",0 days 00:00:37.251000,0 days 00:00:45.187000,0 days 00:01:14.208000,84.0,165.0,293.0,261.0,medium,3.0
0 days 00:24:22.610000,14,0 days 00:01:35.555000,4,"","",0 days 00:00:23.910000,0 days 00:00:29.357000,0 days 00:00:42.288000,117.0,271.0,291.0,318.0,medium,4.0
0 days 00:26:51.172000,14,0 days 00:02:28.562000,5,"","",0 days 00:00:33.413000,0 days 00:00:47.105000,0 days 00:01:08.044000,83.0,251.0,293.0,105.0,medium,5.0
0 days 00:28:26.813000,14,0 days 00:01:35.641000,6,"","",0 days 00:00:24.008000,0 days 00:00:29.368000,0 days 00:00:42.265000,115.0,271.0,292.0,317.0,medium,6.0
0 days 00:40:15.686000,14,"",7,"",0 days 00:30:15.218000,0 days 00:00:29.804000,0 days 00:00:35.992000,"",92.0,252.0,"",230.0,medium,7.0
0 days 00:42:41.221000,14,0 days 00:02:25.535000,8,0 days 00:40:21.829000,"",0 days 00:00:41.006000,0 days 00:00:42.766000,0 days 00:01:01.763000,88.0,196.0,295.0,183.0,soft,1.0
0 days 00:44:15.480000,14,0 days 00:01:34.259000,9,"","",0 days 00:00:23.675000,0 days 00:00:28.835000,0 days 00:00:41.749000,117.0,273.0,290.0,323.0,soft,2.0
0 days 00:46:34.873000,14,0 days 00:02:19.393000,10,"","",0 days 00:00:35.310000,0 days 00:00:44.433000,0 days 00:00:59.650000,82.0,177.0,297.0,190.0,soft,3.0
0 days 00:55:57.455000,14,"",11,"",0 days 00:48:01.959000,0 days 00:00:23.800000,0 days 00:00:29.308000,"",115.0,269.0,"",318.0,soft,4.0
0 days 00:58:23.376000,14,0 days 00:02:25.921000,12,0 days 00:56:35.515000,"",0 days 00:01:07.777000,0 days 00:00:32.465000,0 days 00:00:45.679000,98.0,269.0,279.0,285.0,medium,8.0
0 days 01:00:02.517000,14,0 days 00:01:39.141000,13,"","",0 days 00:00:25.111000,0 days 00:00:30.358000,0 days 00:00:43.672000,110.0,270.0,280.0,292.0,medium,9.0
0 days 01:01:41.608000,14,0 days 00:01:39.091000,14,"","",0 days 00:00:25.166000,0 days 00:00:30.278000,0 days 00:00:43.647000,111.0,270.0,280.0,294.0,medium,10.0
0 days 01:03:20.763000,14,0 days 00:01:39.155000,15,"","",0 days 00:00:25.184000,0 days 00:00:30.570000,0 days 00:00:43.401000,112.0,269.0,279.0,292.0,medium,11.0
0 days 01:05:00.052000,14,0 days 00:01:39.289000,16,"","",0 days 00:00:25.096000,0 days 00:00:30.645000,0 days 00:00:43.548000,108.0,269.0,280.0,291.0,medium,12.0
0 days 01:06:39.451000,14,0 days 00:01:39.399000,17,"","",0 days 00:00:25.117000,0 days 00:00:30.667000,0 days 00:00:43.615000,110.0,270.0,281.0,291.0,medium,13.0
0 days 01:08:18.839000,14,0 days 00:01:39.388000,18,"","",0 days 00:00:25.212000,0 days 00:00:30.533000,0 days 00:00:43.643000,107.0,270.0,281.0,293.0,medium,14.0
0 days 01:09:58.435000,14,0 days 00:01:39.596000,19,"","",0 days 00:00:25.252000,0 days 00:00:30.575000,0 days 00:00:43.769000,105.0,270.0,281.0,292.0,medium,15.0
0 days 01:11:38.313000,14,0 days 00:01:39.878000,20,"","",0 days 00:00:25.095000,0 days 00:00:30.756000,0 days 00:00:44.027000,107.0,268.0,279.0,290.0,medium,16.0
0 days 01:13:18.899000,14,0 days 00:01:40.586000,21,"","",0 days 00:00:25.370000,0 days 00:00:30.823000,0 days 00:00:44.393000,109.0,267.0,278.0,290.0,medium,17.0
0 days 01:14:59.567000,14,0 days 00:01:40.668000,22,"","",0 days 00:00:25.486000,0 days 00:00:30.893000,0 days 00:00:44.289000,104.0,268.0,278.0,289.0,medium,18.0
0 days 01:17:37.538000,14,"",23,"","",0 days 00:00:28.820000,0 days 00:00:33.749000,0 days 00:01:35.388000,101.0,250.0,118.0,224.0,medium,19.0
0 days 01:19:15.357000,14,"",24,"",0 days 01:19:15.357000,0 days 00:00:27.250000,0 days 00:00:30.717000,"",104.0,269.0,"",295.0,medium,20.0
0 days 00:27:43.641000,11,0 days 00:02:07.310000,1,0 days 00:25:42.434000,"",0 days 00:00:39.663000,0 days 00:00:35.157000,0 days 00:00:52.490000,86.0,219.0,298.0,273.0,medium,1.0
0 days 00:29:18.939000,11,0 days 00:01:35.298000,2,"","",0 days 00:00:24.042000,0 days 00:00:29.031000,0 days 00:00:42.225000,103.0,278.0,299.0,335.0,medium,2.0
0 days 00:31:53.246000,11,"",3,"","",0 days 00:00:37.102000,0 days 00:00:48.110000,0 days 00:01:09.070000,75.0,132.0,297.0,176.0,medium,3.0
0 days 00:33:56.460000,11,0 days 00:02:03.214000,4,"","",0 days 00:00:25.468000,0 days 00:00:43.351000,0 days 00:00:54.395000,84.0,197.0,297.0,162.0,medium,4.0
0 days 00:35:31.239000,11,0 days 00:01:34.779000,5,"","",0 days 00:00:24.020000,0 days 00:00:28.786000,0 days 00:00:41.973000,108.0,278.0,297.0,334.0,medium,5.0
0 days 00:54:52.347000,11,"",6,"",0 days 00:37:11.801000,0 days 00:00:26.987000,0 days 00:00:33.604000,"",97.0,258.0,"",246.0,medium,6.0
0 days 00:57:14.944000,11,0 days 00:02:22.597000,7,0 days 00:54:58.481000,"",0 days 00:00:40.166000,0 days 00:00:42.674000,0 days 00:00:59.757000,81.0,187.0,298.0,183.0,soft,1.0
0 days 00:58:49.004000,11,0 days 00:01:34.060000,8,"","",0 days 00:00:23.635000,0 days 00:00:28.726000,0 days 00:00:41.699000,107.0,278.0,297.0,335.0,soft,2.0
0 days 01:06:27.439000,11,"",9,"",0 days 01:00:26.049000,0 days 00:00:27.800000,0 days 00:00:32.538000,"",96.0,268.0,"",288.0,soft,3.0
0 days 01:08:33.516000,11,0 days 00:02:06.077000,10,0 days 01:06:49.527000,"",0 days 00:00:49.539000,0 days 00:00:30.145000,0 days 00:00:46.393000,102.0,272.0,284.0,305.0,medium,7.0
0 days 01:10:11.488000,11,0 days 00:01:37.972000,11,"","",0 days 00:00:24.753000,0 days 00:00:30.011000,0 days 00:00:43.208000,104.0,272.0,284.0,307.0,medium,8.0
0 days 01:11:49.961000,11,0 days 00:01:38.473000,12,"","",0 days 00:00:25.003000,0 days 00:00:29.922000,0 days 00:00:43.548000,105.0,274.0,285.0,311.0,medium,9.0
0 days 01:13:30.177000,11,0 days 00:01:40.216000,13,"","",0 days 00:00:25.255000,0 days 00:00:29.830000,0 days 00:00:45.131000,102.0,274.0,286.0,333.0,medium,10.0
0 days 01:15:08.677000,11,0 days 00:01:38.500000,14,"","",0 days 00:00:25.148000,0 days 00:00:29.973000,0 days 00:00:43.379000,97.0,276.0,296.0,317.0,medium,11.0
0 days 01:18:01.339000,11,"",15,"","",0 days 00:00:31.283000,0 days 00:00:44.471000,0 days 00:01:36.913000,79.0,211.0,169.0,183.0,medium,12.0
0 days 01:19:42.342000,11,"",16,"",0 days 01:19:42.342000,0 days 00:00:27.590000,0 days 00:00:36.025000,"",95.0,265.0,"",204.0,medium,13.0
0 days 00:18:29.563000,10,0 days 00:02:19.870000,1,0 days 00:16:15.825000,"",0 days 00:00:41.413000,0 days 00:00:35.595000,0 days 00:01:02.862000,88.0,243.0,294.0,311.0,medium,1.0
0 days 00:20:05.447000,10,0 days 00:01:35.884000,2,"","",0 days 00:00:24.464000,0 days 00:00:29.188000,0 days 00:00:42.232000,109.0,276.0,295.0,327.0,medium,2.0
0 days 00:22:42.002000,10,"",3,"","",0 days 00:00:40.389000,0 days 00:00:41.703000,0 days 00:01:14.479000,50.0,214.0,297.0,254.0,medium,3.0
0 days 00:24:17.626000,10,0 days 00:01:35.624000,4,"","",0 days 00:00:24.011000,0 days 00:00:29.279000,0 days 00:00:42.334000,109.0,275.0,295.0,328.0,medium,4.0
0 days 00:27:00.989000,10,"",5,"","",0 days 00:00:44.582000,0 days 00:00:43.882000,0 days 00:01:14.892000,69.0,208.0,299.0,251.0,medium,5.0
0 days 00:28:36.022000,10,0 days 00:01:35.033000,6,"","",0 days 00:00:23.798000,0 days 00:00:28.983000,0 days 00:00:42.252000,110.0,280.0,299.0,328.0,medium,6.0
0 days 00:31:00.897000,10,0 days 00:02:24.875000,7,"","",0 days 00:00:36.623000,0 days 00:00:44.873000,0 days 00:01:03.379000,39.0,211.0,294.0,212.0,medium,7.0
0 days 00:32:36.495000,10,0 days 00:01:35.598000,8,"","",0 days 00:00:24.013000,0 days 00:00:29.196000,0 days 00:00:42.389000,111.0,275.0,293.0,326.0,medium,8.0
0 days 00:43:33.058000,10,"",9,"",0 days 00:34:21.343000,0 days 00:00:30.151000,0 days 00:00:36.944000,"",96.0,248.0,"",269.0,medium,9.0
0 days 00:45:53.566000,10,0 days 00:02:20.508000,10,0 days 00:43:39.271000,"",0 days 00:00:43.350000,0 days 00:00:38.993000,0 days 00:00:58.165000,88.0,214.0,295.0,300.0,soft,1.0
0 days 00:47:27.531000,10,0 days 00:01:33.965000,11,"","",0 days 00:00:23.582000,0 days 00:00:28.843000,0 days 00:00:41.540000,113.0,274.0,297.0,327.0,soft,2.0
0 days 00:50:08.580000,10,"",12,"","",0 days 00:00:43.897000,0 days 00:00:49.565000,0 days 00:01:07.576000,71.0,151.0,246.0,261.0,soft,3.0
0 days 00:52:37.709000,10,0 days 00:02:29.129000,13,"","",0 days 00:00:36.359000,0 days 00:00:43.887000,0 days 00:01:08.883000,76.0,172.0,295.0,290.0,soft,4.0
0 days 00:54:11.615000,10,0 days 00:01:33.906000,14,"","",0 days 00:00:23.590000,0 days 00:00:28.716000,0 days 00:00:41.600000,111.0,276.0,296.0,328.0,soft,5.0
0 days 01:03:59.392000,10,"",15,"",0 days 00:55:47.548000,0 days 00:00:28.934000,0 days 00:00:32.386000,"",100.0,273.0,"",293.0,soft,6.0
0 days 01:06:06.301000,10,0 days 00:02:06.909000,16,0 days 01:04:21.483000,"",0 days 00:00:50.359000,0 days 00:00:31.104000,0 days 00:00:45.446000,97.0,269.0,280.0,304.0,medium,10.0
0 days 01:07:46.524000,10,0 days 00:01:40.223000,17,"","",0 days 00:00:25.239000,0 days 00:00:30.356000,0 days 00:00:44.628000,103.0,270.0,281.0,300.0,medium,11.0
0 days 01:09:25.922000,10,0 days 00:01:39.398000,18,"","",0 days 00:00:25.179000,0 days 00:00:30.145000,0 days 00:00:44.074000,109.0,274.0,285.0,301.0,medium,12.0
0 days 01:11:05.182000,10,0 days 00:01:39.260000,19,"","",0 days 00:00:25.031000,0 days 00:00:30.122000,0 days 00:00:44.107000,110.0,274.0,284.0,303.0,medium,13.0
0 days 01:12:44.993000,10,0 days 00:01:39.811000,20,"","",0 days 00:00:25.050000,0 days 00:00:30.413000,0 days 00:00:44.348000,105.0,271.0,281.0,302.0,medium,14.0
0 days 01:14:24.845000,10,0 days 00:01:39.852000,21,"","",0 days 00:00:25.230000,0 days 00:00:30.398000,0 days 00:00:44.224000,107.0,271.0,283.0,304.0,medium,15.0
0 days 01:16:04.536000,10,0 days 00:01:39.691000,22,"","",0 days 00:00:25.095000,0 days 00:00:30.383000,0 days 00:00:44.213000,"",273.0,283.0,304.0,medium,16.0
0 days 01:18:38.514000,10,"",23,"","",0 days 00:00:27.562000,0 days 00:00:33.681000,0 days 00:01:32.700000,103.0,250.0,181.0,231.0,medium,17.0
0 days 01:20:16.412000,10,"",24,"",0 days 01:20:16.412000,0 days 00:00:28.207000,0 days 00:00:30.776000,"",107.0,271.0,"",310.0,medium,18.0
0 days 00:18:08.810000,6,0 days 00:02:25.239000,1,0 days 00:15:49.666000,"",0 days 00:00:38.494000,0 days 00:00:34.976000,0 days 00:01:11.769000,105.0,256.0,292.0,207.0,hard,1.0
0 days 00:19:47.289000,6,0 days 00:01:38.479000,2,"","",0 days 00:00:25.244000,0 days 00:00:29.935000,0 days 00:00:43.300000,111.0,271.0,294.0,323.0,hard,2.0
0 days 00:22:08.576000,6,0 days 00:02:21.287000,3,"","",0 days 00:00:35.562000,0 days 00:00:43.071000,0 days 00:01:02.654000,76.0,252.0,298.0,189.0,hard,3.0
0 days 00:23:44.800000,6,0 days 00:01:36.224000,4,"","",0 days 00:00:24.320000,0 days 00:00:29.443000,0 days 00:00:42.461000,114.0,278.0,296.0,328.0,hard,4.0
0 days 00:26:13.994000,6,0 days 00:02:29.194000,5,"","",0 days 00:00:36.206000,0 days 00:00:46.804000,0 days 00:01:06.184000,73.0,177.0,294.0,215.0,hard,5.0
0 days 00:27:50.462000,6,0 days 00:01:36.468000,6,"","",0 days 00:00:24.371000,0 days 00:00:29.500000,0 days 00:00:42.597000,113.0,274.0,296.0,326.0,hard,6.0
0 days 00:36:17.805000,6,"",7,"",0 days 00:29:35.226000,0 days 00:00:26.913000,0 days 00:00:35.406000,"",102.0,253.0,"",264.0,hard,7.0
0 days 00:38:38.289000,6,0 days 00:02:20.484000,8,0 days 00:36:23.971000,"",0 days 00:00:36.526000,0 days 00:00:36.485000,0 days 00:01:07.473000,104.0,253.0,295.0,238.0,soft,1.0
0 days 00:40:13.701000,6,0 days 00:01:35.412000,9,"","",0 days 00:00:24.108000,0 days 00:00:29.134000,0 days 00:00:42.170000,116.0,273.0,295.0,325.0,soft,2.0
0 days 00:42:35.574000,6,0 days 00:02:21.873000,10,"","",0 days 00:00:37.634000,0 days 00:00:43.091000,0 days 00:01:01.148000,71.0,203.0,269.0,224.0,soft,3.0
0 days 00:44:57.813000,6,0 days 00:02:22.239000,11,"","",0 days 00:00:34.336000,0 days 00:00:41.025000,0 days 00:01:06.878000,82.0,242.0,295.0,257.0,soft,4.0
0 days 00:46:33.393000,6,0 days 00:01:35.580000,12,"","",0 days 00:00:24.081000,0 days 00:00:29.192000,0 days 00:00:42.307000,117.0,274.0,296.0,325.0,soft,5.0
0 days 00:55:13.587000,6,"",13,"",0 days 00:48:24.873000,0 days 00:00:32.375000,0 days 00:00:36.229000,"",93.0,252.0,"",240.0,soft,6.0
0 days 00:57:42.349000,6,"",14,0 days 00:55:13.587000,0 days 00:57:11.648000,0 days 00:00:48.328000,0 days 00:00:35.335000,0 days 00:01:12.937000,105.0,200.0,"",308.0,soft,7.0
0 days 00:59:32.155000,6,0 days 00:01:49.806000,15,0 days 00:57:48.428000,"",0 days 00:00:33.654000,0 days 00:00:30.931000,0 days 00:00:45.221000,108.0,271.0,293.0,296.0,hard,8.0
0 days 01:01:12.683000,6,0 days 00:01:40.528000,16,"","",0 days 00:00:25.455000,0 days 00:00:30.473000,0 days 00:00:44.600000,110.0,271.0,282.0,302.0,hard,9.0
0 days 01:02:53.343000,6,0 days 00:01:40.660000,17,"","",0 days 00:00:25.288000,0 days 00:00:30.757000,0 days 00:00:44.615000,109.0,270.0,281.0,297.0,hard,10.0
0 days 01:04:33.613000,6,0 days 00:01:40.270000,18,"","",0 days 00:00:25.209000,0 days 00:00:30.562000,0 days 00:00:44.499000,"",270.0,281.0,302.0,hard,11.0
0 days 01:06:14.051000,6,0 days 00:01:40.438000,19,"","",0 days 00:00:25.402000,0 days 00:00:30.633000,0 days 00:00:44.403000,110.0,271.0,283.0,307.0,hard,12.0
0 days 01:07:54.407000,6,0 days 00:01:40.356000,20,"","",0 days 00:00:25.329000,0 days 00:00:30.524000,0 days 00:00:44.503000,111.0,274.0,286.0,311.0,hard,13.0
0 days 01:09:34.406000,6,0 days 00:01:39.999000,21,"","",0 days 00:00:25.328000,0 days 00:00:30.481000,0 days 00:00:44.190000,112.0,275.0,287.0,306.0,hard,14.0
0 days 01:11:14.131000,6,0 days 00:01:39.725000,22,"","",0 days 00:00:25.096000,0 days 00:00:30.420000,0 days 00:00:44.209000,109.0,274.0,286.0,306.0,hard,15.0
0 days 01:12:54.414000,6,0 days 00:01:40.283000,23,"","",0 days 00:00:25.228000,0 days 00:00:30.543000,0 days 00:00:44.512000,111.0,271.0,282.0,308.0,hard,16.0
0 days 01:14:34.854000,6,0 days 00:01:40.440000,24,"","",0 days 00:00:25.300000,0 days 00:00:30.732000,0 days 00:00:44.408000,"",271.0,283.0,307.0,hard,17.0
0 days 01:16:15.177000,6,0 days 00:01:40.323000,25,"","",0 days 00:00:25.364000,0 days 00:00:30.634000,0 days 00:00:44.325000,108.0,271.0,282.0,307.0,hard,18.0
0 days 01:18:58.835000,6,"",26,"","",0 days 00:00:33.337000,0 days 00:00:36.796000,0 days 00:01:33.437000,91.0,240.0,205.0,284.0,hard,19.0
0 days 01:20:57.041000,6,"",27,"",0 days 01:20:57.041000,0 days 00:00:28.796000,0 days 00:00:36.282000,"",104.0,256.0,"",239.0,hard,20.0
0 days 00:17:24.955000,5,0 days 00:02:28.671000,1,0 days 00:15:02.360000,"",0 days 00:00:45.051000,0 days 00:00:39.547000,0 days 00:01:04.073000,88.0,175.0,292.0,195.0,medium,1.0
0 days 00:19:02.336000,5,0 days 00:01:37.381000,2,"","",0 days 00:00:24.595000,0 days 00:00:29.583000,0 days 00:00:43.203000,107.0,272.0,286.0,321.0,medium,2.0
0 days 00:21:44.004000,5,"",3,"","",0 days 00:00:39.914000,0 days 00:00:56.853000,0 days 00:01:04.972000,78.0,128.0,292.0,120.0,medium,3.0
0 days 00:23:21.113000,5,0 days 00:01:37.109000,4,"","",0 days 00:00:24.559000,0 days 00:00:29.577000,0 days 00:00:42.973000,112.0,273.0,281.0,317.0,medium,4.0
0 days 00:25:44.025000,5,0 days 00:02:22.912000,5,"","",0 days 00:00:33.602000,0 days 00:00:44.780000,0 days 00:01:04.530000,87.0,222.0,228.0,120.0,medium,5.0
0 days 00:28:03.422000,5,0 days 00:02:19.397000,6,"","",0 days 00:00:32.619000,0 days 00:00:39.525000,0 days 00:01:07.253000,94.0,239.0,293.0,248.0,medium,6.0
0 days 00:29:39.768000,5,0 days 00:01:36.346000,7,"","",0 days 00:00:24.436000,0 days 00:00:29.337000,0 days 00:00:42.573000,104.0,274.0,289.0,320.0,medium,7.0
0 days 00:37:19.829000,5,"",8,"",0 days 00:31:18.447000,0 days 00:00:28.251000,0 days 00:00:33.345000,"",101.0,250.0,"",268.0,medium,8.0
0 days 00:39:50.477000,5,"",9,0 days 00:37:19.829000,"",0 days 00:00:44.676000,0 days 00:00:51.589000,0 days 00:01:00.557000,90.0,214.0,297.0,143.0,soft,1.0
0 days 00:41:24.992000,5,0 days 00:01:34.515000,10,"","",0 days 00:00:23.849000,0 days 00:00:28.717000,0 days 00:00:41.949000,116.0,278.0,293.0,322.0,soft,2.0
0 days 00:44:23.383000,5,"",11,"",0 days 00:43:57.943000,0 days 00:00:38.937000,0 days 00:00:56.962000,0 days 00:01:22.479000,83.0,104.0,"",133.0,soft,3.0
0 days 00:46:53.202000,5,0 days 00:02:29.819000,12,0 days 00:44:29.858000,"",0 days 00:00:47.357000,0 days 00:00:44.896000,0 days 00:00:57.566000,78.0,206.0,297.0,128.0,soft,4.0
0 days 00:48:27.622000,5,0 days 00:01:34.420000,13,"","",0 days 00:00:23.904000,0 days 00:00:28.714000,0 days 00:00:41.802000,111.0,279.0,295.0,322.0,soft,5.0
0 days 00:55:46.953000,5,"",14,"",0 days 00:50:16.280000,0 days 00:00:39.071000,0 days 00:00:33.046000,"",99.0,253.0,"",268.0,soft,6.0
0 days 00:58:07.624000,5,0 days 00:02:20.671000,15,0 days 00:56:15.579000,"",0 days 00:00:59.605000,0 days 00:00:32.594000,0 days 00:00:48.472000,104.0,255.0,278.0,267.0,medium,9.0
0 days 00:59:46.598000,5,0 days 00:01:38.974000,16,"","",0 days 00:00:24.976000,0 days 00:00:30.212000,0 days 00:00:43.786000,108.0,270.0,280.0,297.0,medium,10.0
0 days 01:01:25.764000,5,0 days 00:01:39.166000,17,"","",0 days 00:00:25.197000,0 days 00:00:30.252000,0 days 00:00:43.717000,110.0,270.0,280.0,298.0,medium,11.0
0 days 01:03:04.900000,5,0 days 00:01:39.136000,18,"","",0 days 00:00:25.017000,0 days 00:00:30.378000,0 days 00:00:43.741000,108.0,270.0,281.0,301.0,medium,12.0
0 days 01:04:44.182000,5,0 days 00:01:39.282000,19,"","",0 days 00:00:25.038000,0 days 00:00:30.354000,0 days 00:00:43.890000,107.0,271.0,280.0,297.0,medium,13.0
0 days 01:06:23.907000,5,0 days 00:01:39.725000,20,"","",0 days 00:00:25.230000,0 days 00:00:30.458000,0 days 00:00:44.037000,108.0,270.0,281.0,299.0,medium,14.0
0 days 01:08:03.636000,5,0 days 00:01:39.729000,21,"","",0 days 00:00:25.231000,0 days 00:00:30.386000,0 days 00:00:44.112000,103.0,271.0,283.0,304.0,medium,15.0
0 days 01:09:42.959000,5,0 days 00:01:39.323000,22,"","",0 days 00:00:25.092000,0 days 00:00:30.325000,0 days 00:00:43.906000,104.0,271.0,280.0,304.0,medium,16.0
0 days 01:11:22.703000,5,0 days 00:01:39.744000,23,"","",0 days 00:00:25.206000,0 days 00:00:30.392000,0 days 00:00:44.146000,108.0,271.0,281.0,299.0,medium,17.0
0 days 01:13:23.486000,5,0 days 00:02:00.783000,24,"",0 days 01:12:52.386000,0 days 00:00:25.265000,0 days 00:00:30.409000,0 days 00:01:05.109000,106.0,271.0,"",296.0,medium,18.0
0 days 01:15:16.149000,5,0 days 00:01:52.663000,25,0 days 01:13:29.607000,"",0 days 00:00:33.221000,0 days 00:00:30.686000,0 days 00:00:48.756000,107.0,270.0,281.0,297.0,soft,7.0
0 days 01:18:00.524000,5,"",26,"","",0 days 00:00:25.035000,0 days 00:00:31.477000,"",108.0,216.0,158.0,294.0,soft,8.0
0 days 01:19:47.483000,5,"",27,"",0 days 01:19:47.483000,0 days 00:00:30.701000,0 days 00:00:32.274000,"",100.0,248.0,"",300.0,soft,9.0
0 days 00:21:21.549000,4,"",1,0 days 00:18:59.369000,"",0 days 00:00:54.887000,0 days 00:00:42.171000,0 days 00:01:02.886000,90.0,200.0,290.0,268.0,medium,1.0
0 days 00:22:57.471000,4,0 days 00:01:35.922000,2,"","",0 days 00:00:24.160000,0 days 00:00:29.310000,0 days 00:00:42.452000,109.0,273.0,288.0,316.0,medium,2.0
0 days 00:25:37.693000,4,"",3,"","",0 days 00:00:36.929000,0 days 00:00:55.768000,0 days 00:01:07.534000,78.0,135.0,291.0,130.0,medium,3.0
0 days 00:27:13.425000,4,0 days 00:01:35.732000,4,"","",0 days 00:00:23.923000,0 days 00:00:29.283000,0 days 00:00:42.526000,111.0,273.0,281.0,324.0,medium,4.0
0 days 00:36:39.435000,4,"",5,"",0 days 00:28:56.762000,0 days 00:00:28.931000,0 days 00:00:33.828000,"",97.0,199.0,"",245.0,medium,5.0
0 days 00:38:56.009000,4,0 days 00:02:16.574000,6,0 days 00:36:45.612000,"",0 days 00:00:41.789000,0 days 00:00:41.578000,0 days 00:00:53.207000,95.0,204.0,291.0,187.0,medium,6.0
0 days 00:40:31.329000,4,0 days 00:01:35.320000,7,"","",0 days 00:00:23.950000,0 days 00:00:29.297000,0 days 00:00:42.073000,103.0,272.0,289.0,318.0,medium,7.0
0 days 00:49:07.086000,4,"",8,"",0 days 00:42:07.915000,0 days 00:00:26.619000,0 days 00:00:34.509000,"",104.0,253.0,"",218.0,medium,8.0
0 days 00:51:22.130000,4,0 days 00:02:15.044000,9,0 days 00:49:13.249000,"",0 days 00:00:41.325000,0 days 00:00:41.544000,0 days 00:00:52.175000,90.0,215.0,298.0,177.0,soft,1.0
0 days 00:53:25.465000,4,0 days 00:02:03.335000,10,"","",0 days 00:00:23.799000,0 days 00:00:42.993000,0 days 00:00:56.543000,82.0,173.0,297.0,193.0,soft,2.0
0 days 00:54:59.072000,4,0 days 00:01:33.607000,11,"","",0 days 00:00:23.327000,0 days 00:00:28.573000,0 days 00:00:41.707000,111.0,278.0,291.0,327.0,soft,3.0
0 days 01:02:15.060000,4,"",12,"",0 days 00:56:31.373000,0 days 00:00:25.858000,0 days 00:00:31.871000,"",117.0,253.0,"",249.0,soft,4.0
0 days 01:04:37.995000,4,0 days 00:02:22.935000,13,0 days 01:02:24.445000,0 days 01:04:07.858000,0 days 00:00:49.159000,0 days 00:00:30.229000,0 days 00:01:03.547000,110.0,270.0,"",297.0,soft,5.0
0 days 01:06:25.052000,4,0 days 00:01:47.057000,14,0 days 01:04:44.110000,"",0 days 00:00:32.962000,0 days 00:00:30.499000,0 days 00:00:43.596000,114.0,271.0,281.0,296.0,medium,9.0
0 days 01:08:04.379000,4,0 days 00:01:39.327000,15,"","",0 days 00:00:25.127000,0 days 00:00:30.361000,0 days 00:00:43.839000,106.0,271.0,293.0,302.0,medium,10.0
0 days 01:09:43.691000,4,0 days 00:01:39.312000,16,"","",0 days 00:00:25.042000,0 days 00:00:30.304000,0 days 00:00:43.966000,111.0,273.0,293.0,312.0,medium,11.0
0 days 01:11:27.354000,4,0 days 00:01:43.663000,17,"","",0 days 00:00:25.246000,0 days 00:00:34.314000,0 days 00:00:44.103000,"",269.0,281.0,290.0,medium,12.0
0 days 01:13:07.279000,4,0 days 00:01:39.925000,18,"","",0 days 00:00:25.241000,0 days 00:00:30.527000,0 days 00:00:44.157000,108.0,270.0,281.0,296.0,medium,13.0
0 days 01:14:47.137000,4,0 days 00:01:39.858000,19,"","",0 days 00:00:25.107000,0 days 00:00:30.636000,0 days 00:00:44.115000,101.0,269.0,281.0,299.0,medium,14.0
0 days 01:17:04.320000,4,0 days 00:02:17.183000,20,"","",0 days 00:00:25.177000,0 days 00:00:30.636000,0 days 00:01:21.370000,104.0,263.0,124.0,298.0,medium,15.0
0 days 01:18:53.994000,4,"",21,"",0 days 01:18:53.994000,0 days 00:00:27.527000,0 days 00:00:40.464000,"",99.0,236.0,"",208.0,medium,16.0
0 days 00:18:14.698000,3,"",1,0 days 00:15:45.467000,"",0 days 00:00:51.736000,0 days 00:00:38.760000,0 days 00:01:08.994000,88.0,180.0,294.0,304.0,hard,1.0
0 days 00:19:52.450000,3,0 days 00:01:37.752000,2,"","",0 days 00:00:25.131000,0 days 00:00:29.677000,0 days 00:00:42.944000,108.0,273.0,286.0,321.0,hard,2.0
0 days 00:22:34.383000,3,"",3,"","",0 days 00:00:35.941000,0 days 00:00:46.051000,0 days 00:01:19.942000,83.0,208.0,295.0,245.0,hard,3.0
0 days 00:24:11.603000,3,0 days 00:01:37.220000,4,"","",0 days 00:00:24.651000,0 days 00:00:29.494000,0 days 00:00:43.075000,111.0,274.0,280.0,325.0,hard,4.0
0 days 00:26:40.309000,3,0 days 00:02:28.706000,5,"","",0 days 00:00:35.393000,0 days 00:00:53.509000,0 days 00:00:59.804000,83.0,201.0,294.0,277.0,hard,5.0
0 days 00:28:16.706000,3,0 days 00:01:36.397000,6,"","",0 days 00:00:24.344000,0 days 00:00:29.428000,0 days 00:00:42.625000,111.0,274.0,295.0,325.0,hard,6.0
0 days 00:30:35.124000,3,0 days 00:02:18.418000,7,"",0 days 00:30:02.857000,0 days 00:00:29.251000,0 days 00:00:34.148000,0 days 00:01:15.019000,103.0,247.0,"",295.0,hard,7.0
0 days 00:43:07.427000,3,"",8,0 days 00:30:41.285000,0 days 00:32:12.272000,0 days 00:00:33.708000,0 days 00:00:29.552000,"",109.0,274.0,"",324.0,hard,8.0
0 days 00:45:33.530000,3,"",9,0 days 00:43:07.427000,"",0 days 00:00:43.677000,0 days 00:00:45.912000,0 days 00:01:02.697000,80.0,246.0,299.0,233.0,soft,1.0
0 days 00:47:07.514000,3,0 days 00:01:33.984000,10,"","",0 days 00:00:23.630000,0 days 00:00:28.682000,0 days 00:00:41.672000,113.0,278.0,296.0,325.0,soft,2.0
0 days 00:57:24.360000,3,"",11,"",0 days 00:49:12.284000,0 days 00:00:40.815000,0 days 00:00:45.528000,"",35.0,246.0,"",283.0,soft,3.0
0 days 00:59:32.704000,3,0 days 00:02:08.344000,12,0 days 00:57:39.726000,"",0 days 00:00:44.127000,0 days 00:00:30.718000,0 days 00:00:53.499000,99.0,269.0,287.0,295.0,hard,9.0
0 days 01:01:19.418000,3,0 days 00:01:46.714000,13,"","",0 days 00:00:25.589000,0 days 00:00:30.488000,0 days 00:00:50.637000,110.0,269.0,280.0,313.0,hard,10.0
0 days 01:03:00.221000,3,0 days 00:01:40.803000,14,"","",0 days 00:00:25.489000,0 days 00:00:30.900000,0 days 00:00:44.414000,101.0,269.0,281.0,294.0,hard,11.0
0 days 01:04:40.646000,3,0 days 00:01:40.425000,15,"","",0 days 00:00:25.281000,0 days 00:00:30.756000,0 days 00:00:44.388000,107.0,270.0,281.0,291.0,hard,12.0
0 days 01:06:21.131000,3,0 days 00:01:40.485000,16,"","",0 days 00:00:25.337000,0 days 00:00:31.152000,0 days 00:00:43.996000,"",270.0,282.0,295.0,hard,13.0
0 days 01:08:01.168000,3,0 days 00:01:40.037000,17,"","",0 days 00:00:25.212000,0 days 00:00:30.595000,0 days 00:00:44.230000,106.0,271.0,282.0,300.0,hard,14.0
0 days 01:10:00.897000,3,0 days 00:01:59.729000,18,"",0 days 01:09:30.838000,0 days 00:00:25.180000,0 days 00:00:30.574000,0 days 00:01:03.975000,"",270.0,"",301.0,hard,15.0
0 days 01:11:48.777000,3,0 days 00:01:47.880000,19,0 days 01:10:07.030000,"",0 days 00:00:33.250000,0 days 00:00:30.357000,0 days 00:00:44.273000,108.0,270.0,281.0,298.0,soft,4.0
0 days 01:13:28.027000,3,0 days 00:01:39.250000,20,"","",0 days 00:00:25.030000,0 days 00:00:30.392000,0 days 00:00:43.828000,105.0,269.0,280.0,298.0,soft,5.0
0 days 01:15:06.712000,3,0 days 00:01:38.685000,21,"","",0 days 00:00:24.947000,0 days 00:00:30.167000,0 days 00:00:43.571000,103.0,269.0,281.0,300.0,soft,6.0
0 days 01:17:40.371000,3,"",22,"","",0 days 00:00:25.018000,0 days 00:00:32.827000,0 days 00:01:35.799000,110.0,244.0,143.0,245.0,soft,7.0
0 days 01:19:26.575000,3,"",23,"",0 days 01:19:26.575000,0 days 00:00:29.229000,0 days 00:00:33.212000,"",95.0,237.0,"",252.0,soft,8.0
0 days 00:17:56.582000,63,"",1,0 days 00:15:33.524000,"",0 days 00:00:58.644000,0 days 00:00:38.635000,0 days 00:01:07.285000,86.0,222.0,292.0,244.0,medium,1.0
0 days 00:19:32.484000,63,0 days 00:01:35.902000,2,"","",0 days 00:00:24.335000,0 days 00:00:29.332000,0 days 00:00:42.235000,114.0,275.0,278.0,322.0,medium,2.0
0 days 00:22:17.830000,63,"",3,"",0 days 00:21:42.866000,0 days 00:00:38.065000,0 days 00:00:42.882000,0 days 00:01:24.383000,78.0,237.0,"",221.0,medium,3.0
0 days 00:25:11.733000,63,"",4,0 days 00:22:49.829000,"",0 days 00:01:09.570000,0 days 00:00:40.994000,0 days 00:01:03.362000,85.0,244.0,292.0,233.0,medium,4.0
0 days 00:26:46.543000,63,0 days 00:01:34.810000,5,"","",0 days 00:00:23.859000,0 days 00:00:29.012000,0 days 00:00:41.939000,116.0,275.0,290.0,323.0,medium,5.0
0 days 00:29:06.737000,63,0 days 00:02:20.194000,6,"","",0 days 00:00:33.281000,0 days 00:00:42.047000,0 days 00:01:04.866000,93.0,243.0,249.0,200.0,medium,6.0
0 days 00:31:29.265000,63,0 days 00:02:22.528000,7,"","",0 days 00:00:36.227000,0 days 00:00:42.839000,0 days 00:01:03.462000,90.0,230.0,293.0,204.0,medium,7.0
0 days 00:50:03.906000,63,"",8,"",0 days 00:32:59.292000,0 days 00:00:23.858000,0 days 00:00:29.092000,"",114.0,275.0,"",324.0,medium,8.0
0 days 00:52:29.299000,63,"",9,0 days 00:50:03.906000,"",0 days 00:00:45.907000,0 days 00:00:41.749000,0 days 00:01:03.944000,82.0,232.0,297.0,256.0,soft,1.0
0 days 00:54:02.590000,63,0 days 00:01:33.291000,10,"","",0 days 00:00:23.515000,0 days 00:00:28.465000,0 days 00:00:41.311000,117.0,278.0,291.0,326.0,soft,2.0
0 days 00:56:52.438000,63,"",11,"",0 days 00:56:20.191000,0 days 00:00:36.760000,0 days 00:00:47.360000,0 days 00:01:25.670000,80.0,238.0,"",182.0,soft,3.0
0 days 00:59:25.569000,63,"",12,0 days 00:56:58.559000,"",0 days 00:00:47.633000,0 days 00:00:46.488000,0 days 00:00:58.992000,86.0,234.0,292.0,124.0,soft,4.0
0 days 01:06:51.925000,63,"",13,"",0 days 01:00:52.948000,0 days 00:00:23.655000,0 days 00:00:28.930000,"",117.0,262.0,"",323.0,soft,5.0
0 days 01:08:54.675000,63,0 days 00:02:02.750000,14,0 days 01:07:12.705000,"",0 days 00:00:48.078000,0 days 00:00:30.458000,0 days 00:00:44.214000,109.0,268.0,279.0,301.0,medium,9.0
0 days 01:10:33.474000,63,0 days 00:01:38.799000,15,"","",0 days 00:00:24.950000,0 days 00:00:30.262000,0 days 00:00:43.587000,"",269.0,281.0,304.0,medium,10.0
0 days 01:12:12.150000,63,0 days 00:01:38.676000,16,"","",0 days 00:00:24.921000,0 days 00:00:30.303000,0 days 00:00:43.452000,108.0,270.0,280.0,306.0,medium,11.0
0 days 01:13:50.306000,63,0 days 00:01:38.156000,17,"","",0 days 00:00:24.632000,0 days 00:00:30.210000,0 days 00:00:43.314000,110.0,270.0,281.0,305.0,medium,12.0
0 days 01:15:31.578000,63,0 days 00:01:41.272000,18,"","",0 days 00:00:25.274000,0 days 00:00:31.460000,0 days 00:00:44.538000,105.0,268.0,245.0,304.0,medium,13.0
0 days 01:18:11.732000,63,"",19,"","",0 days 00:00:32.269000,0 days 00:00:37.365000,0 days 00:01:30.506000,92.0,200.0,125.0,263.0,medium,14.0
0 days 01:19:50.865000,63,"",20,"",0 days 01:19:50.865000,0 days 00:00:28.573000,0 days 00:00:32.298000,"",103.0,250.0,"",266.0,medium,15.0
0 days 00:17:02.248000,77,0 days 00:02:16.109000,1,0 days 00:14:52.305000,"",0 days 00:00:42.587000,0 days 00:00:37.815000,0 days 00:00:55.707000,83.0,252.0,289.0,291.0,medium,1.0
0 days 00:18:39.135000,77,0 days 00:01:36.887000,2,"","",0 days 00:00:24.747000,0 days 00:00:29.527000,0 days 00:00:42.613000,111.0,273.0,293.0,320.0,medium,2.0
0 days 00:20:56.236000,77,0 days 00:02:17.101000,3,"","",0 days 00:00:35.537000,0 days 00:00:43.222000,0 days 00:00:58.342000,81.0,208.0,289.0,222.0,medium,3.0
0 days 00:22:32.395000,77,0 days 00:01:36.159000,4,"","",0 days 00:00:24.464000,0 days 00:00:29.209000,0 days 00:00:42.486000,111.0,274.0,289.0,322.0,medium,4.0
0 days 00:24:49.604000,77,0 days 00:02:17.209000,5,"","",0 days 00:00:30.028000,0 days 00:00:47.335000,0 days 00:00:59.846000,87.0,195.0,293.0,136.0,medium,5.0
0 days 00:26:54.620000,77,0 days 00:02:05.016000,6,"","",0 days 00:00:34.873000,0 days 00:00:37.782000,0 days 00:00:52.361000,96.0,171.0,293.0,295.0,medium,6.0
0 days 00:28:30.746000,77,0 days 00:01:36.126000,7,"","",0 days 00:00:24.296000,0 days 00:00:29.323000,0 days 00:00:42.507000,110.0,276.0,292.0,322.0,medium,7.0
0 days 00:30:37.618000,77,0 days 00:02:06.872000,8,"","",0 days 00:00:31.405000,0 days 00:00:39.980000,0 days 00:00:55.487000,90.0,182.0,293.0,273.0,medium,8.0
0 days 00:32:12.846000,77,0 days 00:01:35.228000,9,"","",0 days 00:00:24,0 days 00:00:29.118000,0 days 00:00:42.110000,105.0,277.0,294.0,325.0,medium,9.0
0 days 00:34:20.496000,77,0 days 00:02:07.650000,10,"",0 days 00:33:55.410000,0 days 00:00:29.831000,0 days 00:00:33.592000,0 days 00:01:04.227000,97.0,248.0,"",279.0,medium,10.0
0 days 00:43:49.636000,77,"",11,0 days 00:34:31.205000,0 days 00:36:26.067000,0 days 00:00:55.041000,0 days 00:00:33.858000,"",98.0,250.0,"",272.0,medium,11.0
0 days 00:46:17.089000,77,0 days 00:02:27.453000,12,0 days 00:43:55.856000,"",0 days 00:00:45.343000,0 days 00:00:44.938000,0 days 00:00:57.172000,79.0,252.0,291.0,208.0,soft,1.0
0 days 00:47:51.353000,77,0 days 00:01:34.264000,13,"","",0 days 00:00:23.755000,0 days 00:00:28.865000,0 days 00:00:41.644000,113.0,274.0,289.0,322.0,soft,2.0
0 days 00:50:24.871000,77,"",14,"","",0 days 00:00:38.181000,0 days 00:00:51.212000,0 days 00:01:04.041000,75.0,230.0,291.0,121.0,soft,3.0
0 days 00:51:59.154000,77,0 days 00:01:34.283000,15,"","",0 days 00:00:23.755000,0 days 00:00:28.776000,0 days 00:00:41.752000,113.0,275.0,291.0,321.0,soft,4.0
0 days 00:54:16.915000,77,0 days 00:02:17.761000,16,"",0 days 00:53:51.404000,0 days 00:00:30.163000,0 days 00:00:36.505000,0 days 00:01:11.093000,99.0,240.0,"",265.0,soft,5.0
0 days 00:57:00.731000,77,"",17,0 days 00:54:26.641000,"",0 days 00:01:00.634000,0 days 00:00:43.898000,0 days 00:00:59.271000,86.0,241.0,289.0,176.0,soft,6.0
0 days 00:58:35.051000,77,0 days 00:01:34.320000,18,"","",0 days 00:00:23.657000,0 days 00:00:28.876000,0 days 00:00:41.787000,114.0,275.0,293.0,323.0,soft,7.0
0 days 01:05:11.393000,77,"",19,"",0 days 01:00:10.751000,0 days 00:00:27.634000,0 days 00:00:31.576000,"",106.0,250.0,"",293.0,soft,8.0
0 days 01:07:28.050000,77,0 days 00:02:16.657000,20,0 days 01:05:17.572000,0 days 01:06:50.540000,0 days 00:00:33.567000,0 days 00:00:31.053000,0 days 00:01:12.037000,109.0,269.0,"",287.0,soft,9.0
0 days 01:09:15.530000,77,0 days 00:01:47.480000,21,0 days 01:07:34.235000,"",0 days 00:00:33.436000,0 days 00:00:30.326000,0 days 00:00:43.718000,104.0,268.0,281.0,292.0,medium,12.0
0 days 01:10:55.203000,77,0 days 00:01:39.673000,22,"","",0 days 00:00:25.198000,0 days 00:00:30.317000,0 days 00:00:44.158000,107.0,269.0,295.0,297.0,medium,13.0
0 days 01:12:35.048000,77,0 days 00:01:39.845000,23,"","",0 days 00:00:25.913000,0 days 00:00:30.129000,0 days 00:00:43.803000,111.0,271.0,282.0,328.0,medium,14.0
0 days 01:14:15.206000,77,0 days 00:01:40.158000,24,"","",0 days 00:00:25.500000,0 days 00:00:30.276000,0 days 00:00:44.382000,105.0,269.0,281.0,300.0,medium,15.0
0 days 01:15:55.586000,77,0 days 00:01:40.380000,25,"","",0 days 00:00:25.393000,0 days 00:00:30.499000,0 days 00:00:44.488000,108.0,269.0,280.0,297.0,medium,16.0
0 days 01:18:29.684000,77,"",26,"","",0 days 00:00:30.906000,0 days 00:00:34.594000,0 days 00:01:28.582000,91.0,241.0,163.0,275.0,medium,17.0
0 days 01:20:17.076000,77,"",27,"",0 days 01:20:17.076000,0 days 00:00:28.937000,0 days 00:00:38.272000,"",77.0,249.0,"",237.0,medium,18.0
