Time,DriverNumber,LapTime,LapNumber,PitOutTime,PitInTime,Sector1Time,Sector2Time,Sector3Time,SpeedI1,SpeedI2,SpeedFL,SpeedST,Compound,TyreLife
0 days 00:37:33.776000,1,"",1,0 days 00:35:42.239000,"","",0 days 00:00:43.855000,0 days 00:00:37.131000,298.0,253.0,255.0,"",hard,1.0
0 days 00:39:18.421000,1,0 days 00:01:44.645000,2,"","",0 days 00:00:28.308000,0 days 00:00:40.639000,0 days 00:00:35.698000,306.0,272.0,253.0,296.0,hard,2.0
0 days 00:41:16.602000,1,0 days 00:01:58.181000,3,"",0 days 00:41:08.855000,0 days 00:00:30.370000,0 days 00:00:42.875000,0 days 00:00:44.936000,274.0,249.0,"",269.0,hard,3.0
0 days 01:11:21.917000,1,"",4,0 days 01:09:17.500000,"","",0 days 00:00:47.043000,0 days 00:00:41.653000,275.0,251.0,256.0,"",soft,1.0
0 days 01:13:04.843000,1,0 days 00:01:42.926000,5,"","",0 days 00:00:27.928000,0 days 00:00:39.672000,0 days 00:00:35.326000,307.0,273.0,255.0,297.0,soft,2.0
0 days 01:15:40.245000,1,"",6,"","",0 days 00:00:41.515000,0 days 00:01:03.102000,0 days 00:00:50.736000,155.0,151.0,251.0,224.0,soft,3.0
0 days 01:17:51.697000,1,0 days 00:02:11.452000,7,"","",0 days 00:00:28.248000,0 days 00:00:51.171000,0 days 00:00:52.033000,305.0,214.0,40.0,294.0,soft,4.0
0 days 01:20:24.162000,1,"",8,"",0 days 01:20:16.302000,0 days 00:01:00.113000,0 days 00:00:44.826000,0 days 00:00:47.455000,291.0,238.0,"",198.0,soft,5.0
0 days 00:21:17.388000,55,"",1,0 days 00:19:10.449000,"","",0 days 00:00:47.664000,0 days 00:00:45.347000,282.0,253.0,250.0,"",medium,1.0
0 days 00:23:02.964000,55,0 days 00:01:45.576000,2,"","",0 days 00:00:28.507000,0 days 00:00:40.355000,0 days 00:00:36.714000,304.0,273.0,252.0,293.0,medium,2.0
0 days 00:25:48.338000,55,"",3,"","",0 days 00:00:46.590000,0 days 00:01:06.554000,0 days 00:00:52.259000,132.0,176.0,250.0,196.0,medium,3.0
0 days 00:27:32.048000,55,0 days 00:01:43.710000,4,"","",0 days 00:00:28.302000,0 days 00:00:39.939000,0 days 00:00:35.469000,305.0,273.0,253.0,292.0,medium,4.0
0 days 00:29:56.890000,55,0 days 00:02:24.842000,5,"",0 days 00:29:49.107000,0 days 00:00:40.687000,0 days 00:00:52.107000,0 days 00:00:52.048000,204.0,222.0,"",202.0,medium,5.0
0 days 00:32:56.741000,55,"",6,0 days 00:30:27.026000,"",0 days 00:01:17.997000,0 days 00:00:55.589000,0 days 00:00:46.253000,204.0,223.0,250.0,"",medium,6.0
0 days 00:34:39.972000,55,0 days 00:01:43.231000,7,"","",0 days 00:00:28.203000,0 days 00:00:39.912000,0 days 00:00:35.116000,303.0,274.0,256.0,292.0,medium,7.0
0 days 00:36:46.225000,55,0 days 00:02:06.253000,8,"",0 days 00:36:38.386000,0 days 00:00:35.009000,0 days 00:00:44.486000,0 days 00:00:46.758000,257.0,247.0,"",240.0,medium,8.0
0 days 00:44:42.082000,55,"",9,0 days 00:42:31.987000,"","",0 days 00:00:49.337000,0 days 00:00:48.628000,283.0,250.0,253.0,"",soft,1.0
0 days 00:46:24.833000,55,0 days 00:01:42.751000,10,"","",0 days 00:00:28.005000,0 days 00:00:39.726000,0 days 00:00:35.020000,305.0,273.0,255.0,295.0,soft,2.0
0 days 00:48:55.117000,55,"",11,"",0 days 00:48:47.288000,0 days 00:00:40.774000,0 days 00:00:54.791000,0 days 00:00:54.772000,201.0,190.0,"",198.0,soft,3.0
0 days 00:51:58.314000,55,"",12,0 days 00:49:21.510000,"",0 days 00:01:22.627000,0 days 00:00:58.736000,0 days 00:00:41.802000,173.0,249.0,250.0,"",soft,4.0
0 days 00:53:40.901000,55,0 days 00:01:42.587000,13,"","",0 days 00:00:28.147000,0 days 00:00:39.460000,0 days 00:00:34.980000,304.0,274.0,249.0,292.0,soft,5.0
0 days 00:55:54.420000,55,0 days 00:02:13.519000,14,"",0 days 00:55:46.541000,0 days 00:00:33.540000,0 days 00:00:48.749000,0 days 00:00:51.230000,245.0,163.0,"",222.0,soft,6.0
0 days 01:04:10.369000,55,"",15,0 days 01:02:01.881000,"","",0 days 00:00:44.263000,0 days 00:00:38.854000,277.0,251.0,242.0,"",medium,9.0
0 days 01:05:58.833000,55,0 days 00:01:48.464000,16,"","",0 days 00:00:29.590000,0 days 00:00:42.016000,0 days 00:00:36.858000,281.0,255.0,245.0,274.0,medium,10.0
0 days 01:07:47.129000,55,0 days 00:01:48.296000,17,"","",0 days 00:00:29.531000,0 days 00:00:41.888000,0 days 00:00:36.877000,284.0,258.0,246.0,278.0,medium,11.0
0 days 01:09:36.014000,55,0 days 00:01:48.885000,18,"","",0 days 00:00:29.730000,0 days 00:00:42.214000,0 days 00:00:36.941000,"",255.0,244.0,279.0,medium,12.0
0 days 01:11:25.611000,55,0 days 00:01:49.597000,19,"","",0 days 00:00:29.899000,0 days 00:00:42.374000,0 days 00:00:37.324000,281.0,253.0,242.0,274.0,medium,13.0
0 days 01:13:15.435000,55,0 days 00:01:49.824000,20,"","",0 days 00:00:29.918000,0 days 00:00:42.636000,0 days 00:00:37.270000,283.0,255.0,244.0,276.0,medium,14.0
0 days 01:15:05.080000,55,0 days 00:01:49.645000,21,"","",0 days 00:00:29.962000,0 days 00:00:42.436000,0 days 00:00:37.247000,281.0,253.0,245.0,274.0,medium,15.0
0 days 01:17:30.157000,55,0 days 00:02:25.077000,22,"","",0 days 00:00:32.779000,0 days 00:01:01.087000,0 days 00:00:51.211000,132.0,186.0,67.0,275.0,medium,16.0
0 days 01:20:04.358000,55,"",23,"",0 days 01:19:56.534000,0 days 00:01:00.334000,0 days 00:00:45.072000,0 days 00:00:48.831000,285.0,251.0,"",190.0,medium,17.0
0 days 00:18:17.004000,47,"",1,0 days 00:16:05.152000,"","",0 days 00:00:51.263000,0 days 00:00:42.058000,255.0,256.0,245.0,"",hard,1.0
0 days 00:20:05.696000,47,0 days 00:01:48.692000,2,"","",0 days 00:00:29.219000,0 days 00:00:42.377000,0 days 00:00:37.096000,304.0,271.0,245.0,291.0,hard,2.0
0 days 00:21:53.906000,47,0 days 00:01:48.210000,3,"","",0 days 00:00:29.203000,0 days 00:00:41.957000,0 days 00:00:37.050000,306.0,272.0,247.0,292.0,hard,3.0
0 days 00:24:19.143000,47,0 days 00:02:25.237000,4,"","",0 days 00:00:38.281000,0 days 00:00:57.111000,0 days 00:00:49.845000,169.0,190.0,246.0,228.0,hard,4.0
0 days 00:26:11.905000,47,0 days 00:01:52.762000,5,"","",0 days 00:00:29.947000,0 days 00:00:42.154000,0 days 00:00:40.661000,305.0,272.0,224.0,294.0,hard,5.0
0 days 00:28:27.935000,47,0 days 00:02:16.030000,6,"",0 days 00:28:20.240000,0 days 00:00:33.934000,0 days 00:00:51.330000,0 days 00:00:50.766000,231.0,224.0,"",249.0,hard,6.0
0 days 00:41:46.279000,47,"",7,0 days 00:39:32.602000,"","",0 days 00:00:48.639000,0 days 00:00:41.188000,270.0,248.0,249.0,"",soft,1.0
0 days 00:43:31.902000,47,0 days 00:01:45.623000,8,"","",0 days 00:00:28.436000,0 days 00:00:40.985000,0 days 00:00:36.202000,305.0,273.0,250.0,293.0,soft,2.0
0 days 00:45:58.706000,47,0 days 00:02:26.804000,9,"","",0 days 00:00:38.891000,0 days 00:00:57.895000,0 days 00:00:50.018000,216.0,183.0,246.0,231.0,soft,3.0
0 days 00:47:45.682000,47,0 days 00:01:46.976000,10,"","",0 days 00:00:28.956000,0 days 00:00:41.202000,0 days 00:00:36.818000,306.0,273.0,239.0,293.0,soft,4.0
0 days 00:50:06.130000,47,0 days 00:02:20.448000,11,"",0 days 00:49:58.379000,0 days 00:00:37.194000,0 days 00:00:48.286000,0 days 00:00:54.968000,225.0,249.0,"",230.0,soft,5.0
0 days 00:58:50.584000,47,"",12,0 days 00:56:46.031000,"","",0 days 00:00:43.873000,0 days 00:00:38.888000,284.0,253.0,238.0,"",hard,7.0
0 days 01:00:43.045000,47,0 days 00:01:52.461000,13,"","",0 days 00:00:30.179000,0 days 00:00:43.415000,0 days 00:00:38.867000,279.0,254.0,239.0,272.0,hard,8.0
0 days 01:02:41.635000,47,0 days 00:01:58.590000,14,"","",0 days 00:00:36.804000,0 days 00:00:44.091000,0 days 00:00:37.695000,267.0,254.0,239.0,276.0,hard,9.0
0 days 01:04:33.441000,47,0 days 00:01:51.806000,15,"","",0 days 00:00:30.324000,0 days 00:00:43.185000,0 days 00:00:38.297000,282.0,255.0,239.0,274.0,hard,10.0
0 days 01:06:26.776000,47,0 days 00:01:53.335000,16,"","",0 days 00:00:30.526000,0 days 00:00:44.089000,0 days 00:00:38.720000,279.0,254.0,239.0,273.0,hard,11.0
0 days 01:08:18.985000,47,0 days 00:01:52.209000,17,"","",0 days 00:00:30.536000,0 days 00:00:43.690000,0 days 00:00:37.983000,282.0,256.0,238.0,276.0,hard,12.0
0 days 01:10:12.134000,47,0 days 00:01:53.149000,18,"","",0 days 00:00:30.480000,0 days 00:00:44.174000,0 days 00:00:38.495000,281.0,254.0,239.0,274.0,hard,13.0
0 days 01:12:04.770000,47,0 days 00:01:52.636000,19,"","",0 days 00:00:30.601000,0 days 00:00:43.891000,0 days 00:00:38.144000,"",255.0,238.0,275.0,hard,14.0
0 days 01:13:57.655000,47,0 days 00:01:52.885000,20,"","",0 days 00:00:30.593000,0 days 00:00:43.728000,0 days 00:00:38.564000,283.0,256.0,239.0,"",hard,15.0
0 days 01:15:50.098000,47,0 days 00:01:52.443000,21,"","",0 days 00:00:30.613000,0 days 00:00:43.682000,0 days 00:00:38.148000,278.0,252.0,239.0,273.0,hard,16.0
0 days 01:18:01.135000,47,0 days 00:02:11.037000,22,"","",0 days 00:00:31.901000,0 days 00:00:46.919000,0 days 00:00:52.217000,"",204.0,44.0,229.0,hard,17.0
0 days 01:20:41.056000,47,"",23,"",0 days 01:20:33.189000,0 days 00:00:54.965000,0 days 00:00:56.901000,0 days 00:00:47.973000,286.0,198.0,"",205.0,hard,18.0
0 days 00:19:26.998000,44,"",1,0 days 00:16:44.355000,"","",0 days 00:00:56.833000,0 days 00:00:49.617000,269.0,225.0,244.0,"",medium,1.0
0 days 00:21:11.089000,44,0 days 00:01:44.091000,2,"","",0 days 00:00:28.447000,0 days 00:00:40.072000,0 days 00:00:35.572000,303.0,274.0,247.0,291.0,medium,2.0
0 days 00:23:34.825000,44,0 days 00:02:23.736000,3,"","",0 days 00:00:34.689000,0 days 00:00:52.968000,0 days 00:00:56.079000,193.0,171.0,190.0,244.0,medium,3.0
0 days 00:26:09.915000,44,"",4,"","",0 days 00:00:44.618000,0 days 00:01:02.332000,0 days 00:00:48.085000,212.0,224.0,249.0,218.0,medium,4.0
0 days 00:28:09.916000,44,0 days 00:02:00.001000,5,"","",0 days 00:00:30.355000,0 days 00:00:49.922000,0 days 00:00:39.724000,263.0,256.0,251.0,293.0,medium,5.0
0 days 00:29:53.584000,44,0 days 00:01:43.668000,6,"","",0 days 00:00:28.183000,0 days 00:00:39.858000,0 days 00:00:35.627000,306.0,273.0,246.0,294.0,medium,6.0
0 days 00:31:51.866000,44,0 days 00:01:58.282000,7,"",0 days 00:31:44.043000,0 days 00:00:30.075000,0 days 00:00:43.109000,0 days 00:00:45.098000,281.0,243.0,"",277.0,medium,7.0
0 days 00:45:48.464000,44,"",8,0 days 00:43:29.160000,"","",0 days 00:00:52.927000,0 days 00:00:48.678000,248.0,232.0,251.0,"",soft,1.0
0 days 00:48:01.252000,44,0 days 00:02:12.788000,9,"","",0 days 00:00:27.838000,0 days 00:00:57.780000,0 days 00:00:47.170000,311.0,223.0,205.0,298.0,soft,2.0
0 days 00:50:16.693000,44,0 days 00:02:15.441000,10,"","",0 days 00:00:36.343000,0 days 00:00:53.999000,0 days 00:00:45.099000,233.0,225.0,252.0,241.0,soft,3.0
0 days 00:51:59.875000,44,0 days 00:01:43.182000,11,"","",0 days 00:00:27.873000,0 days 00:00:40.053000,0 days 00:00:35.256000,308.0,276.0,251.0,296.0,soft,4.0
0 days 00:53:59.093000,44,0 days 00:01:59.218000,12,"",0 days 00:53:51.246000,0 days 00:00:31.140000,0 days 00:00:42.615000,0 days 00:00:45.463000,259.0,243.0,"",266.0,soft,5.0
0 days 01:03:05.904000,44,"",13,0 days 01:00:57.247000,"","",0 days 00:00:43.904000,0 days 00:00:38.193000,271.0,251.0,242.0,"",soft,6.0
0 days 01:04:53.487000,44,0 days 00:01:47.583000,14,"","",0 days 00:00:29.523000,0 days 00:00:41.607000,0 days 00:00:36.453000,283.0,257.0,244.0,276.0,soft,7.0
0 days 01:06:46.236000,44,0 days 00:01:52.749000,15,"","",0 days 00:00:33.281000,0 days 00:00:42.411000,0 days 00:00:37.057000,279.0,256.0,243.0,278.0,soft,8.0
0 days 01:08:35.477000,44,0 days 00:01:49.241000,16,"","",0 days 00:00:29.835000,0 days 00:00:42.431000,0 days 00:00:36.975000,280.0,257.0,243.0,273.0,soft,9.0
0 days 01:10:24.488000,44,0 days 00:01:49.011000,17,"","",0 days 00:00:29.778000,0 days 00:00:42.131000,0 days 00:00:37.102000,284.0,258.0,244.0,276.0,soft,10.0
0 days 01:12:15.031000,44,0 days 00:01:50.543000,18,"","",0 days 00:00:29.991000,0 days 00:00:42.966000,0 days 00:00:37.586000,286.0,258.0,243.0,277.0,soft,11.0
0 days 01:14:05.392000,44,0 days 00:01:50.361000,19,"","",0 days 00:00:30.010000,0 days 00:00:42.741000,0 days 00:00:37.610000,287.0,251.0,244.0,280.0,soft,12.0
0 days 01:15:57.865000,44,0 days 00:01:52.473000,20,"","",0 days 00:00:29.857000,0 days 00:00:43.516000,0 days 00:00:39.100000,286.0,246.0,224.0,278.0,soft,13.0
0 days 01:18:12.438000,44,0 days 00:02:14.573000,21,"","",0 days 00:00:34.862000,0 days 00:00:47.576000,0 days 00:00:52.135000,220.0,152.0,54.0,176.0,soft,14.0
0 days 01:20:44.904000,44,"",22,"",0 days 01:20:44.904000,0 days 00:01:02.336000,0 days 00:00:48.301000,"",179.0,237.0,"",211.0,soft,15.0
0 days 00:22:10.228000,31,"",1,0 days 00:19:58.655000,"","",0 days 00:00:55.675000,0 days 00:00:39.901000,229.0,242.0,249.0,"",medium,1.0
0 days 00:23:55.790000,31,0 days 00:01:45.562000,2,"","",0 days 00:00:28.573000,0 days 00:00:41.064000,0 days 00:00:35.925000,305.0,270.0,252.0,293.0,medium,2.0
0 days 00:26:26.500000,31,"",3,"","",0 days 00:00:43.239000,0 days 00:01:02.674000,0 days 00:00:44.808000,160.0,131.0,251.0,258.0,medium,3.0
0 days 00:28:11.476000,31,0 days 00:01:44.976000,4,"","",0 days 00:00:28.424000,0 days 00:00:40.747000,0 days 00:00:35.805000,305.0,273.0,248.0,294.0,medium,4.0
0 days 00:30:44.140000,31,"",5,"","",0 days 00:00:44.494000,0 days 00:01:00.577000,0 days 00:00:47.536000,145.0,127.0,250.0,282.0,medium,5.0
0 days 00:32:29.066000,31,0 days 00:01:44.926000,6,"","",0 days 00:00:28.586000,0 days 00:00:40.574000,0 days 00:00:35.766000,305.0,272.0,252.0,295.0,medium,6.0
0 days 00:34:42.176000,31,0 days 00:02:13.110000,7,"",0 days 00:34:34.345000,0 days 00:00:34.830000,0 days 00:00:48.025000,0 days 00:00:50.255000,199.0,172.0,"",280.0,medium,7.0
0 days 00:44:26.763000,31,"",8,0 days 00:42:16.482000,"","",0 days 00:00:48.281000,0 days 00:00:41.024000,243.0,255.0,252.0,"",soft,1.0
0 days 00:46:10.395000,31,0 days 00:01:43.632000,9,"","",0 days 00:00:28.204000,0 days 00:00:40.153000,0 days 00:00:35.275000,305.0,273.0,253.0,295.0,soft,2.0
0 days 00:48:51.155000,31,"",10,"","",0 days 00:00:41.148000,0 days 00:01:02.439000,0 days 00:00:57.191000,160.0,228.0,249.0,284.0,soft,3.0
0 days 00:50:34.567000,31,0 days 00:01:43.412000,11,"","",0 days 00:00:28.204000,0 days 00:00:40.028000,0 days 00:00:35.180000,304.0,272.0,253.0,294.0,soft,4.0
0 days 00:52:52.986000,31,0 days 00:02:18.419000,12,"",0 days 00:52:45.226000,0 days 00:00:36.012000,0 days 00:00:52.189000,0 days 00:00:50.218000,199.0,175.0,"",278.0,soft,5.0
0 days 01:01:03.691000,31,"",13,0 days 00:58:55.145000,"","",0 days 00:00:43.774000,0 days 00:00:37.911000,281.0,256.0,243.0,"",medium,8.0
0 days 01:02:52.305000,31,0 days 00:01:48.614000,14,"","",0 days 00:00:29.723000,0 days 00:00:42.016000,0 days 00:00:36.875000,282.0,255.0,245.0,274.0,medium,9.0
0 days 01:04:44.816000,31,0 days 00:01:52.511000,15,"","",0 days 00:00:29.679000,0 days 00:00:42.279000,0 days 00:00:40.553000,"",254.0,241.0,"",medium,10.0
0 days 01:06:34.183000,31,0 days 00:01:49.367000,16,"","",0 days 00:00:29.768000,0 days 00:00:42.346000,0 days 00:00:37.253000,281.0,254.0,243.0,273.0,medium,11.0
0 days 01:08:30.664000,31,0 days 00:01:56.481000,17,"","",0 days 00:00:29.832000,0 days 00:00:42.768000,0 days 00:00:43.881000,282.0,256.0,241.0,274.0,medium,12.0
0 days 01:10:19.924000,31,0 days 00:01:49.260000,18,"","",0 days 00:00:29.741000,0 days 00:00:42.314000,0 days 00:00:37.205000,281.0,253.0,243.0,273.0,medium,13.0
0 days 01:12:13.355000,31,0 days 00:01:53.431000,19,"","",0 days 00:00:30.034000,0 days 00:00:42.659000,0 days 00:00:40.738000,"",255.0,242.0,275.0,medium,14.0
0 days 01:14:02.941000,31,0 days 00:01:49.586000,20,"","",0 days 00:00:29.748000,0 days 00:00:42.435000,0 days 00:00:37.403000,282.0,255.0,244.0,"",medium,15.0
0 days 01:16:04.421000,31,0 days 00:02:01.480000,21,"","",0 days 00:00:29.858000,0 days 00:00:42.864000,0 days 00:00:48.758000,281.0,210.0,214.0,"",medium,16.0
0 days 01:18:30.262000,31,0 days 00:02:25.841000,22,"","",0 days 00:00:39.668000,0 days 00:00:51.956000,0 days 00:00:54.217000,177.0,198.0,49.0,197.0,medium,17.0
0 days 01:21:11.532000,31,"",23,"",0 days 01:21:03.727000,0 days 00:00:58.566000,0 days 00:00:48.530000,0 days 00:00:54.182000,199.0,234.0,"",218.0,medium,18.0
0 days 00:17:31.413000,24,"",1,0 days 00:15:23.099000,"","",0 days 00:00:49.315000,0 days 00:00:42.651000,228.0,245.0,238.0,"",hard,1.0
0 days 00:19:20.607000,24,0 days 00:01:49.194000,2,"","",0 days 00:00:29.822000,0 days 00:00:42.344000,0 days 00:00:37.028000,300.0,272.0,243.0,287.0,hard,2.0
0 days 00:21:42.145000,24,0 days 00:02:21.538000,3,"","",0 days 00:00:36.540000,0 days 00:00:55.365000,0 days 00:00:49.633000,226.0,202.0,243.0,243.0,hard,3.0
0 days 00:23:29.400000,24,0 days 00:01:47.255000,4,"","",0 days 00:00:29.067000,0 days 00:00:41.788000,0 days 00:00:36.400000,302.0,272.0,247.0,290.0,hard,4.0
0 days 00:25:52.061000,24,0 days 00:02:22.661000,5,"","",0 days 00:00:40.450000,0 days 00:00:55.774000,0 days 00:00:46.437000,168.0,233.0,243.0,252.0,hard,5.0
0 days 00:27:38.669000,24,0 days 00:01:46.608000,6,"","",0 days 00:00:28.909000,0 days 00:00:41.535000,0 days 00:00:36.164000,305.0,273.0,247.0,291.0,hard,6.0
0 days 00:29:49.899000,24,0 days 00:02:11.230000,7,"",0 days 00:29:41.983000,0 days 00:00:31.841000,0 days 00:00:48.563000,0 days 00:00:50.826000,263.0,245.0,"",243.0,hard,7.0
0 days 00:32:31.585000,24,"",8,0 days 00:30:08.594000,0 days 00:32:23.555000,0 days 00:01:04.367000,0 days 00:00:48.768000,0 days 00:00:48.405000,245.0,251.0,"","",hard,8.0
0 days 00:41:59.422000,24,"",9,0 days 00:39:49.547000,"","",0 days 00:00:48.096000,0 days 00:00:46.390000,254.0,257.0,246.0,"",soft,1.0
0 days 00:44:03.401000,24,0 days 00:02:03.979000,10,"","",0 days 00:00:28.314000,0 days 00:00:45.495000,0 days 00:00:50.170000,306.0,158.0,197.0,293.0,soft,2.0
0 days 00:46:18.544000,24,0 days 00:02:15.143000,11,"","",0 days 00:00:36.610000,0 days 00:00:51.219000,0 days 00:00:47.314000,221.0,252.0,249.0,250.0,soft,3.0
0 days 00:48:03.068000,24,0 days 00:01:44.524000,12,"","",0 days 00:00:28.285000,0 days 00:00:40.534000,0 days 00:00:35.705000,305.0,275.0,251.0,294.0,soft,4.0
0 days 00:50:27.016000,24,0 days 00:02:23.948000,13,"",0 days 00:50:19.151000,0 days 00:00:37.751000,0 days 00:00:53.273000,0 days 00:00:52.924000,233.0,193.0,"",224.0,soft,5.0
0 days 00:59:05.688000,24,"",14,0 days 00:57:09.309000,"","",0 days 00:00:45.374000,0 days 00:00:38.688000,277.0,252.0,239.0,"",soft,6.0
0 days 01:00:59.030000,24,0 days 00:01:53.342000,15,"","",0 days 00:00:29.765000,0 days 00:00:45.792000,0 days 00:00:37.785000,285.0,254.0,242.0,275.0,soft,7.0
0 days 01:02:49.023000,24,0 days 00:01:49.993000,16,"","",0 days 00:00:29.859000,0 days 00:00:42.632000,0 days 00:00:37.502000,282.0,257.0,241.0,276.0,soft,8.0
0 days 01:04:40.117000,24,0 days 00:01:51.094000,17,"","",0 days 00:00:30.182000,0 days 00:00:43.236000,0 days 00:00:37.676000,279.0,253.0,240.0,273.0,soft,9.0
0 days 01:06:31.522000,24,0 days 00:01:51.405000,18,"","",0 days 00:00:30.306000,0 days 00:00:43.071000,0 days 00:00:38.028000,280.0,254.0,240.0,271.0,soft,10.0
0 days 01:08:23.720000,24,0 days 00:01:52.198000,19,"","",0 days 00:00:30.388000,0 days 00:00:43.815000,0 days 00:00:37.995000,279.0,255.0,239.0,"",soft,11.0
0 days 01:10:16.343000,24,0 days 00:01:52.623000,20,"","",0 days 00:00:30.328000,0 days 00:00:44.174000,0 days 00:00:38.121000,280.0,253.0,240.0,273.0,soft,12.0
0 days 01:12:08.643000,24,0 days 00:01:52.300000,21,"","",0 days 00:00:30.537000,0 days 00:00:43.935000,0 days 00:00:37.828000,279.0,253.0,240.0,"",soft,13.0
0 days 01:14:08.924000,24,0 days 00:02:00.281000,22,"",0 days 01:14:00.995000,0 days 00:00:30.470000,0 days 00:00:43.608000,0 days 00:00:46.203000,"",254.0,"",272.0,soft,14.0
0 days 01:16:24.773000,24,0 days 00:02:15.849000,23,0 days 01:14:31.665000,"",0 days 00:00:53.893000,0 days 00:00:43.914000,0 days 00:00:38.042000,280.0,254.0,238.0,"",hard,9.0
0 days 01:18:51.196000,24,0 days 00:02:26.423000,24,"","",0 days 00:00:35.109000,0 days 00:00:50.272000,0 days 00:01:01.042000,223.0,246.0,49.0,242.0,hard,10.0
0 days 01:21:22.810000,24,"",25,"",0 days 01:21:14.822000,0 days 00:00:56.671000,0 days 00:00:45.999000,0 days 00:00:48.887000,288.0,258.0,"",185.0,hard,11.0
0 days 00:19:40.380000,23,"",1,0 days 00:17:36.238000,"","",0 days 00:00:47.710000,0 days 00:00:43.133000,295.0,258.0,246.0,"",medium,1.0
0 days 00:21:28.001000,23,0 days 00:01:47.621000,2,"","",0 days 00:00:29.129000,0 days 00:00:41.693000,0 days 00:00:36.799000,305.0,273.0,249.0,293.0,medium,2.0
0 days 00:23:47.659000,23,0 days 00:02:19.658000,3,"","",0 days 00:00:37.212000,0 days 00:00:54.769000,0 days 00:00:47.677000,235.0,243.0,246.0,277.0,medium,3.0
0 days 00:25:34.404000,23,0 days 00:01:46.745000,4,"","",0 days 00:00:28.929000,0 days 00:00:41.275000,0 days 00:00:36.541000,306.0,274.0,250.0,294.0,medium,4.0
0 days 00:28:03.812000,23,0 days 00:02:29.408000,5,"","",0 days 00:00:38.367000,0 days 00:00:59.006000,0 days 00:00:52.035000,252.0,230.0,247.0,280.0,medium,5.0
0 days 00:30:07.058000,23,0 days 00:02:03.246000,6,"",0 days 00:29:59.296000,0 days 00:00:28.873000,0 days 00:00:41.696000,0 days 00:00:52.677000,307.0,274.0,"",294.0,medium,6.0
0 days 00:37:14.305000,23,"",7,0 days 00:35:03.045000,"","",0 days 00:00:52.706000,0 days 00:00:45.201000,299.0,243.0,252.0,"",soft,1.0
0 days 00:38:59.449000,23,0 days 00:01:45.144000,8,"","",0 days 00:00:28.287000,0 days 00:00:40.960000,0 days 00:00:35.897000,311.0,278.0,252.0,298.0,soft,2.0
0 days 00:41:30.883000,23,"",9,"","",0 days 00:00:40.673000,0 days 00:00:59.145000,0 days 00:00:51.533000,249.0,238.0,204.0,267.0,soft,3.0
0 days 00:43:54.752000,23,0 days 00:02:23.869000,10,"","",0 days 00:00:37.736000,0 days 00:00:56.885000,0 days 00:00:49.248000,268.0,250.0,251.0,258.0,soft,4.0
0 days 00:45:40.213000,23,0 days 00:01:45.461000,11,"","",0 days 00:00:28.424000,0 days 00:00:40.976000,0 days 00:00:36.061000,314.0,280.0,249.0,299.0,soft,5.0
0 days 00:47:57.447000,23,0 days 00:02:17.234000,12,"",0 days 00:47:49.621000,0 days 00:00:36.636000,0 days 00:00:51.312000,0 days 00:00:49.286000,212.0,153.0,"",287.0,soft,6.0
0 days 00:57:39.228000,23,"",13,0 days 00:55:17.475000,0 days 00:57:31.403000,"",0 days 00:00:45.819000,0 days 00:00:45.593000,265.0,258.0,"","",soft,7.0
0 days 00:59:56.488000,23,0 days 00:02:17.260000,14,0 days 00:58:04.905000,"",0 days 00:00:55.283000,0 days 00:00:43.777000,0 days 00:00:38.200000,276.0,260.0,242.0,"",medium,7.0
0 days 01:01:46.271000,23,0 days 00:01:49.783000,15,"","",0 days 00:00:29.849000,0 days 00:00:42.489000,0 days 00:00:37.445000,281.0,258.0,240.0,279.0,medium,8.0
0 days 01:03:36.061000,23,0 days 00:01:49.790000,16,"","",0 days 00:00:29.863000,0 days 00:00:42.500000,0 days 00:00:37.427000,286.0,262.0,243.0,"",medium,9.0
0 days 01:05:25.648000,23,0 days 00:01:49.587000,17,"","",0 days 00:00:29.830000,0 days 00:00:42.456000,0 days 00:00:37.301000,287.0,262.0,243.0,281.0,medium,10.0
0 days 01:07:18.621000,23,0 days 00:01:52.973000,18,"","",0 days 00:00:29.992000,0 days 00:00:42.526000,0 days 00:00:40.455000,286.0,261.0,243.0,"",medium,11.0
0 days 01:09:09.187000,23,0 days 00:01:50.566000,19,"","",0 days 00:00:29.976000,0 days 00:00:42.734000,0 days 00:00:37.856000,289.0,263.0,244.0,"",medium,12.0
0 days 01:10:59.972000,23,0 days 00:01:50.785000,20,"","",0 days 00:00:30.014000,0 days 00:00:43.055000,0 days 00:00:37.716000,291.0,264.0,243.0,283.0,medium,13.0
0 days 01:12:50.865000,23,0 days 00:01:50.893000,21,"","",0 days 00:00:30.020000,0 days 00:00:43.031000,0 days 00:00:37.842000,287.0,257.0,242.0,281.0,medium,14.0
0 days 01:14:42.812000,23,0 days 00:01:51.947000,22,"","",0 days 00:00:30.368000,0 days 00:00:43.584000,0 days 00:00:37.995000,280.0,255.0,244.0,275.0,medium,15.0
0 days 01:16:33.897000,23,0 days 00:01:51.085000,23,"","",0 days 00:00:30.011000,0 days 00:00:43.157000,0 days 00:00:37.917000,298.0,254.0,243.0,287.0,medium,16.0
0 days 01:18:57.967000,23,0 days 00:02:24.070000,24,"","",0 days 00:00:33.127000,0 days 00:00:53.333000,0 days 00:00:57.610000,287.0,244.0,44.0,273.0,medium,17.0
0 days 01:21:55.246000,23,"",25,"",0 days 01:21:47.305000,0 days 00:00:59.299000,0 days 00:00:54.219000,0 days 00:01:03.696000,228.0,228.0,"",201.0,medium,18.0
0 days 00:18:32.680000,22,"",1,0 days 00:16:17.961000,"","",0 days 00:00:51.172000,0 days 00:00:43.350000,279.0,249.0,245.0,"",medium,1.0
0 days 00:20:19.768000,22,0 days 00:01:47.088000,2,"","",0 days 00:00:29.150000,0 days 00:00:41.412000,0 days 00:00:36.526000,304.0,272.0,248.0,292.0,medium,2.0
0 days 00:22:57.923000,22,"",3,"","",0 days 00:00:41.708000,0 days 00:01:01.666000,0 days 00:00:54.727000,230.0,214.0,162.0,239.0,medium,3.0
0 days 00:25:18.184000,22,0 days 00:02:20.261000,4,"","",0 days 00:00:38.859000,0 days 00:00:58.858000,0 days 00:00:42.544000,270.0,248.0,249.0,232.0,medium,4.0
0 days 00:27:49.547000,22,"",5,"","",0 days 00:00:28.821000,0 days 00:01:04.682000,0 days 00:00:57.947000,304.0,179.0,239.0,293.0,medium,5.0
0 days 00:30:09.663000,22,0 days 00:02:20.116000,6,"","",0 days 00:00:38.976000,0 days 00:00:57.206000,0 days 00:00:43.934000,244.0,250.0,249.0,290.0,medium,6.0
0 days 00:31:55.649000,22,0 days 00:01:45.986000,7,"","",0 days 00:00:28.764000,0 days 00:00:41.132000,0 days 00:00:36.090000,303.0,270.0,247.0,294.0,medium,7.0
0 days 00:34:28.138000,22,"",8,"","",0 days 00:00:40.987000,0 days 00:01:04.903000,0 days 00:00:46.598000,234.0,212.0,253.0,262.0,medium,8.0
0 days 00:36:13.349000,22,0 days 00:01:45.211000,9,"","",0 days 00:00:28.593000,0 days 00:00:40.793000,0 days 00:00:35.825000,304.0,271.0,244.0,294.0,medium,9.0
0 days 00:38:24.977000,22,0 days 00:02:11.628000,10,"",0 days 00:38:17.190000,0 days 00:00:34.027000,0 days 00:00:48.411000,0 days 00:00:49.190000,257.0,238.0,"",253.0,medium,10.0
0 days 00:45:24.543000,22,"",11,0 days 00:42:46.445000,0 days 00:45:16.577000,"",0 days 00:00:55.262000,0 days 00:00:59.115000,261.0,131.0,"","",soft,1.0
0 days 00:21:09.981000,20,"",1,0 days 00:18:59.198000,"","",0 days 00:00:47.853000,0 days 00:00:45.358000,259.0,240.0,247.0,"",medium,1.0
0 days 00:23:08.247000,20,0 days 00:01:58.266000,2,"","",0 days 00:00:28.807000,0 days 00:00:41.595000,0 days 00:00:47.864000,306.0,272.0,222.0,292.0,medium,2.0
0 days 00:25:28.913000,20,0 days 00:02:20.666000,3,"","",0 days 00:00:35.436000,0 days 00:00:52.076000,0 days 00:00:53.154000,207.0,244.0,249.0,259.0,medium,3.0
0 days 00:27:15.222000,20,0 days 00:01:46.309000,4,"","",0 days 00:00:28.708000,0 days 00:00:40.985000,0 days 00:00:36.616000,305.0,272.0,247.0,294.0,medium,4.0
0 days 00:29:40.329000,20,0 days 00:02:25.107000,5,"","",0 days 00:00:34.632000,0 days 00:01:00.674000,0 days 00:00:49.801000,214.0,111.0,250.0,291.0,medium,5.0
0 days 00:31:42.885000,20,0 days 00:02:02.556000,6,"",0 days 00:31:35.142000,0 days 00:00:28.903000,0 days 00:00:46.285000,0 days 00:00:47.368000,305.0,198.0,"",294.0,medium,6.0
0 days 00:41:25.981000,20,"",7,0 days 00:39:09.541000,"","",0 days 00:00:46.466000,0 days 00:00:42.890000,259.0,246.0,249.0,"",soft,1.0
0 days 00:43:10.403000,20,0 days 00:01:44.422000,8,"","",0 days 00:00:28.505000,0 days 00:00:40.311000,0 days 00:00:35.606000,303.0,273.0,248.0,292.0,soft,2.0
0 days 00:45:43.617000,20,"",9,"","",0 days 00:00:37.541000,0 days 00:01:00.350000,0 days 00:00:55.246000,260.0,228.0,249.0,286.0,soft,3.0
0 days 00:47:28.599000,20,0 days 00:01:44.982000,10,"","",0 days 00:00:28.507000,0 days 00:00:40.755000,0 days 00:00:35.720000,306.0,272.0,250.0,294.0,soft,4.0
0 days 00:49:32.988000,20,0 days 00:02:04.389000,11,"",0 days 00:49:25.155000,0 days 00:00:32.265000,0 days 00:00:45.464000,0 days 00:00:46.660000,266.0,198.0,"",284.0,soft,5.0
0 days 01:00:33.171000,20,"",12,0 days 00:58:27.207000,"","",0 days 00:00:44.255000,0 days 00:00:38.250000,275.0,252.0,242.0,"",medium,7.0
0 days 01:02:23.122000,20,0 days 00:01:49.951000,13,"","",0 days 00:00:29.980000,0 days 00:00:42.645000,0 days 00:00:37.326000,276.0,252.0,241.0,271.0,medium,8.0
0 days 01:04:13.230000,20,0 days 00:01:50.108000,14,"","",0 days 00:00:30.146000,0 days 00:00:42.487000,0 days 00:00:37.475000,283.0,258.0,239.0,275.0,medium,9.0
0 days 01:06:03.688000,20,0 days 00:01:50.458000,15,"","",0 days 00:00:30.195000,0 days 00:00:42.849000,0 days 00:00:37.414000,"",255.0,241.0,"",medium,10.0
0 days 01:07:54.563000,20,0 days 00:01:50.875000,16,"","",0 days 00:00:30.268000,0 days 00:00:43.012000,0 days 00:00:37.595000,282.0,256.0,242.0,276.0,medium,11.0
0 days 01:09:45.969000,20,0 days 00:01:51.406000,17,"","",0 days 00:00:30.338000,0 days 00:00:43.440000,0 days 00:00:37.628000,"",255.0,240.0,277.0,medium,12.0
0 days 01:11:36.863000,20,0 days 00:01:50.894000,18,"","",0 days 00:00:30.327000,0 days 00:00:43.028000,0 days 00:00:37.539000,"",255.0,242.0,274.0,medium,13.0
0 days 01:13:29.794000,20,0 days 00:01:52.931000,19,"","",0 days 00:00:30.469000,0 days 00:00:44.399000,0 days 00:00:38.063000,283.0,255.0,238.0,275.0,medium,14.0
0 days 01:15:21.539000,20,0 days 00:01:51.745000,20,"","",0 days 00:00:30.510000,0 days 00:00:43.576000,0 days 00:00:37.659000,"",256.0,240.0,"",medium,15.0
0 days 01:17:33.230000,20,0 days 00:02:11.691000,21,"","",0 days 00:00:33.730000,0 days 00:00:50.086000,0 days 00:00:47.875000,247.0,236.0,58.0,273.0,medium,16.0
0 days 01:20:13.624000,20,"",22,"",0 days 01:20:05.731000,0 days 00:01:01.088000,0 days 00:00:49.228000,0 days 00:00:49.992000,285.0,198.0,"",184.0,medium,17.0
0 days 00:24:09.867000,18,"",1,0 days 00:22:02.944000,"","",0 days 00:00:48.914000,0 days 00:00:46.833000,278.0,233.0,246.0,"",medium,1.0
0 days 00:25:55.011000,18,0 days 00:01:45.144000,2,"","",0 days 00:00:28.679000,0 days 00:00:40.491000,0 days 00:00:35.974000,304.0,272.0,249.0,291.0,medium,2.0
0 days 00:28:44.129000,18,"",3,"","",0 days 00:00:48.263000,0 days 00:01:04.825000,0 days 00:00:55.997000,209.0,241.0,247.0,195.0,medium,3.0
0 days 00:30:29.695000,18,0 days 00:01:45.566000,4,"","",0 days 00:00:28.708000,0 days 00:00:40.724000,0 days 00:00:36.134000,304.0,272.0,249.0,292.0,medium,4.0
0 days 00:32:36.562000,18,0 days 00:02:06.867000,5,"",0 days 00:32:28.718000,0 days 00:00:31.619000,0 days 00:00:45.212000,0 days 00:00:50.036000,261.0,218.0,"",263.0,medium,5.0
0 days 00:44:59.129000,18,"",6,0 days 00:42:35.126000,"","",0 days 00:00:51.799000,0 days 00:00:58.449000,286.0,152.0,249.0,"",soft,1.0
0 days 00:46:43.273000,18,0 days 00:01:44.144000,7,"","",0 days 00:00:28.479000,0 days 00:00:40.047000,0 days 00:00:35.618000,308.0,275.0,247.0,295.0,soft,2.0
0 days 00:49:36.299000,18,"",8,"","",0 days 00:00:50.492000,0 days 00:01:05.037000,0 days 00:00:57.516000,204.0,156.0,225.0,249.0,soft,3.0
0 days 00:51:42.363000,18,0 days 00:02:06.064000,9,"","",0 days 00:00:33.164000,0 days 00:00:47.704000,0 days 00:00:45.196000,260.0,248.0,248.0,268.0,soft,4.0
0 days 00:53:26.345000,18,0 days 00:01:43.982000,10,"","",0 days 00:00:28.327000,0 days 00:00:40.082000,0 days 00:00:35.573000,307.0,275.0,245.0,295.0,soft,5.0
0 days 00:55:36.496000,18,0 days 00:02:10.151000,11,"",0 days 00:55:28.571000,0 days 00:00:31.825000,0 days 00:00:47.694000,0 days 00:00:50.632000,251.0,230.0,"",252.0,soft,6.0
0 days 01:03:10.926000,18,"",12,0 days 01:01:17.400000,"","",0 days 00:00:43.504000,0 days 00:00:37.741000,277.0,259.0,241.0,"",medium,6.0
0 days 01:05:00.106000,18,0 days 00:01:49.180000,13,"","",0 days 00:00:30.143000,0 days 00:00:41.874000,0 days 00:00:37.163000,278.0,255.0,242.0,273.0,medium,7.0
0 days 01:06:48.725000,18,0 days 00:01:48.619000,14,"","",0 days 00:00:29.674000,0 days 00:00:41.924000,0 days 00:00:37.021000,289.0,264.0,244.0,274.0,medium,8.0
0 days 01:08:38.110000,18,0 days 00:01:49.385000,15,"","",0 days 00:00:29.857000,0 days 00:00:42.305000,0 days 00:00:37.223000,281.0,258.0,243.0,276.0,medium,9.0
0 days 01:10:27.074000,18,0 days 00:01:48.964000,16,"","",0 days 00:00:29.771000,0 days 00:00:42.027000,0 days 00:00:37.166000,286.0,260.0,243.0,280.0,medium,10.0
0 days 01:12:17.370000,18,0 days 00:01:50.296000,17,"","",0 days 00:00:29.872000,0 days 00:00:42.130000,0 days 00:00:38.294000,287.0,260.0,242.0,278.0,medium,11.0
0 days 01:14:07.164000,18,0 days 00:01:49.794000,18,"","",0 days 00:00:29.837000,0 days 00:00:42.412000,0 days 00:00:37.545000,286.0,260.0,243.0,279.0,medium,12.0
0 days 01:15:58.450000,18,0 days 00:01:51.286000,19,"","",0 days 00:00:29.861000,0 days 00:00:42.369000,0 days 00:00:39.056000,"",260.0,240.0,280.0,medium,13.0
0 days 01:18:16.958000,18,0 days 00:02:18.508000,20,"","",0 days 00:00:36.674000,0 days 00:00:51.181000,0 days 00:00:50.653000,189.0,189.0,38.0,207.0,medium,14.0
0 days 01:20:56.076000,18,"",21,"",0 days 01:20:48.771000,0 days 00:00:59.513000,0 days 00:00:48.982000,0 days 00:00:50.552000,172.0,200.0,"",217.0,medium,15.0
0 days 00:47:44.111000,16,"",1,0 days 00:45:34.907000,"","",0 days 00:00:54.005000,0 days 00:00:40.461000,272.0,240.0,252.0,"",medium,1.0
0 days 00:49:27.540000,16,0 days 00:01:43.429000,2,"","",0 days 00:00:28.417000,0 days 00:00:39.850000,0 days 00:00:35.162000,305.0,275.0,252.0,296.0,medium,2.0
0 days 00:52:11.342000,16,"",3,"","",0 days 00:00:45.512000,0 days 00:01:07.134000,0 days 00:00:51.177000,137.0,176.0,251.0,232.0,medium,3.0
0 days 00:53:54.224000,16,0 days 00:01:42.882000,4,"","",0 days 00:00:28.178000,0 days 00:00:39.737000,0 days 00:00:34.967000,307.0,276.0,250.0,295.0,medium,4.0
0 days 00:56:39.462000,16,"",5,"","",0 days 00:00:44.576000,0 days 00:01:10.143000,0 days 00:00:50.459000,131.0,120.0,249.0,228.0,medium,5.0
0 days 00:58:22.782000,16,0 days 00:01:43.320000,6,"","",0 days 00:00:28.270000,0 days 00:00:39.857000,0 days 00:00:35.193000,303.0,273.0,249.0,290.0,medium,6.0
0 days 01:00:32.801000,16,0 days 00:02:10.019000,7,"",0 days 01:00:24.981000,0 days 00:00:33.934000,0 days 00:00:46.484000,0 days 00:00:49.601000,199.0,238.0,"",280.0,medium,7.0
0 days 01:07:43.251000,16,"",8,0 days 01:05:27.862000,"","",0 days 00:00:57.649000,0 days 00:00:38.950000,270.0,252.0,253.0,"",soft,1.0
0 days 01:09:26.046000,16,0 days 00:01:42.795000,9,"","",0 days 00:00:28.016000,0 days 00:00:39.568000,0 days 00:00:35.211000,303.0,273.0,254.0,293.0,soft,2.0
0 days 01:12:02.771000,16,"",10,"",0 days 01:11:54.969000,0 days 00:00:43.700000,0 days 00:00:58.907000,0 days 00:00:54.166000,145.0,186.0,"",223.0,soft,3.0
0 days 01:14:41.261000,16,"",11,0 days 01:12:28.703000,"",0 days 00:01:00.431000,0 days 00:00:52.061000,0 days 00:00:45.931000,261.0,245.0,251.0,"",soft,4.0
0 days 01:16:36.157000,16,0 days 00:01:54.896000,12,"","",0 days 00:00:28.056000,0 days 00:00:40.273000,0 days 00:00:46.567000,306.0,242.0,204.0,293.0,soft,5.0
0 days 01:19:06.828000,16,"",13,"","",0 days 00:00:37.238000,0 days 00:00:55.486000,0 days 00:00:57.884000,208.0,184.0,57.0,196.0,soft,6.0
0 days 01:21:58.179000,16,"",14,"",0 days 01:21:50.380000,0 days 00:01:09.291000,0 days 00:00:51.799000,0 days 00:00:50.393000,237.0,205.0,"",220.0,soft,7.0
0 days 00:19:05.790000,14,"",1,0 days 00:16:26.329000,"","",0 days 00:00:56.235000,0 days 00:00:51.177000,264.0,232.0,249.0,"",medium,1.0
0 days 00:21:01.090000,14,0 days 00:01:55.300000,2,"","",0 days 00:00:28.559000,0 days 00:00:40.534000,0 days 00:00:46.207000,306.0,274.0,212.0,295.0,medium,2.0
0 days 00:23:16.297000,14,0 days 00:02:15.207000,3,"","",0 days 00:00:37.654000,0 days 00:00:52.257000,0 days 00:00:45.296000,194.0,216.0,252.0,245.0,medium,3.0
0 days 00:25:00.912000,14,0 days 00:01:44.615000,4,"","",0 days 00:00:28.605000,0 days 00:00:40.489000,0 days 00:00:35.521000,306.0,273.0,253.0,295.0,medium,4.0
0 days 00:27:21.699000,14,0 days 00:02:20.787000,5,"","",0 days 00:00:37.467000,0 days 00:00:54.476000,0 days 00:00:48.844000,256.0,236.0,247.0,220.0,medium,5.0
0 days 00:29:06.070000,14,0 days 00:01:44.371000,6,"","",0 days 00:00:28.559000,0 days 00:00:40.364000,0 days 00:00:35.448000,303.0,270.0,251.0,291.0,medium,6.0
0 days 00:31:26.595000,14,0 days 00:02:20.525000,7,"",0 days 00:31:18.859000,0 days 00:00:36.418000,0 days 00:00:51.350000,0 days 00:00:52.757000,214.0,219.0,"",224.0,medium,7.0
0 days 00:44:52.533000,14,"",8,0 days 00:42:29.774000,"","",0 days 00:00:49.280000,0 days 00:00:57.119000,226.0,245.0,254.0,"",soft,1.0
0 days 00:46:36.760000,14,0 days 00:01:44.227000,9,"","",0 days 00:00:28.260000,0 days 00:00:40.432000,0 days 00:00:35.535000,306.0,275.0,254.0,298.0,soft,2.0
0 days 00:49:09.001000,14,"",10,"","",0 days 00:00:37.415000,0 days 00:01:02.175000,0 days 00:00:52.736000,256.0,234.0,241.0,207.0,soft,3.0
0 days 00:51:17.192000,14,0 days 00:02:08.191000,11,"","",0 days 00:00:28.484000,0 days 00:00:44.524000,0 days 00:00:55.183000,306.0,142.0,249.0,293.0,soft,4.0
0 days 00:53:00.712000,14,0 days 00:01:43.520000,12,"","",0 days 00:00:28.377000,0 days 00:00:39.946000,0 days 00:00:35.197000,305.0,273.0,255.0,294.0,soft,5.0
0 days 00:55:09.132000,14,0 days 00:02:08.420000,13,"",0 days 00:55:01.425000,0 days 00:00:35.825000,0 days 00:00:44.645000,0 days 00:00:47.950000,198.0,216.0,"",190.0,soft,6.0
0 days 01:03:52.594000,14,"",14,0 days 01:01:41.041000,"","",0 days 00:00:44.482000,0 days 00:00:38.559000,279.0,253.0,243.0,"",soft,7.0
0 days 01:05:41.629000,14,0 days 00:01:49.035000,15,"","",0 days 00:00:29.719000,0 days 00:00:41.981000,0 days 00:00:37.335000,281.0,256.0,244.0,274.0,soft,8.0
0 days 01:07:30.670000,14,0 days 00:01:49.041000,16,"","",0 days 00:00:29.850000,0 days 00:00:42.166000,0 days 00:00:37.025000,280.0,254.0,246.0,271.0,soft,9.0
0 days 01:09:19.659000,14,0 days 00:01:48.989000,17,"","",0 days 00:00:29.813000,0 days 00:00:42.139000,0 days 00:00:37.037000,282.0,256.0,245.0,274.0,soft,10.0
0 days 01:11:09.154000,14,0 days 00:01:49.495000,18,"","",0 days 00:00:29.860000,0 days 00:00:42.207000,0 days 00:00:37.428000,283.0,255.0,230.0,275.0,soft,11.0
0 days 01:12:59.399000,14,0 days 00:01:50.245000,19,"","",0 days 00:00:30.113000,0 days 00:00:42.570000,0 days 00:00:37.562000,"",253.0,240.0,271.0,soft,12.0
0 days 01:14:49.400000,14,0 days 00:01:50.001000,20,"","",0 days 00:00:30.322000,0 days 00:00:42.320000,0 days 00:00:37.359000,279.0,252.0,241.0,270.0,soft,13.0
0 days 01:16:39.794000,14,0 days 00:01:50.394000,21,"","",0 days 00:00:30.152000,0 days 00:00:42.518000,0 days 00:00:37.724000,"",250.0,242.0,269.0,soft,14.0
0 days 01:19:02.302000,14,0 days 00:02:22.508000,22,"","",0 days 00:00:34.918000,0 days 00:00:50.365000,0 days 00:00:57.225000,194.0,210.0,58.0,214.0,soft,15.0
0 days 01:21:41.436000,14,"",23,"",0 days 01:21:33.646000,0 days 00:01:03.300000,0 days 00:00:44.980000,0 days 00:00:50.895000,293.0,259.0,"",203.0,soft,16.0
0 days 00:44:06.161000,11,"",1,0 days 00:42:10.938000,"","",0 days 00:00:43.923000,0 days 00:00:39.907000,280.0,258.0,250.0,"",soft,1.0
0 days 00:45:50.808000,11,0 days 00:01:44.647000,2,"","",0 days 00:00:28.363000,0 days 00:00:40.515000,0 days 00:00:35.769000,306.0,275.0,251.0,296.0,soft,2.0
0 days 00:48:23.619000,11,"",3,"",0 days 00:48:15.691000,0 days 00:00:44.499000,0 days 00:00:58.183000,0 days 00:00:49.983000,170.0,227.0,"",217.0,soft,3.0
0 days 00:51:22.520000,11,"",4,0 days 00:49:07.113000,"",0 days 00:01:21.575000,0 days 00:00:50.973000,0 days 00:00:46.479000,180.0,214.0,247.0,"",soft,4.0
0 days 00:53:06.426000,11,0 days 00:01:43.906000,5,"","",0 days 00:00:28.183000,0 days 00:00:40.076000,0 days 00:00:35.647000,309.0,274.0,250.0,295.0,soft,5.0
0 days 00:55:45.423000,11,"",6,"",0 days 00:55:37.516000,0 days 00:00:41.327000,0 days 00:01:00.284000,0 days 00:00:57.282000,150.0,162.0,"",188.0,soft,6.0
0 days 00:58:21.990000,11,"",7,0 days 00:56:16.224000,"",0 days 00:01:04.709000,0 days 00:00:49.918000,0 days 00:00:41.978000,284.0,163.0,249.0,"",soft,7.0
0 days 01:00:20.124000,11,0 days 00:01:58.134000,8,"",0 days 01:00:12.021000,0 days 00:00:28.164000,0 days 00:00:40.189000,0 days 00:00:49.781000,309.0,274.0,"",294.0,soft,8.0
0 days 01:12:37.046000,11,"",9,0 days 01:10:47.210000,"","",0 days 00:00:43.247000,0 days 00:00:37.204000,283.0,253.0,242.0,"",soft,9.0
0 days 01:14:25.656000,11,0 days 00:01:48.610000,10,"","",0 days 00:00:29.459000,0 days 00:00:42.164000,0 days 00:00:36.987000,290.0,258.0,245.0,280.0,soft,10.0
0 days 01:16:14.942000,11,0 days 00:01:49.286000,11,"","",0 days 00:00:29.899000,0 days 00:00:42.312000,0 days 00:00:37.075000,289.0,257.0,244.0,281.0,soft,11.0
0 days 01:18:44.514000,11,0 days 00:02:29.572000,12,"","",0 days 00:00:34.956000,0 days 00:00:54.540000,0 days 00:01:00.076000,230.0,173.0,59.0,239.0,soft,12.0
0 days 01:21:19.737000,11,"",13,"",0 days 01:21:11.802000,0 days 00:00:50.711000,0 days 00:00:49.448000,0 days 00:00:54.988000,235.0,199.0,"",227.0,soft,13.0
0 days 00:18:26.542000,10,"",1,0 days 00:16:11.699000,"","",0 days 00:00:54.565000,0 days 00:00:42.180000,271.0,256.0,248.0,"",medium,1.0
0 days 00:20:13.804000,10,0 days 00:01:47.262000,2,"","",0 days 00:00:28.803000,0 days 00:00:41.749000,0 days 00:00:36.710000,302.0,270.0,244.0,293.0,medium,2.0
0 days 00:22:44.014000,10,"",3,"","",0 days 00:00:42.613000,0 days 00:01:02.265000,0 days 00:00:45.336000,251.0,227.0,247.0,277.0,medium,3.0
0 days 00:24:29.880000,10,0 days 00:01:45.866000,4,"","",0 days 00:00:28.947000,0 days 00:00:40.795000,0 days 00:00:36.124000,303.0,270.0,241.0,293.0,medium,4.0
0 days 00:27:10.218000,10,"",5,"","",0 days 00:00:40.594000,0 days 00:01:08.648000,0 days 00:00:51.080000,244.0,215.0,200.0,282.0,medium,5.0
0 days 00:29:23.675000,10,0 days 00:02:13.457000,6,"","",0 days 00:00:38.080000,0 days 00:00:53.476000,0 days 00:00:41.901000,279.0,257.0,250.0,249.0,medium,6.0
0 days 00:31:08.854000,10,0 days 00:01:45.179000,7,"","",0 days 00:00:28.529000,0 days 00:00:40.901000,0 days 00:00:35.749000,304.0,270.0,249.0,293.0,medium,7.0
0 days 00:33:45.385000,10,"",8,"",0 days 00:33:37.537000,0 days 00:00:32.971000,0 days 00:00:48.344000,0 days 00:01:15.089000,255.0,241.0,"",282.0,medium,8.0
0 days 00:44:17.734000,10,"",9,0 days 00:42:15.298000,"","",0 days 00:00:47.273000,0 days 00:00:41.643000,276.0,248.0,251.0,"",soft,1.0
0 days 00:46:02.203000,10,0 days 00:01:44.469000,10,"","",0 days 00:00:28.274000,0 days 00:00:40.455000,0 days 00:00:35.740000,306.0,271.0,242.0,295.0,soft,2.0
0 days 00:48:43.003000,10,"",11,"","",0 days 00:00:47.399000,0 days 00:01:01.538000,0 days 00:00:51.837000,188.0,207.0,202.0,281.0,soft,3.0
0 days 00:50:52.622000,10,0 days 00:02:09.619000,12,"","",0 days 00:00:35.950000,0 days 00:00:51.738000,0 days 00:00:41.931000,243.0,249.0,250.0,251.0,soft,4.0
0 days 00:52:37.096000,10,0 days 00:01:44.474000,13,"","",0 days 00:00:28.521000,0 days 00:00:40.354000,0 days 00:00:35.599000,303.0,270.0,250.0,293.0,soft,5.0
0 days 00:54:42.454000,10,0 days 00:02:05.358000,14,"",0 days 00:54:34.656000,0 days 00:00:33.201000,0 days 00:00:46.495000,0 days 00:00:45.662000,263.0,239.0,"",282.0,soft,6.0
0 days 01:07:08.397000,10,"",15,0 days 01:05:00.156000,"","",0 days 00:00:44.609000,0 days 00:00:38.610000,285.0,255.0,241.0,"",medium,9.0
0 days 01:08:58.067000,10,0 days 00:01:49.670000,16,"","",0 days 00:00:29.952000,0 days 00:00:42.232000,0 days 00:00:37.486000,286.0,259.0,242.0,277.0,medium,10.0
0 days 01:10:47.872000,10,0 days 00:01:49.805000,17,"","",0 days 00:00:29.898000,0 days 00:00:42.344000,0 days 00:00:37.563000,287.0,255.0,243.0,279.0,medium,11.0
0 days 01:12:39.111000,10,0 days 00:01:51.239000,18,"","",0 days 00:00:29.744000,0 days 00:00:43.057000,0 days 00:00:38.438000,302.0,263.0,244.0,277.0,medium,12.0
0 days 01:14:30.191000,10,0 days 00:01:51.080000,19,"","",0 days 00:00:29.969000,0 days 00:00:43.054000,0 days 00:00:38.057000,289.0,250.0,238.0,278.0,medium,13.0
0 days 01:16:21.509000,10,0 days 00:01:51.318000,20,"","",0 days 00:00:30.165000,0 days 00:00:42.899000,0 days 00:00:38.254000,287.0,254.0,237.0,276.0,medium,14.0
0 days 01:18:34.092000,10,0 days 00:02:12.583000,21,"","",0 days 00:00:34.787000,0 days 00:00:48.276000,0 days 00:00:49.520000,278.0,231.0,72.0,278.0,medium,15.0
0 days 01:21:01.233000,10,0 days 00:02:27.141000,22,"",0 days 01:20:53.445000,0 days 00:00:50.612000,0 days 00:00:46.840000,0 days 00:00:49.689000,272.0,258.0,"",192.0,medium,16.0
0 days 00:18:48.142000,6,"",1,0 days 00:16:01.159000,0 days 00:18:39.882000,"",0 days 00:01:04.260000,0 days 00:01:02.345000,250.0,85.0,"","",medium,1.0
0 days 00:24:03.022000,6,"",2,0 days 00:21:55.170000,"","",0 days 00:00:50.266000,0 days 00:00:40.763000,286.0,267.0,243.0,"",medium,2.0
0 days 00:25:54.558000,6,0 days 00:01:51.536000,3,"","",0 days 00:00:29.754000,0 days 00:00:43.711000,0 days 00:00:38.071000,305.0,273.0,244.0,293.0,medium,3.0
0 days 00:28:16.396000,6,0 days 00:02:21.838000,4,"","",0 days 00:00:37.518000,0 days 00:00:56.894000,0 days 00:00:47.426000,193.0,248.0,243.0,230.0,medium,4.0
0 days 00:30:05.123000,6,0 days 00:01:48.727000,5,"","",0 days 00:00:29.374000,0 days 00:00:42.269000,0 days 00:00:37.084000,306.0,274.0,248.0,293.0,medium,5.0
0 days 00:32:19.652000,6,0 days 00:02:14.529000,6,"","",0 days 00:00:37.282000,0 days 00:00:52.636000,0 days 00:00:44.611000,260.0,250.0,247.0,294.0,medium,6.0
0 days 00:34:22.927000,6,0 days 00:02:03.275000,7,"",0 days 00:34:15.137000,0 days 00:00:29.287000,0 days 00:00:43.937000,0 days 00:00:50.051000,304.0,272.0,"",293.0,medium,7.0
0 days 00:40:32.506000,6,"",8,0 days 00:38:28.768000,"","",0 days 00:00:48.236000,0 days 00:00:41.319000,233.0,243.0,250.0,"",soft,1.0
0 days 00:42:19.059000,6,0 days 00:01:46.553000,9,"","",0 days 00:00:28.652000,0 days 00:00:41.417000,0 days 00:00:36.484000,310.0,278.0,251.0,296.0,soft,2.0
0 days 00:45:02.145000,6,"",10,"","",0 days 00:00:42.798000,0 days 00:00:59.297000,0 days 00:01:00.897000,264.0,231.0,214.0,278.0,soft,3.0
0 days 00:47:16.113000,6,0 days 00:02:13.968000,11,"","",0 days 00:00:35.474000,0 days 00:00:51.100000,0 days 00:00:47.394000,288.0,257.0,251.0,266.0,soft,4.0
0 days 00:49:02.816000,6,0 days 00:01:46.703000,12,"","",0 days 00:00:28.618000,0 days 00:00:41.370000,0 days 00:00:36.715000,314.0,280.0,252.0,299.0,soft,5.0
0 days 00:51:33.524000,6,"",13,"",0 days 00:51:25.613000,0 days 00:00:43.234000,0 days 00:00:51.362000,0 days 00:00:56.048000,179.0,233.0,"",197.0,soft,6.0
0 days 00:58:45.459000,6,"",14,0 days 00:56:36.345000,"","",0 days 00:00:45.218000,0 days 00:00:39.495000,286.0,261.0,239.0,"",soft,7.0
0 days 01:00:42.263000,6,0 days 00:01:56.804000,15,"","",0 days 00:00:30.338000,0 days 00:00:47.168000,0 days 00:00:39.298000,283.0,257.0,230.0,278.0,soft,8.0
0 days 01:02:35.633000,6,0 days 00:01:53.370000,16,"","",0 days 00:00:30.666000,0 days 00:00:43.957000,0 days 00:00:38.747000,"",256.0,239.0,262.0,soft,9.0
0 days 01:04:28.663000,6,0 days 00:01:53.030000,17,"","",0 days 00:00:30.648000,0 days 00:00:43.813000,0 days 00:00:38.569000,277.0,252.0,242.0,266.0,soft,10.0
0 days 01:06:21.955000,6,0 days 00:01:53.292000,18,"","",0 days 00:00:30.424000,0 days 00:00:44.096000,0 days 00:00:38.772000,"",251.0,241.0,270.0,soft,11.0
0 days 01:08:15.426000,6,0 days 00:01:53.471000,19,"","",0 days 00:00:30.570000,0 days 00:00:44.128000,0 days 00:00:38.773000,275.0,250.0,243.0,269.0,soft,12.0
0 days 01:10:08.542000,6,0 days 00:01:53.116000,20,"","",0 days 00:00:30.503000,0 days 00:00:44.011000,0 days 00:00:38.602000,283.0,262.0,244.0,280.0,soft,13.0
0 days 01:12:01.089000,6,0 days 00:01:52.547000,21,"","",0 days 00:00:30.369000,0 days 00:00:43.978000,0 days 00:00:38.200000,285.0,259.0,241.0,"",soft,14.0
0 days 01:14:03.847000,6,0 days 00:02:02.758000,22,"",0 days 01:13:56.023000,0 days 00:00:30.882000,0 days 00:00:44.465000,0 days 00:00:47.411000,287.0,242.0,"",279.0,soft,15.0
0 days 01:16:19.834000,6,0 days 00:02:15.987000,23,0 days 01:14:27.680000,"",0 days 00:00:54.081000,0 days 00:00:44.063000,0 days 00:00:37.843000,291.0,261.0,243.0,"",medium,8.0
0 days 01:18:53.969000,6,"",24,"","",0 days 00:00:38.917000,0 days 00:00:54.430000,0 days 00:01:00.715000,183.0,192.0,54.0,249.0,medium,9.0
0 days 01:21:30.122000,6,"",25,"",0 days 01:21:22.201000,0 days 00:01:00.409000,0 days 00:00:47.378000,0 days 00:00:48.371000,219.0,248.0,"",190.0,medium,10.0
0 days 00:19:01.014000,5,"",1,0 days 00:17:03.205000,"","",0 days 00:00:44.671000,0 days 00:00:40.639000,277.0,252.0,247.0,"",medium,1.0
0 days 00:21:02.250000,5,0 days 00:02:01.236000,2,"","",0 days 00:00:28.917000,0 days 00:00:40.995000,0 days 00:00:51.324000,300.0,269.0,204.0,289.0,medium,2.0
0 days 00:23:20.776000,5,0 days 00:02:18.526000,3,"","",0 days 00:00:37.918000,0 days 00:00:52.251000,0 days 00:00:48.357000,249.0,221.0,245.0,220.0,medium,3.0
0 days 00:25:06.543000,5,0 days 00:01:45.767000,4,"","",0 days 00:00:28.737000,0 days 00:00:40.867000,0 days 00:00:36.163000,302.0,270.0,250.0,291.0,medium,4.0
0 days 00:27:25.824000,5,0 days 00:02:19.281000,5,"","",0 days 00:00:34.860000,0 days 00:00:57.146000,0 days 00:00:47.275000,210.0,147.0,243.0,241.0,medium,5.0
0 days 00:29:26.363000,5,0 days 00:02:00.539000,6,"","",0 days 00:00:28.799000,0 days 00:00:46.734000,0 days 00:00:45.006000,303.0,215.0,203.0,290.0,medium,6.0
0 days 00:31:32.427000,5,0 days 00:02:06.064000,7,"","",0 days 00:00:33.349000,0 days 00:00:50.328000,0 days 00:00:42.387000,233.0,231.0,245.0,222.0,medium,7.0
0 days 00:33:28.577000,5,0 days 00:01:56.150000,8,"",0 days 00:33:20.871000,0 days 00:00:28.553000,0 days 00:00:40.583000,0 days 00:00:47.014000,302.0,271.0,"",289.0,medium,8.0
0 days 00:45:54.313000,5,"",9,0 days 00:43:47.668000,"","",0 days 00:00:48.842000,0 days 00:00:47.057000,263.0,249.0,252.0,"",soft,1.0
0 days 00:47:38.562000,5,0 days 00:01:44.249000,10,"","",0 days 00:00:28.213000,0 days 00:00:40.277000,0 days 00:00:35.759000,308.0,274.0,252.0,298.0,soft,2.0
0 days 00:49:47.818000,5,0 days 00:02:09.256000,11,"","",0 days 00:00:36.946000,0 days 00:00:49.606000,0 days 00:00:42.704000,219.0,220.0,204.0,239.0,soft,3.0
0 days 00:51:52.097000,5,0 days 00:02:04.279000,12,"","",0 days 00:00:32.848000,0 days 00:00:49.105000,0 days 00:00:42.326000,259.0,222.0,251.0,246.0,soft,4.0
0 days 00:53:36.404000,5,0 days 00:01:44.307000,13,"","",0 days 00:00:28.245000,0 days 00:00:40.213000,0 days 00:00:35.849000,307.0,276.0,245.0,295.0,soft,5.0
0 days 00:55:51.977000,5,0 days 00:02:15.573000,14,"",0 days 00:55:44.287000,0 days 00:00:33.791000,0 days 00:00:50.080000,0 days 00:00:51.702000,187.0,217.0,"",241.0,soft,6.0
0 days 01:03:43.670000,5,"",15,0 days 01:01:35.429000,"","",0 days 00:00:44.312000,0 days 00:00:38.360000,263.0,253.0,239.0,"",soft,7.0
0 days 01:05:32.780000,5,0 days 00:01:49.110000,16,"","",0 days 00:00:29.742000,0 days 00:00:42.194000,0 days 00:00:37.174000,276.0,253.0,241.0,275.0,soft,8.0
0 days 01:07:21.986000,5,0 days 00:01:49.206000,17,"","",0 days 00:00:29.829000,0 days 00:00:42.175000,0 days 00:00:37.202000,280.0,256.0,243.0,270.0,soft,9.0
0 days 01:09:15.346000,5,0 days 00:01:53.360000,18,"","",0 days 00:00:32.031000,0 days 00:00:43.585000,0 days 00:00:37.744000,"",256.0,241.0,273.0,soft,10.0
0 days 01:11:05.458000,5,0 days 00:01:50.112000,19,"","",0 days 00:00:30.204000,0 days 00:00:42.490000,0 days 00:00:37.418000,"",256.0,241.0,272.0,soft,11.0
0 days 01:12:54.954000,5,0 days 00:01:49.496000,20,"","",0 days 00:00:29.776000,0 days 00:00:42.265000,0 days 00:00:37.455000,288.0,261.0,243.0,276.0,soft,12.0
0 days 01:14:44.852000,5,0 days 00:01:49.898000,21,"","",0 days 00:00:29.976000,0 days 00:00:42.390000,0 days 00:00:37.532000,281.0,251.0,245.0,270.0,soft,13.0
0 days 01:16:39.009000,5,0 days 00:01:54.157000,22,"","",0 days 00:00:30.306000,0 days 00:00:42.776000,0 days 00:00:41.075000,275.0,249.0,242.0,268.0,soft,14.0
0 days 01:19:04.749000,5,0 days 00:02:25.740000,23,"","",0 days 00:00:33.699000,0 days 00:00:52.263000,0 days 00:00:59.778000,202.0,165.0,70.0,278.0,soft,15.0
0 days 01:21:57.301000,5,"",24,"",0 days 01:21:49.420000,0 days 00:01:08.283000,0 days 00:00:53.188000,0 days 00:00:51.013000,184.0,186.0,"",208.0,soft,16.0
0 days 00:24:15.400000,4,"",1,0 days 00:21:52.471000,"","",0 days 00:00:48.224000,0 days 00:00:49.158000,218.0,248.0,245.0,"",hard,1.0
0 days 00:26:02.675000,4,0 days 00:01:47.275000,2,"","",0 days 00:00:29.235000,0 days 00:00:41.524000,0 days 00:00:36.516000,300.0,270.0,247.0,289.0,hard,2.0
0 days 00:28:32.035000,4,0 days 00:02:29.360000,3,"","",0 days 00:00:41.080000,0 days 00:00:57.932000,0 days 00:00:50.348000,225.0,212.0,243.0,271.0,hard,3.0
0 days 00:30:18.424000,4,0 days 00:01:46.389000,4,"","",0 days 00:00:28.956000,0 days 00:00:41.193000,0 days 00:00:36.240000,299.0,270.0,248.0,287.0,hard,4.0
0 days 00:32:33.017000,4,0 days 00:02:14.593000,5,"",0 days 00:32:25.246000,0 days 00:00:33.413000,0 days 00:00:51.860000,0 days 00:00:49.320000,230.0,159.0,"",268.0,hard,5.0
0 days 00:46:57.635000,4,"",6,0 days 00:44:57.978000,"","",0 days 00:00:45.462000,0 days 00:00:40.702000,279.0,251.0,246.0,"",hard,6.0
0 days 00:48:57.102000,4,0 days 00:01:59.467000,7,"",0 days 00:48:48.975000,0 days 00:00:28.946000,0 days 00:00:40.969000,0 days 00:00:49.552000,298.0,270.0,"",289.0,hard,7.0
0 days 00:51:30.868000,4,"",8,0 days 00:49:22.598000,"",0 days 00:00:59.618000,0 days 00:00:51.727000,0 days 00:00:42.483000,275.0,213.0,252.0,"",soft,1.0
0 days 00:53:14.881000,4,0 days 00:01:44.013000,9,"","",0 days 00:00:28.213000,0 days 00:00:40.069000,0 days 00:00:35.731000,307.0,275.0,246.0,295.0,soft,2.0
0 days 00:55:20.018000,4,0 days 00:02:05.137000,10,"",0 days 00:55:11.929000,0 days 00:00:32.321000,0 days 00:00:45.701000,0 days 00:00:47.115000,252.0,159.0,"",248.0,soft,3.0
0 days 01:09:06.421000,4,"",11,0 days 01:06:54.715000,"","",0 days 00:00:43.679000,0 days 00:00:37.857000,267.0,249.0,240.0,"",hard,8.0
0 days 01:11:04.752000,4,0 days 00:01:58.331000,12,"",0 days 01:10:56.833000,0 days 00:00:30.071000,0 days 00:00:43.064000,0 days 00:00:45.196000,277.0,253.0,"",276.0,hard,9.0
0 days 01:13:16.198000,4,0 days 00:02:11.446000,13,0 days 01:11:26.801000,"",0 days 00:00:51.776000,0 days 00:00:42.251000,0 days 00:00:37.419000,281.0,265.0,242.0,"",soft,4.0
0 days 01:15:05.984000,4,0 days 00:01:49.786000,14,"","",0 days 00:00:29.610000,0 days 00:00:42.612000,0 days 00:00:37.564000,297.0,259.0,243.0,283.0,soft,5.0
0 days 01:17:22.648000,4,0 days 00:02:16.664000,15,"","",0 days 00:00:32.648000,0 days 00:00:51.181000,0 days 00:00:52.835000,174.0,195.0,60.0,279.0,soft,6.0
0 days 01:20:01.360000,4,"",16,"",0 days 01:19:53.389000,0 days 00:00:59.399000,0 days 00:00:50.978000,0 days 00:00:48.287000,193.0,169.0,"",185.0,soft,7.0
0 days 00:19:45.097000,3,"",1,0 days 00:17:27.249000,"","",0 days 00:00:48.570000,0 days 00:00:46.398000,290.0,251.0,246.0,"",hard,1.0
0 days 00:21:34.712000,3,0 days 00:01:49.615000,2,"","",0 days 00:00:29.292000,0 days 00:00:42.498000,0 days 00:00:37.825000,298.0,269.0,248.0,291.0,hard,2.0
0 days 00:23:23.021000,3,0 days 00:01:48.309000,3,"","",0 days 00:00:29.115000,0 days 00:00:42.222000,0 days 00:00:36.972000,301.0,271.0,246.0,284.0,hard,3.0
0 days 00:25:39.906000,3,0 days 00:02:16.885000,4,"","",0 days 00:00:36.196000,0 days 00:00:53.882000,0 days 00:00:46.807000,259.0,241.0,245.0,281.0,hard,4.0
0 days 00:27:27.391000,3,0 days 00:01:47.485000,5,"","",0 days 00:00:29.168000,0 days 00:00:41.617000,0 days 00:00:36.700000,302.0,271.0,241.0,291.0,hard,5.0
0 days 00:29:40.846000,3,0 days 00:02:13.455000,6,"",0 days 00:29:33.019000,0 days 00:00:34.080000,0 days 00:00:48.651000,0 days 00:00:50.724000,242.0,235.0,"",279.0,hard,6.0
0 days 00:42:52.637000,3,"",7,0 days 00:40:50.103000,"","",0 days 00:00:49.419000,0 days 00:00:40.766000,292.0,245.0,250.0,"",soft,1.0
0 days 00:44:49.051000,3,0 days 00:01:56.414000,8,"","",0 days 00:00:28.370000,0 days 00:00:40.906000,0 days 00:00:47.138000,307.0,277.0,201.0,295.0,soft,2.0
0 days 00:47:11.050000,3,0 days 00:02:21.999000,9,"","",0 days 00:00:40.177000,0 days 00:00:55.234000,0 days 00:00:46.588000,260.0,242.0,245.0,251.0,soft,3.0
0 days 00:48:56.497000,3,0 days 00:01:45.447000,10,"","",0 days 00:00:28.625000,0 days 00:00:40.783000,0 days 00:00:36.039000,303.0,273.0,250.0,290.0,soft,4.0
0 days 00:51:01.880000,3,0 days 00:02:05.383000,11,"",0 days 00:50:53.995000,0 days 00:00:31.533000,0 days 00:00:44.815000,0 days 00:00:49.035000,280.0,254.0,"",283.0,soft,5.0
0 days 01:08:39.587000,3,"",12,0 days 01:06:29.699000,0 days 01:08:31.729000,"",0 days 00:00:43.528000,0 days 00:00:46.344000,273.0,251.0,"","",soft,6.0
0 days 01:10:52.587000,3,0 days 00:02:13,13,0 days 01:09:01.678000,"",0 days 00:00:52.098000,0 days 00:00:43.204000,0 days 00:00:37.698000,275.0,251.0,240.0,"",hard,7.0
0 days 01:12:43.672000,3,0 days 00:01:51.085000,14,"","",0 days 00:00:30.438000,0 days 00:00:42.911000,0 days 00:00:37.736000,277.0,253.0,240.0,270.0,hard,8.0
0 days 01:14:35.605000,3,0 days 00:01:51.933000,15,"","",0 days 00:00:30.398000,0 days 00:00:43.218000,0 days 00:00:38.317000,278.0,254.0,239.0,272.0,hard,9.0
0 days 01:16:27.426000,3,0 days 00:01:51.821000,16,"","",0 days 00:00:30.375000,0 days 00:00:43.332000,0 days 00:00:38.114000,281.0,256.0,240.0,274.0,hard,10.0
0 days 01:18:36.895000,3,0 days 00:02:09.469000,17,"","",0 days 00:00:31.335000,0 days 00:00:46.120000,0 days 00:00:52.014000,253.0,212.0,41.0,278.0,hard,11.0
0 days 01:21:12.690000,3,"",18,"",0 days 01:21:04.735000,0 days 00:00:53.140000,0 days 00:00:48.202000,0 days 00:00:54.370000,245.0,220.0,"",204.0,hard,12.0
0 days 00:18:11.153000,63,"",1,0 days 00:16:02.158000,"","",0 days 00:00:50.603000,0 days 00:00:41.167000,180.0,232.0,247.0,"",medium,1.0
0 days 00:19:55.814000,63,0 days 00:01:44.661000,2,"","",0 days 00:00:28.412000,0 days 00:00:40.781000,0 days 00:00:35.468000,303.0,272.0,246.0,291.0,medium,2.0
0 days 00:22:00.766000,63,0 days 00:02:04.952000,3,"","",0 days 00:00:32.162000,0 days 00:00:48.239000,0 days 00:00:44.551000,269.0,172.0,211.0,268.0,medium,3.0
0 days 00:24:28.187000,63,0 days 00:02:27.421000,4,"","",0 days 00:00:38.050000,0 days 00:00:56.166000,0 days 00:00:53.205000,180.0,240.0,249.0,260.0,medium,4.0
0 days 00:26:38.542000,63,0 days 00:02:10.355000,5,"","",0 days 00:00:28.332000,0 days 00:00:55.784000,0 days 00:00:46.239000,306.0,238.0,226.0,294.0,medium,5.0
0 days 00:28:53.104000,63,0 days 00:02:14.562000,6,"","",0 days 00:00:34.472000,0 days 00:00:49.628000,0 days 00:00:50.462000,238.0,128.0,248.0,266.0,medium,6.0
0 days 00:30:36.995000,63,0 days 00:01:43.891000,7,"","",0 days 00:00:28.222000,0 days 00:00:40.380000,0 days 00:00:35.289000,304.0,273.0,252.0,293.0,medium,7.0
0 days 00:32:45.236000,63,0 days 00:02:08.241000,8,"","",0 days 00:00:35.183000,0 days 00:00:51.087000,0 days 00:00:41.971000,113.0,251.0,249.0,273.0,medium,8.0
0 days 00:34:29.289000,63,0 days 00:01:44.053000,9,"","",0 days 00:00:28.321000,0 days 00:00:40.349000,0 days 00:00:35.383000,304.0,273.0,253.0,293.0,medium,9.0
0 days 00:36:31.992000,63,0 days 00:02:02.703000,10,"",0 days 00:36:24.243000,0 days 00:00:31.025000,0 days 00:00:45.339000,0 days 00:00:46.339000,268.0,253.0,"",283.0,medium,10.0
0 days 00:44:34.585000,63,"",11,0 days 00:42:23.540000,"","",0 days 00:00:50.992000,0 days 00:00:43.713000,275.0,92.0,254.0,"",soft,1.0
0 days 00:46:51.527000,63,0 days 00:02:16.942000,12,"","",0 days 00:00:27.949000,0 days 00:00:53.751000,0 days 00:00:55.242000,309.0,236.0,205.0,298.0,soft,2.0
0 days 00:49:16.122000,63,0 days 00:02:24.595000,13,"","",0 days 00:00:38.729000,0 days 00:00:50.447000,0 days 00:00:55.419000,276.0,187.0,251.0,240.0,soft,3.0
0 days 00:50:59.033000,63,0 days 00:01:42.911000,14,"","",0 days 00:00:28.020000,0 days 00:00:39.866000,0 days 00:00:35.025000,310.0,277.0,252.0,298.0,soft,4.0
0 days 00:53:01.638000,63,0 days 00:02:02.605000,15,"",0 days 00:52:53.866000,0 days 00:00:31.864000,0 days 00:00:44.522000,0 days 00:00:46.219000,278.0,248.0,"",232.0,soft,5.0
0 days 01:00:54.158000,63,"",16,0 days 00:58:46.045000,"","",0 days 00:00:43.174000,0 days 00:00:36.960000,278.0,255.0,242.0,"",medium,11.0
0 days 01:02:51.005000,63,0 days 00:01:56.847000,17,"",0 days 01:02:43.157000,0 days 00:00:29.746000,0 days 00:00:42.213000,0 days 00:00:44.888000,280.0,266.0,"",276.0,medium,12.0
0 days 01:05:11.411000,63,0 days 00:02:20.406000,18,0 days 01:03:12.339000,"",0 days 00:01:00.660000,0 days 00:00:43.093000,0 days 00:00:36.653000,230.0,259.0,243.0,"",medium,13.0
0 days 01:07:00.086000,63,0 days 00:01:48.675000,19,"","",0 days 00:00:29.801000,0 days 00:00:42.025000,0 days 00:00:36.849000,278.0,254.0,243.0,277.0,medium,14.0
0 days 01:08:49.098000,63,0 days 00:01:49.012000,20,"","",0 days 00:00:29.895000,0 days 00:00:42.205000,0 days 00:00:36.912000,"",254.0,244.0,271.0,medium,15.0
0 days 01:10:38.189000,63,0 days 00:01:49.091000,21,"","",0 days 00:00:29.998000,0 days 00:00:42.337000,0 days 00:00:36.756000,"",255.0,244.0,272.0,medium,16.0
0 days 01:12:27.523000,63,0 days 00:01:49.334000,22,"","",0 days 00:00:30.027000,0 days 00:00:42.458000,0 days 00:00:36.849000,277.0,257.0,244.0,273.0,medium,17.0
0 days 01:14:16.505000,63,0 days 00:01:48.982000,23,"","",0 days 00:00:30.016000,0 days 00:00:42.210000,0 days 00:00:36.756000,276.0,255.0,244.0,274.0,medium,18.0
0 days 01:16:05.767000,63,0 days 00:01:49.262000,24,"","",0 days 00:00:29.963000,0 days 00:00:42.288000,0 days 00:00:37.011000,283.0,258.0,236.0,278.0,medium,19.0
0 days 01:18:19.036000,63,0 days 00:02:13.269000,25,"","",0 days 00:00:32.018000,0 days 00:00:49.499000,0 days 00:00:51.752000,250.0,170.0,72.0,284.0,medium,20.0
0 days 01:21:07.965000,63,"",26,"",0 days 01:21:00.145000,0 days 00:01:05.026000,0 days 00:00:47.243000,0 days 00:00:56.636000,186.0,237.0,"",176.0,medium,21.0
0 days 00:17:03.848000,77,"",1,0 days 00:15:09.648000,"","",0 days 00:00:44.754000,0 days 00:00:38.161000,288.0,242.0,248.0,"",medium,1.0
0 days 00:18:49.687000,77,0 days 00:01:45.839000,2,"","",0 days 00:00:28.721000,0 days 00:00:40.952000,0 days 00:00:36.166000,301.0,270.0,249.0,290.0,medium,2.0
0 days 00:21:05.691000,77,0 days 00:02:16.004000,3,"","",0 days 00:00:35.998000,0 days 00:00:53.482000,0 days 00:00:46.524000,268.0,244.0,245.0,207.0,medium,3.0
0 days 00:22:51.020000,77,0 days 00:01:45.329000,4,"","",0 days 00:00:28.693000,0 days 00:00:40.622000,0 days 00:00:36.014000,300.0,271.0,250.0,290.0,medium,4.0
0 days 00:24:55.779000,77,0 days 00:02:04.759000,5,"","",0 days 00:00:33.112000,0 days 00:00:49.069000,0 days 00:00:42.578000,274.0,238.0,246.0,234.0,medium,5.0
0 days 00:26:52.484000,77,0 days 00:01:56.705000,6,"","",0 days 00:00:28.611000,0 days 00:00:45.059000,0 days 00:00:43.035000,302.0,219.0,248.0,291.0,medium,6.0
0 days 00:28:37.913000,77,0 days 00:01:45.429000,7,"","",0 days 00:00:28.584000,0 days 00:00:40.728000,0 days 00:00:36.117000,303.0,272.0,249.0,"",medium,7.0
0 days 00:30:55.721000,77,0 days 00:02:17.808000,8,"",0 days 00:30:47.881000,0 days 00:00:31.476000,0 days 00:00:48.623000,0 days 00:00:57.709000,281.0,199.0,"",260.0,medium,8.0
0 days 00:33:40.916000,77,"",9,0 days 00:31:15.004000,0 days 00:33:32.841000,0 days 00:01:02.882000,0 days 00:00:50.383000,0 days 00:00:51.799000,133.0,237.0,"","",medium,9.0
0 days 00:41:53.094000,77,"",10,0 days 00:39:45.510000,"","",0 days 00:00:46.900000,0 days 00:00:47.387000,290.0,250.0,251.0,"",soft,1.0
0 days 00:43:36.525000,77,0 days 00:01:43.431000,11,"","",0 days 00:00:28.115000,0 days 00:00:39.974000,0 days 00:00:35.342000,306.0,275.0,252.0,295.0,soft,2.0
0 days 00:46:04.647000,77,0 days 00:02:28.122000,12,"","",0 days 00:00:39.624000,0 days 00:01:00.331000,0 days 00:00:48.167000,187.0,149.0,253.0,220.0,soft,3.0
0 days 00:48:08.081000,77,0 days 00:02:03.434000,13,"","",0 days 00:00:28.900000,0 days 00:00:47.932000,0 days 00:00:46.602000,250.0,238.0,253.0,297.0,soft,4.0
0 days 00:50:11.252000,77,0 days 00:02:03.171000,14,"",0 days 00:50:03.384000,0 days 00:00:28.217000,0 days 00:00:40.185000,0 days 00:00:54.769000,306.0,274.0,"",296.0,soft,5.0
0 days 00:58:16.164000,77,"",15,0 days 00:56:10.659000,"","",0 days 00:00:45.862000,0 days 00:00:37.643000,281.0,260.0,239.0,"",soft,6.0
0 days 01:00:12.454000,77,0 days 00:01:56.290000,16,"",0 days 01:00:04.561000,0 days 00:00:29.800000,0 days 00:00:42.014000,0 days 00:00:44.476000,274.0,252.0,"",268.0,soft,7.0
0 days 01:02:30.823000,77,0 days 00:02:18.369000,17,0 days 01:00:34.519000,"",0 days 00:00:52.186000,0 days 00:00:43.287000,0 days 00:00:42.896000,275.0,252.0,240.0,"",medium,10.0
0 days 01:04:19.421000,77,0 days 00:01:48.598000,18,"","",0 days 00:00:29.837000,0 days 00:00:41.767000,0 days 00:00:36.994000,277.0,253.0,242.0,271.0,medium,11.0
0 days 01:06:08.854000,77,0 days 00:01:49.433000,19,"","",0 days 00:00:29.828000,0 days 00:00:42.412000,0 days 00:00:37.193000,"",253.0,240.0,274.0,medium,12.0
0 days 01:07:58.777000,77,0 days 00:01:49.923000,20,"","",0 days 00:00:29.996000,0 days 00:00:42.465000,0 days 00:00:37.462000,"",253.0,240.0,271.0,medium,13.0
0 days 01:09:49.629000,77,0 days 00:01:50.852000,21,"","",0 days 00:00:30.188000,0 days 00:00:42.920000,0 days 00:00:37.744000,283.0,255.0,241.0,275.0,medium,14.0
0 days 01:11:39.965000,77,0 days 00:01:50.336000,22,"","",0 days 00:00:30.102000,0 days 00:00:42.746000,0 days 00:00:37.488000,"",255.0,242.0,272.0,medium,15.0
0 days 01:13:30.736000,77,0 days 00:01:50.771000,23,"","",0 days 00:00:30.185000,0 days 00:00:42.833000,0 days 00:00:37.753000,278.0,254.0,241.0,271.0,medium,16.0
0 days 01:15:22.549000,77,0 days 00:01:51.813000,24,"","",0 days 00:00:30.169000,0 days 00:00:43.755000,0 days 00:00:37.889000,301.0,267.0,238.0,285.0,medium,17.0
0 days 01:17:42.545000,77,0 days 00:02:19.996000,25,"","",0 days 00:00:37.922000,0 days 00:00:52.806000,0 days 00:00:49.268000,192.0,174.0,52.0,213.0,medium,18.0
0 days 01:20:20.958000,77,"",26,"",0 days 01:20:12.980000,0 days 00:00:53.572000,0 days 00:00:50.885000,0 days 00:00:53.877000,284.0,178.0,"",195.0,medium,19.0
