2022-11-18 09:45:02	RISK OF RAIN FOR F1 FIRST PRACTICE SESSION IS 0%
2022-11-18 09:45:14	CLEAR IN TRACK SECTOR 18
2022-11-18 09:47:47	BLUE HEAD PADDING MATERIAL MUST BE USED
2022-11-18 09:49:25	DRS DISABLED IN ZONE 1
2022-11-18 09:49:47	DRS ENABLED IN ZONE 1
2022-11-18 10:00:00	GREEN LIGHT - PIT EXIT OPEN
2022-11-18 10:28:46	YELLOW IN TRACK SECTOR 2
2022-11-18 10:29:15	CLEAR IN TRACK SECTOR 2
2022-11-18 11:00:00	CHEQUERED FLAG
2022-11-18 11:00:25	FIRST CAR TO TAKE THE FLAG - CAR 28 (OWA)
