Time,DriverNumber,LapTime,LapNumber,PitOutTime,PitInTime,Sector1Time,Sector2Time,Sector3Time,SpeedI1,SpeedI2,SpeedFL,SpeedST,Compound,TyreLife
0 days 00:17:59.768000,1,"",1,0 days 00:15:59.232000,"","",0 days 00:00:42.077000,0 days 00:00:49.528000,296.0,196.0,244.0,265.0,medium,1.0
0 days 00:19:31.206000,1,0 days 00:01:31.438000,2,"","",0 days 00:00:29.099000,0 days 00:00:37.321000,0 days 00:00:25.018000,311.0,255.0,245.0,316.0,medium,2.0
0 days 00:21:48.612000,1,0 days 00:02:17.406000,3,"","",0 days 00:00:41.436000,0 days 00:00:59.595000,0 days 00:00:36.375000,187.0,194.0,247.0,206.0,medium,3.0
0 days 00:23:49.500000,1,0 days 00:02:00.888000,4,"","",0 days 00:00:36.274000,0 days 00:00:51.589000,0 days 00:00:33.025000,139.0,184.0,248.0,244.0,medium,4.0
0 days 00:25:19.988000,1,0 days 00:01:30.488000,5,"","",0 days 00:00:29.079000,0 days 00:00:36.621000,0 days 00:00:24.788000,313.0,259.0,246.0,316.0,medium,5.0
0 days 00:27:42.490000,1,0 days 00:02:22.502000,6,"","",0 days 00:00:40.109000,0 days 00:01:05.702000,0 days 00:00:36.691000,172.0,157.0,248.0,222.0,medium,6.0
0 days 00:29:12.375000,1,0 days 00:01:29.885000,7,"","",0 days 00:00:28.918000,0 days 00:00:36.377000,0 days 00:00:24.590000,311.0,260.0,247.0,319.0,medium,7.0
0 days 00:30:50.473000,1,0 days 00:01:38.098000,8,"",0 days 00:30:44.392000,0 days 00:00:31.452000,0 days 00:00:39.666000,0 days 00:00:26.980000,260.0,236.0,"",272.0,medium,8.0
0 days 00:56:14.974000,1,"",9,0 days 00:54:16.469000,"","",0 days 00:00:48.716000,0 days 00:00:39.577000,281.0,142.0,249.0,231.0,soft,1.0
0 days 00:57:44.123000,1,0 days 00:01:29.149000,10,"","",0 days 00:00:28.599000,0 days 00:00:36.105000,0 days 00:00:24.445000,314.0,259.0,246.0,315.0,soft,2.0
0 days 00:59:21.183000,1,0 days 00:01:37.060000,11,"",0 days 00:59:15.243000,0 days 00:00:31.236000,0 days 00:00:39.072000,0 days 00:00:26.752000,274.0,236.0,"",277.0,soft,3.0
0 days 01:08:58.481000,1,"",12,0 days 01:07:24.403000,"","",0 days 00:00:39.213000,0 days 00:00:26.399000,287.0,249.0,240.0,295.0,soft,4.0
0 days 01:10:33.270000,1,0 days 00:01:34.789000,13,"","",0 days 00:00:29.660000,0 days 00:00:37.356000,0 days 00:00:27.773000,292.0,250.0,242.0,296.0,soft,5.0
0 days 01:12:06.496000,1,0 days 00:01:33.226000,14,"","",0 days 00:00:29.788000,0 days 00:00:37.533000,0 days 00:00:25.905000,285.0,249.0,240.0,289.0,soft,6.0
0 days 01:13:40.107000,1,0 days 00:01:33.611000,15,"","",0 days 00:00:30.041000,0 days 00:00:37.728000,0 days 00:00:25.842000,289.0,248.0,240.0,294.0,soft,7.0
0 days 01:15:13.699000,1,0 days 00:01:33.592000,16,"","",0 days 00:00:30.040000,0 days 00:00:38.203000,0 days 00:00:25.349000,290.0,252.0,242.0,314.0,soft,8.0
0 days 01:18:47.064000,1,"",17,"","",0 days 00:00:53.247000,0 days 00:01:27.384000,0 days 00:01:12.781000,105.0,105.0,7.0,105.0,soft,9.0
0 days 01:20:41.986000,1,0 days 00:01:54.922000,18,"",0 days 01:20:36.010000,0 days 00:00:35.393000,0 days 00:00:50.882000,0 days 00:00:28.647000,207.0,192.0,"",215.0,soft,10.0
0 days 00:16:50.552000,55,"",1,0 days 00:15:01.914000,"","",0 days 00:00:44.105000,0 days 00:00:31.586000,279.0,212.0,248.0,286.0,medium,1.0
0 days 00:18:25.897000,55,0 days 00:01:35.345000,2,"","",0 days 00:00:29.183000,0 days 00:00:37.457000,0 days 00:00:28.705000,311.0,258.0,245.0,313.0,medium,2.0
0 days 00:19:56.777000,55,0 days 00:01:30.880000,3,"","",0 days 00:00:29.193000,0 days 00:00:36.845000,0 days 00:00:24.842000,307.0,256.0,248.0,314.0,medium,3.0
0 days 00:22:10.195000,55,0 days 00:02:13.418000,4,"","",0 days 00:00:42.221000,0 days 00:00:58.421000,0 days 00:00:32.776000,176.0,186.0,248.0,248.0,medium,4.0
0 days 00:23:40.157000,55,0 days 00:01:29.962000,5,"","",0 days 00:00:28.862000,0 days 00:00:36.554000,0 days 00:00:24.546000,311.0,259.0,250.0,313.0,medium,5.0
0 days 00:26:01.469000,55,0 days 00:02:21.312000,6,"","",0 days 00:00:43.449000,0 days 00:00:59.655000,0 days 00:00:38.208000,190.0,166.0,245.0,132.0,medium,6.0
0 days 00:27:57.515000,55,0 days 00:01:56.046000,7,"","",0 days 00:00:33.319000,0 days 00:00:49.233000,0 days 00:00:33.494000,227.0,227.0,248.0,279.0,medium,7.0
0 days 00:29:53.964000,55,0 days 00:01:56.449000,8,"","",0 days 00:00:30.069000,0 days 00:00:49.829000,0 days 00:00:36.551000,246.0,240.0,245.0,300.0,medium,8.0
0 days 00:31:33.892000,55,0 days 00:01:39.928000,9,"","",0 days 00:00:28.917000,0 days 00:00:43.549000,0 days 00:00:27.462000,309.0,235.0,250.0,291.0,medium,9.0
0 days 00:33:03.435000,55,0 days 00:01:29.543000,10,"","",0 days 00:00:28.932000,0 days 00:00:36.194000,0 days 00:00:24.417000,"",260.0,250.0,314.0,medium,10.0
0 days 00:34:43.881000,55,0 days 00:01:40.446000,11,"",0 days 00:34:37.921000,0 days 00:00:30.937000,0 days 00:00:42.212000,0 days 00:00:27.297000,269.0,238.0,"",255.0,medium,11.0
0 days 00:44:07.109000,55,"",12,0 days 00:42:15.948000,"","",0 days 00:00:47.713000,0 days 00:00:30.085000,265.0,201.0,250.0,277.0,soft,1.0
0 days 00:45:36.123000,55,0 days 00:01:29.014000,13,"","",0 days 00:00:28.509000,0 days 00:00:36.084000,0 days 00:00:24.421000,310.0,258.0,249.0,314.0,soft,2.0
0 days 00:47:44.375000,55,0 days 00:02:08.252000,14,"",0 days 00:47:38.393000,0 days 00:00:41.740000,0 days 00:00:53.605000,0 days 00:00:32.907000,235.0,184.0,"",204.0,soft,3.0
0 days 00:50:10.677000,55,0 days 00:02:26.302000,15,0 days 00:48:14.044000,"",0 days 00:01:02.263000,0 days 00:00:55.340000,0 days 00:00:28.699000,203.0,213.0,250.0,287.0,soft,4.0
0 days 00:51:39.619000,55,0 days 00:01:28.942000,16,"","",0 days 00:00:28.439000,0 days 00:00:36.209000,0 days 00:00:24.294000,311.0,257.0,251.0,313.0,soft,5.0
0 days 00:53:34.561000,55,0 days 00:01:54.942000,17,"",0 days 00:53:28.583000,0 days 00:00:37.980000,0 days 00:00:47.159000,0 days 00:00:29.803000,196.0,198.0,"",198.0,soft,6.0
0 days 01:02:51.463000,55,"",18,0 days 01:01:18.271000,"","",0 days 00:00:38.620000,0 days 00:00:25.987000,281.0,247.0,243.0,286.0,soft,7.0
0 days 01:04:24.682000,55,0 days 00:01:33.219000,19,"","",0 days 00:00:29.739000,0 days 00:00:37.858000,0 days 00:00:25.622000,288.0,248.0,243.0,292.0,soft,8.0
0 days 01:05:58.221000,55,0 days 00:01:33.539000,20,"","",0 days 00:00:29.966000,0 days 00:00:37.930000,0 days 00:00:25.643000,283.0,248.0,243.0,288.0,soft,9.0
0 days 01:07:31.559000,55,0 days 00:01:33.338000,21,"","",0 days 00:00:30.053000,0 days 00:00:37.772000,0 days 00:00:25.513000,284.0,245.0,243.0,290.0,soft,10.0
0 days 01:09:05.210000,55,0 days 00:01:33.651000,22,"","",0 days 00:00:30.148000,0 days 00:00:37.892000,0 days 00:00:25.611000,285.0,249.0,242.0,292.0,soft,11.0
0 days 01:10:39.039000,55,0 days 00:01:33.829000,23,"","",0 days 00:00:30.153000,0 days 00:00:37.849000,0 days 00:00:25.827000,283.0,250.0,241.0,293.0,soft,12.0
0 days 01:12:13.704000,55,0 days 00:01:34.665000,24,"","",0 days 00:00:30.419000,0 days 00:00:38.193000,0 days 00:00:26.053000,"",249.0,242.0,290.0,soft,13.0
0 days 01:13:47.759000,55,0 days 00:01:34.055000,25,"",0 days 01:13:41.813000,0 days 00:00:30.247000,0 days 00:00:38.137000,0 days 00:00:25.671000,285.0,249.0,"",292.0,soft,14.0
0 days 01:15:42.099000,55,0 days 00:01:54.340000,26,0 days 01:14:10.157000,"",0 days 00:00:50.199000,0 days 00:00:38.202000,0 days 00:00:25.939000,294.0,249.0,244.0,289.0,medium,12.0
0 days 01:17:27.275000,55,0 days 00:01:45.176000,27,"","",0 days 00:00:29.815000,0 days 00:00:37.603000,0 days 00:00:37.758000,286.0,250.0,66.0,292.0,medium,13.0
0 days 01:19:29.173000,55,0 days 00:02:01.898000,28,"",0 days 01:19:21.783000,0 days 00:00:54.800000,0 days 00:00:37.713000,0 days 00:00:29.385000,285.0,249.0,"",228.0,medium,14.0
0 days 00:17:30.224000,47,"",1,0 days 00:15:25.196000,"","",0 days 00:00:46.526000,0 days 00:00:44.606000,249.0,227.0,232.0,200.0,medium,1.0
0 days 00:19:05.230000,47,0 days 00:01:35.006000,2,"","",0 days 00:00:30.140000,0 days 00:00:38.748000,0 days 00:00:26.118000,301.0,249.0,242.0,308.0,medium,2.0
0 days 00:20:38.868000,47,0 days 00:01:33.638000,3,"","",0 days 00:00:29.981000,0 days 00:00:38.093000,0 days 00:00:25.564000,300.0,249.0,244.0,307.0,medium,3.0
0 days 00:22:35.658000,47,0 days 00:01:56.790000,4,"","",0 days 00:00:37.454000,0 days 00:00:46.470000,0 days 00:00:32.866000,231.0,182.0,247.0,171.0,medium,4.0
0 days 00:24:30.980000,47,0 days 00:01:55.322000,5,"","",0 days 00:00:32.048000,0 days 00:00:44.102000,0 days 00:00:39.172000,278.0,150.0,247.0,147.0,medium,5.0
0 days 00:26:03.053000,47,0 days 00:01:32.073000,6,"","",0 days 00:00:29.375000,0 days 00:00:37.343000,0 days 00:00:25.355000,308.0,253.0,247.0,311.0,medium,6.0
0 days 00:28:05.138000,47,0 days 00:02:02.085000,7,"","",0 days 00:00:32.544000,0 days 00:00:50.361000,0 days 00:00:39.180000,194.0,233.0,247.0,195.0,medium,7.0
0 days 00:29:36.900000,47,0 days 00:01:31.762000,8,"","",0 days 00:00:29.316000,0 days 00:00:37.249000,0 days 00:00:25.197000,305.0,253.0,249.0,315.0,medium,8.0
0 days 00:31:25.256000,47,0 days 00:01:48.356000,9,"",0 days 00:31:19.267000,0 days 00:00:34.532000,0 days 00:00:46.845000,0 days 00:00:26.979000,199.0,233.0,"",290.0,medium,9.0
0 days 00:41:26.381000,47,"",10,0 days 00:39:41.824000,"","",0 days 00:00:43.364000,0 days 00:00:28.273000,268.0,236.0,249.0,271.0,soft,1.0
0 days 00:42:57.159000,47,0 days 00:01:30.778000,11,"","",0 days 00:00:28.811000,0 days 00:00:36.884000,0 days 00:00:25.083000,309.0,255.0,247.0,313.0,soft,2.0
0 days 00:44:59.684000,47,0 days 00:02:02.525000,12,"","",0 days 00:00:37.402000,0 days 00:00:50.715000,0 days 00:00:34.408000,240.0,209.0,246.0,199.0,soft,3.0
0 days 00:46:30.329000,47,0 days 00:01:30.645000,13,"","",0 days 00:00:29.032000,0 days 00:00:36.945000,0 days 00:00:24.668000,308.0,256.0,249.0,313.0,soft,4.0
0 days 00:48:31.645000,47,0 days 00:02:01.316000,14,"","",0 days 00:00:39.189000,0 days 00:00:52.309000,0 days 00:00:29.818000,234.0,192.0,248.0,261.0,soft,5.0
0 days 00:50:02.254000,47,0 days 00:01:30.609000,15,"","",0 days 00:00:28.889000,0 days 00:00:36.766000,0 days 00:00:24.954000,310.0,253.0,247.0,313.0,soft,6.0
0 days 00:51:47.465000,47,0 days 00:01:45.211000,16,"",0 days 00:51:41.505000,0 days 00:00:36.096000,0 days 00:00:42.668000,0 days 00:00:26.447000,96.0,240.0,"",289.0,soft,7.0
0 days 01:00:05.695000,47,"",17,0 days 00:58:30.094000,"","",0 days 00:00:39.643000,0 days 00:00:26.429000,280.0,243.0,242.0,284.0,medium,10.0
0 days 01:01:40.919000,47,0 days 00:01:35.224000,18,"","",0 days 00:00:30.179000,0 days 00:00:38.603000,0 days 00:00:26.442000,281.0,243.0,240.0,286.0,medium,11.0
0 days 01:03:16.345000,47,0 days 00:01:35.426000,19,"","",0 days 00:00:30.647000,0 days 00:00:38.549000,0 days 00:00:26.230000,280.0,246.0,241.0,286.0,medium,12.0
0 days 01:04:51.730000,47,0 days 00:01:35.385000,20,"","",0 days 00:00:30.943000,0 days 00:00:38.215000,0 days 00:00:26.227000,278.0,247.0,241.0,283.0,medium,13.0
0 days 01:06:26.393000,47,0 days 00:01:34.663000,21,"","",0 days 00:00:30.287000,0 days 00:00:38.219000,0 days 00:00:26.157000,"",246.0,242.0,286.0,medium,14.0
0 days 01:08:02.670000,47,0 days 00:01:36.277000,22,"","",0 days 00:00:30.507000,0 days 00:00:39.272000,0 days 00:00:26.498000,283.0,245.0,240.0,292.0,medium,15.0
0 days 01:09:37.846000,47,0 days 00:01:35.176000,23,"","",0 days 00:00:30.485000,0 days 00:00:38.557000,0 days 00:00:26.134000,"",245.0,242.0,290.0,medium,16.0
0 days 01:11:12.984000,47,0 days 00:01:35.138000,24,"","",0 days 00:00:30.397000,0 days 00:00:38.625000,0 days 00:00:26.116000,278.0,244.0,241.0,286.0,medium,17.0
0 days 01:12:48.255000,47,0 days 00:01:35.271000,25,"","",0 days 00:00:30.375000,0 days 00:00:38.592000,0 days 00:00:26.304000,"",247.0,240.0,285.0,medium,18.0
0 days 01:14:24.300000,47,0 days 00:01:36.045000,26,"","",0 days 00:00:30.473000,0 days 00:00:38.719000,0 days 00:00:26.853000,281.0,246.0,241.0,288.0,medium,19.0
0 days 01:16:00.340000,47,0 days 00:01:36.040000,27,"","",0 days 00:00:30.583000,0 days 00:00:39.198000,0 days 00:00:26.259000,283.0,245.0,242.0,288.0,medium,20.0
0 days 01:17:56.970000,47,0 days 00:01:56.630000,28,"","",0 days 00:00:30.427000,0 days 00:00:45.585000,0 days 00:00:40.618000,281.0,199.0,45.0,205.0,medium,21.0
0 days 01:20:23.475000,47,0 days 00:02:26.505000,29,"",0 days 01:20:16.379000,0 days 00:01:09.619000,0 days 00:00:47.441000,0 days 00:00:29.445000,174.0,228.0,"",234.0,medium,22.0
0 days 00:17:20.184000,44,"",1,0 days 00:15:31.615000,"","",0 days 00:00:41.821000,0 days 00:00:34.472000,275.0,229.0,247.0,290.0,medium,1.0
0 days 00:18:57.370000,44,0 days 00:01:37.186000,2,"","",0 days 00:00:30.041000,0 days 00:00:39.357000,0 days 00:00:27.788000,296.0,251.0,248.0,295.0,medium,2.0
0 days 00:20:33.447000,44,0 days 00:01:36.077000,3,"","",0 days 00:00:29.288000,0 days 00:00:36.857000,0 days 00:00:29.932000,304.0,260.0,249.0,317.0,medium,3.0
0 days 00:22:13.192000,44,0 days 00:01:39.745000,4,"","",0 days 00:00:29.566000,0 days 00:00:42.318000,0 days 00:00:27.861000,299.0,235.0,250.0,288.0,medium,4.0
0 days 00:23:44.084000,44,0 days 00:01:30.892000,5,"","",0 days 00:00:29.183000,0 days 00:00:36.849000,0 days 00:00:24.860000,306.0,259.0,247.0,314.0,medium,5.0
0 days 00:25:52.938000,44,0 days 00:02:08.854000,6,"","",0 days 00:00:40.753000,0 days 00:00:55.119000,0 days 00:00:32.982000,158.0,233.0,249.0,213.0,medium,6.0
0 days 00:27:35.438000,44,0 days 00:01:42.500000,7,"","",0 days 00:00:31.869000,0 days 00:00:41.718000,0 days 00:00:28.913000,269.0,239.0,250.0,295.0,medium,7.0
0 days 00:29:05.854000,44,0 days 00:01:30.416000,8,"","",0 days 00:00:29.088000,0 days 00:00:36.617000,0 days 00:00:24.711000,303.0,260.0,247.0,313.0,medium,8.0
0 days 00:31:04.507000,44,0 days 00:01:58.653000,9,"",0 days 00:30:58.574000,0 days 00:00:37.169000,0 days 00:00:51.983000,0 days 00:00:29.501000,240.0,159.0,"",246.0,medium,9.0
0 days 00:55:30.564000,44,"",10,0 days 00:53:54.913000,"","",0 days 00:00:40.144000,0 days 00:00:26.221000,300.0,243.0,238.0,294.0,soft,1.0
0 days 00:57:07.617000,44,0 days 00:01:37.053000,11,"","",0 days 00:00:30.078000,0 days 00:00:39.085000,0 days 00:00:27.890000,296.0,245.0,252.0,296.0,soft,2.0
0 days 00:58:36.722000,44,0 days 00:01:29.105000,12,"","",0 days 00:00:28.702000,0 days 00:00:36.044000,0 days 00:00:24.359000,310.0,261.0,247.0,312.0,soft,3.0
0 days 01:00:47.135000,44,0 days 00:02:10.413000,13,"",0 days 01:00:41.135000,0 days 00:00:49.014000,0 days 00:00:49.545000,0 days 00:00:31.854000,175.0,232.0,"",294.0,soft,4.0
0 days 01:08:00.480000,44,"",14,0 days 01:06:25.491000,"","",0 days 00:00:39.569000,0 days 00:00:25.976000,295.0,246.0,242.0,307.0,medium,10.0
0 days 01:09:34.298000,44,0 days 00:01:33.818000,15,"","",0 days 00:00:30.060000,0 days 00:00:38.012000,0 days 00:00:25.746000,278.0,246.0,243.0,285.0,medium,11.0
0 days 01:11:07.934000,44,0 days 00:01:33.636000,16,"","",0 days 00:00:30.044000,0 days 00:00:37.993000,0 days 00:00:25.599000,283.0,248.0,242.0,288.0,medium,12.0
0 days 01:12:41.777000,44,0 days 00:01:33.843000,17,"","",0 days 00:00:30.165000,0 days 00:00:37.871000,0 days 00:00:25.807000,282.0,249.0,242.0,287.0,medium,13.0
0 days 01:14:15.686000,44,0 days 00:01:33.909000,18,"","",0 days 00:00:30.191000,0 days 00:00:37.941000,0 days 00:00:25.777000,287.0,248.0,241.0,291.0,medium,14.0
0 days 01:15:50.322000,44,0 days 00:01:34.636000,19,"","",0 days 00:00:30.163000,0 days 00:00:38.028000,0 days 00:00:26.445000,289.0,247.0,243.0,291.0,medium,15.0
0 days 01:17:44.236000,44,0 days 00:01:53.914000,20,"","",0 days 00:00:35.675000,0 days 00:00:44.480000,0 days 00:00:33.759000,172.0,238.0,50.0,277.0,medium,16.0
0 days 01:19:49.950000,44,0 days 00:02:05.714000,21,"",0 days 01:19:43.987000,0 days 00:00:58.894000,0 days 00:00:39.534000,0 days 00:00:27.286000,274.0,241.0,"",213.0,medium,17.0
0 days 00:17:25.501000,31,"",1,0 days 00:15:23.894000,"","",0 days 00:00:46.475000,0 days 00:00:42.037000,289.0,219.0,243.0,278.0,soft,1.0
0 days 00:18:58.582000,31,0 days 00:01:33.081000,2,"","",0 days 00:00:29.617000,0 days 00:00:37.886000,0 days 00:00:25.578000,299.0,252.0,246.0,305.0,soft,2.0
0 days 00:21:06.693000,31,0 days 00:02:08.111000,3,"","",0 days 00:00:38.019000,0 days 00:00:53.976000,0 days 00:00:36.116000,209.0,230.0,248.0,283.0,soft,3.0
0 days 00:22:38.269000,31,0 days 00:01:31.576000,4,"","",0 days 00:00:29.298000,0 days 00:00:37.207000,0 days 00:00:25.071000,302.0,254.0,248.0,305.0,soft,4.0
0 days 00:24:46.116000,31,0 days 00:02:07.847000,5,"","",0 days 00:00:41.054000,0 days 00:00:54.121000,0 days 00:00:32.672000,252.0,223.0,249.0,248.0,soft,5.0
0 days 00:26:17.342000,31,0 days 00:01:31.226000,6,"","",0 days 00:00:29.236000,0 days 00:00:36.982000,0 days 00:00:25.008000,302.0,256.0,247.0,306.0,soft,6.0
0 days 00:28:12.359000,31,0 days 00:01:55.017000,7,"",0 days 00:28:06.436000,0 days 00:00:38.814000,0 days 00:00:45.384000,0 days 00:00:30.819000,271.0,224.0,"",223.0,soft,7.0
0 days 00:52:57.971000,31,"",8,0 days 00:51:02.461000,"","",0 days 00:00:47.711000,0 days 00:00:31.280000,273.0,228.0,250.0,266.0,soft,1.0
0 days 00:54:28.209000,31,0 days 00:01:30.238000,9,"","",0 days 00:00:28.934000,0 days 00:00:36.627000,0 days 00:00:24.677000,302.0,257.0,247.0,308.0,soft,2.0
0 days 00:56:55.558000,31,0 days 00:02:27.349000,10,"","",0 days 00:00:48.342000,0 days 00:01:04.746000,0 days 00:00:34.261000,131.0,133.0,250.0,270.0,soft,3.0
0 days 00:58:25.804000,31,0 days 00:01:30.246000,11,"","",0 days 00:00:28.896000,0 days 00:00:36.535000,0 days 00:00:24.815000,304.0,257.0,246.0,307.0,soft,4.0
0 days 01:00:18.062000,31,0 days 00:01:52.258000,12,"",0 days 01:00:12.059000,0 days 00:00:36.262000,0 days 00:00:48.264000,0 days 00:00:27.732000,195.0,231.0,"",280.0,soft,5.0
0 days 00:18:04.680000,24,"",1,0 days 00:15:47.616000,"","",0 days 00:00:50.504000,0 days 00:00:50.775000,247.0,151.0,242.0,272.0,medium,1.0
0 days 00:19:39.806000,24,0 days 00:01:35.126000,2,"","",0 days 00:00:29.822000,0 days 00:00:39.461000,0 days 00:00:25.843000,303.0,247.0,243.0,307.0,medium,2.0
0 days 00:21:53.304000,24,0 days 00:02:13.498000,3,"","",0 days 00:00:36.611000,0 days 00:00:58.712000,0 days 00:00:38.175000,198.0,139.0,248.0,192.0,medium,3.0
0 days 00:23:25.915000,24,0 days 00:01:32.611000,4,"","",0 days 00:00:29.266000,0 days 00:00:37.933000,0 days 00:00:25.412000,309.0,252.0,249.0,310.0,medium,4.0
0 days 00:25:29.831000,24,0 days 00:02:03.916000,5,"","",0 days 00:00:38.767000,0 days 00:00:48.500000,0 days 00:00:36.649000,162.0,160.0,246.0,93.0,medium,5.0
0 days 00:27:02.692000,24,0 days 00:01:32.861000,6,"","",0 days 00:00:29.416000,0 days 00:00:38.081000,0 days 00:00:25.364000,306.0,251.0,246.0,308.0,medium,6.0
0 days 00:28:45.205000,24,0 days 00:01:42.513000,7,"",0 days 00:28:39.229000,0 days 00:00:32.245000,0 days 00:00:43.182000,0 days 00:00:27.086000,265.0,225.0,"",285.0,medium,7.0
0 days 00:40:18.067000,24,"",8,0 days 00:38:22.753000,"","",0 days 00:00:47.063000,0 days 00:00:35.497000,249.0,219.0,244.0,280.0,soft,1.0
0 days 00:41:49.149000,24,0 days 00:01:31.082000,9,"","",0 days 00:00:28.993000,0 days 00:00:37.188000,0 days 00:00:24.901000,308.0,254.0,248.0,309.0,soft,2.0
0 days 00:43:53.409000,24,0 days 00:02:04.260000,10,"","",0 days 00:00:40.971000,0 days 00:00:52.951000,0 days 00:00:30.338000,125.0,215.0,246.0,280.0,soft,3.0
0 days 00:45:24.214000,24,0 days 00:01:30.805000,11,"","",0 days 00:00:29.036000,0 days 00:00:36.968000,0 days 00:00:24.801000,307.0,254.0,247.0,310.0,soft,4.0
0 days 00:47:29.674000,24,0 days 00:02:05.460000,12,"","",0 days 00:00:36.443000,0 days 00:00:57.567000,0 days 00:00:31.450000,234.0,203.0,247.0,281.0,soft,5.0
0 days 00:49:00.289000,24,0 days 00:01:30.615000,13,"","",0 days 00:00:28.958000,0 days 00:00:36.797000,0 days 00:00:24.860000,308.0,256.0,248.0,311.0,soft,6.0
0 days 00:51:04.432000,24,0 days 00:02:04.143000,14,"","",0 days 00:00:37.628000,0 days 00:00:51.794000,0 days 00:00:34.721000,195.0,208.0,247.0,262.0,soft,7.0
0 days 00:52:34.703000,24,0 days 00:01:30.271000,15,"","",0 days 00:00:28.923000,0 days 00:00:36.589000,0 days 00:00:24.759000,307.0,256.0,249.0,310.0,soft,8.0
0 days 00:54:32.887000,24,0 days 00:01:58.184000,16,"","",0 days 00:00:34.060000,0 days 00:00:51.939000,0 days 00:00:32.185000,226.0,206.0,249.0,152.0,soft,9.0
0 days 00:56:13.280000,24,0 days 00:01:40.393000,17,"",0 days 00:56:07.365000,0 days 00:00:30.253000,0 days 00:00:42.717000,0 days 00:00:27.423000,238.0,228.0,"",291.0,soft,10.0
0 days 01:04:30.770000,24,"",18,0 days 01:02:57.287000,0 days 01:04:24.806000,"",0 days 00:00:38.983000,0 days 00:00:25.983000,280.0,241.0,"",285.0,soft,11.0
0 days 01:06:37.413000,24,0 days 00:02:06.643000,19,0 days 01:04:56.206000,"",0 days 00:00:57.984000,0 days 00:00:41.919000,0 days 00:00:26.740000,252.0,238.0,243.0,290.0,medium,8.0
0 days 01:08:11.933000,24,0 days 00:01:34.520000,20,"","",0 days 00:00:30.190000,0 days 00:00:38.334000,0 days 00:00:25.996000,285.0,248.0,244.0,293.0,medium,9.0
0 days 01:09:45.888000,24,0 days 00:01:33.955000,21,"","",0 days 00:00:29.947000,0 days 00:00:38.082000,0 days 00:00:25.926000,284.0,249.0,245.0,292.0,medium,10.0
0 days 01:11:20.131000,24,0 days 00:01:34.243000,22,"","",0 days 00:00:30.012000,0 days 00:00:38.198000,0 days 00:00:26.033000,281.0,247.0,243.0,287.0,medium,11.0
0 days 01:12:57.290000,24,0 days 00:01:37.159000,23,"","",0 days 00:00:30.139000,0 days 00:00:38.155000,0 days 00:00:28.865000,280.0,247.0,243.0,287.0,medium,12.0
0 days 01:14:33.013000,24,0 days 00:01:35.723000,24,"","",0 days 00:00:30.925000,0 days 00:00:38.345000,0 days 00:00:26.453000,"",247.0,240.0,289.0,medium,13.0
0 days 01:16:07.888000,24,0 days 00:01:34.875000,25,"","",0 days 00:00:30.243000,0 days 00:00:38.409000,0 days 00:00:26.223000,292.0,247.0,243.0,288.0,medium,14.0
0 days 01:18:24.124000,24,0 days 00:02:16.236000,26,"","",0 days 00:00:36.248000,0 days 00:00:53.640000,0 days 00:00:46.348000,199.0,170.0,25.0,210.0,medium,15.0
0 days 01:20:40.126000,24,0 days 00:02:16.002000,27,"",0 days 01:20:34.128000,0 days 00:00:54.362000,0 days 00:00:49.340000,0 days 00:00:32.300000,271.0,191.0,"",282.0,medium,16.0
0 days 00:18:13.388000,23,"",1,0 days 00:16:09.065000,"","",0 days 00:00:48.626000,0 days 00:00:45.221000,293.0,237.0,245.0,273.0,soft,1.0
0 days 00:19:46.644000,23,0 days 00:01:33.256000,2,"","",0 days 00:00:29.450000,0 days 00:00:38.424000,0 days 00:00:25.382000,306.0,251.0,248.0,313.0,soft,2.0
0 days 00:21:56.028000,23,0 days 00:02:09.384000,3,"","",0 days 00:00:39.209000,0 days 00:00:54.943000,0 days 00:00:35.232000,266.0,230.0,250.0,218.0,soft,3.0
0 days 00:23:27.848000,23,0 days 00:01:31.820000,4,"","",0 days 00:00:29.145000,0 days 00:00:37.515000,0 days 00:00:25.160000,312.0,256.0,248.0,315.0,soft,4.0
0 days 00:25:35.230000,23,0 days 00:02:07.382000,5,"","",0 days 00:00:40.510000,0 days 00:00:54.630000,0 days 00:00:32.242000,231.0,226.0,250.0,281.0,soft,5.0
0 days 00:27:31.175000,23,0 days 00:01:55.945000,6,"","",0 days 00:00:32.266000,0 days 00:00:49.382000,0 days 00:00:34.297000,272.0,227.0,249.0,265.0,soft,6.0
0 days 00:29:02.148000,23,0 days 00:01:30.973000,7,"","",0 days 00:00:28.902000,0 days 00:00:37.013000,0 days 00:00:25.058000,310.0,259.0,247.0,316.0,soft,7.0
0 days 00:30:58.547000,23,0 days 00:01:56.399000,8,"",0 days 00:30:52.626000,0 days 00:00:36.057000,0 days 00:00:51.413000,0 days 00:00:28.929000,241.0,234.0,"",279.0,soft,8.0
0 days 00:33:48.882000,23,"",9,0 days 00:31:59.899000,0 days 00:33:42.714000,0 days 00:01:37.992000,0 days 00:00:45.923000,0 days 00:00:26.337000,240.0,254.0,"",315.0,soft,9.0
0 days 00:47:39.565000,23,"",10,0 days 00:45:49.625000,"","",0 days 00:00:46.779000,0 days 00:00:31.676000,294.0,234.0,253.0,226.0,soft,1.0
0 days 00:49:24.722000,23,0 days 00:01:45.157000,11,"","",0 days 00:00:28.574000,0 days 00:00:39.372000,0 days 00:00:37.211000,315.0,184.0,181.0,243.0,soft,2.0
0 days 00:51:25.645000,23,0 days 00:02:00.923000,12,"","",0 days 00:00:36.767000,0 days 00:00:52.508000,0 days 00:00:31.648000,280.0,195.0,250.0,278.0,soft,3.0
0 days 00:52:55.908000,23,0 days 00:01:30.263000,13,"","",0 days 00:00:28.653000,0 days 00:00:36.856000,0 days 00:00:24.754000,315.0,256.0,249.0,316.0,soft,4.0
0 days 00:54:46.845000,23,0 days 00:01:50.937000,14,"",0 days 00:54:40.879000,0 days 00:00:37.989000,0 days 00:00:45.293000,0 days 00:00:27.655000,147.0,234.0,"",282.0,soft,5.0
0 days 00:17:08.369000,22,"",1,0 days 00:15:15.377000,"","",0 days 00:00:42.446000,0 days 00:00:39.310000,282.0,237.0,243.0,263.0,medium,1.0
0 days 00:18:42.574000,22,0 days 00:01:34.205000,2,"","",0 days 00:00:29.880000,0 days 00:00:38.679000,0 days 00:00:25.646000,309.0,254.0,245.0,313.0,medium,2.0
0 days 00:20:45.657000,22,0 days 00:02:03.083000,3,"","",0 days 00:00:38.953000,0 days 00:00:51.819000,0 days 00:00:32.311000,150.0,192.0,245.0,266.0,medium,3.0
0 days 00:22:18.317000,22,0 days 00:01:32.660000,4,"","",0 days 00:00:29.460000,0 days 00:00:37.740000,0 days 00:00:25.460000,309.0,255.0,246.0,312.0,medium,4.0
0 days 00:24:22.698000,22,0 days 00:02:04.381000,5,"","",0 days 00:00:38.406000,0 days 00:00:51.330000,0 days 00:00:34.645000,165.0,173.0,249.0,179.0,medium,5.0
0 days 00:25:54.604000,22,0 days 00:01:31.906000,6,"","",0 days 00:00:29.002000,0 days 00:00:37.524000,0 days 00:00:25.380000,311.0,256.0,247.0,311.0,medium,6.0
0 days 00:28:08.760000,22,0 days 00:02:14.156000,7,"","",0 days 00:00:41.368000,0 days 00:00:53.275000,0 days 00:00:39.513000,169.0,184.0,245.0,260.0,medium,7.0
0 days 00:29:41.089000,22,0 days 00:01:32.329000,8,"","",0 days 00:00:29.624000,0 days 00:00:37.390000,0 days 00:00:25.315000,308.0,258.0,248.0,316.0,medium,8.0
0 days 00:31:41.935000,22,0 days 00:02:00.846000,9,"","",0 days 00:00:38.458000,0 days 00:00:50.666000,0 days 00:00:31.722000,271.0,186.0,248.0,267.0,medium,9.0
0 days 00:33:13.318000,22,0 days 00:01:31.383000,10,"","",0 days 00:00:29.147000,0 days 00:00:37.102000,0 days 00:00:25.134000,310.0,258.0,248.0,316.0,medium,10.0
0 days 00:34:56.291000,22,0 days 00:01:42.973000,11,"",0 days 00:34:50.354000,0 days 00:00:33.062000,0 days 00:00:42.473000,0 days 00:00:27.438000,273.0,235.0,"",287.0,medium,11.0
0 days 00:42:09.221000,22,"",12,0 days 00:40:20.419000,"","",0 days 00:00:44.266000,0 days 00:00:31.019000,281.0,219.0,250.0,266.0,soft,1.0
0 days 00:43:39.559000,22,0 days 00:01:30.338000,13,"","",0 days 00:00:28.676000,0 days 00:00:36.715000,0 days 00:00:24.947000,310.0,257.0,246.0,313.0,soft,2.0
0 days 00:45:43.446000,22,0 days 00:02:03.887000,14,"","",0 days 00:00:37.558000,0 days 00:00:51.909000,0 days 00:00:34.420000,255.0,178.0,248.0,244.0,soft,3.0
0 days 00:47:14.546000,22,0 days 00:01:31.100000,15,"","",0 days 00:00:28.910000,0 days 00:00:37.079000,0 days 00:00:25.111000,311.0,256.0,246.0,313.0,soft,4.0
0 days 00:49:17.473000,22,0 days 00:02:02.927000,16,"","",0 days 00:00:37.835000,0 days 00:00:51.019000,0 days 00:00:34.073000,246.0,171.0,251.0,187.0,soft,5.0
0 days 00:50:48.077000,22,0 days 00:01:30.604000,17,"","",0 days 00:00:28.695000,0 days 00:00:36.860000,0 days 00:00:25.049000,313.0,259.0,250.0,317.0,soft,6.0
0 days 00:52:41.034000,22,0 days 00:01:52.957000,18,"",0 days 00:52:35.123000,0 days 00:00:34.867000,0 days 00:00:50.149000,0 days 00:00:27.941000,226.0,220.0,"",267.0,soft,7.0
0 days 01:02:18.696000,22,"",19,0 days 01:00:42.229000,"","",0 days 00:00:40.195000,0 days 00:00:27.023000,287.0,246.0,240.0,289.0,soft,8.0
0 days 01:03:54.452000,22,0 days 00:01:35.756000,20,"","",0 days 00:00:30.110000,0 days 00:00:39.016000,0 days 00:00:26.630000,"",245.0,241.0,290.0,soft,9.0
0 days 01:05:30.261000,22,0 days 00:01:35.809000,21,"","",0 days 00:00:30.241000,0 days 00:00:39.037000,0 days 00:00:26.531000,"",246.0,241.0,290.0,soft,10.0
0 days 01:07:05.868000,22,0 days 00:01:35.607000,22,"","",0 days 00:00:30.292000,0 days 00:00:38.874000,0 days 00:00:26.441000,286.0,245.0,243.0,291.0,soft,11.0
0 days 01:08:41.399000,22,0 days 00:01:35.531000,23,"","",0 days 00:00:30.237000,0 days 00:00:38.860000,0 days 00:00:26.434000,288.0,248.0,241.0,294.0,soft,12.0
0 days 01:10:16.741000,22,0 days 00:01:35.342000,24,"","",0 days 00:00:30.214000,0 days 00:00:38.738000,0 days 00:00:26.390000,290.0,248.0,242.0,291.0,soft,13.0
0 days 01:11:51.682000,22,0 days 00:01:34.941000,25,"","",0 days 00:00:30.094000,0 days 00:00:38.623000,0 days 00:00:26.224000,287.0,249.0,243.0,290.0,soft,14.0
0 days 01:13:27.451000,22,0 days 00:01:35.769000,26,"","",0 days 00:00:30.139000,0 days 00:00:38.946000,0 days 00:00:26.684000,"",245.0,240.0,291.0,soft,15.0
0 days 01:15:03.538000,22,0 days 00:01:36.087000,27,"","",0 days 00:00:30.473000,0 days 00:00:39.084000,0 days 00:00:26.530000,291.0,244.0,240.0,292.0,soft,16.0
0 days 01:17:05.812000,22,0 days 00:02:02.274000,28,"","",0 days 00:00:35.182000,0 days 00:00:48.109000,0 days 00:00:38.983000,255.0,218.0,75.0,271.0,soft,17.0
0 days 01:19:19.480000,22,0 days 00:02:13.668000,29,"",0 days 01:19:13.465000,0 days 00:01:04.108000,0 days 00:00:43.679000,0 days 00:00:25.881000,278.0,241.0,"",288.0,soft,18.0
0 days 00:17:51.501000,20,"",1,0 days 00:15:40.489000,"","",0 days 00:00:43.080000,0 days 00:00:52.935000,257.0,226.0,243.0,259.0,hard,1.0
0 days 00:19:26.102000,20,0 days 00:01:34.601000,2,"","",0 days 00:00:29.890000,0 days 00:00:38.830000,0 days 00:00:25.881000,303.0,247.0,245.0,310.0,hard,2.0
0 days 00:20:59.334000,20,0 days 00:01:33.232000,3,"","",0 days 00:00:29.865000,0 days 00:00:37.950000,0 days 00:00:25.417000,302.0,252.0,246.0,310.0,hard,3.0
0 days 00:22:31.575000,20,0 days 00:01:32.241000,4,"","",0 days 00:00:29.539000,0 days 00:00:37.750000,0 days 00:00:24.952000,307.0,253.0,247.0,313.0,hard,4.0
0 days 00:24:39.025000,20,0 days 00:02:07.450000,5,"","",0 days 00:00:39.431000,0 days 00:00:53.497000,0 days 00:00:34.522000,247.0,204.0,247.0,110.0,hard,5.0
0 days 00:26:11.120000,20,0 days 00:01:32.095000,6,"","",0 days 00:00:29.591000,0 days 00:00:37.215000,0 days 00:00:25.289000,306.0,253.0,245.0,310.0,hard,6.0
0 days 00:28:12.747000,20,0 days 00:02:01.627000,7,"","",0 days 00:00:36.570000,0 days 00:00:50.358000,0 days 00:00:34.699000,208.0,219.0,246.0,269.0,hard,7.0
0 days 00:29:44.882000,20,0 days 00:01:32.135000,8,"","",0 days 00:00:29.718000,0 days 00:00:37.370000,0 days 00:00:25.047000,304.0,255.0,247.0,317.0,hard,8.0
0 days 00:31:34.941000,20,0 days 00:01:50.059000,9,"",0 days 00:31:28.986000,0 days 00:00:37.595000,0 days 00:00:44.808000,0 days 00:00:27.656000,166.0,233.0,"",290.0,hard,9.0
0 days 00:40:48.204000,20,"",10,0 days 00:39:01.096000,"","",0 days 00:00:47.057000,0 days 00:00:28.425000,266.0,226.0,248.0,271.0,soft,1.0
0 days 00:42:18.736000,20,0 days 00:01:30.532000,11,"","",0 days 00:00:28.709000,0 days 00:00:36.950000,0 days 00:00:24.873000,308.0,257.0,248.0,312.0,soft,2.0
0 days 00:44:28.817000,20,0 days 00:02:10.081000,12,"","",0 days 00:00:38.379000,0 days 00:00:57.469000,0 days 00:00:34.233000,223.0,149.0,249.0,246.0,soft,3.0
0 days 00:46:37.409000,20,0 days 00:02:08.592000,13,"","",0 days 00:00:33.464000,0 days 00:00:56.833000,0 days 00:00:38.295000,211.0,138.0,249.0,124.0,soft,4.0
0 days 00:48:07.889000,20,0 days 00:01:30.480000,14,"","",0 days 00:00:28.851000,0 days 00:00:36.928000,0 days 00:00:24.701000,308.0,258.0,248.0,313.0,soft,5.0
0 days 00:50:15.597000,20,0 days 00:02:07.708000,15,"","",0 days 00:00:37.564000,0 days 00:01:00.770000,0 days 00:00:29.374000,247.0,218.0,249.0,266.0,soft,6.0
0 days 00:52:00.857000,20,0 days 00:01:45.260000,16,"",0 days 00:51:54.881000,0 days 00:00:31.419000,0 days 00:00:46.524000,0 days 00:00:27.317000,199.0,232.0,"",270.0,soft,7.0
0 days 01:02:23.888000,20,"",17,0 days 01:00:44.535000,"","",0 days 00:00:40.068000,0 days 00:00:29.078000,269.0,237.0,241.0,270.0,soft,8.0
0 days 01:03:59.108000,20,0 days 00:01:35.220000,18,"","",0 days 00:00:30.027000,0 days 00:00:38.708000,0 days 00:00:26.485000,283.0,243.0,240.0,290.0,soft,9.0
0 days 01:05:34.961000,20,0 days 00:01:35.853000,19,"","",0 days 00:00:30.310000,0 days 00:00:39.169000,0 days 00:00:26.374000,277.0,245.0,242.0,283.0,soft,10.0
0 days 01:07:10.344000,20,0 days 00:01:35.383000,20,"","",0 days 00:00:30.436000,0 days 00:00:38.722000,0 days 00:00:26.225000,"",243.0,241.0,284.0,soft,11.0
0 days 01:08:45.807000,20,0 days 00:01:35.463000,21,"","",0 days 00:00:30.484000,0 days 00:00:38.696000,0 days 00:00:26.283000,"",245.0,241.0,285.0,soft,12.0
0 days 01:10:21.143000,20,0 days 00:01:35.336000,22,"","",0 days 00:00:30.358000,0 days 00:00:38.601000,0 days 00:00:26.377000,278.0,245.0,242.0,285.0,soft,13.0
0 days 01:11:56.311000,20,0 days 00:01:35.168000,23,"","","",0 days 00:00:38.668000,0 days 00:00:26.142000,"",247.0,240.0,284.0,soft,14.0
0 days 01:13:31.678000,20,0 days 00:01:35.367000,24,"","",0 days 00:00:30.477000,0 days 00:00:38.526000,0 days 00:00:26.364000,"",247.0,240.0,285.0,soft,15.0
0 days 01:15:07.680000,20,0 days 00:01:36.002000,25,"","",0 days 00:00:30.763000,0 days 00:00:38.771000,0 days 00:00:26.468000,279.0,243.0,240.0,285.0,soft,16.0
0 days 01:17:11.031000,20,0 days 00:02:03.351000,26,"","",0 days 00:00:32.813000,0 days 00:00:48.586000,0 days 00:00:41.952000,248.0,181.0,56.0,221.0,soft,17.0
0 days 01:19:28.196000,20,0 days 00:02:17.165000,27,"",0 days 01:19:21.176000,0 days 00:01:04.329000,0 days 00:00:43.499000,0 days 00:00:29.337000,291.0,224.0,"",268.0,soft,18.0
0 days 00:17:36.736000,18,"",1,0 days 00:15:34.165000,"","",0 days 00:00:42.165000,0 days 00:00:47.884000,271.0,233.0,241.0,262.0,medium,1.0
0 days 00:19:14.404000,18,0 days 00:01:37.668000,2,"","",0 days 00:00:31.802000,0 days 00:00:39.615000,0 days 00:00:26.251000,284.0,244.0,245.0,290.0,medium,2.0
0 days 00:20:48.974000,18,0 days 00:01:34.570000,3,"","",0 days 00:00:30.041000,0 days 00:00:38.563000,0 days 00:00:25.966000,280.0,248.0,246.0,288.0,medium,3.0
0 days 00:23:02.023000,18,0 days 00:02:13.049000,4,"","",0 days 00:00:49.485000,0 days 00:00:56.311000,0 days 00:00:27.253000,176.0,224.0,247.0,288.0,medium,4.0
0 days 00:24:34.196000,18,0 days 00:01:32.173000,5,"","",0 days 00:00:29.347000,0 days 00:00:37.525000,0 days 00:00:25.301000,301.0,252.0,247.0,308.0,medium,5.0
0 days 00:26:46.928000,18,0 days 00:02:12.732000,6,"","",0 days 00:00:44.262000,0 days 00:00:56.546000,0 days 00:00:31.924000,253.0,216.0,246.0,284.0,medium,6.0
0 days 00:28:18.621000,18,0 days 00:01:31.693000,7,"","",0 days 00:00:29.180000,0 days 00:00:37.193000,0 days 00:00:25.320000,301.0,252.0,248.0,308.0,medium,7.0
0 days 00:30:26.795000,18,0 days 00:02:08.174000,8,"","",0 days 00:00:44.262000,0 days 00:00:53.922000,0 days 00:00:29.990000,242.0,205.0,246.0,287.0,medium,8.0
0 days 00:31:58.235000,18,0 days 00:01:31.440000,9,"","",0 days 00:00:29.164000,0 days 00:00:37.218000,0 days 00:00:25.058000,300.0,254.0,247.0,307.0,medium,9.0
0 days 00:33:41.215000,18,0 days 00:01:42.980000,10,"",0 days 00:33:35.442000,0 days 00:00:32.969000,0 days 00:00:42.920000,0 days 00:00:27.091000,233.0,235.0,"",292.0,medium,10.0
0 days 00:44:46.658000,18,"",11,0 days 00:42:42.529000,"","",0 days 00:00:45.355000,0 days 00:00:46.056000,259.0,235.0,247.0,234.0,soft,1.0
0 days 00:46:16.754000,18,0 days 00:01:30.096000,12,"","",0 days 00:00:28.721000,0 days 00:00:36.700000,0 days 00:00:24.675000,308.0,258.0,249.0,311.0,soft,2.0
0 days 00:48:49.217000,18,"",13,"","",0 days 00:00:51.564000,0 days 00:01:03.099000,0 days 00:00:37.705000,142.0,198.0,249.0,278.0,soft,3.0
0 days 00:50:19.474000,18,0 days 00:01:30.257000,14,"","",0 days 00:00:28.590000,0 days 00:00:36.820000,0 days 00:00:24.847000,305.0,257.0,248.0,312.0,soft,4.0
0 days 00:52:50.547000,18,"",15,"","",0 days 00:00:51.978000,0 days 00:01:10.278000,0 days 00:00:28.924000,135.0,191.0,250.0,278.0,soft,5.0
0 days 00:54:20.489000,18,0 days 00:01:29.942000,16,"","",0 days 00:00:28.608000,0 days 00:00:36.529000,0 days 00:00:24.805000,304.0,257.0,247.0,310.0,soft,6.0
0 days 00:56:07.901000,18,0 days 00:01:47.412000,17,"",0 days 00:56:01.788000,0 days 00:00:31.892000,0 days 00:00:45.527000,0 days 00:00:29.993000,284.0,230.0,"",277.0,soft,7.0
0 days 00:18:20.897000,16,"",1,0 days 00:16:15.413000,"","",0 days 00:00:48.877000,0 days 00:00:42.953000,267.0,232.0,244.0,272.0,medium,1.0
0 days 00:19:51.683000,16,0 days 00:01:30.786000,2,"","",0 days 00:00:29.128000,0 days 00:00:36.950000,0 days 00:00:24.708000,310.0,258.0,249.0,314.0,medium,2.0
0 days 00:22:15.404000,16,0 days 00:02:23.721000,3,"","",0 days 00:00:38.119000,0 days 00:01:02.086000,0 days 00:00:43.516000,166.0,165.0,247.0,78.0,medium,3.0
0 days 00:24:11.088000,16,0 days 00:01:55.684000,4,"","",0 days 00:00:31.788000,0 days 00:00:44.526000,0 days 00:00:39.370000,127.0,185.0,249.0,168.0,medium,4.0
0 days 00:25:40.727000,16,0 days 00:01:29.639000,5,"","",0 days 00:00:28.879000,0 days 00:00:36.339000,0 days 00:00:24.421000,309.0,261.0,249.0,316.0,medium,5.0
0 days 00:27:52.230000,16,0 days 00:02:11.503000,6,"","",0 days 00:00:41.783000,0 days 00:00:56.112000,0 days 00:00:33.608000,105.0,175.0,250.0,250.0,medium,6.0
0 days 00:30:06.817000,16,0 days 00:02:14.587000,7,"","",0 days 00:00:35.900000,0 days 00:00:50.525000,0 days 00:00:48.162000,251.0,212.0,249.0,50.0,medium,7.0
0 days 00:31:36.279000,16,0 days 00:01:29.462000,8,"","",0 days 00:00:28.849000,0 days 00:00:36.043000,0 days 00:00:24.570000,309.0,261.0,248.0,314.0,medium,8.0
0 days 00:33:16.132000,16,0 days 00:01:39.853000,9,"",0 days 00:33:10.170000,0 days 00:00:29.898000,0 days 00:00:40.437000,0 days 00:00:29.518000,285.0,220.0,"",239.0,medium,9.0
0 days 00:44:39.590000,16,"",10,0 days 00:42:39.584000,"","",0 days 00:00:46.515000,0 days 00:00:40.271000,289.0,236.0,251.0,244.0,soft,1.0
0 days 00:46:46.555000,16,0 days 00:02:06.965000,11,"","",0 days 00:00:36.269000,0 days 00:00:49.064000,0 days 00:00:41.632000,148.0,209.0,249.0,190.0,soft,2.0
0 days 00:48:20.981000,16,0 days 00:01:34.426000,12,"",0 days 00:48:14.870000,0 days 00:00:28.616000,0 days 00:00:36.951000,0 days 00:00:28.859000,309.0,231.0,"",270.0,soft,3.0
0 days 00:50:53.435000,16,"",13,0 days 00:48:47.952000,"",0 days 00:01:06.948000,0 days 00:00:51.986000,0 days 00:00:33.526000,113.0,168.0,250.0,208.0,soft,4.0
0 days 00:52:22.839000,16,0 days 00:01:29.404000,14,"","",0 days 00:00:28.728000,0 days 00:00:36.283000,0 days 00:00:24.393000,311.0,258.0,251.0,311.0,soft,5.0
0 days 00:54:02.994000,16,0 days 00:01:40.155000,15,"",0 days 00:53:56.980000,0 days 00:00:31.754000,0 days 00:00:41.776000,0 days 00:00:26.625000,274.0,236.0,"",290.0,soft,6.0
0 days 01:04:11.512000,16,"",16,0 days 01:02:27.280000,"","",0 days 00:00:40.098000,0 days 00:00:26.947000,270.0,243.0,243.0,286.0,medium,10.0
0 days 01:05:45.248000,16,0 days 00:01:33.736000,17,"","",0 days 00:00:29.817000,0 days 00:00:38.098000,0 days 00:00:25.821000,290.0,246.0,243.0,294.0,medium,11.0
0 days 01:07:18.747000,16,0 days 00:01:33.499000,18,"","",0 days 00:00:30.026000,0 days 00:00:37.835000,0 days 00:00:25.638000,289.0,247.0,244.0,294.0,medium,12.0
0 days 01:08:52.477000,16,0 days 00:01:33.730000,19,"","",0 days 00:00:30.132000,0 days 00:00:37.837000,0 days 00:00:25.761000,286.0,247.0,244.0,295.0,medium,13.0
0 days 01:10:26.344000,16,0 days 00:01:33.867000,20,"","",0 days 00:00:29.957000,0 days 00:00:38.128000,0 days 00:00:25.782000,298.0,244.0,244.0,292.0,medium,14.0
0 days 01:11:59.825000,16,0 days 00:01:33.481000,21,"","",0 days 00:00:30.013000,0 days 00:00:37.767000,0 days 00:00:25.701000,285.0,249.0,244.0,291.0,medium,15.0
0 days 01:13:33.865000,16,0 days 00:01:34.040000,22,"","",0 days 00:00:30.058000,0 days 00:00:38.130000,0 days 00:00:25.852000,287.0,245.0,243.0,293.0,medium,16.0
0 days 01:15:08.091000,16,0 days 00:01:34.226000,23,"","",0 days 00:00:30.095000,0 days 00:00:38.189000,0 days 00:00:25.942000,300.0,252.0,244.0,312.0,medium,17.0
0 days 01:17:14.712000,16,0 days 00:02:06.621000,24,"","",0 days 00:00:36.125000,0 days 00:00:48.180000,0 days 00:00:42.316000,222.0,213.0,71.0,211.0,medium,18.0
0 days 01:19:34.004000,16,0 days 00:02:19.292000,25,"",0 days 01:19:28.024000,0 days 00:01:02.225000,0 days 00:00:47.791000,0 days 00:00:29.276000,180.0,228.0,"",250.0,medium,19.0
0 days 00:17:46.092000,14,"",1,0 days 00:15:38.613000,"","",0 days 00:00:42.876000,0 days 00:00:49.308000,272.0,233.0,244.0,220.0,soft,1.0
0 days 00:19:19.158000,14,0 days 00:01:33.066000,2,"","",0 days 00:00:29.743000,0 days 00:00:37.715000,0 days 00:00:25.608000,293.0,253.0,246.0,299.0,soft,2.0
0 days 00:20:58.129000,14,0 days 00:01:38.971000,3,"","",0 days 00:00:29.466000,0 days 00:00:39.986000,0 days 00:00:29.519000,297.0,226.0,245.0,283.0,soft,3.0
0 days 00:22:29.487000,14,0 days 00:01:31.358000,4,"","",0 days 00:00:29.345000,0 days 00:00:37.015000,0 days 00:00:24.998000,302.0,255.0,247.0,304.0,soft,4.0
0 days 00:24:27.725000,14,0 days 00:01:58.238000,5,"","",0 days 00:00:32.305000,0 days 00:00:48.840000,0 days 00:00:37.093000,274.0,228.0,247.0,237.0,soft,5.0
0 days 00:25:58.860000,14,0 days 00:01:31.135000,6,"","",0 days 00:00:29.240000,0 days 00:00:36.746000,0 days 00:00:25.149000,302.0,255.0,247.0,304.0,soft,6.0
0 days 00:28:17.675000,14,0 days 00:02:18.815000,7,"","",0 days 00:00:38.500000,0 days 00:00:57.009000,0 days 00:00:43.306000,167.0,215.0,247.0,179.0,soft,7.0
0 days 00:29:48.473000,14,0 days 00:01:30.798000,8,"","",0 days 00:00:29.178000,0 days 00:00:36.677000,0 days 00:00:24.943000,300.0,257.0,247.0,307.0,soft,8.0
0 days 00:31:27.099000,14,0 days 00:01:38.626000,9,"",0 days 00:31:21.226000,0 days 00:00:31.025000,0 days 00:00:39.261000,0 days 00:00:28.340000,274.0,238.0,"",273.0,soft,9.0
0 days 00:44:23.886000,14,"",10,0 days 00:42:36.099000,"","",0 days 00:00:45.580000,0 days 00:00:30.449000,274.0,227.0,251.0,280.0,soft,1.0
0 days 00:45:53.581000,14,0 days 00:01:29.695000,11,"","",0 days 00:00:28.700000,0 days 00:00:36.295000,0 days 00:00:24.700000,305.0,255.0,247.0,307.0,soft,2.0
0 days 00:48:09.343000,14,0 days 00:02:15.762000,12,"","",0 days 00:00:39.429000,0 days 00:00:59.690000,0 days 00:00:36.643000,189.0,211.0,250.0,129.0,soft,3.0
0 days 00:49:46.502000,14,0 days 00:01:37.159000,13,"","",0 days 00:00:28.796000,0 days 00:00:36.555000,0 days 00:00:31.808000,305.0,254.0,193.0,292.0,soft,4.0
0 days 00:51:47.710000,14,0 days 00:02:01.208000,14,"","",0 days 00:00:35.869000,0 days 00:00:51.267000,0 days 00:00:34.072000,256.0,221.0,251.0,210.0,soft,5.0
0 days 00:53:17.744000,14,0 days 00:01:30.034000,15,"","",0 days 00:00:28.839000,0 days 00:00:36.493000,0 days 00:00:24.702000,310.0,255.0,242.0,312.0,soft,6.0
0 days 00:55:00.698000,14,0 days 00:01:42.954000,16,"",0 days 00:54:54.789000,0 days 00:00:33.479000,0 days 00:00:43.052000,0 days 00:00:26.423000,199.0,234.0,"",279.0,soft,7.0
0 days 01:15:02.864000,14,"",17,0 days 01:12:58.749000,"","",0 days 00:00:46.119000,0 days 00:00:42.296000,199.0,198.0,191.0,199.0,medium,1.0
0 days 01:16:59.847000,14,0 days 00:01:56.983000,18,"","",0 days 00:00:34.362000,0 days 00:00:42.684000,0 days 00:00:39.937000,260.0,233.0,75.0,198.0,medium,2.0
0 days 01:19:27.253000,14,0 days 00:02:27.406000,19,"",0 days 01:19:20.338000,0 days 00:01:08.354000,0 days 00:00:46.886000,0 days 00:00:32.166000,227.0,221.0,"",238.0,medium,3.0
0 days 00:18:09.757000,11,"",1,0 days 00:16:12.560000,"","",0 days 00:00:39.612000,0 days 00:00:47.482000,275.0,243.0,244.0,272.0,medium,1.0
0 days 00:19:42.302000,11,0 days 00:01:32.545000,2,"","",0 days 00:00:30.048000,0 days 00:00:37.406000,0 days 00:00:25.091000,311.0,255.0,246.0,317.0,medium,2.0
0 days 00:21:51.895000,11,0 days 00:02:09.593000,3,"",0 days 00:21:45.930000,0 days 00:00:49.525000,0 days 00:00:49.563000,0 days 00:00:30.505000,133.0,213.0,"",255.0,medium,3.0
0 days 00:24:15.827000,11,0 days 00:02:23.932000,4,0 days 00:22:17.330000,"",0 days 00:00:57.259000,0 days 00:00:51.057000,0 days 00:00:35.616000,125.0,161.0,241.0,247.0,medium,4.0
0 days 00:25:46.662000,11,0 days 00:01:30.835000,5,"","",0 days 00:00:29.156000,0 days 00:00:36.796000,0 days 00:00:24.883000,313.0,257.0,247.0,317.0,medium,5.0
0 days 00:28:20.193000,11,"",6,"","",0 days 00:00:50.006000,0 days 00:01:00.972000,0 days 00:00:42.529000,121.0,153.0,241.0,238.0,medium,6.0
0 days 00:29:58.176000,11,0 days 00:01:37.983000,7,"",0 days 00:29:51.907000,0 days 00:00:29.602000,0 days 00:00:39.060000,0 days 00:00:29.321000,310.0,243.0,"",278.0,medium,7.0
0 days 00:32:12.183000,11,0 days 00:02:14.007000,8,0 days 00:30:25.617000,"",0 days 00:01:01.870000,0 days 00:00:42.891000,0 days 00:00:29.246000,281.0,210.0,247.0,266.0,medium,8.0
0 days 00:33:42.278000,11,0 days 00:01:30.095000,9,"","",0 days 00:00:28.979000,0 days 00:00:36.455000,0 days 00:00:24.661000,313.0,260.0,246.0,320.0,medium,9.0
0 days 00:35:26.133000,11,0 days 00:01:43.855000,10,"",0 days 00:35:19.739000,0 days 00:00:33.834000,0 days 00:00:42.327000,0 days 00:00:27.694000,269.0,213.0,"",271.0,medium,10.0
0 days 00:58:21.056000,11,"",11,0 days 00:56:32.944000,"","",0 days 00:00:48.218000,0 days 00:00:28.891000,285.0,238.0,246.0,271.0,soft,1.0
0 days 00:59:50.809000,11,0 days 00:01:29.753000,12,"","",0 days 00:00:28.795000,0 days 00:00:36.374000,0 days 00:00:24.584000,315.0,258.0,246.0,316.0,soft,2.0
0 days 01:01:37.140000,11,0 days 00:01:46.331000,13,"",0 days 01:01:31.207000,0 days 00:00:33.694000,0 days 00:00:45.336000,0 days 00:00:27.301000,264.0,226.0,"",270.0,soft,3.0
0 days 01:08:51.444000,11,"",14,0 days 01:07:16.564000,"","",0 days 00:00:38.744000,0 days 00:00:27.284000,290.0,244.0,241.0,294.0,soft,4.0
0 days 01:10:29.205000,11,0 days 00:01:37.761000,15,"","",0 days 00:00:31.735000,0 days 00:00:38.907000,0 days 00:00:27.119000,"",248.0,240.0,300.0,soft,5.0
0 days 01:12:02.998000,11,0 days 00:01:33.793000,16,"","",0 days 00:00:29.957000,0 days 00:00:37.892000,0 days 00:00:25.944000,"",249.0,242.0,295.0,soft,6.0
0 days 01:14:25.760000,11,0 days 00:02:22.762000,17,"",0 days 01:14:18.627000,0 days 00:00:30.920000,0 days 00:01:09.969000,0 days 00:00:41.873000,169.0,153.0,"",138.0,soft,7.0
0 days 00:17:12.960000,10,"",1,0 days 00:15:16.379000,"","",0 days 00:00:42.248000,0 days 00:00:42.764000,281.0,239.0,239.0,259.0,hard,1.0
0 days 00:18:51.339000,10,0 days 00:01:38.379000,2,"","",0 days 00:00:31.149000,0 days 00:00:40.274000,0 days 00:00:26.956000,308.0,239.0,244.0,310.0,hard,2.0
0 days 00:20:25.575000,10,0 days 00:01:34.236000,3,"","",0 days 00:00:29.874000,0 days 00:00:38.648000,0 days 00:00:25.714000,310.0,250.0,244.0,312.0,hard,3.0
0 days 00:21:58.526000,10,0 days 00:01:32.951000,4,"","",0 days 00:00:29.540000,0 days 00:00:38.001000,0 days 00:00:25.410000,311.0,252.0,245.0,313.0,hard,4.0
0 days 00:23:59.229000,10,0 days 00:02:00.703000,5,"","",0 days 00:00:40.673000,0 days 00:00:46.558000,0 days 00:00:33.472000,148.0,204.0,244.0,266.0,hard,5.0
0 days 00:25:50.321000,10,0 days 00:01:51.092000,6,"","",0 days 00:00:30.245000,0 days 00:00:46.339000,0 days 00:00:34.508000,267.0,230.0,245.0,262.0,hard,6.0
0 days 00:27:25.767000,10,0 days 00:01:35.446000,7,"","",0 days 00:00:29.699000,0 days 00:00:37.923000,0 days 00:00:27.824000,310.0,252.0,247.0,294.0,hard,7.0
0 days 00:28:58.120000,10,0 days 00:01:32.353000,8,"","",0 days 00:00:29.341000,0 days 00:00:37.460000,0 days 00:00:25.552000,"",255.0,245.0,314.0,hard,8.0
0 days 00:30:56.613000,10,0 days 00:01:58.493000,9,"","",0 days 00:00:34.464000,0 days 00:00:53.441000,0 days 00:00:30.588000,262.0,217.0,248.0,264.0,hard,9.0
0 days 00:32:33.650000,10,0 days 00:01:37.037000,10,"","",0 days 00:00:29.671000,0 days 00:00:38.812000,0 days 00:00:28.554000,309.0,228.0,248.0,270.0,hard,10.0
0 days 00:34:05.587000,10,0 days 00:01:31.937000,11,"","",0 days 00:00:29.284000,0 days 00:00:37.397000,0 days 00:00:25.256000,310.0,253.0,246.0,314.0,hard,11.0
0 days 00:35:46.572000,10,0 days 00:01:40.985000,12,"",0 days 00:35:40.583000,0 days 00:00:31.516000,0 days 00:00:42.098000,0 days 00:00:27.371000,270.0,238.0,"",271.0,hard,12.0
0 days 00:48:55.985000,10,"",13,0 days 00:47:05.261000,"","",0 days 00:00:43.094000,0 days 00:00:36.750000,286.0,222.0,248.0,264.0,soft,1.0
0 days 00:50:27.231000,10,0 days 00:01:31.246000,14,"","",0 days 00:00:29.009000,0 days 00:00:37.205000,0 days 00:00:25.032000,311.0,254.0,247.0,314.0,soft,2.0
0 days 00:52:33.761000,10,0 days 00:02:06.530000,15,"","",0 days 00:00:39.392000,0 days 00:00:58.599000,0 days 00:00:28.539000,254.0,212.0,247.0,280.0,soft,3.0
0 days 00:54:04.630000,10,0 days 00:01:30.869000,16,"","",0 days 00:00:29.060000,0 days 00:00:36.894000,0 days 00:00:24.915000,308.0,256.0,244.0,314.0,soft,4.0
0 days 00:56:07.624000,10,0 days 00:02:02.994000,17,"","",0 days 00:00:37.908000,0 days 00:00:54.228000,0 days 00:00:30.858000,261.0,230.0,250.0,286.0,soft,5.0
0 days 00:57:38.134000,10,0 days 00:01:30.510000,18,"","",0 days 00:00:28.946000,0 days 00:00:36.699000,0 days 00:00:24.865000,312.0,257.0,246.0,313.0,soft,6.0
0 days 00:59:19.605000,10,0 days 00:01:41.471000,19,"",0 days 00:59:13.682000,0 days 00:00:32.835000,0 days 00:00:41.768000,0 days 00:00:26.868000,270.0,225.0,"",268.0,soft,7.0
0 days 01:06:15.529000,10,"",20,0 days 01:04:35.166000,"","",0 days 00:00:41.286000,0 days 00:00:27.342000,287.0,239.0,239.0,284.0,hard,13.0
0 days 01:07:52.068000,10,0 days 00:01:36.539000,21,"","",0 days 00:00:30.631000,0 days 00:00:39.444000,0 days 00:00:26.464000,288.0,242.0,239.0,292.0,hard,14.0
0 days 01:09:27.899000,10,0 days 00:01:35.831000,22,"","",0 days 00:00:30.497000,0 days 00:00:38.970000,0 days 00:00:26.364000,287.0,241.0,239.0,290.0,hard,15.0
0 days 01:11:02.981000,10,0 days 00:01:35.082000,23,"","",0 days 00:00:30.144000,0 days 00:00:38.758000,0 days 00:00:26.180000,284.0,246.0,243.0,288.0,hard,16.0
0 days 01:12:38.201000,10,0 days 00:01:35.220000,24,"","",0 days 00:00:30.151000,0 days 00:00:38.721000,0 days 00:00:26.348000,286.0,245.0,239.0,291.0,hard,17.0
0 days 01:14:13.502000,10,0 days 00:01:35.301000,25,"","",0 days 00:00:30.328000,0 days 00:00:38.687000,0 days 00:00:26.286000,291.0,246.0,242.0,290.0,hard,18.0
0 days 01:15:48.755000,10,0 days 00:01:35.253000,26,"","",0 days 00:00:30.298000,0 days 00:00:38.714000,0 days 00:00:26.241000,294.0,247.0,242.0,293.0,hard,19.0
0 days 01:17:39.488000,10,0 days 00:01:50.733000,27,"","",0 days 00:00:30.926000,0 days 00:00:44.834000,0 days 00:00:34.973000,"",223.0,73.0,271.0,hard,20.0
0 days 01:19:40.450000,10,0 days 00:02:00.962000,28,"",0 days 01:19:34.428000,0 days 00:00:51.932000,0 days 00:00:42.448000,0 days 00:00:26.582000,303.0,228.0,"",288.0,hard,21.0
0 days 00:18:29.499000,6,"",1,0 days 00:16:22.723000,"","",0 days 00:00:44.334000,0 days 00:00:48.528000,281.0,228.0,230.0,277.0,soft,1.0
0 days 00:20:04.882000,6,0 days 00:01:35.383000,2,"","",0 days 00:00:30.313000,0 days 00:00:39.197000,0 days 00:00:25.873000,307.0,249.0,246.0,312.0,soft,2.0
0 days 00:22:20.789000,6,0 days 00:02:15.907000,3,"","",0 days 00:00:40.998000,0 days 00:00:52.744000,0 days 00:00:42.165000,174.0,230.0,247.0,268.0,soft,3.0
0 days 00:23:54.090000,6,0 days 00:01:33.301000,4,"","",0 days 00:00:29.665000,0 days 00:00:38.079000,0 days 00:00:25.557000,309.0,255.0,248.0,314.0,soft,4.0
0 days 00:26:06.556000,6,0 days 00:02:12.466000,5,"","",0 days 00:00:41.852000,0 days 00:00:50.733000,0 days 00:00:39.881000,283.0,167.0,248.0,261.0,soft,5.0
0 days 00:28:01.499000,6,0 days 00:01:54.943000,6,"","",0 days 00:00:29.701000,0 days 00:00:49.418000,0 days 00:00:35.824000,211.0,235.0,251.0,298.0,soft,6.0
0 days 00:29:33.437000,6,0 days 00:01:31.938000,7,"","",0 days 00:00:29.245000,0 days 00:00:37.643000,0 days 00:00:25.050000,306.0,254.0,248.0,313.0,soft,7.0
0 days 00:31:22.332000,6,0 days 00:01:48.895000,8,"",0 days 00:31:16.401000,0 days 00:00:32.611000,0 days 00:00:45.967000,0 days 00:00:30.317000,271.0,235.0,"",239.0,soft,8.0
0 days 00:40:53.335000,6,"",9,0 days 00:39:07.037000,"","",0 days 00:00:43.543000,0 days 00:00:30.496000,296.0,238.0,252.0,280.0,soft,1.0
0 days 00:42:25.515000,6,0 days 00:01:32.180000,10,"","",0 days 00:00:28.758000,0 days 00:00:37.090000,0 days 00:00:26.332000,312.0,257.0,249.0,315.0,soft,2.0
0 days 00:44:52.106000,6,0 days 00:02:26.591000,11,"","",0 days 00:00:44.410000,0 days 00:00:59.299000,0 days 00:00:42.882000,192.0,208.0,249.0,219.0,soft,3.0
0 days 00:46:23.432000,6,0 days 00:01:31.326000,12,"","",0 days 00:00:28.955000,0 days 00:00:37.269000,0 days 00:00:25.102000,313.0,257.0,250.0,315.0,soft,4.0
0 days 00:48:41.188000,6,0 days 00:02:17.756000,13,"","",0 days 00:00:42.575000,0 days 00:00:51.854000,0 days 00:00:43.327000,125.0,212.0,250.0,181.0,soft,5.0
0 days 00:50:17.510000,6,0 days 00:01:36.322000,14,"",0 days 00:50:11.620000,0 days 00:00:29.132000,0 days 00:00:37.764000,0 days 00:00:29.426000,307.0,254.0,"",260.0,soft,6.0
0 days 00:58:52.909000,6,"",15,0 days 00:57:02.691000,"","",0 days 00:00:42.320000,0 days 00:00:29.477000,279.0,239.0,240.0,180.0,medium,1.0
0 days 01:00:30.628000,6,0 days 00:01:37.719000,16,"","",0 days 00:00:31.082000,0 days 00:00:40.041000,0 days 00:00:26.596000,290.0,245.0,243.0,292.0,medium,2.0
0 days 01:02:06.988000,6,0 days 00:01:36.360000,17,"","",0 days 00:00:30.456000,0 days 00:00:39.464000,0 days 00:00:26.440000,291.0,246.0,244.0,291.0,medium,3.0
0 days 01:03:43.027000,6,0 days 00:01:36.039000,18,"","",0 days 00:00:30.237000,0 days 00:00:39.295000,0 days 00:00:26.507000,289.0,244.0,243.0,291.0,medium,4.0
0 days 01:05:19.266000,6,0 days 00:01:36.239000,19,"","",0 days 00:00:30.793000,0 days 00:00:39.174000,0 days 00:00:26.272000,293.0,247.0,243.0,295.0,medium,5.0
0 days 01:06:54.713000,6,0 days 00:01:35.447000,20,"","",0 days 00:00:30.465000,0 days 00:00:38.737000,0 days 00:00:26.245000,292.0,249.0,245.0,294.0,medium,6.0
0 days 01:08:29.675000,6,0 days 00:01:34.962000,21,"","",0 days 00:00:30.303000,0 days 00:00:38.636000,0 days 00:00:26.023000,293.0,247.0,243.0,296.0,medium,7.0
0 days 01:10:04.535000,6,0 days 00:01:34.860000,22,"","",0 days 00:00:30.169000,0 days 00:00:38.605000,0 days 00:00:26.086000,292.0,248.0,245.0,295.0,medium,8.0
0 days 01:11:40.254000,6,0 days 00:01:35.719000,23,"","",0 days 00:00:30.413000,0 days 00:00:38.985000,0 days 00:00:26.321000,289.0,245.0,243.0,295.0,medium,9.0
0 days 01:13:14.597000,6,0 days 00:01:34.343000,24,"",0 days 01:13:08.515000,0 days 00:00:30.235000,0 days 00:00:38.889000,0 days 00:00:25.219000,292.0,247.0,"",293.0,medium,10.0
0 days 01:15:16.314000,6,0 days 00:02:01.717000,25,0 days 01:13:38.256000,"",0 days 00:00:52.788000,0 days 00:00:40.716000,0 days 00:00:28.213000,293.0,245.0,229.0,288.0,soft,9.0
0 days 01:17:33.965000,6,0 days 00:02:17.651000,26,"","",0 days 00:00:39.772000,0 days 00:00:49.058000,0 days 00:00:48.821000,229.0,189.0,48.0,198.0,soft,10.0
0 days 01:19:47.412000,6,0 days 00:02:13.447000,27,"",0 days 01:19:41.447000,0 days 00:00:57.761000,0 days 00:00:47.744000,0 days 00:00:27.942000,212.0,232.0,"",280.0,soft,11.0
0 days 00:16:54.391000,5,"",1,0 days 00:15:04.822000,"","",0 days 00:00:44.637000,0 days 00:00:31.592000,253.0,231.0,231.0,274.0,hard,1.0
0 days 00:18:32.821000,5,0 days 00:01:38.430000,2,"","",0 days 00:00:31.608000,0 days 00:00:40.169000,0 days 00:00:26.653000,287.0,245.0,246.0,290.0,hard,2.0
0 days 00:20:08.221000,5,0 days 00:01:35.400000,3,"","",0 days 00:00:30.187000,0 days 00:00:39.023000,0 days 00:00:26.190000,283.0,246.0,247.0,291.0,hard,3.0
0 days 00:21:41.886000,5,0 days 00:01:33.665000,4,"","",0 days 00:00:30.002000,0 days 00:00:38.273000,0 days 00:00:25.390000,299.0,252.0,247.0,305.0,hard,4.0
0 days 00:23:14.812000,5,0 days 00:01:32.926000,5,"","",0 days 00:00:29.715000,0 days 00:00:37.843000,0 days 00:00:25.368000,296.0,253.0,247.0,300.0,hard,5.0
0 days 00:25:01.717000,5,0 days 00:01:46.905000,6,"","",0 days 00:00:32.712000,0 days 00:00:45.616000,0 days 00:00:28.577000,266.0,229.0,250.0,289.0,hard,6.0
0 days 00:26:33.808000,5,0 days 00:01:32.091000,7,"","",0 days 00:00:29.390000,0 days 00:00:37.486000,0 days 00:00:25.215000,305.0,253.0,248.0,307.0,hard,7.0
0 days 00:28:28.149000,5,0 days 00:01:54.341000,8,"","",0 days 00:00:32.440000,0 days 00:00:50.041000,0 days 00:00:31.860000,255.0,238.0,249.0,275.0,hard,8.0
0 days 00:30:00.271000,5,0 days 00:01:32.122000,9,"","",0 days 00:00:29.540000,0 days 00:00:37.416000,0 days 00:00:25.166000,304.0,254.0,247.0,308.0,hard,9.0
0 days 00:31:46.573000,5,0 days 00:01:46.302000,10,"",0 days 00:31:40.604000,0 days 00:00:34.358000,0 days 00:00:44.169000,0 days 00:00:27.775000,151.0,236.0,"",292.0,hard,10.0
0 days 00:56:44.404000,5,"",11,0 days 00:55:04.071000,"","",0 days 00:00:41.187000,0 days 00:00:28.747000,289.0,238.0,250.0,291.0,soft,1.0
0 days 00:58:14.739000,5,0 days 00:01:30.335000,12,"","",0 days 00:00:28.766000,0 days 00:00:36.787000,0 days 00:00:24.782000,308.0,257.0,248.0,309.0,soft,2.0
0 days 01:00:21.357000,5,0 days 00:02:06.618000,13,"",0 days 01:00:15.445000,0 days 00:00:43.731000,0 days 00:00:51.114000,0 days 00:00:31.773000,132.0,197.0,"",219.0,soft,3.0
0 days 01:09:03.039000,5,"",14,0 days 01:07:13.397000,"","",0 days 00:00:44.547000,0 days 00:00:34.373000,273.0,238.0,248.0,278.0,soft,4.0
0 days 01:10:33.651000,5,0 days 00:01:30.612000,15,"","",0 days 00:00:28.797000,0 days 00:00:36.856000,0 days 00:00:24.959000,306.0,258.0,249.0,312.0,soft,5.0
0 days 01:12:33.919000,5,0 days 00:02:00.268000,16,"","",0 days 00:00:37.020000,0 days 00:00:51.382000,0 days 00:00:31.866000,239.0,183.0,250.0,192.0,soft,6.0
0 days 01:14:03.976000,5,0 days 00:01:30.057000,17,"","",0 days 00:00:28.858000,0 days 00:00:36.607000,0 days 00:00:24.592000,307.0,258.0,248.0,311.0,soft,7.0
0 days 01:16:07.030000,5,0 days 00:02:03.054000,18,"","",0 days 00:00:34.162000,0 days 00:00:53.804000,0 days 00:00:35.088000,218.0,186.0,248.0,126.0,soft,8.0
0 days 01:18:06.192000,5,0 days 00:01:59.162000,19,"","",0 days 00:00:31.131000,0 days 00:00:42.934000,0 days 00:00:45.097000,217.0,235.0,50.0,254.0,soft,9.0
0 days 01:20:21.976000,5,0 days 00:02:15.784000,20,"",0 days 01:20:14.392000,0 days 00:01:01.514000,0 days 00:00:45.167000,0 days 00:00:29.103000,"",228.0,"",282.0,soft,10.0
0 days 00:16:58.911000,4,"",1,0 days 00:15:07.365000,"","",0 days 00:00:43.436000,0 days 00:00:34.304000,284.0,237.0,244.0,279.0,hard,1.0
0 days 00:18:35.956000,4,0 days 00:01:37.045000,2,"","",0 days 00:00:32.433000,0 days 00:00:38.861000,0 days 00:00:25.751000,305.0,252.0,247.0,308.0,hard,2.0
0 days 00:20:08.899000,4,0 days 00:01:32.943000,3,"","",0 days 00:00:29.722000,0 days 00:00:37.582000,0 days 00:00:25.639000,295.0,255.0,249.0,304.0,hard,3.0
0 days 00:22:26.318000,4,0 days 00:02:17.419000,4,"","",0 days 00:00:33.660000,0 days 00:00:59.659000,0 days 00:00:44.100000,260.0,209.0,245.0,125.0,hard,4.0
0 days 00:23:58.187000,4,0 days 00:01:31.869000,5,"","",0 days 00:00:29.541000,0 days 00:00:37.151000,0 days 00:00:25.177000,302.0,257.0,248.0,310.0,hard,5.0
0 days 00:26:13.506000,4,0 days 00:02:15.319000,6,"","",0 days 00:00:31.442000,0 days 00:01:01.929000,0 days 00:00:41.948000,168.0,168.0,246.0,153.0,hard,6.0
0 days 00:27:45.553000,4,0 days 00:01:32.047000,7,"","",0 days 00:00:29.534000,0 days 00:00:37.367000,0 days 00:00:25.146000,303.0,256.0,248.0,309.0,hard,7.0
0 days 00:29:47.157000,4,0 days 00:02:01.604000,8,"","",0 days 00:00:32.308000,0 days 00:00:55.107000,0 days 00:00:34.189000,177.0,157.0,247.0,226.0,hard,8.0
0 days 00:31:18.482000,4,0 days 00:01:31.325000,9,"","",0 days 00:00:29.636000,0 days 00:00:36.842000,0 days 00:00:24.847000,305.0,256.0,249.0,309.0,hard,9.0
0 days 00:32:54.827000,4,0 days 00:01:36.345000,10,"",0 days 00:32:48.905000,0 days 00:00:29.727000,0 days 00:00:40.264000,0 days 00:00:26.354000,276.0,242.0,"",280.0,hard,10.0
0 days 00:41:35.350000,4,"",11,0 days 00:39:52.208000,"","",0 days 00:00:45.119000,0 days 00:00:27.439000,283.0,231.0,254.0,291.0,soft,1.0
0 days 00:43:04.468000,4,0 days 00:01:29.118000,12,"","",0 days 00:00:28.481000,0 days 00:00:36.173000,0 days 00:00:24.464000,307.0,261.0,250.0,312.0,soft,2.0
0 days 00:45:20.750000,4,0 days 00:02:16.282000,13,"","",0 days 00:00:41.662000,0 days 00:01:01.331000,0 days 00:00:33.289000,193.0,153.0,249.0,239.0,soft,3.0
0 days 00:46:56.376000,4,0 days 00:01:35.626000,14,"",0 days 00:46:50.414000,0 days 00:00:28.765000,0 days 00:00:39.492000,0 days 00:00:27.369000,309.0,234.0,"",278.0,soft,4.0
0 days 00:56:00.073000,4,"",15,0 days 00:54:22.646000,0 days 00:55:53.563000,"",0 days 00:00:41.190000,0 days 00:00:26.155000,281.0,241.0,"",279.0,soft,5.0
0 days 00:58:50.795000,4,"",16,0 days 00:57:14.671000,"","",0 days 00:00:39.872000,0 days 00:00:26.519000,280.0,244.0,243.0,290.0,hard,11.0
0 days 01:00:26.279000,4,0 days 00:01:35.484000,17,"","",0 days 00:00:30.529000,0 days 00:00:38.624000,0 days 00:00:26.331000,281.0,246.0,244.0,278.0,hard,12.0
0 days 01:02:01.263000,4,0 days 00:01:34.984000,18,"","",0 days 00:00:30.249000,0 days 00:00:38.318000,0 days 00:00:26.417000,283.0,246.0,242.0,283.0,hard,13.0
0 days 01:03:36.144000,4,0 days 00:01:34.881000,19,"","",0 days 00:00:30.275000,0 days 00:00:38.357000,0 days 00:00:26.249000,280.0,246.0,244.0,281.0,hard,14.0
0 days 01:05:10.845000,4,0 days 00:01:34.701000,20,"","",0 days 00:00:30.289000,0 days 00:00:38.255000,0 days 00:00:26.157000,"",247.0,244.0,281.0,hard,15.0
0 days 01:06:45.550000,4,0 days 00:01:34.705000,21,"","",0 days 00:00:30.284000,0 days 00:00:38.350000,0 days 00:00:26.071000,"",247.0,244.0,284.0,hard,16.0
0 days 01:08:19.988000,4,0 days 00:01:34.438000,22,"","",0 days 00:00:30.358000,0 days 00:00:38.039000,0 days 00:00:26.041000,"",248.0,243.0,284.0,hard,17.0
0 days 01:09:54.689000,4,0 days 00:01:34.701000,23,"","",0 days 00:00:30.275000,0 days 00:00:38.283000,0 days 00:00:26.143000,"",248.0,244.0,281.0,hard,18.0
0 days 01:11:28.925000,4,0 days 00:01:34.236000,24,"","",0 days 00:00:30.187000,0 days 00:00:38.041000,0 days 00:00:26.008000,"",248.0,244.0,285.0,hard,19.0
0 days 01:13:03.765000,4,0 days 00:01:34.840000,25,"","",0 days 00:00:30.326000,0 days 00:00:38.309000,0 days 00:00:26.205000,"",249.0,243.0,282.0,hard,20.0
0 days 01:14:38.436000,4,0 days 00:01:34.671000,26,"","",0 days 00:00:30.325000,0 days 00:00:38.190000,0 days 00:00:26.156000,283.0,250.0,244.0,284.0,hard,21.0
0 days 01:16:13.153000,4,0 days 00:01:34.717000,27,"","",0 days 00:00:30.303000,0 days 00:00:38.193000,0 days 00:00:26.221000,281.0,249.0,245.0,284.0,hard,22.0
0 days 01:18:18.030000,4,0 days 00:02:04.877000,28,"","",0 days 00:00:30.911000,0 days 00:00:46.968000,0 days 00:00:46.998000,278.0,189.0,49.0,168.0,hard,23.0
0 days 01:20:36.269000,4,0 days 00:02:18.239000,29,"",0 days 01:20:30.242000,0 days 00:00:57.154000,0 days 00:00:50.216000,0 days 00:00:30.869000,280.0,210.0,"",286.0,hard,24.0
0 days 00:17:40.373000,3,"",1,0 days 00:15:36.561000,"","",0 days 00:00:43.205000,0 days 00:00:48.088000,278.0,234.0,233.0,288.0,hard,1.0
0 days 00:19:17.335000,3,0 days 00:01:36.962000,2,"","",0 days 00:00:31.273000,0 days 00:00:39.284000,0 days 00:00:26.405000,296.0,251.0,243.0,300.0,hard,2.0
0 days 00:20:50.468000,3,0 days 00:01:33.133000,3,"","",0 days 00:00:29.841000,0 days 00:00:37.913000,0 days 00:00:25.379000,302.0,256.0,246.0,309.0,hard,3.0
0 days 00:22:46.253000,3,0 days 00:01:55.785000,4,"","",0 days 00:00:38.341000,0 days 00:00:48.437000,0 days 00:00:29.007000,135.0,220.0,246.0,292.0,hard,4.0
0 days 00:24:18.288000,3,0 days 00:01:32.035000,5,"","",0 days 00:00:29.504000,0 days 00:00:37.104000,0 days 00:00:25.427000,306.0,258.0,248.0,312.0,hard,5.0
0 days 00:26:23.654000,3,0 days 00:02:05.366000,6,"","",0 days 00:00:43.620000,0 days 00:00:49.444000,0 days 00:00:32.302000,230.0,238.0,247.0,264.0,hard,6.0
0 days 00:27:55.173000,3,0 days 00:01:31.519000,7,"","",0 days 00:00:29.423000,0 days 00:00:37.100000,0 days 00:00:24.996000,303.0,257.0,249.0,311.0,hard,7.0
0 days 00:30:15.091000,3,0 days 00:02:19.918000,8,"","",0 days 00:00:48.578000,0 days 00:00:56.627000,0 days 00:00:34.713000,204.0,169.0,244.0,239.0,hard,8.0
0 days 00:31:46.531000,3,0 days 00:01:31.440000,9,"","",0 days 00:00:29.515000,0 days 00:00:37.069000,0 days 00:00:24.856000,303.0,260.0,249.0,311.0,hard,9.0
0 days 00:33:30.208000,3,0 days 00:01:43.677000,10,"",0 days 00:33:24.294000,0 days 00:00:32.531000,0 days 00:00:43.684000,0 days 00:00:27.462000,277.0,231.0,"",290.0,hard,10.0
0 days 00:46:57.023000,3,"",11,0 days 00:45:08.122000,"","",0 days 00:00:49.065000,0 days 00:00:28.691000,290.0,232.0,251.0,290.0,soft,1.0
0 days 00:48:58.986000,3,0 days 00:02:01.963000,12,"","",0 days 00:00:37.749000,0 days 00:00:50.665000,0 days 00:00:33.549000,176.0,224.0,251.0,290.0,soft,2.0
0 days 00:50:28.888000,3,0 days 00:01:29.902000,13,"","",0 days 00:00:28.720000,0 days 00:00:36.512000,0 days 00:00:24.670000,309.0,261.0,249.0,314.0,soft,3.0
0 days 00:53:04.832000,3,"",14,"","",0 days 00:00:54.121000,0 days 00:01:06.736000,0 days 00:00:35.007000,117.0,117.0,248.0,245.0,soft,4.0
0 days 00:54:38.238000,3,0 days 00:01:33.406000,15,"",0 days 00:54:32.217000,0 days 00:00:29.378000,0 days 00:00:37.030000,0 days 00:00:26.998000,307.0,229.0,"",286.0,soft,5.0
0 days 01:03:20.909000,3,"",16,0 days 01:01:43.648000,"","",0 days 00:00:40.245000,0 days 00:00:28.176000,275.0,228.0,241.0,274.0,soft,6.0
0 days 01:04:55.558000,3,0 days 00:01:34.649000,17,"","",0 days 00:00:30.057000,0 days 00:00:38.498000,0 days 00:00:26.094000,286.0,247.0,242.0,285.0,soft,7.0
0 days 01:06:30.493000,3,0 days 00:01:34.935000,18,"","",0 days 00:00:30.243000,0 days 00:00:38.501000,0 days 00:00:26.191000,283.0,241.0,242.0,286.0,soft,8.0
0 days 01:08:04.995000,3,0 days 00:01:34.502000,19,"","",0 days 00:00:30.355000,0 days 00:00:38.106000,0 days 00:00:26.041000,286.0,248.0,241.0,288.0,soft,9.0
0 days 01:09:39.813000,3,0 days 00:01:34.818000,20,"","",0 days 00:00:30.303000,0 days 00:00:38.456000,0 days 00:00:26.059000,"",247.0,241.0,288.0,soft,10.0
0 days 01:11:14.312000,3,0 days 00:01:34.499000,21,"","",0 days 00:00:30.333000,0 days 00:00:38.186000,0 days 00:00:25.980000,281.0,248.0,241.0,294.0,soft,11.0
0 days 01:12:49.219000,3,0 days 00:01:34.907000,22,"","",0 days 00:00:30.383000,0 days 00:00:38.295000,0 days 00:00:26.229000,284.0,249.0,242.0,294.0,soft,12.0
0 days 01:14:26.176000,3,0 days 00:01:36.957000,23,"","",0 days 00:00:30.283000,0 days 00:00:38.574000,0 days 00:00:28.100000,300.0,251.0,240.0,313.0,soft,13.0
0 days 01:16:01.029000,3,0 days 00:01:34.853000,24,"","",0 days 00:00:30.390000,0 days 00:00:38.242000,0 days 00:00:26.221000,282.0,251.0,242.0,293.0,soft,14.0
0 days 01:18:00.221000,3,0 days 00:01:59.192000,25,"","",0 days 00:00:33.844000,0 days 00:00:45.541000,0 days 00:00:39.807000,239.0,212.0,71.0,265.0,soft,15.0
0 days 01:20:08.752000,3,0 days 00:02:08.531000,26,"",0 days 01:20:02.781000,0 days 00:00:56.206000,0 days 00:00:45.574000,0 days 00:00:26.751000,277.0,242.0,"",292.0,soft,16.0
0 days 00:17:16.323000,63,"",1,0 days 00:15:18.914000,"","",0 days 00:00:43.132000,0 days 00:00:43.217000,253.0,241.0,235.0,199.0,hard,1.0
0 days 00:18:53.764000,63,0 days 00:01:37.441000,2,"","",0 days 00:00:30.562000,0 days 00:00:40.289000,0 days 00:00:26.590000,297.0,249.0,245.0,302.0,hard,2.0
0 days 00:20:31.960000,63,0 days 00:01:38.196000,3,"","",0 days 00:00:30.085000,0 days 00:00:39.323000,0 days 00:00:28.788000,299.0,254.0,244.0,304.0,hard,3.0
0 days 00:22:05.438000,63,0 days 00:01:33.478000,4,"","",0 days 00:00:29.765000,0 days 00:00:38.248000,0 days 00:00:25.465000,308.0,256.0,246.0,313.0,hard,4.0
0 days 00:24:02.644000,63,0 days 00:01:57.206000,5,"","",0 days 00:00:32.498000,0 days 00:00:48.872000,0 days 00:00:35.836000,157.0,231.0,249.0,231.0,hard,5.0
0 days 00:25:44.488000,63,0 days 00:01:41.844000,6,"","",0 days 00:00:29.219000,0 days 00:00:42.726000,0 days 00:00:29.899000,309.0,236.0,248.0,223.0,hard,6.0
0 days 00:27:16.517000,63,0 days 00:01:32.029000,7,"","",0 days 00:00:29.184000,0 days 00:00:37.693000,0 days 00:00:25.152000,308.0,256.0,246.0,311.0,hard,7.0
0 days 00:29:15.336000,63,0 days 00:01:58.819000,8,"",0 days 00:29:09.422000,0 days 00:00:33.243000,0 days 00:00:52.019000,0 days 00:00:33.557000,240.0,148.0,"",186.0,hard,8.0
0 days 00:38:42.810000,63,"",9,0 days 00:37:01.746000,"","",0 days 00:00:43.269000,0 days 00:00:28.213000,282.0,239.0,249.0,294.0,soft,1.0
0 days 00:40:13.393000,63,0 days 00:01:30.583000,10,"","",0 days 00:00:28.877000,0 days 00:00:36.952000,0 days 00:00:24.754000,308.0,256.0,247.0,310.0,soft,2.0
0 days 00:42:02.981000,63,0 days 00:01:49.588000,11,"","",0 days 00:00:36.876000,0 days 00:00:44.349000,0 days 00:00:28.363000,273.0,232.0,252.0,295.0,soft,3.0
0 days 00:43:32.780000,63,0 days 00:01:29.799000,12,"","",0 days 00:00:28.568000,0 days 00:00:36.605000,0 days 00:00:24.626000,311.0,259.0,250.0,311.0,soft,4.0
0 days 00:45:22.624000,63,0 days 00:01:49.844000,13,"",0 days 00:45:16.684000,0 days 00:00:35.198000,0 days 00:00:45.941000,0 days 00:00:28.705000,279.0,225.0,"",279.0,soft,5.0
0 days 00:47:34.049000,63,0 days 00:02:11.425000,14,0 days 00:45:52.723000,"",0 days 00:00:59.717000,0 days 00:00:42.553000,0 days 00:00:29.155000,248.0,243.0,252.0,277.0,soft,6.0
0 days 00:49:26.925000,63,0 days 00:01:52.876000,15,"","",0 days 00:00:31.167000,0 days 00:00:46.533000,0 days 00:00:35.176000,257.0,238.0,251.0,190.0,soft,7.0
0 days 00:50:56.925000,63,0 days 00:01:30,16,"","",0 days 00:00:28.685000,0 days 00:00:36.730000,0 days 00:00:24.585000,312.0,260.0,251.0,314.0,soft,8.0
0 days 00:52:43.425000,63,0 days 00:01:46.500000,17,"",0 days 00:52:37.502000,0 days 00:00:32.711000,0 days 00:00:44.941000,0 days 00:00:28.848000,286.0,237.0,"",217.0,soft,9.0
0 days 01:01:24.435000,63,"",18,0 days 00:59:47.632000,"","",0 days 00:00:40.363000,0 days 00:00:26.634000,287.0,246.0,241.0,289.0,hard,9.0
0 days 01:02:59.657000,63,0 days 00:01:35.222000,19,"","",0 days 00:00:30.385000,0 days 00:00:38.654000,0 days 00:00:26.183000,281.0,246.0,241.0,286.0,hard,10.0
0 days 01:04:34.234000,63,0 days 00:01:34.577000,20,"","",0 days 00:00:30.248000,0 days 00:00:38.269000,0 days 00:00:26.060000,288.0,245.0,242.0,290.0,hard,11.0
0 days 01:06:09.084000,63,0 days 00:01:34.850000,21,"","",0 days 00:00:31.011000,0 days 00:00:38.015000,0 days 00:00:25.824000,284.0,245.0,243.0,288.0,hard,12.0
0 days 01:07:43.195000,63,0 days 00:01:34.111000,22,"","",0 days 00:00:30.302000,0 days 00:00:37.959000,0 days 00:00:25.850000,288.0,244.0,241.0,291.0,hard,13.0
0 days 01:09:16.926000,63,0 days 00:01:33.731000,23,"","",0 days 00:00:30.151000,0 days 00:00:37.833000,0 days 00:00:25.747000,287.0,247.0,243.0,291.0,hard,14.0
0 days 01:10:50.349000,63,0 days 00:01:33.423000,24,"","",0 days 00:00:30.078000,0 days 00:00:37.720000,0 days 00:00:25.625000,284.0,249.0,244.0,288.0,hard,15.0
0 days 01:12:23.480000,63,0 days 00:01:33.131000,25,"",0 days 01:12:17.515000,0 days 00:00:30.027000,0 days 00:00:37.710000,0 days 00:00:25.394000,283.0,249.0,"",287.0,hard,16.0
0 days 01:14:16.654000,63,0 days 00:01:53.174000,26,0 days 01:12:46.359000,"",0 days 00:00:50.428000,0 days 00:00:37.500000,0 days 00:00:25.246000,297.0,252.0,243.0,313.0,soft,10.0
0 days 01:15:49.558000,63,0 days 00:01:32.904000,27,"","",0 days 00:00:29.539000,0 days 00:00:37.962000,0 days 00:00:25.403000,301.0,255.0,244.0,311.0,soft,11.0
0 days 01:17:49.724000,63,0 days 00:02:00.166000,28,"","",0 days 00:00:35.096000,0 days 00:00:48.904000,0 days 00:00:36.166000,214.0,236.0,56.0,247.0,soft,12.0
0 days 01:20:11.481000,63,0 days 00:02:21.757000,29,"",0 days 01:20:05.141000,0 days 00:00:59.772000,0 days 00:00:51.631000,0 days 00:00:30.354000,253.0,236.0,"",245.0,soft,13.0
0 days 00:17:03.192000,77,"",1,0 days 00:15:11.059000,"","",0 days 00:00:42.490000,0 days 00:00:37.053000,282.0,233.0,242.0,266.0,hard,1.0
0 days 00:18:37.781000,77,0 days 00:01:34.589000,2,"","",0 days 00:00:30.338000,0 days 00:00:38.487000,0 days 00:00:25.764000,304.0,252.0,249.0,311.0,hard,2.0
0 days 00:20:29.270000,77,0 days 00:01:51.489000,3,"","",0 days 00:00:34.100000,0 days 00:00:45.556000,0 days 00:00:31.833000,249.0,223.0,248.0,237.0,hard,3.0
0 days 00:22:01.750000,77,0 days 00:01:32.480000,4,"","",0 days 00:00:29.528000,0 days 00:00:37.663000,0 days 00:00:25.289000,310.0,258.0,250.0,313.0,hard,4.0
0 days 00:23:52.462000,77,0 days 00:01:50.712000,5,"","",0 days 00:00:32.420000,0 days 00:00:47.885000,0 days 00:00:30.407000,270.0,235.0,246.0,292.0,hard,5.0
0 days 00:25:24.202000,77,0 days 00:01:31.740000,6,"","",0 days 00:00:29.420000,0 days 00:00:37.279000,0 days 00:00:25.041000,308.0,257.0,249.0,311.0,hard,6.0
0 days 00:27:08.333000,77,0 days 00:01:44.131000,7,"",0 days 00:27:02.395000,0 days 00:00:34.278000,0 days 00:00:42.815000,0 days 00:00:27.038000,116.0,231.0,"",289.0,hard,7.0
0 days 00:37:38.626000,77,"",8,0 days 00:35:56.834000,"","",0 days 00:00:42.621000,0 days 00:00:28.163000,281.0,241.0,249.0,288.0,soft,1.0
0 days 00:39:09.145000,77,0 days 00:01:30.519000,9,"","",0 days 00:00:28.976000,0 days 00:00:36.655000,0 days 00:00:24.888000,307.0,256.0,246.0,310.0,soft,2.0
0 days 00:41:05.090000,77,0 days 00:01:55.945000,10,"","",0 days 00:00:37.214000,0 days 00:00:49.249000,0 days 00:00:29.482000,238.0,205.0,249.0,283.0,soft,3.0
0 days 00:42:35.485000,77,0 days 00:01:30.395000,11,"","",0 days 00:00:28.937000,0 days 00:00:36.776000,0 days 00:00:24.682000,308.0,256.0,250.0,311.0,soft,4.0
0 days 00:44:22.198000,77,0 days 00:01:46.713000,12,"",0 days 00:44:16.271000,0 days 00:00:35.648000,0 days 00:00:43.443000,0 days 00:00:27.622000,223.0,225.0,"",289.0,soft,5.0
0 days 00:46:50.119000,77,0 days 00:02:27.921000,13,0 days 00:44:46.644000,"",0 days 00:00:59.316000,0 days 00:00:47.166000,0 days 00:00:41.439000,115.0,243.0,250.0,190.0,soft,6.0
0 days 00:48:20.578000,77,0 days 00:01:30.459000,14,"","",0 days 00:00:28.964000,0 days 00:00:36.779000,0 days 00:00:24.716000,307.0,257.0,248.0,311.0,soft,7.0
0 days 00:50:24.663000,77,0 days 00:02:04.085000,15,"","",0 days 00:00:39.876000,0 days 00:00:46.217000,0 days 00:00:37.992000,153.0,219.0,250.0,66.0,soft,8.0
0 days 00:51:54.663000,77,0 days 00:01:30,16,"","",0 days 00:00:28.937000,0 days 00:00:36.377000,0 days 00:00:24.686000,308.0,258.0,249.0,309.0,soft,9.0
0 days 00:53:39.268000,77,0 days 00:01:44.605000,17,"",0 days 00:53:33.324000,0 days 00:00:34.054000,0 days 00:00:44.313000,0 days 00:00:26.238000,262.0,229.0,"",288.0,soft,10.0
0 days 01:01:15.637000,77,"",18,0 days 00:59:44.132000,0 days 01:01:09.492000,"",0 days 00:00:38.505000,0 days 00:00:25.261000,283.0,244.0,"",286.0,soft,11.0
0 days 01:03:22.812000,77,0 days 00:02:07.175000,19,0 days 01:01:48.467000,"",0 days 00:01:01.668000,0 days 00:00:39.017000,0 days 00:00:26.490000,279.0,246.0,244.0,286.0,hard,8.0
0 days 01:04:58.118000,77,0 days 00:01:35.306000,20,"","",0 days 00:00:30.881000,0 days 00:00:38.325000,0 days 00:00:26.100000,289.0,248.0,243.0,294.0,hard,9.0
0 days 01:06:32.902000,77,0 days 00:01:34.784000,21,"","",0 days 00:00:30.154000,0 days 00:00:38.556000,0 days 00:00:26.074000,285.0,246.0,245.0,294.0,hard,10.0
0 days 01:08:07.708000,77,0 days 00:01:34.806000,22,"","",0 days 00:00:30.350000,0 days 00:00:38.443000,0 days 00:00:26.013000,283.0,245.0,243.0,291.0,hard,11.0
0 days 01:09:42.750000,77,0 days 00:01:35.042000,23,"","",0 days 00:00:30.294000,0 days 00:00:38.541000,0 days 00:00:26.207000,281.0,245.0,244.0,287.0,hard,12.0
0 days 01:11:17.396000,77,0 days 00:01:34.646000,24,"","",0 days 00:00:30.205000,0 days 00:00:38.314000,0 days 00:00:26.127000,282.0,247.0,243.0,290.0,hard,13.0
0 days 01:12:52.195000,77,0 days 00:01:34.799000,25,"","",0 days 00:00:30.274000,0 days 00:00:38.356000,0 days 00:00:26.169000,281.0,247.0,243.0,288.0,hard,14.0
0 days 01:14:27.352000,77,0 days 00:01:35.157000,26,"","",0 days 00:00:30.266000,0 days 00:00:38.484000,0 days 00:00:26.407000,292.0,249.0,243.0,291.0,hard,15.0
0 days 01:16:02.611000,77,0 days 00:01:35.259000,27,"","",0 days 00:00:30.481000,0 days 00:00:38.566000,0 days 00:00:26.212000,295.0,249.0,243.0,291.0,hard,16.0
0 days 01:18:07.742000,77,0 days 00:02:05.131000,28,"","",0 days 00:00:35.803000,0 days 00:00:48.506000,0 days 00:00:40.822000,198.0,214.0,60.0,267.0,hard,17.0
0 days 01:20:14.141000,77,0 days 00:02:06.399000,29,"",0 days 01:20:08.131000,0 days 00:00:53.475000,0 days 00:00:44.075000,0 days 00:00:28.849000,267.0,224.0,"",181.0,hard,18.0
