2022-11-12 18:53:35	PINK HEAD PADDING MATERIAL MUST BE USED
2022-11-12 18:53:43	CHANGE IN CLIMATIC CONDITIONS
2022-11-12 19:15:07	RISK OF RAIN FOR F1 SPRINT IS 10%
2022-11-12 19:27:01	DRS ENABLED
2022-11-12 19:27:06	DRS DISABLED
2022-11-12 19:33:01	GREEN LIGHT - PIT EXIT OPEN
2022-11-12 19:36:00	DRS ENABLED
2022-11-12 19:39:12	INCIDENT INVOLVING CARS 3 (RIC), 24 (ZHO) AND 44 (HAM) NOTED - STARTING PROCEDURE INFRINGEMENT
2022-11-12 19:45:09	INCIDENT INVOLVING CARS 5 (VET) AND 18 (STR) NOTED - FORCING ANOTHER DRIVER OFF THE TRACK
2022-11-12 19:48:42	YELLOW IN TRACK SECTOR 2
2022-11-12 19:48:43	DRS DISABLED IN ZONE 2
2022-11-12 19:49:20	CLEAR IN TRACK SECTOR 2
2022-11-12 19:49:20	DRS ENABLED IN ZONE 2
2022-11-12 19:51:53	FIA STEWARDS: INCIDENT INVOLVING CARS 5 (VET) AND 18 (STR) UNDER INVESTIGATION - DANGEROUS MANOEUVRE
2022-11-12 19:51:55	CAR 1 (VER) TIME 1:14.839 DELETED - TRACK LIMITS AT TURN 4 LAP 7 16:40:57
2022-11-12 19:53:05	FIA STEWARDS: 10 SECOND TIME PENALTY FOR CAR 18 (STR) - DANGEROUS MANOEUVRE
2022-11-12 19:57:25	STARTING PROCEDURE WILL BE INVESTIGATED AFTER THE SPRINT
2022-11-12 19:59:04	LAP 1 INCIDENTS INVOLVING CARS 14 (ALO) AND 31 (OCO) NOTED - CAUSING A COLLISION
2022-11-12 20:01:09	INCIDENT INVOLVING CARS 18 (STR) AND 47 (MSC) NOTED - DRIVING ERRATICALLY
2022-11-12 20:02:13	FIA STEWARDS: INCIDENT INVOLVING CARS 18 (STR) AND 47 (MSC) REVIEWED NO FURTHER INVESTIGATION - DRIVING ERRATICALLY
2022-11-12 20:03:11	CHEQUERED FLAG
2022-11-12 20:14:53	FIA STEWARDS: LAP 1, T4 INCIDENT INVOLVING CARS 14 (ALO) AND 31 (OCO) REVIEWED NO FURTHER INVESTIGATION - CAUSING A COLLISION
2022-11-12 20:15:34	FIA STEWARDS: LAP 1, MAIN STRAIGHT INCIDENT INVOLVING CARS 14 (ALO) AND 31 (OCO) UNDER INVESTIGATION - CAUSING A COLLISION
