Time,DriverNumber,LapTime,LapNumber,PitOutTime,PitInTime,Sector1Time,Sector2Time,Sector3Time,SpeedI1,SpeedI2,SpeedFL,SpeedST,Compound,TyreLife
0 days 00:27:52.513000,1,0 days 00:01:36.209000,1,0 days 00:26:17.074000,"",0 days 00:00:25.612000,0 days 00:00:43.418000,0 days 00:00:27.179000,177.0,178.0,263.0,272.0,soft,1.0
0 days 00:29:06.968000,1,0 days 00:01:14.455000,2,"","",0 days 00:00:19.821000,0 days 00:00:34.940000,0 days 00:00:19.694000,209.0,195.0,264.0,277.0,soft,2.0
0 days 00:30:47.242000,1,0 days 00:01:40.274000,3,"","",0 days 00:00:27.502000,0 days 00:00:47.112000,0 days 00:00:25.660000,148.0,158.0,265.0,246.0,soft,3.0
0 days 00:32:00.927000,1,0 days 00:01:13.685000,4,"","",0 days 00:00:19.643000,0 days 00:00:34.559000,0 days 00:00:19.483000,213.0,199.0,265.0,279.0,soft,4.0
0 days 00:33:50.179000,1,0 days 00:01:49.252000,5,"","",0 days 00:00:26.691000,0 days 00:00:50.066000,0 days 00:00:32.495000,130.0,125.0,266.0,226.0,soft,5.0
0 days 00:35:03.859000,1,0 days 00:01:13.680000,6,"","",0 days 00:00:19.391000,0 days 00:00:34.803000,0 days 00:00:19.486000,216.0,199.0,266.0,279.0,soft,6.0
0 days 00:36:54.889000,1,0 days 00:01:51.030000,7,"","",0 days 00:00:27.101000,0 days 00:00:49.771000,0 days 00:00:34.158000,152.0,114.0,267.0,242.0,soft,7.0
0 days 00:38:08.311000,1,0 days 00:01:13.422000,8,"","",0 days 00:00:19.427000,0 days 00:00:34.404000,0 days 00:00:19.591000,209.0,201.0,269.0,282.0,soft,8.0
0 days 00:40:00.802000,1,0 days 00:01:52.491000,9,"","",0 days 00:00:30.636000,0 days 00:00:53.325000,0 days 00:00:28.530000,97.0,98.0,262.0,213.0,soft,9.0
0 days 00:41:44.751000,1,0 days 00:01:43.949000,10,"","",0 days 00:00:24.648000,0 days 00:00:48.103000,0 days 00:00:31.198000,94.0,162.0,263.0,212.0,soft,10.0
0 days 00:43:13.219000,1,0 days 00:01:28.468000,11,"","",0 days 00:00:22.104000,0 days 00:00:42.021000,0 days 00:00:24.343000,84.0,176.0,265.0,272.0,soft,11.0
0 days 00:44:26.518000,1,0 days 00:01:13.299000,12,"","",0 days 00:00:19.327000,0 days 00:00:34.472000,0 days 00:00:19.500000,213.0,199.0,265.0,279.0,soft,12.0
0 days 00:55:17.285000,1,"",13,"",0 days 00:45:48.321000,0 days 00:00:21.774000,0 days 00:00:45.385000,"",184.0,177.0,"",213.0,soft,13.0
0 days 00:57:05.074000,1,0 days 00:01:47.789000,14,0 days 00:55:18.492000,"",0 days 00:00:26.614000,0 days 00:00:45.725000,0 days 00:00:35.450000,184.0,155.0,267.0,264.0,soft,1.0
0 days 00:58:26.484000,1,0 days 00:01:21.410000,15,"","",0 days 00:00:19.475000,0 days 00:00:34.385000,0 days 00:00:27.550000,213.0,200.0,224.0,280.0,soft,2.0
0 days 01:00:11.356000,1,0 days 00:01:44.872000,16,"","",0 days 00:00:25.500000,0 days 00:00:48.084000,0 days 00:00:31.288000,156.0,127.0,269.0,257.0,soft,3.0
0 days 01:01:24.557000,1,0 days 00:01:13.201000,17,"","",0 days 00:00:19.346000,0 days 00:00:34.524000,0 days 00:00:19.331000,213.0,198.0,267.0,280.0,soft,4.0
0 days 01:02:58.755000,1,0 days 00:01:34.198000,18,"","",0 days 00:00:23.337000,0 days 00:00:42.948000,0 days 00:00:27.913000,104.0,153.0,270.0,227.0,soft,5.0
0 days 01:04:11.636000,1,0 days 00:01:12.881000,19,"","",0 days 00:00:19.207000,0 days 00:00:34.351000,0 days 00:00:19.323000,211.0,198.0,267.0,281.0,soft,6.0
0 days 01:05:49.315000,1,0 days 00:01:37.679000,20,"","",0 days 00:00:24.682000,0 days 00:00:48.431000,0 days 00:00:24.566000,111.0,133.0,269.0,236.0,soft,7.0
0 days 01:07:02.292000,1,0 days 00:01:12.977000,21,"","",0 days 00:00:19.146000,0 days 00:00:34.460000,0 days 00:00:19.371000,214.0,201.0,268.0,281.0,soft,8.0
0 days 01:08:46.768000,1,0 days 00:01:44.476000,22,"","",0 days 00:00:27.771000,0 days 00:00:49.648000,0 days 00:00:27.057000,91.0,123.0,211.0,193.0,soft,9.0
0 days 01:10:21.574000,1,0 days 00:01:34.806000,23,"","",0 days 00:00:26.627000,0 days 00:00:46.509000,0 days 00:00:21.670000,141.0,177.0,264.0,235.0,soft,10.0
0 days 01:11:34.507000,1,0 days 00:01:12.933000,24,"","",0 days 00:00:19.215000,0 days 00:00:34.377000,0 days 00:00:19.341000,215.0,197.0,265.0,277.0,soft,11.0
0 days 01:13:19.238000,1,0 days 00:01:44.731000,25,"","",0 days 00:00:28.582000,0 days 00:00:46.944000,0 days 00:00:29.205000,127.0,111.0,265.0,218.0,soft,12.0
0 days 01:14:32.354000,1,0 days 00:01:13.116000,26,"","",0 days 00:00:19.294000,0 days 00:00:34.412000,0 days 00:00:19.410000,215.0,199.0,264.0,278.0,soft,13.0
0 days 01:16:23.318000,1,0 days 00:01:50.964000,27,"","",0 days 00:00:30.179000,0 days 00:00:48.130000,0 days 00:00:32.655000,128.0,109.0,173.0,175.0,soft,14.0
0 days 01:18:35.563000,1,0 days 00:02:12.245000,28,"","",0 days 00:00:29.946000,0 days 00:00:50.393000,0 days 00:00:51.906000,118.0,123.0,101.0,153.0,soft,15.0
0 days 01:20:06.567000,1,"",29,"",0 days 01:20:06.567000,0 days 00:00:28.013000,0 days 00:00:45.429000,"",132.0,132.0,"",183.0,soft,16.0
0 days 00:23:48.131000,55,0 days 00:01:42.759000,1,0 days 00:22:06.017000,"",0 days 00:00:29.645000,0 days 00:00:49.406000,0 days 00:00:23.708000,99.0,163.0,263.0,254.0,soft,1.0
0 days 00:25:17.524000,55,0 days 00:01:29.393000,2,"","",0 days 00:00:21.489000,0 days 00:00:43.683000,0 days 00:00:24.221000,153.0,161.0,266.0,246.0,soft,2.0
0 days 00:26:31.638000,55,0 days 00:01:14.114000,3,"","",0 days 00:00:19.608000,0 days 00:00:34.852000,0 days 00:00:19.654000,211.0,201.0,267.0,279.0,soft,3.0
0 days 00:28:24.093000,55,0 days 00:01:52.455000,4,"","",0 days 00:00:30.587000,0 days 00:00:54.399000,0 days 00:00:27.469000,116.0,138.0,263.0,196.0,soft,4.0
0 days 00:29:44.537000,55,0 days 00:01:20.444000,5,"","",0 days 00:00:19.623000,0 days 00:00:34.821000,0 days 00:00:26,212.0,201.0,160.0,280.0,soft,5.0
0 days 00:31:45.922000,55,0 days 00:02:01.385000,6,"","",0 days 00:00:36.740000,0 days 00:00:56.523000,0 days 00:00:28.122000,123.0,132.0,263.0,169.0,soft,6.0
0 days 00:32:59.706000,55,0 days 00:01:13.784000,7,"","",0 days 00:00:19.623000,0 days 00:00:34.729000,0 days 00:00:19.432000,211.0,201.0,267.0,277.0,soft,7.0
0 days 00:35:06.692000,55,0 days 00:02:06.986000,8,"",0 days 00:34:31.097000,0 days 00:00:26.038000,0 days 00:00:47.362000,0 days 00:00:53.586000,143.0,151.0,"",142.0,soft,8.0
0 days 00:37:06.932000,55,0 days 00:02:00.240000,9,0 days 00:35:07.414000,"",0 days 00:00:34.498000,0 days 00:00:49.927000,0 days 00:00:35.815000,142.0,60.0,263.0,257.0,soft,9.0
0 days 00:38:20.423000,55,0 days 00:01:13.491000,10,"","",0 days 00:00:19.503000,0 days 00:00:34.516000,0 days 00:00:19.472000,212.0,200.0,269.0,280.0,soft,10.0
0 days 00:40:12.495000,55,0 days 00:01:52.072000,11,"","",0 days 00:00:27.410000,0 days 00:00:49.225000,0 days 00:00:35.437000,130.0,121.0,264.0,196.0,soft,11.0
0 days 00:42:07.065000,55,0 days 00:01:54.570000,12,"","",0 days 00:00:25.877000,0 days 00:00:54.430000,0 days 00:00:34.263000,118.0,151.0,264.0,195.0,soft,12.0
0 days 00:43:20.559000,55,0 days 00:01:13.494000,13,"","",0 days 00:00:19.634000,0 days 00:00:34.554000,0 days 00:00:19.306000,212.0,201.0,268.0,280.0,soft,13.0
0 days 00:45:21.472000,55,0 days 00:02:00.913000,14,"",0 days 00:45:00.022000,0 days 00:00:28.079000,0 days 00:00:51.514000,0 days 00:00:41.320000,120.0,127.0,"",183.0,soft,14.0
0 days 00:47:15.302000,55,0 days 00:01:53.830000,15,0 days 00:45:22.259000,"",0 days 00:00:37.701000,0 days 00:00:51.362000,0 days 00:00:24.767000,118.0,175.0,264.0,257.0,soft,15.0
0 days 00:58:44.957000,55,"",16,"",0 days 00:49:07.110000,0 days 00:00:42.753000,0 days 00:00:49.481000,"",143.0,122.0,"",156.0,soft,16.0
0 days 01:00:31.200000,55,0 days 00:01:46.243000,17,0 days 00:58:45.651000,"",0 days 00:00:36.189000,0 days 00:00:42.426000,0 days 00:00:27.628000,143.0,160.0,257.0,258.0,soft,1.0
0 days 01:02:06.765000,55,0 days 00:01:35.565000,18,"","",0 days 00:00:21.828000,0 days 00:00:44.101000,0 days 00:00:29.636000,156.0,173.0,265.0,267.0,soft,2.0
0 days 01:03:19.611000,55,0 days 00:01:12.846000,19,"","",0 days 00:00:19.283000,0 days 00:00:34.356000,0 days 00:00:19.207000,217.0,202.0,266.0,278.0,soft,3.0
0 days 01:05:24.707000,55,0 days 00:02:05.096000,20,"",0 days 01:04:56.118000,0 days 00:00:27.989000,0 days 00:00:48.753000,0 days 00:00:48.354000,145.0,137.0,"",117.0,soft,4.0
0 days 01:07:29.885000,55,0 days 00:02:05.178000,21,0 days 01:05:25.428000,"",0 days 00:00:42.911000,0 days 00:00:48.169000,0 days 00:00:34.098000,74.0,141.0,263.0,243.0,soft,5.0
0 days 01:08:56.607000,55,0 days 00:01:26.722000,22,"","",0 days 00:00:19.521000,0 days 00:00:43.254000,0 days 00:00:23.947000,188.0,160.0,264.0,218.0,soft,6.0
0 days 01:10:09.479000,55,0 days 00:01:12.872000,23,"","",0 days 00:00:19.344000,0 days 00:00:34.240000,0 days 00:00:19.288000,213.0,201.0,266.0,277.0,soft,7.0
0 days 01:12:01.572000,55,0 days 00:01:52.093000,24,"","",0 days 00:00:31.176000,0 days 00:00:48.831000,0 days 00:00:32.086000,76.0,139.0,145.0,203.0,soft,8.0
0 days 01:13:51.602000,55,0 days 00:01:50.030000,25,"","",0 days 00:00:32.414000,0 days 00:00:45.725000,0 days 00:00:31.891000,87.0,138.0,263.0,216.0,soft,9.0
0 days 01:15:05.207000,55,0 days 00:01:13.605000,26,"","",0 days 00:00:19.582000,0 days 00:00:34.693000,0 days 00:00:19.330000,212.0,203.0,266.0,277.0,soft,10.0
0 days 01:16:53.051000,55,0 days 00:01:47.844000,27,"","",0 days 00:00:21.039000,0 days 00:00:46.130000,0 days 00:00:40.675000,146.0,124.0,20.0,204.0,soft,11.0
0 days 01:18:31.747000,55,"",28,"",0 days 01:18:31.747000,0 days 00:00:43.334000,0 days 00:00:37.790000,"",194.0,178.0,"",274.0,soft,12.0
0 days 00:17:36.309000,47,0 days 00:01:40.554000,1,0 days 00:15:56.354000,"",0 days 00:00:30.666000,0 days 00:00:44.164000,0 days 00:00:25.724000,142.0,142.0,242.0,260.0,medium,1.0
0 days 00:26:26.701000,47,"",2,"",0 days 00:18:59.580000,0 days 00:00:23.442000,0 days 00:00:43.241000,"",168.0,153.0,"",231.0,medium,2.0
0 days 00:28:02.294000,47,0 days 00:01:35.593000,3,0 days 00:26:27.620000,"",0 days 00:00:28.716000,0 days 00:00:42.024000,0 days 00:00:24.853000,176.0,148.0,265.0,255.0,soft,1.0
0 days 00:29:17.897000,47,0 days 00:01:15.603000,4,"","",0 days 00:00:20.298000,0 days 00:00:35.219000,0 days 00:00:20.086000,207.0,195.0,268.0,279.0,soft,2.0
0 days 00:30:57.615000,47,0 days 00:01:39.718000,5,"","",0 days 00:00:23.691000,0 days 00:00:44.601000,0 days 00:00:31.426000,159.0,154.0,267.0,216.0,soft,3.0
0 days 00:32:12.508000,47,0 days 00:01:14.893000,6,"","",0 days 00:00:19.970000,0 days 00:00:35.203000,0 days 00:00:19.720000,210.0,194.0,268.0,280.0,soft,4.0
0 days 00:33:57.896000,47,0 days 00:01:45.388000,7,"","",0 days 00:00:23.751000,0 days 00:00:44.939000,0 days 00:00:36.698000,162.0,139.0,267.0,192.0,soft,5.0
0 days 00:35:12.902000,47,0 days 00:01:15.006000,8,"","",0 days 00:00:20.014000,0 days 00:00:35.312000,0 days 00:00:19.680000,210.0,196.0,269.0,280.0,soft,6.0
0 days 00:37:18.458000,47,0 days 00:02:05.556000,9,"",0 days 00:36:46.937000,0 days 00:00:23.927000,0 days 00:00:46.278000,0 days 00:00:55.351000,144.0,133.0,"",192.0,soft,7.0
0 days 00:39:03.060000,47,0 days 00:01:44.602000,10,0 days 00:37:19.187000,"",0 days 00:00:28.704000,0 days 00:00:46.777000,0 days 00:00:29.121000,72.0,150.0,266.0,222.0,soft,8.0
0 days 00:40:18.388000,47,0 days 00:01:15.328000,11,"","",0 days 00:00:20.078000,0 days 00:00:35.265000,0 days 00:00:19.985000,209.0,196.0,267.0,278.0,soft,9.0
0 days 00:41:59.156000,47,0 days 00:01:40.768000,12,"","",0 days 00:00:25.674000,0 days 00:00:41.780000,0 days 00:00:33.314000,186.0,139.0,267.0,206.0,soft,10.0
0 days 00:43:13.692000,47,0 days 00:01:14.536000,13,"","",0 days 00:00:19.835000,0 days 00:00:35.017000,0 days 00:00:19.684000,204.0,197.0,272.0,280.0,soft,11.0
0 days 00:51:46.194000,47,"",14,"",0 days 00:44:36.436000,0 days 00:00:22.474000,0 days 00:00:44.158000,"",177.0,145.0,"",209.0,soft,12.0
0 days 00:53:18,47,0 days 00:01:31.806000,15,0 days 00:51:47.034000,"",0 days 00:00:27.008000,0 days 00:00:39.666000,0 days 00:00:25.132000,177.0,152.0,268.0,272.0,soft,1.0
0 days 00:54:32.132000,47,0 days 00:01:14.132000,16,"","",0 days 00:00:19.730000,0 days 00:00:35.066000,0 days 00:00:19.336000,215.0,199.0,271.0,279.0,soft,2.0
0 days 00:56:07.839000,47,0 days 00:01:35.707000,17,"","",0 days 00:00:24.498000,0 days 00:00:43.090000,0 days 00:00:28.119000,171.0,163.0,231.0,211.0,soft,3.0
0 days 00:57:39.813000,47,0 days 00:01:31.974000,18,"","",0 days 00:00:23.776000,0 days 00:00:43.859000,0 days 00:00:24.339000,174.0,139.0,268.0,206.0,soft,4.0
0 days 00:58:53.640000,47,0 days 00:01:13.827000,19,"","",0 days 00:00:19.628000,0 days 00:00:34.591000,0 days 00:00:19.608000,214.0,200.0,271.0,282.0,soft,5.0
0 days 01:00:32.283000,47,0 days 00:01:38.643000,20,"","",0 days 00:00:27.758000,0 days 00:00:43.206000,0 days 00:00:27.679000,143.0,150.0,240.0,257.0,soft,6.0
0 days 01:02:09.993000,47,0 days 00:01:37.710000,21,"","",0 days 00:00:22.536000,0 days 00:00:48.951000,0 days 00:00:26.223000,170.0,136.0,266.0,255.0,soft,7.0
0 days 01:03:24.165000,47,0 days 00:01:14.172000,22,"","",0 days 00:00:19.588000,0 days 00:00:34.958000,0 days 00:00:19.626000,213.0,196.0,268.0,282.0,soft,8.0
0 days 01:13:57.183000,47,"",23,"",0 days 01:04:51.937000,0 days 00:00:24.013000,0 days 00:00:47.254000,"",145.0,170.0,"",243.0,soft,9.0
0 days 01:15:31.628000,47,0 days 00:01:34.445000,24,0 days 01:13:57.845000,"",0 days 00:00:28.875000,0 days 00:00:41.164000,0 days 00:00:24.406000,157.0,162.0,243.0,257.0,soft,13.0
0 days 01:17:49.968000,47,0 days 00:02:18.340000,25,"","",0 days 00:00:25.357000,0 days 00:00:49.191000,0 days 00:01:03.792000,113.0,136.0,144.0,210.0,soft,14.0
0 days 01:19:45.644000,47,"",26,"",0 days 01:19:45.644000,0 days 00:00:23.743000,0 days 00:00:57.106000,"",146.0,69.0,"",147.0,soft,15.0
0 days 00:29:38.485000,44,0 days 00:01:34.698000,1,0 days 00:28:04.336000,"",0 days 00:00:27.096000,0 days 00:00:41.333000,0 days 00:00:26.269000,156.0,135.0,261.0,257.0,soft,1.0
0 days 00:30:54.104000,44,0 days 00:01:15.619000,2,"","",0 days 00:00:20.304000,0 days 00:00:35.368000,0 days 00:00:19.947000,203.0,195.0,264.0,274.0,soft,2.0
0 days 00:32:40.636000,44,0 days 00:01:46.532000,3,"","",0 days 00:00:32.615000,0 days 00:00:49.411000,0 days 00:00:24.506000,102.0,144.0,262.0,201.0,soft,3.0
0 days 00:33:55.444000,44,0 days 00:01:14.808000,4,"","",0 days 00:00:20.101000,0 days 00:00:35.046000,0 days 00:00:19.661000,212.0,196.0,264.0,273.0,soft,4.0
0 days 00:36:15.770000,44,0 days 00:02:20.326000,5,"",0 days 00:35:44.856000,0 days 00:00:32.256000,0 days 00:00:56.109000,0 days 00:00:51.961000,94.0,141.0,"",169.0,soft,5.0
0 days 00:37:58.435000,44,0 days 00:01:42.665000,6,0 days 00:36:16.407000,"",0 days 00:00:31.959000,0 days 00:00:48.248000,0 days 00:00:22.458000,106.0,157.0,262.0,224.0,soft,6.0
0 days 00:39:12.962000,44,0 days 00:01:14.527000,7,"","",0 days 00:00:19.942000,0 days 00:00:34.945000,0 days 00:00:19.640000,209.0,197.0,263.0,273.0,soft,7.0
0 days 00:41:11.128000,44,0 days 00:01:58.166000,8,"","",0 days 00:00:30.767000,0 days 00:00:55.915000,0 days 00:00:31.484000,66.0,120.0,142.0,188.0,soft,8.0
0 days 00:43:01.262000,44,0 days 00:01:50.134000,9,"","",0 days 00:00:32.507000,0 days 00:00:51.712000,0 days 00:00:25.915000,75.0,144.0,262.0,250.0,soft,9.0
0 days 00:44:32.231000,44,0 days 00:01:30.969000,10,"","",0 days 00:00:22.627000,0 days 00:00:46.029000,0 days 00:00:22.313000,146.0,158.0,263.0,237.0,soft,10.0
0 days 00:55:08.694000,44,"",11,"",0 days 00:45:51.311000,0 days 00:00:19.800000,0 days 00:00:44.109000,"",211.0,163.0,"",218.0,soft,11.0
0 days 00:56:55.754000,44,0 days 00:01:47.060000,12,0 days 00:55:09.538000,"",0 days 00:00:30.324000,0 days 00:00:45.717000,0 days 00:00:31.019000,148.0,156.0,263.0,252.0,soft,1.0
0 days 00:58:29.611000,44,0 days 00:01:33.857000,13,"","",0 days 00:00:25.427000,0 days 00:00:43.632000,0 days 00:00:24.798000,119.0,169.0,264.0,245.0,soft,2.0
0 days 01:00:03.213000,44,0 days 00:01:33.602000,14,"","",0 days 00:00:21.827000,0 days 00:00:41.910000,0 days 00:00:29.865000,145.0,162.0,254.0,257.0,soft,3.0
0 days 01:01:31.270000,44,0 days 00:01:28.057000,15,"","",0 days 00:00:20.946000,0 days 00:00:43.877000,0 days 00:00:23.234000,166.0,150.0,263.0,235.0,soft,4.0
0 days 01:02:45.242000,44,0 days 00:01:13.972000,16,"","",0 days 00:00:19.582000,0 days 00:00:34.842000,0 days 00:00:19.548000,215.0,196.0,264.0,274.0,soft,5.0
0 days 01:04:34.052000,44,0 days 00:01:48.810000,17,"","",0 days 00:00:30.546000,0 days 00:00:51.971000,0 days 00:00:26.293000,80.0,119.0,267.0,182.0,soft,6.0
0 days 01:06:07.944000,44,0 days 00:01:33.892000,18,"","",0 days 00:00:19.475000,0 days 00:00:44.941000,0 days 00:00:29.476000,214.0,126.0,164.0,181.0,soft,7.0
0 days 01:07:48.473000,44,0 days 00:01:40.529000,19,"","",0 days 00:00:30.417000,0 days 00:00:46.440000,0 days 00:00:23.672000,132.0,149.0,255.0,221.0,soft,8.0
0 days 01:09:01.848000,44,0 days 00:01:13.375000,20,"","",0 days 00:00:19.528000,0 days 00:00:34.415000,0 days 00:00:19.432000,215.0,195.0,269.0,279.0,soft,9.0
0 days 01:11:02.271000,44,0 days 00:02:00.423000,21,"","",0 days 00:00:30.381000,0 days 00:00:56.532000,0 days 00:00:33.510000,71.0,119.0,128.0,151.0,soft,10.0
0 days 01:12:48.162000,44,0 days 00:01:45.891000,22,"","",0 days 00:00:34.682000,0 days 00:00:48.440000,0 days 00:00:22.769000,69.0,149.0,263.0,217.0,soft,11.0
0 days 01:14:01.876000,44,0 days 00:01:13.714000,23,"","",0 days 00:00:19.517000,0 days 00:00:34.687000,0 days 00:00:19.510000,213.0,199.0,263.0,273.0,soft,12.0
0 days 01:15:40.607000,44,0 days 00:01:38.731000,24,"","",0 days 00:00:27.519000,0 days 00:00:45.907000,0 days 00:00:25.305000,133.0,152.0,184.0,257.0,soft,13.0
0 days 01:17:56.830000,44,0 days 00:02:16.223000,25,"","",0 days 00:00:30.203000,0 days 00:00:48.527000,0 days 00:00:57.493000,121.0,122.0,165.0,206.0,soft,14.0
0 days 01:19:47.777000,44,"",26,"",0 days 01:19:47.777000,0 days 00:00:31.026000,0 days 00:01:04.655000,"",61.0,169.0,"",150.0,soft,15.0
0 days 00:27:57.782000,31,0 days 00:01:35.722000,1,0 days 00:26:22.763000,"",0 days 00:00:28.181000,0 days 00:00:40.762000,0 days 00:00:26.779000,153.0,160.0,262.0,257.0,soft,1.0
0 days 00:29:14.586000,31,0 days 00:01:16.804000,2,"","",0 days 00:00:20.769000,0 days 00:00:35.915000,0 days 00:00:20.120000,194.0,190.0,263.0,274.0,soft,2.0
0 days 00:30:52.999000,31,0 days 00:01:38.413000,3,"","",0 days 00:00:25.573000,0 days 00:00:42.937000,0 days 00:00:29.903000,148.0,152.0,266.0,233.0,soft,3.0
0 days 00:32:08.231000,31,0 days 00:01:15.232000,4,"","",0 days 00:00:20.245000,0 days 00:00:35.119000,0 days 00:00:19.868000,203.0,194.0,265.0,278.0,soft,4.0
0 days 00:33:53.716000,31,0 days 00:01:45.485000,5,"","",0 days 00:00:25.803000,0 days 00:00:45.063000,0 days 00:00:34.619000,133.0,137.0,264.0,199.0,soft,5.0
0 days 00:35:08.904000,31,0 days 00:01:15.188000,6,"","",0 days 00:00:20.130000,0 days 00:00:35.192000,0 days 00:00:19.866000,202.0,193.0,265.0,279.0,soft,6.0
0 days 00:36:58.824000,31,0 days 00:01:49.920000,7,"","",0 days 00:00:27.101000,0 days 00:00:46.064000,0 days 00:00:36.755000,128.0,133.0,260.0,194.0,soft,7.0
0 days 00:38:14.764000,31,0 days 00:01:15.940000,8,"","",0 days 00:00:20.358000,0 days 00:00:35.440000,0 days 00:00:20.142000,201.0,191.0,263.0,274.0,soft,8.0
0 days 00:40:07.016000,31,0 days 00:01:52.252000,9,"","",0 days 00:00:27.829000,0 days 00:00:51.142000,0 days 00:00:33.281000,93.0,137.0,259.0,175.0,soft,9.0
0 days 00:41:22.942000,31,0 days 00:01:15.926000,10,"","",0 days 00:00:20.508000,0 days 00:00:35.595000,0 days 00:00:19.823000,197.0,190.0,262.0,271.0,soft,10.0
0 days 01:02:42.154000,31,"",11,"",0 days 00:42:47.097000,0 days 00:00:24.061000,0 days 00:00:42.258000,"",152.0,172.0,"",229.0,soft,11.0
0 days 01:04:16.689000,31,0 days 00:01:34.535000,12,0 days 01:02:42.831000,"",0 days 00:00:27.073000,0 days 00:00:43.200000,0 days 00:00:24.262000,165.0,51.0,266.0,260.0,soft,1.0
0 days 01:05:31.317000,31,0 days 00:01:14.628000,13,"","",0 days 00:00:19.943000,0 days 00:00:34.938000,0 days 00:00:19.747000,206.0,192.0,267.0,278.0,soft,2.0
0 days 01:07:10.509000,31,0 days 00:01:39.192000,14,"","",0 days 00:00:26.750000,0 days 00:00:47.388000,0 days 00:00:25.054000,109.0,144.0,266.0,205.0,soft,3.0
0 days 01:08:31.266000,31,0 days 00:01:20.757000,15,"","",0 days 00:00:19.877000,0 days 00:00:36.004000,0 days 00:00:24.876000,209.0,158.0,197.0,278.0,soft,4.0
0 days 01:10:05.089000,31,0 days 00:01:33.823000,16,"","",0 days 00:00:26.453000,0 days 00:00:44.005000,0 days 00:00:23.365000,133.0,147.0,266.0,212.0,soft,5.0
0 days 01:11:19.349000,31,0 days 00:01:14.260000,17,"","",0 days 00:00:19.774000,0 days 00:00:34.743000,0 days 00:00:19.743000,205.0,194.0,265.0,278.0,soft,6.0
0 days 01:12:54.092000,31,0 days 00:01:34.743000,18,"","",0 days 00:00:25.546000,0 days 00:00:42.849000,0 days 00:00:26.348000,140.0,131.0,265.0,228.0,soft,7.0
0 days 01:14:08.789000,31,0 days 00:01:14.697000,19,"","",0 days 00:00:19.852000,0 days 00:00:34.892000,0 days 00:00:19.953000,209.0,191.0,265.0,278.0,soft,8.0
0 days 01:15:46.824000,31,0 days 00:01:38.035000,20,"","",0 days 00:00:27.461000,0 days 00:00:45.218000,0 days 00:00:25.356000,54.0,133.0,184.0,253.0,soft,9.0
0 days 01:17:58.550000,31,0 days 00:02:11.726000,21,"","",0 days 00:00:26.240000,0 days 00:00:47.025000,0 days 00:00:58.461000,125.0,121.0,136.0,170.0,soft,10.0
0 days 01:19:22.629000,31,"",22,"",0 days 01:19:22.629000,0 days 00:00:26.761000,0 days 00:00:41.012000,"",142.0,150.0,"",257.0,soft,11.0
0 days 00:22:54.764000,24,0 days 00:01:37.965000,1,0 days 00:21:17.428000,"",0 days 00:00:29.638000,0 days 00:00:43.924000,0 days 00:00:24.403000,134.0,162.0,261.0,252.0,soft,1.0
0 days 00:24:11.272000,24,0 days 00:01:16.508000,2,"","",0 days 00:00:20.492000,0 days 00:00:35.800000,0 days 00:00:20.216000,204.0,188.0,263.0,273.0,soft,2.0
0 days 00:25:51.231000,24,0 days 00:01:39.959000,3,"","",0 days 00:00:29.576000,0 days 00:00:45.231000,0 days 00:00:25.152000,144.0,144.0,262.0,249.0,soft,3.0
0 days 00:27:06.739000,24,0 days 00:01:15.508000,4,"","",0 days 00:00:20.163000,0 days 00:00:35.360000,0 days 00:00:19.985000,210.0,192.0,264.0,274.0,soft,4.0
0 days 00:28:49.335000,24,0 days 00:01:42.596000,5,"","",0 days 00:00:29.367000,0 days 00:00:49.023000,0 days 00:00:24.206000,122.0,147.0,265.0,109.0,soft,5.0
0 days 00:30:04.318000,24,0 days 00:01:14.983000,6,"","",0 days 00:00:19.962000,0 days 00:00:35.168000,0 days 00:00:19.853000,208.0,193.0,267.0,276.0,soft,6.0
0 days 00:31:53.803000,24,0 days 00:01:49.485000,7,"","",0 days 00:00:28.872000,0 days 00:00:50.875000,0 days 00:00:29.738000,129.0,145.0,263.0,243.0,soft,7.0
0 days 00:33:09.711000,24,0 days 00:01:15.908000,8,"","",0 days 00:00:20.307000,0 days 00:00:35.439000,0 days 00:00:20.162000,210.0,191.0,265.0,275.0,soft,8.0
0 days 00:41:13.551000,24,"",9,"",0 days 00:34:34.038000,0 days 00:00:26.934000,0 days 00:00:40.458000,"",167.0,167.0,"",250.0,soft,9.0
0 days 00:42:49.582000,24,0 days 00:01:36.031000,10,0 days 00:41:14.219000,"",0 days 00:00:28.769000,0 days 00:00:42.898000,0 days 00:00:24.364000,145.0,143.0,262.0,254.0,soft,10.0
0 days 00:44:05.796000,24,0 days 00:01:16.214000,11,"","",0 days 00:00:20.448000,0 days 00:00:35.688000,0 days 00:00:20.078000,199.0,189.0,264.0,274.0,soft,11.0
0 days 00:45:43.928000,24,0 days 00:01:38.132000,12,"","",0 days 00:00:27.528000,0 days 00:00:45.785000,0 days 00:00:24.819000,122.0,151.0,262.0,234.0,soft,12.0
0 days 00:46:59.939000,24,0 days 00:01:16.011000,13,"","",0 days 00:00:20.320000,0 days 00:00:35.576000,0 days 00:00:20.115000,208.0,192.0,265.0,274.0,soft,13.0
0 days 00:55:00.437000,24,"",14,"",0 days 00:48:22.590000,0 days 00:00:23.971000,0 days 00:00:42.616000,"",146.0,173.0,"",239.0,soft,14.0
0 days 00:56:49.897000,24,0 days 00:01:49.460000,15,0 days 00:55:01.099000,"",0 days 00:00:30.179000,0 days 00:00:47.663000,0 days 00:00:31.618000,119.0,132.0,261.0,221.0,soft,1.0
0 days 00:58:21.164000,24,0 days 00:01:31.267000,16,"","",0 days 00:00:22.583000,0 days 00:00:41.142000,0 days 00:00:27.542000,181.0,172.0,264.0,270.0,soft,2.0
0 days 00:59:37.124000,24,0 days 00:01:15.960000,17,"","",0 days 00:00:20.300000,0 days 00:00:35.538000,0 days 00:00:20.122000,210.0,185.0,264.0,275.0,soft,3.0
0 days 01:01:12.929000,24,0 days 00:01:35.805000,18,"","",0 days 00:00:27.837000,0 days 00:00:42.970000,0 days 00:00:24.998000,121.0,150.0,263.0,248.0,soft,4.0
0 days 01:02:27.790000,24,0 days 00:01:14.861000,19,"","",0 days 00:00:19.933000,0 days 00:00:35.025000,0 days 00:00:19.903000,215.0,194.0,264.0,276.0,soft,5.0
0 days 01:04:08.322000,24,0 days 00:01:40.532000,20,"","",0 days 00:00:29.089000,0 days 00:00:48.671000,0 days 00:00:22.772000,92.0,144.0,263.0,200.0,soft,6.0
0 days 01:05:23.541000,24,0 days 00:01:15.219000,21,"","",0 days 00:00:20.020000,0 days 00:00:35.176000,0 days 00:00:20.023000,212.0,194.0,265.0,275.0,soft,7.0
0 days 01:14:17.381000,24,"",22,"",0 days 01:06:50.925000,0 days 00:00:24.866000,0 days 00:00:44.735000,"",125.0,152.0,"",250.0,soft,8.0
0 days 01:15:53.208000,24,0 days 00:01:35.827000,23,0 days 01:14:18.047000,"",0 days 00:00:28.761000,0 days 00:00:43.653000,0 days 00:00:23.413000,129.0,153.0,248.0,246.0,soft,9.0
0 days 01:18:02.854000,24,0 days 00:02:09.646000,24,"","",0 days 00:00:23.440000,0 days 00:00:47.128000,0 days 00:00:59.078000,141.0,129.0,162.0,186.0,soft,10.0
0 days 01:19:35.679000,24,"",25,"",0 days 01:19:35.679000,0 days 00:00:25.481000,0 days 00:00:44.779000,"",118.0,104.0,"",234.0,soft,11.0
0 days 00:30:18.953000,23,0 days 00:01:38.755000,1,0 days 00:28:40.827000,"",0 days 00:00:29.427000,0 days 00:00:45.377000,0 days 00:00:23.951000,84.0,70.0,266.0,267.0,medium,1.0
0 days 00:31:35.404000,23,0 days 00:01:16.451000,2,"","",0 days 00:00:20.416000,0 days 00:00:36.069000,0 days 00:00:19.966000,199.0,190.0,267.0,281.0,medium,2.0
0 days 00:33:12.706000,23,0 days 00:01:37.302000,3,"","",0 days 00:00:26.067000,0 days 00:00:44.503000,0 days 00:00:26.732000,160.0,134.0,267.0,255.0,medium,3.0
0 days 00:34:28.340000,23,0 days 00:01:15.634000,4,"","",0 days 00:00:20.084000,0 days 00:00:35.657000,0 days 00:00:19.893000,204.0,191.0,268.0,282.0,medium,4.0
0 days 00:36:03.339000,23,0 days 00:01:34.999000,5,"","",0 days 00:00:25.830000,0 days 00:00:44.485000,0 days 00:00:24.684000,155.0,166.0,268.0,219.0,medium,5.0
0 days 00:37:18.435000,23,0 days 00:01:15.096000,6,"","",0 days 00:00:19.841000,0 days 00:00:35.509000,0 days 00:00:19.746000,202.0,195.0,268.0,283.0,medium,6.0
0 days 00:38:59.174000,23,0 days 00:01:40.739000,7,"","",0 days 00:00:25.609000,0 days 00:00:44.249000,0 days 00:00:30.881000,156.0,134.0,268.0,246.0,medium,7.0
0 days 00:40:32.957000,23,0 days 00:01:33.783000,8,"","",0 days 00:00:24.978000,0 days 00:00:42.365000,0 days 00:00:26.440000,88.0,158.0,268.0,268.0,medium,8.0
0 days 00:42:09.815000,23,0 days 00:01:36.858000,9,"","",0 days 00:00:25.233000,0 days 00:00:41.066000,0 days 00:00:30.559000,176.0,144.0,267.0,259.0,medium,9.0
0 days 00:43:24.953000,23,0 days 00:01:15.138000,10,"","",0 days 00:00:19.985000,0 days 00:00:35.303000,0 days 00:00:19.850000,203.0,194.0,270.0,284.0,medium,10.0
0 days 00:49:47.395000,23,"",11,"",0 days 00:44:52.319000,0 days 00:00:24.274000,0 days 00:00:45.520000,"",123.0,142.0,"",218.0,medium,11.0
0 days 00:51:21.036000,23,0 days 00:01:33.641000,12,0 days 00:49:47.962000,"",0 days 00:00:27.274000,0 days 00:00:42.562000,0 days 00:00:23.805000,162.0,152.0,263.0,266.0,soft,1.0
0 days 00:52:35.492000,23,0 days 00:01:14.456000,13,"","",0 days 00:00:19.873000,0 days 00:00:34.998000,0 days 00:00:19.585000,207.0,197.0,265.0,277.0,soft,2.0
0 days 00:54:14.454000,23,0 days 00:01:38.962000,14,"","",0 days 00:00:27.808000,0 days 00:00:44.747000,0 days 00:00:26.407000,131.0,151.0,264.0,252.0,soft,3.0
0 days 00:55:28.336000,23,0 days 00:01:13.882000,15,"","",0 days 00:00:19.637000,0 days 00:00:34.771000,0 days 00:00:19.474000,207.0,201.0,267.0,278.0,soft,4.0
0 days 00:57:10.576000,23,0 days 00:01:42.240000,16,"","",0 days 00:00:25.026000,0 days 00:00:43.845000,0 days 00:00:33.369000,167.0,127.0,237.0,232.0,soft,5.0
0 days 00:58:49.151000,23,0 days 00:01:38.575000,17,"","",0 days 00:00:26.395000,0 days 00:00:45.426000,0 days 00:00:26.754000,71.0,134.0,265.0,231.0,soft,6.0
0 days 01:00:03.998000,23,0 days 00:01:14.847000,18,"","",0 days 00:00:19.712000,0 days 00:00:35.243000,0 days 00:00:19.892000,207.0,198.0,257.0,283.0,soft,7.0
0 days 01:13:41.985000,23,"",19,"",0 days 01:01:42.010000,0 days 00:00:36.146000,0 days 00:00:44.049000,"",79.0,139.0,"",244.0,soft,8.0
0 days 01:15:23.233000,23,0 days 00:01:41.248000,20,0 days 01:13:42.549000,"",0 days 00:00:29.399000,0 days 00:00:46.994000,0 days 00:00:24.855000,91.0,149.0,236.0,265.0,medium,12.0
0 days 01:17:40.517000,23,0 days 00:02:17.284000,21,"","",0 days 00:00:30.646000,0 days 00:00:46.038000,0 days 00:01:00.600000,81.0,161.0,95.0,271.0,medium,13.0
0 days 01:19:01.887000,23,"",22,"",0 days 01:19:01.887000,0 days 00:00:24.645000,0 days 00:00:40.575000,"",154.0,159.0,"",248.0,medium,14.0
0 days 00:25:42.447000,22,0 days 00:01:37.761000,1,0 days 00:24:05.460000,"",0 days 00:00:31.927000,0 days 00:00:41.471000,0 days 00:00:24.363000,176.0,154.0,262.0,259.0,soft,1.0
0 days 00:26:58.638000,22,0 days 00:01:16.191000,2,"","",0 days 00:00:20.536000,0 days 00:00:35.531000,0 days 00:00:20.124000,208.0,192.0,262.0,275.0,soft,2.0
0 days 00:28:13.834000,22,0 days 00:01:15.196000,3,"","",0 days 00:00:19.955000,0 days 00:00:35.281000,0 days 00:00:19.960000,209.0,194.0,262.0,277.0,soft,3.0
0 days 00:29:55.476000,22,0 days 00:01:41.642000,4,"","",0 days 00:00:24.590000,0 days 00:00:49.669000,0 days 00:00:27.383000,176.0,87.0,262.0,204.0,soft,4.0
0 days 00:31:10.287000,22,0 days 00:01:14.811000,5,"","",0 days 00:00:19.919000,0 days 00:00:35.039000,0 days 00:00:19.853000,209.0,196.0,264.0,277.0,soft,5.0
0 days 00:32:48.559000,22,0 days 00:01:38.272000,6,"","",0 days 00:00:26.436000,0 days 00:00:42.331000,0 days 00:00:29.505000,159.0,150.0,265.0,239.0,soft,6.0
0 days 00:34:10.637000,22,0 days 00:01:22.078000,7,"","",0 days 00:00:19.773000,0 days 00:00:36.955000,0 days 00:00:25.350000,209.0,142.0,224.0,278.0,soft,7.0
0 days 00:35:46.273000,22,0 days 00:01:35.636000,8,"","",0 days 00:00:26.806000,0 days 00:00:44.998000,0 days 00:00:23.832000,132.0,165.0,268.0,242.0,soft,8.0
0 days 00:46:08.595000,22,"",9,"",0 days 00:37:00.863000,0 days 00:00:19.594000,0 days 00:00:35.153000,"",209.0,133.0,"",280.0,soft,9.0
0 days 00:47:38.304000,22,0 days 00:01:29.709000,10,0 days 00:46:09.182000,"",0 days 00:00:26.829000,0 days 00:00:39.846000,0 days 00:00:23.034000,173.0,163.0,226.0,261.0,soft,1.0
0 days 00:49:17.377000,22,0 days 00:01:39.073000,11,"","",0 days 00:00:30.957000,0 days 00:00:43.449000,0 days 00:00:24.667000,143.0,160.0,262.0,251.0,soft,2.0
0 days 00:50:31.293000,22,0 days 00:01:13.916000,12,"","",0 days 00:00:19.573000,0 days 00:00:34.696000,0 days 00:00:19.647000,210.0,198.0,262.0,274.0,soft,3.0
0 days 00:52:06.483000,22,0 days 00:01:35.190000,13,"","",0 days 00:00:28.166000,0 days 00:00:44,0 days 00:00:23.024000,155.0,151.0,262.0,239.0,soft,4.0
0 days 00:53:20.128000,22,0 days 00:01:13.645000,14,"","",0 days 00:00:19.534000,0 days 00:00:34.633000,0 days 00:00:19.478000,210.0,200.0,264.0,276.0,soft,5.0
0 days 00:54:55.194000,22,0 days 00:01:35.066000,15,"","",0 days 00:00:25.090000,0 days 00:00:44.382000,0 days 00:00:25.594000,163.0,137.0,265.0,240.0,soft,6.0
0 days 00:56:09.507000,22,0 days 00:01:14.313000,16,"","",0 days 00:00:19.643000,0 days 00:00:34.880000,0 days 00:00:19.790000,210.0,196.0,264.0,278.0,soft,7.0
0 days 00:57:56.990000,22,0 days 00:01:47.483000,17,"","",0 days 00:00:30.220000,0 days 00:00:50.552000,0 days 00:00:26.711000,159.0,118.0,214.0,205.0,soft,8.0
0 days 00:59:47.969000,22,0 days 00:01:50.979000,18,"","",0 days 00:00:30.198000,0 days 00:00:51.524000,0 days 00:00:29.257000,137.0,171.0,267.0,189.0,soft,9.0
0 days 01:09:21.273000,22,"",19,"",0 days 01:01:40.836000,0 days 00:00:43.952000,0 days 00:00:51.501000,"",98.0,138.0,"",245.0,soft,10.0
0 days 01:10:55.692000,22,0 days 00:01:34.419000,20,0 days 01:09:21.801000,"",0 days 00:00:26.193000,0 days 00:00:39.992000,0 days 00:00:28.234000,158.0,148.0,263.0,260.0,soft,10.0
0 days 01:12:09.869000,22,0 days 00:01:14.177000,21,"","",0 days 00:00:19.620000,0 days 00:00:34.796000,0 days 00:00:19.761000,210.0,197.0,264.0,277.0,soft,11.0
0 days 01:13:55.315000,22,0 days 00:01:45.446000,22,"","",0 days 00:00:27.130000,0 days 00:00:45.716000,0 days 00:00:32.600000,153.0,123.0,263.0,232.0,soft,12.0
0 days 01:15:21.041000,22,0 days 00:01:25.726000,23,"","",0 days 00:00:19.797000,0 days 00:00:36.893000,0 days 00:00:29.036000,209.0,131.0,214.0,278.0,soft,13.0
0 days 01:17:22.376000,22,0 days 00:02:01.335000,24,"","",0 days 00:00:30.310000,0 days 00:00:44.933000,0 days 00:00:46.092000,134.0,138.0,10.0,216.0,soft,14.0
0 days 01:18:41.239000,22,"",25,"",0 days 01:18:41.239000,0 days 00:00:24.041000,0 days 00:00:38.403000,"",180.0,163.0,"",254.0,soft,15.0
0 days 00:16:42.303000,20,0 days 00:01:38.108000,1,0 days 00:15:04.765000,"",0 days 00:00:29.510000,0 days 00:00:43.870000,0 days 00:00:24.728000,136.0,149.0,254.0,255.0,medium,1.0
0 days 00:30:02.366000,20,"",2,"",0 days 00:18:04.069000,0 days 00:00:23.445000,0 days 00:00:42.346000,"",163.0,156.0,"",246.0,medium,2.0
0 days 00:31:30.045000,20,0 days 00:01:27.679000,3,0 days 00:30:03.065000,"",0 days 00:00:26.661000,0 days 00:00:38.924000,0 days 00:00:22.094000,185.0,184.0,265.0,264.0,soft,1.0
0 days 00:32:44.801000,20,0 days 00:01:14.756000,4,"","",0 days 00:00:19.899000,0 days 00:00:34.974000,0 days 00:00:19.883000,206.0,194.0,269.0,280.0,soft,2.0
0 days 00:34:20.557000,20,0 days 00:01:35.756000,5,"","",0 days 00:00:24.650000,0 days 00:00:46.869000,0 days 00:00:24.237000,112.0,170.0,237.0,245.0,soft,3.0
0 days 00:35:54.863000,20,0 days 00:01:34.306000,6,"","",0 days 00:00:26.723000,0 days 00:00:41.136000,0 days 00:00:26.447000,114.0,169.0,266.0,261.0,soft,4.0
0 days 00:37:09.365000,20,0 days 00:01:14.502000,7,"","",0 days 00:00:19.851000,0 days 00:00:34.898000,0 days 00:00:19.753000,211.0,197.0,268.0,280.0,soft,5.0
0 days 00:38:44.279000,20,0 days 00:01:34.914000,8,"","",0 days 00:00:23.709000,0 days 00:00:42.917000,0 days 00:00:28.288000,162.0,153.0,238.0,243.0,soft,6.0
0 days 00:40:21.535000,20,0 days 00:01:37.256000,9,"","",0 days 00:00:26.068000,0 days 00:00:43.652000,0 days 00:00:27.536000,103.0,146.0,267.0,229.0,soft,7.0
0 days 00:41:43.131000,20,0 days 00:01:21.596000,10,"","",0 days 00:00:19.717000,0 days 00:00:36.816000,0 days 00:00:25.063000,211.0,178.0,129.0,280.0,soft,8.0
0 days 00:43:23.572000,20,0 days 00:01:40.441000,11,"","",0 days 00:00:31.977000,0 days 00:00:43.629000,0 days 00:00:24.835000,62.0,170.0,267.0,262.0,soft,9.0
0 days 00:44:37.768000,20,0 days 00:01:14.196000,12,"","",0 days 00:00:19.592000,0 days 00:00:34.927000,0 days 00:00:19.677000,215.0,198.0,268.0,280.0,soft,10.0
0 days 00:51:41.275000,20,"",13,"",0 days 00:45:52.618000,0 days 00:00:21.651000,0 days 00:00:38.613000,"",189.0,180.0,"",258.0,soft,11.0
0 days 00:53:08.546000,20,0 days 00:01:27.271000,14,0 days 00:51:41.969000,"",0 days 00:00:25.332000,0 days 00:00:39.765000,0 days 00:00:22.174000,173.0,183.0,268.0,268.0,soft,1.0
0 days 00:54:21.982000,20,0 days 00:01:13.436000,15,"","",0 days 00:00:19.554000,0 days 00:00:34.516000,0 days 00:00:19.366000,213.0,201.0,269.0,278.0,soft,2.0
0 days 00:55:53.224000,20,0 days 00:01:31.242000,16,"","",0 days 00:00:22.931000,0 days 00:00:44.879000,0 days 00:00:23.432000,160.0,164.0,270.0,251.0,soft,3.0
0 days 00:57:06.673000,20,0 days 00:01:13.449000,17,"","",0 days 00:00:19.448000,0 days 00:00:34.484000,0 days 00:00:19.517000,216.0,195.0,271.0,280.0,soft,4.0
0 days 00:58:39.764000,20,0 days 00:01:33.091000,18,"","",0 days 00:00:23.176000,0 days 00:00:45.871000,0 days 00:00:24.044000,155.0,153.0,235.0,238.0,soft,5.0
0 days 01:00:20.212000,20,0 days 00:01:40.448000,19,"","",0 days 00:00:23.524000,0 days 00:00:44.125000,0 days 00:00:32.799000,169.0,172.0,266.0,243.0,soft,6.0
0 days 01:01:34.358000,20,0 days 00:01:14.146000,20,"","",0 days 00:00:19.762000,0 days 00:00:34.787000,0 days 00:00:19.597000,212.0,196.0,268.0,280.0,soft,7.0
0 days 01:13:52.443000,20,"",21,"",0 days 01:02:58.458000,0 days 00:00:22.197000,0 days 00:00:47.081000,"",188.0,177.0,"",250.0,soft,8.0
0 days 01:15:25.235000,20,0 days 00:01:32.792000,22,0 days 01:13:53.069000,"",0 days 00:00:29.264000,0 days 00:00:38.876000,0 days 00:00:24.652000,166.0,179.0,224.0,269.0,soft,12.0
0 days 01:17:49.207000,20,0 days 00:02:23.972000,23,"","",0 days 00:00:29.703000,0 days 00:00:46.699000,0 days 00:01:07.570000,85.0,142.0,74.0,255.0,soft,13.0
0 days 01:19:09.455000,20,"",24,"",0 days 01:19:09.455000,0 days 00:00:23.962000,0 days 00:00:39.079000,"",168.0,144.0,"",271.0,soft,14.0
0 days 00:17:41.366000,18,0 days 00:01:40.815000,1,0 days 00:16:01.134000,"",0 days 00:00:27.295000,0 days 00:00:43.931000,0 days 00:00:29.589000,149.0,117.0,256.0,256.0,medium,1.0
0 days 00:19:26.082000,18,0 days 00:01:44.716000,2,"",0 days 00:19:01.601000,0 days 00:00:22.264000,0 days 00:00:41.340000,0 days 00:00:41.112000,171.0,164.0,"",266.0,medium,2.0
0 days 00:31:18.948000,18,"",3,0 days 00:19:26.713000,0 days 00:20:49.722000,0 days 00:00:28.841000,0 days 00:00:39.691000,"",115.0,180.0,"",266.0,hard,1.0
0 days 00:32:56.213000,18,0 days 00:01:37.265000,4,0 days 00:31:19.710000,"",0 days 00:00:27.208000,0 days 00:00:40.902000,0 days 00:00:29.155000,181.0,171.0,261.0,261.0,medium,1.0
0 days 00:34:12.241000,18,0 days 00:01:16.028000,5,"","",0 days 00:00:20.139000,0 days 00:00:35.701000,0 days 00:00:20.188000,205.0,191.0,263.0,275.0,medium,2.0
0 days 00:35:51.084000,18,0 days 00:01:38.843000,6,"","",0 days 00:00:29.683000,0 days 00:00:44.220000,0 days 00:00:24.940000,121.0,172.0,263.0,241.0,medium,3.0
0 days 00:37:07.166000,18,0 days 00:01:16.082000,7,"","",0 days 00:00:19.982000,0 days 00:00:35.530000,0 days 00:00:20.570000,206.0,191.0,256.0,276.0,medium,4.0
0 days 00:38:55.656000,18,0 days 00:01:48.490000,8,"","",0 days 00:00:29.123000,0 days 00:00:49.949000,0 days 00:00:29.418000,116.0,149.0,263.0,142.0,medium,5.0
0 days 00:40:27.445000,18,0 days 00:01:31.789000,9,"","",0 days 00:00:25.534000,0 days 00:00:42.825000,0 days 00:00:23.430000,"",167.0,263.0,261.0,medium,6.0
0 days 00:42:34.912000,18,0 days 00:02:07.467000,10,"","",0 days 00:00:51.227000,0 days 00:00:43.207000,0 days 00:00:33.033000,157.0,139.0,260.0,218.0,medium,7.0
0 days 00:43:53.149000,18,0 days 00:01:18.237000,11,"","",0 days 00:00:20.536000,0 days 00:00:36.058000,0 days 00:00:21.643000,196.0,187.0,263.0,276.0,medium,8.0
0 days 00:45:08.548000,18,0 days 00:01:15.399000,12,"","",0 days 00:00:20.090000,0 days 00:00:35.439000,0 days 00:00:19.870000,202.0,193.0,264.0,276.0,medium,9.0
0 days 00:46:26.255000,18,0 days 00:01:17.707000,13,"","",0 days 00:00:20.168000,0 days 00:00:36.933000,0 days 00:00:20.606000,"",186.0,263.0,260.0,medium,10.0
0 days 00:47:41.768000,18,0 days 00:01:15.513000,14,"","",0 days 00:00:20.132000,0 days 00:00:35.374000,0 days 00:00:20.007000,"",193.0,255.0,275.0,medium,11.0
0 days 00:56:26.608000,18,"",15,"",0 days 00:48:59.186000,0 days 00:00:23.309000,0 days 00:00:38.487000,"",161.0,176.0,"",263.0,medium,12.0
0 days 00:57:59.147000,18,0 days 00:01:32.539000,16,0 days 00:56:27.322000,"",0 days 00:00:26.994000,0 days 00:00:38.051000,0 days 00:00:27.494000,175.0,179.0,265.0,260.0,soft,1.0
0 days 00:59:13.786000,18,0 days 00:01:14.639000,17,"","",0 days 00:00:19.910000,0 days 00:00:35.006000,0 days 00:00:19.723000,207.0,195.0,263.0,275.0,soft,2.0
0 days 01:01:04.053000,18,0 days 00:01:50.267000,18,"",0 days 01:00:45.361000,0 days 00:00:29.127000,0 days 00:00:44.756000,0 days 00:00:36.384000,103.0,155.0,"",185.0,soft,3.0
0 days 01:02:41.941000,18,0 days 00:01:37.888000,19,0 days 01:01:04.778000,"",0 days 00:00:32.322000,0 days 00:00:39.759000,0 days 00:00:25.807000,153.0,178.0,267.0,256.0,soft,4.0
0 days 01:03:58.595000,18,"",20,"",0 days 01:03:58.595000,0 days 00:00:19.524000,0 days 00:00:34.829000,"",206.0,194.0,"",281.0,soft,5.0
0 days 00:24:30.211000,16,0 days 00:01:42.634000,1,0 days 00:22:48.235000,"",0 days 00:00:32.745000,0 days 00:00:44.737000,0 days 00:00:25.152000,142.0,152.0,249.0,232.0,soft,1.0
0 days 00:26:01.312000,16,0 days 00:01:31.101000,2,"","",0 days 00:00:23.778000,0 days 00:00:42.917000,0 days 00:00:24.406000,171.0,161.0,268.0,205.0,soft,2.0
0 days 00:27:15.320000,16,0 days 00:01:14.008000,3,"","",0 days 00:00:19.665000,0 days 00:00:34.673000,0 days 00:00:19.670000,213.0,197.0,268.0,281.0,soft,3.0
0 days 00:29:00.423000,16,0 days 00:01:45.103000,4,"","",0 days 00:00:28.394000,0 days 00:00:51.660000,0 days 00:00:25.049000,62.0,70.0,265.0,191.0,soft,4.0
0 days 00:30:14.070000,16,0 days 00:01:13.647000,5,"","",0 days 00:00:19.599000,0 days 00:00:34.707000,0 days 00:00:19.341000,215.0,197.0,266.0,279.0,soft,5.0
0 days 00:32:39.071000,16,0 days 00:02:25.001000,6,"",0 days 00:32:00.885000,0 days 00:00:31.174000,0 days 00:00:58.745000,0 days 00:00:55.082000,68.0,145.0,"",179.0,soft,6.0
0 days 00:34:26.659000,16,0 days 00:01:47.588000,7,0 days 00:32:39.764000,"",0 days 00:00:36.467000,0 days 00:00:46.353000,0 days 00:00:24.768000,62.0,170.0,264.0,239.0,soft,7.0
0 days 00:35:40.093000,16,0 days 00:01:13.434000,8,"","",0 days 00:00:19.513000,0 days 00:00:34.652000,0 days 00:00:19.269000,215.0,201.0,266.0,279.0,soft,8.0
0 days 00:37:27.541000,16,0 days 00:01:47.448000,9,"","",0 days 00:00:25.554000,0 days 00:00:55.093000,0 days 00:00:26.801000,68.0,143.0,265.0,218.0,soft,9.0
0 days 00:38:40.838000,16,0 days 00:01:13.297000,10,"","",0 days 00:00:19.413000,0 days 00:00:34.539000,0 days 00:00:19.345000,216.0,202.0,263.0,280.0,soft,10.0
0 days 00:40:42.918000,16,0 days 00:02:02.080000,11,"",0 days 00:40:09.111000,0 days 00:00:23.506000,0 days 00:00:46.856000,0 days 00:00:51.718000,137.0,131.0,"",203.0,soft,11.0
0 days 00:42:26.180000,16,0 days 00:01:43.262000,12,0 days 00:40:43.639000,"",0 days 00:00:30.430000,0 days 00:00:46.719000,0 days 00:00:26.113000,129.0,140.0,264.0,205.0,soft,12.0
0 days 00:43:39.065000,16,0 days 00:01:12.885000,13,"","",0 days 00:00:19.382000,0 days 00:00:34.282000,0 days 00:00:19.221000,217.0,202.0,267.0,279.0,soft,13.0
0 days 00:45:17.705000,16,0 days 00:01:38.640000,14,"","",0 days 00:00:23.677000,0 days 00:00:48.350000,0 days 00:00:26.613000,140.0,140.0,192.0,180.0,soft,14.0
0 days 00:46:57.519000,16,0 days 00:01:39.814000,15,"","",0 days 00:00:26.936000,0 days 00:00:50.300000,0 days 00:00:22.578000,68.0,158.0,266.0,235.0,soft,15.0
0 days 00:58:51.856000,16,"",16,"",0 days 00:48:06.537000,0 days 00:00:19.493000,0 days 00:00:34.376000,"",215.0,197.0,"",278.0,soft,16.0
0 days 01:00:39.356000,16,0 days 00:01:47.500000,17,0 days 00:58:52.535000,"",0 days 00:00:32.867000,0 days 00:00:48.146000,0 days 00:00:26.487000,149.0,130.0,264.0,219.0,soft,1.0
0 days 01:01:52.424000,16,0 days 00:01:13.068000,18,"","",0 days 00:00:19.563000,0 days 00:00:34.276000,0 days 00:00:19.229000,214.0,199.0,267.0,279.0,soft,2.0
0 days 01:03:46.764000,16,0 days 00:01:54.340000,19,"",0 days 01:03:27.485000,0 days 00:00:25.861000,0 days 00:00:50.945000,0 days 00:00:37.534000,127.0,129.0,"",236.0,soft,3.0
0 days 01:05:37.428000,16,0 days 00:01:50.664000,20,0 days 01:03:47.454000,"",0 days 00:00:33.995000,0 days 00:00:53.258000,0 days 00:00:23.411000,125.0,141.0,265.0,224.0,soft,4.0
0 days 01:06:50.130000,16,0 days 00:01:12.702000,21,"","",0 days 00:00:19.180000,0 days 00:00:34.234000,0 days 00:00:19.288000,218.0,203.0,265.0,278.0,soft,5.0
0 days 01:09:03.006000,16,0 days 00:02:12.876000,22,"",0 days 01:08:25.662000,0 days 00:00:29.623000,0 days 00:00:48.024000,0 days 00:00:55.229000,143.0,145.0,"",195.0,soft,6.0
0 days 01:10:51.382000,16,0 days 00:01:48.376000,23,0 days 01:09:03.667000,"",0 days 00:00:32.950000,0 days 00:00:49.944000,0 days 00:00:25.482000,99.0,130.0,263.0,202.0,soft,7.0
0 days 01:12:03.899000,16,0 days 00:01:12.517000,24,"","",0 days 00:00:19.251000,0 days 00:00:34.091000,0 days 00:00:19.175000,217.0,202.0,265.0,276.0,soft,8.0
0 days 01:13:44.590000,16,0 days 00:01:40.691000,25,"","",0 days 00:00:28.628000,0 days 00:00:46.913000,0 days 00:00:25.150000,119.0,124.0,264.0,212.0,soft,9.0
0 days 01:14:57.804000,16,0 days 00:01:13.214000,26,"","",0 days 00:00:19.290000,0 days 00:00:34.384000,0 days 00:00:19.540000,216.0,201.0,227.0,277.0,soft,10.0
0 days 01:16:32.884000,16,0 days 00:01:35.080000,27,"","",0 days 00:00:23.916000,0 days 00:00:44.191000,0 days 00:00:26.973000,150.0,141.0,167.0,201.0,soft,11.0
0 days 01:19:04.297000,16,"",28,"","",0 days 00:00:30.169000,0 days 00:00:50.375000,0 days 00:01:10.768000,127.0,69.0,4.0,190.0,soft,12.0
0 days 01:20:21.480000,16,"",29,"",0 days 01:20:21.480000,0 days 00:00:22.644000,0 days 00:00:36.733000,"",189.0,187.0,"",270.0,soft,13.0
0 days 00:19:27.866000,14,0 days 00:01:33.867000,1,0 days 00:17:54.650000,"",0 days 00:00:27.577000,0 days 00:00:42.804000,0 days 00:00:23.486000,154.0,167.0,263.0,255.0,soft,1.0
0 days 00:20:43.675000,14,0 days 00:01:15.809000,2,"","",0 days 00:00:20.164000,0 days 00:00:35.593000,0 days 00:00:20.052000,207.0,193.0,263.0,271.0,soft,2.0
0 days 00:22:15.200000,14,0 days 00:01:31.525000,3,"","",0 days 00:00:25.014000,0 days 00:00:43.295000,0 days 00:00:23.216000,158.0,165.0,264.0,251.0,soft,3.0
0 days 00:23:29.957000,14,0 days 00:01:14.757000,4,"","",0 days 00:00:19.800000,0 days 00:00:35.119000,0 days 00:00:19.838000,210.0,194.0,264.0,273.0,soft,4.0
0 days 00:25:04.946000,14,0 days 00:01:34.989000,5,"","",0 days 00:00:25.269000,0 days 00:00:42.055000,0 days 00:00:27.665000,149.0,164.0,259.0,239.0,soft,5.0
0 days 00:26:19.874000,14,0 days 00:01:14.928000,6,"","",0 days 00:00:20.058000,0 days 00:00:35.163000,0 days 00:00:19.707000,204.0,193.0,261.0,269.0,soft,6.0
0 days 00:41:16.179000,14,"",7,"",0 days 00:27:47.027000,0 days 00:00:24.060000,0 days 00:00:44.871000,"",138.0,161.0,"",201.0,soft,7.0
0 days 00:42:55.411000,14,0 days 00:01:39.232000,8,0 days 00:41:16.866000,"",0 days 00:00:27.163000,0 days 00:00:43.710000,0 days 00:00:28.359000,153.0,173.0,259.0,238.0,soft,8.0
0 days 00:44:10.140000,14,0 days 00:01:14.729000,9,"","",0 days 00:00:20.008000,0 days 00:00:34.999000,0 days 00:00:19.722000,205.0,195.0,262.0,272.0,soft,9.0
0 days 00:45:53.313000,14,0 days 00:01:43.173000,10,"","",0 days 00:00:25.591000,0 days 00:00:49.485000,0 days 00:00:28.097000,146.0,145.0,260.0,161.0,soft,10.0
0 days 00:47:08.767000,14,0 days 00:01:15.454000,11,"","",0 days 00:00:20.199000,0 days 00:00:35.365000,0 days 00:00:19.890000,204.0,193.0,259.0,272.0,soft,11.0
0 days 00:48:51.060000,14,0 days 00:01:42.293000,12,"",0 days 00:48:26.298000,0 days 00:00:22.033000,0 days 00:00:38.149000,0 days 00:00:42.111000,180.0,163.0,"",240.0,soft,12.0
0 days 01:02:49.414000,14,"",13,0 days 00:48:51.690000,0 days 00:50:13.060000,0 days 00:00:24.998000,0 days 00:00:40.293000,"",166.0,167.0,"",224.0,soft,13.0
0 days 01:04:25.289000,14,0 days 00:01:35.875000,14,0 days 01:02:50.112000,"",0 days 00:00:25.888000,0 days 00:00:45.034000,0 days 00:00:24.953000,164.0,173.0,266.0,256.0,soft,1.0
0 days 01:05:38.874000,14,0 days 00:01:13.585000,15,"","",0 days 00:00:19.448000,0 days 00:00:34.631000,0 days 00:00:19.506000,212.0,197.0,267.0,278.0,soft,2.0
0 days 01:07:22.061000,14,0 days 00:01:43.187000,16,"","",0 days 00:00:25.530000,0 days 00:00:48.834000,0 days 00:00:28.823000,141.0,126.0,264.0,196.0,soft,3.0
0 days 01:08:36.422000,14,0 days 00:01:14.361000,17,"","",0 days 00:00:19.709000,0 days 00:00:34.957000,0 days 00:00:19.695000,212.0,196.0,266.0,276.0,soft,4.0
0 days 01:10:13.750000,14,0 days 00:01:37.328000,18,"","",0 days 00:00:25.620000,0 days 00:00:45.020000,0 days 00:00:26.688000,145.0,154.0,265.0,213.0,soft,5.0
0 days 01:11:27.561000,14,0 days 00:01:13.811000,19,"","",0 days 00:00:19.653000,0 days 00:00:34.661000,0 days 00:00:19.497000,212.0,196.0,265.0,274.0,soft,6.0
0 days 01:13:22.522000,14,0 days 00:01:54.961000,20,"",0 days 01:12:57.940000,0 days 00:00:23.740000,0 days 00:00:45.886000,0 days 00:00:45.335000,143.0,123.0,"",158.0,soft,7.0
0 days 01:15:09.321000,14,0 days 00:01:46.799000,21,0 days 01:13:23.209000,"",0 days 00:00:26.793000,0 days 00:00:51.019000,0 days 00:00:28.987000,108.0,147.0,241.0,150.0,soft,14.0
0 days 01:17:24.170000,14,0 days 00:02:14.849000,22,"","",0 days 00:00:24.501000,0 days 00:00:44.443000,0 days 00:01:05.905000,148.0,162.0,4.0,194.0,soft,15.0
0 days 01:18:45.570000,14,"",23,"",0 days 01:18:45.570000,0 days 00:00:24.358000,0 days 00:00:39.993000,"",157.0,167.0,"",222.0,soft,16.0
0 days 00:27:23.575000,11,0 days 00:01:23.857000,1,0 days 00:26:00.301000,"",0 days 00:00:24.513000,0 days 00:00:37.757000,0 days 00:00:21.587000,174.0,180.0,262.0,264.0,soft,1.0
0 days 00:28:38.047000,11,0 days 00:01:14.472000,2,"","",0 days 00:00:19.768000,0 days 00:00:35.030000,0 days 00:00:19.674000,208.0,195.0,263.0,276.0,soft,2.0
0 days 00:30:25.451000,11,0 days 00:01:47.404000,3,"","",0 days 00:00:29.698000,0 days 00:00:50.442000,0 days 00:00:27.264000,68.0,140.0,264.0,232.0,soft,3.0
0 days 00:31:39.654000,11,0 days 00:01:14.203000,4,"","",0 days 00:00:19.846000,0 days 00:00:34.730000,0 days 00:00:19.627000,207.0,196.0,264.0,279.0,soft,4.0
0 days 00:33:38.104000,11,0 days 00:01:58.450000,5,"","",0 days 00:00:34.255000,0 days 00:00:49.554000,0 days 00:00:34.641000,62.0,101.0,264.0,189.0,soft,5.0
0 days 00:34:51.979000,11,0 days 00:01:13.875000,6,"","",0 days 00:00:19.543000,0 days 00:00:34.705000,0 days 00:00:19.627000,209.0,196.0,265.0,279.0,soft,6.0
0 days 00:36:46.539000,11,0 days 00:01:54.560000,7,"","",0 days 00:00:30.298000,0 days 00:00:55.024000,0 days 00:00:29.238000,110.0,98.0,266.0,172.0,soft,7.0
0 days 00:37:59.836000,11,0 days 00:01:13.297000,8,"","",0 days 00:00:19.429000,0 days 00:00:34.547000,0 days 00:00:19.321000,214.0,200.0,265.0,279.0,soft,8.0
0 days 00:39:55.222000,11,0 days 00:01:55.386000,9,"","",0 days 00:00:29.577000,0 days 00:00:52.074000,0 days 00:00:33.735000,115.0,106.0,140.0,177.0,soft,9.0
0 days 00:41:56.409000,11,0 days 00:02:01.187000,10,"","",0 days 00:00:34.791000,0 days 00:00:53.655000,0 days 00:00:32.741000,71.0,86.0,267.0,212.0,soft,10.0
0 days 00:43:09.710000,11,0 days 00:01:13.301000,11,"","",0 days 00:00:19.490000,0 days 00:00:34.451000,0 days 00:00:19.360000,209.0,199.0,269.0,280.0,soft,11.0
0 days 00:45:05.695000,11,0 days 00:01:55.985000,12,"","",0 days 00:00:32.418000,0 days 00:00:56.755000,0 days 00:00:26.812000,82.0,119.0,263.0,172.0,soft,12.0
0 days 00:47:06.735000,11,0 days 00:02:01.040000,13,"",0 days 00:46:29.425000,0 days 00:00:19.580000,0 days 00:00:43.812000,0 days 00:00:57.648000,212.0,105.0,"",249.0,soft,13.0
0 days 00:48:41.617000,11,0 days 00:01:34.882000,14,0 days 00:47:07.357000,"",0 days 00:00:27.108000,0 days 00:00:41.866000,0 days 00:00:25.908000,142.0,142.0,264.0,269.0,soft,14.0
0 days 00:49:54.820000,11,0 days 00:01:13.203000,15,"","",0 days 00:00:19.488000,0 days 00:00:34.340000,0 days 00:00:19.375000,213.0,200.0,264.0,275.0,soft,15.0
0 days 01:02:10.113000,11,"",16,"",0 days 00:51:15.100000,0 days 00:00:25.677000,0 days 00:00:37.864000,"",164.0,164.0,"",253.0,soft,16.0
0 days 01:03:36.386000,11,0 days 00:01:26.273000,17,0 days 01:02:10.705000,"",0 days 00:00:23.193000,0 days 00:00:37.881000,0 days 00:00:25.199000,187.0,180.0,267.0,268.0,soft,1.0
0 days 01:04:49.163000,11,0 days 00:01:12.777000,18,"","",0 days 00:00:19.265000,0 days 00:00:34.311000,0 days 00:00:19.201000,212.0,199.0,268.0,279.0,soft,2.0
0 days 01:06:42.634000,11,0 days 00:01:53.471000,19,"","",0 days 00:00:30.161000,0 days 00:00:55.704000,0 days 00:00:27.606000,121.0,120.0,267.0,189.0,soft,3.0
0 days 01:08:18.733000,11,0 days 00:01:36.099000,20,"","",0 days 00:00:19.137000,0 days 00:00:46.189000,0 days 00:00:30.773000,211.0,138.0,266.0,186.0,soft,4.0
0 days 01:09:31.287000,11,0 days 00:01:12.554000,21,"","",0 days 00:00:19.306000,0 days 00:00:34.134000,0 days 00:00:19.114000,213.0,201.0,267.0,278.0,soft,5.0
0 days 01:11:25.736000,11,0 days 00:01:54.449000,22,"","",0 days 00:00:30.229000,0 days 00:00:53.718000,0 days 00:00:30.502000,129.0,133.0,158.0,184.0,soft,6.0
0 days 01:13:12.903000,11,0 days 00:01:47.167000,23,"","",0 days 00:00:33.453000,0 days 00:00:48.959000,0 days 00:00:24.755000,119.0,140.0,266.0,193.0,soft,7.0
0 days 01:14:25.379000,11,0 days 00:01:12.476000,24,"","",0 days 00:00:19.210000,0 days 00:00:34.131000,0 days 00:00:19.135000,214.0,199.0,269.0,278.0,soft,8.0
0 days 01:16:20.373000,11,0 days 00:01:54.994000,25,"","",0 days 00:00:28.656000,0 days 00:00:55.384000,0 days 00:00:30.954000,109.0,104.0,253.0,148.0,soft,9.0
0 days 01:18:29.354000,11,0 days 00:02:08.981000,26,"","",0 days 00:00:27.198000,0 days 00:00:45.921000,0 days 00:00:55.862000,131.0,129.0,10.0,213.0,soft,10.0
0 days 01:19:48.804000,11,"",27,"",0 days 01:19:48.804000,0 days 00:00:23.552000,0 days 00:00:40.593000,"",170.0,120.0,"",251.0,soft,11.0
0 days 00:27:39.424000,10,0 days 00:01:32.994000,1,0 days 00:26:06.986000,"",0 days 00:00:27.375000,0 days 00:00:41.500000,0 days 00:00:24.119000,177.0,167.0,264.0,258.0,soft,1.0
0 days 00:28:55.589000,10,0 days 00:01:16.165000,2,"","",0 days 00:00:20.296000,0 days 00:00:35.613000,0 days 00:00:20.256000,206.0,194.0,264.0,277.0,soft,2.0
0 days 00:30:32.376000,10,0 days 00:01:36.787000,3,"","",0 days 00:00:19.867000,0 days 00:00:50.046000,0 days 00:00:26.874000,211.0,123.0,264.0,210.0,soft,3.0
0 days 00:31:47.574000,10,0 days 00:01:15.198000,4,"","",0 days 00:00:19.847000,0 days 00:00:35.335000,0 days 00:00:20.016000,214.0,197.0,266.0,278.0,soft,4.0
0 days 00:33:29.439000,10,0 days 00:01:41.865000,5,"","",0 days 00:00:31.764000,0 days 00:00:44.256000,0 days 00:00:25.845000,164.0,113.0,265.0,247.0,soft,5.0
0 days 00:34:43.813000,10,0 days 00:01:14.374000,6,"","",0 days 00:00:19.732000,0 days 00:00:34.965000,0 days 00:00:19.677000,215.0,197.0,265.0,279.0,soft,6.0
0 days 00:36:26.602000,10,0 days 00:01:42.789000,7,"","",0 days 00:00:28.847000,0 days 00:00:48.530000,0 days 00:00:25.412000,92.0,125.0,269.0,233.0,soft,7.0
0 days 00:37:40.519000,10,0 days 00:01:13.917000,8,"","",0 days 00:00:19.566000,0 days 00:00:34.706000,0 days 00:00:19.645000,213.0,197.0,268.0,281.0,soft,8.0
0 days 00:39:26.022000,10,0 days 00:01:45.503000,9,"","",0 days 00:00:31.487000,0 days 00:00:48.819000,0 days 00:00:25.197000,161.0,131.0,265.0,241.0,soft,9.0
0 days 00:40:40.290000,10,0 days 00:01:14.268000,10,"","",0 days 00:00:19.759000,0 days 00:00:34.814000,0 days 00:00:19.695000,211.0,197.0,258.0,279.0,soft,10.0
0 days 00:53:22.978000,10,"",11,"",0 days 00:42:00.953000,0 days 00:00:26.566000,0 days 00:00:38.651000,"",179.0,170.0,"",256.0,soft,11.0
0 days 00:54:49.804000,10,0 days 00:01:26.826000,12,0 days 00:53:23.530000,"",0 days 00:00:26.024000,0 days 00:00:38.987000,0 days 00:00:21.815000,181.0,169.0,265.0,266.0,soft,1.0
0 days 00:56:03.014000,10,0 days 00:01:13.210000,13,"","",0 days 00:00:19.471000,0 days 00:00:34.390000,0 days 00:00:19.349000,213.0,199.0,265.0,278.0,soft,2.0
0 days 00:57:47.130000,10,0 days 00:01:44.116000,14,"","",0 days 00:00:32.574000,0 days 00:00:45.635000,0 days 00:00:25.907000,166.0,129.0,270.0,243.0,soft,3.0
0 days 00:59:00.479000,10,0 days 00:01:13.349000,15,"","",0 days 00:00:19.423000,0 days 00:00:34.492000,0 days 00:00:19.434000,216.0,200.0,270.0,281.0,soft,4.0
0 days 01:00:52.463000,10,0 days 00:01:51.984000,16,"",0 days 01:00:33.262000,0 days 00:00:28.939000,0 days 00:00:44.347000,0 days 00:00:38.698000,170.0,140.0,"",241.0,soft,5.0
0 days 01:02:23.946000,10,0 days 00:01:31.483000,17,0 days 01:00:53.010000,"",0 days 00:00:26.103000,0 days 00:00:41.102000,0 days 00:00:24.278000,180.0,158.0,265.0,263.0,soft,6.0
0 days 01:03:37.967000,10,0 days 00:01:14.021000,18,"","",0 days 00:00:19.483000,0 days 00:00:34.847000,0 days 00:00:19.691000,213.0,197.0,266.0,280.0,soft,7.0
0 days 01:13:47.391000,10,"",19,"",0 days 01:05:02.411000,0 days 00:00:23.359000,0 days 00:00:43.440000,"",162.0,156.0,"",251.0,soft,8.0
0 days 01:15:30.626000,10,0 days 00:01:43.235000,20,0 days 01:13:47.953000,"",0 days 00:00:35.677000,0 days 00:00:42.715000,0 days 00:00:24.843000,144.0,140.0,236.0,261.0,soft,9.0
0 days 01:17:45.640000,10,0 days 00:02:15.014000,21,"","",0 days 00:00:25.642000,0 days 00:00:48.509000,0 days 00:01:00.863000,113.0,115.0,129.0,238.0,soft,10.0
0 days 01:19:07.604000,10,"",22,"",0 days 01:19:07.604000,0 days 00:00:24.041000,0 days 00:00:41.673000,"",172.0,147.0,"",266.0,soft,11.0
0 days 00:16:37.900000,6,0 days 00:01:37.149000,1,0 days 00:15:01.586000,"",0 days 00:00:31.589000,0 days 00:00:42.019000,0 days 00:00:23.541000,144.0,172.0,259.0,260.0,medium,1.0
0 days 00:17:57.275000,6,0 days 00:01:19.375000,2,"","",0 days 00:00:21.274000,0 days 00:00:37.286000,0 days 00:00:20.815000,195.0,185.0,262.0,273.0,medium,2.0
0 days 00:19:32.783000,6,0 days 00:01:35.508000,3,"","",0 days 00:00:26.267000,0 days 00:00:44.566000,0 days 00:00:24.675000,152.0,153.0,263.0,262.0,medium,3.0
0 days 00:20:50.106000,6,0 days 00:01:17.323000,4,"","",0 days 00:00:20.541000,0 days 00:00:36.411000,0 days 00:00:20.371000,200.0,189.0,263.0,276.0,medium,4.0
0 days 00:22:32.410000,6,0 days 00:01:42.304000,5,"","",0 days 00:00:28.479000,0 days 00:00:50.188000,0 days 00:00:23.637000,158.0,173.0,263.0,253.0,medium,5.0
0 days 00:23:49.022000,6,0 days 00:01:16.612000,6,"","",0 days 00:00:20.336000,0 days 00:00:35.986000,0 days 00:00:20.290000,208.0,190.0,264.0,276.0,medium,6.0
0 days 00:36:11.243000,6,"",7,"",0 days 00:25:13.598000,0 days 00:00:24.167000,0 days 00:00:42.399000,"",158.0,157.0,"",254.0,medium,7.0
0 days 00:37:45.465000,6,0 days 00:01:34.222000,8,0 days 00:36:11.906000,"",0 days 00:00:27.818000,0 days 00:00:41.990000,0 days 00:00:24.414000,154.0,84.0,263.0,269.0,soft,1.0
0 days 00:39:01.276000,6,0 days 00:01:15.811000,9,"","",0 days 00:00:20.139000,0 days 00:00:35.577000,0 days 00:00:20.095000,205.0,193.0,266.0,279.0,soft,2.0
0 days 00:40:46.556000,6,0 days 00:01:45.280000,10,"","",0 days 00:00:29.203000,0 days 00:00:45.940000,0 days 00:00:30.137000,155.0,170.0,236.0,256.0,soft,3.0
0 days 00:42:30.367000,6,0 days 00:01:43.811000,11,"","",0 days 00:00:28.094000,0 days 00:00:46.434000,0 days 00:00:29.283000,144.0,150.0,264.0,173.0,soft,4.0
0 days 00:43:59.623000,6,0 days 00:01:29.256000,12,"","",0 days 00:00:20.151000,0 days 00:00:36.615000,0 days 00:00:32.490000,203.0,164.0,234.0,281.0,soft,5.0
0 days 00:45:37.067000,6,0 days 00:01:37.444000,13,"","",0 days 00:00:27.795000,0 days 00:00:44.681000,0 days 00:00:24.968000,158.0,149.0,263.0,257.0,soft,6.0
0 days 00:46:53.157000,6,0 days 00:01:16.090000,14,"","",0 days 00:00:20.201000,0 days 00:00:35.725000,0 days 00:00:20.164000,204.0,194.0,265.0,280.0,soft,7.0
0 days 00:52:25.926000,6,"",15,"",0 days 00:48:15.388000,0 days 00:00:24.516000,0 days 00:00:41.498000,"",129.0,162.0,"",256.0,soft,8.0
0 days 00:53:55.802000,6,0 days 00:01:29.876000,16,0 days 00:52:26.574000,"",0 days 00:00:26.669000,0 days 00:00:40.958000,0 days 00:00:22.249000,162.0,177.0,266.0,267.0,soft,1.0
0 days 00:55:10.712000,6,0 days 00:01:14.910000,17,"","",0 days 00:00:19.748000,0 days 00:00:35.289000,0 days 00:00:19.873000,210.0,197.0,269.0,283.0,soft,2.0
0 days 00:56:59.972000,6,0 days 00:01:49.260000,18,"","",0 days 00:00:27.781000,0 days 00:00:42.861000,0 days 00:00:38.618000,164.0,156.0,268.0,259.0,soft,3.0
0 days 00:58:15.583000,6,0 days 00:01:15.611000,19,"","",0 days 00:00:20.083000,0 days 00:00:35.609000,0 days 00:00:19.919000,205.0,194.0,270.0,278.0,soft,4.0
0 days 00:59:58.379000,6,0 days 00:01:42.796000,20,"","",0 days 00:00:30.866000,0 days 00:00:46.732000,0 days 00:00:25.198000,156.0,137.0,237.0,254.0,soft,5.0
0 days 01:01:39.579000,6,0 days 00:01:41.200000,21,"","",0 days 00:00:26.238000,0 days 00:00:50.252000,0 days 00:00:24.710000,93.0,82.0,265.0,253.0,soft,6.0
0 days 01:02:54.888000,6,0 days 00:01:15.309000,22,"","",0 days 00:00:19.875000,0 days 00:00:35.570000,0 days 00:00:19.864000,210.0,196.0,266.0,278.0,soft,7.0
0 days 01:13:31.753000,6,"",23,"",0 days 01:04:28.628000,0 days 00:00:28.216000,0 days 00:00:46.576000,"",150.0,150.0,"",251.0,soft,8.0
0 days 01:15:22.420000,6,0 days 00:01:50.667000,24,0 days 01:13:32.388000,"",0 days 00:00:27.876000,0 days 00:00:57.371000,0 days 00:00:25.420000,122.0,122.0,246.0,170.0,medium,8.0
0 days 01:17:30.508000,6,0 days 00:02:08.088000,25,"","",0 days 00:00:29.781000,0 days 00:00:46.196000,0 days 00:00:52.111000,115.0,142.0,9.0,240.0,medium,9.0
0 days 01:18:55.533000,6,"",26,"",0 days 01:18:55.533000,0 days 00:00:25.624000,0 days 00:00:41.808000,"",148.0,158.0,"",260.0,medium,10.0
0 days 00:16:59.303000,5,0 days 00:01:29.227000,1,0 days 00:15:30.663000,"",0 days 00:00:27.065000,0 days 00:00:40.161000,0 days 00:00:22.001000,148.0,173.0,258.0,257.0,medium,1.0
0 days 00:18:42.292000,5,0 days 00:01:42.989000,2,"",0 days 00:18:13.639000,0 days 00:00:21.648000,0 days 00:00:37.982000,0 days 00:00:43.359000,184.0,181.0,"",271.0,medium,2.0
0 days 00:31:54.499000,5,"",3,0 days 00:18:42.912000,0 days 00:20:01.443000,0 days 00:00:25.045000,0 days 00:00:39.056000,"",160.0,179.0,"",266.0,hard,1.0
0 days 00:33:30.831000,5,0 days 00:01:36.332000,4,0 days 00:31:55.228000,"",0 days 00:00:26.015000,0 days 00:00:43.403000,0 days 00:00:26.914000,152.0,134.0,250.0,241.0,medium,1.0
0 days 00:34:51.501000,5,0 days 00:01:20.670000,5,"","",0 days 00:00:22.029000,0 days 00:00:37.476000,0 days 00:00:21.165000,184.0,183.0,263.0,271.0,medium,2.0
0 days 00:36:07.655000,5,0 days 00:01:16.154000,6,"","",0 days 00:00:20.293000,0 days 00:00:35.651000,0 days 00:00:20.210000,201.0,191.0,263.0,275.0,medium,3.0
0 days 00:37:36.341000,5,0 days 00:01:28.686000,7,"","",0 days 00:00:23.196000,0 days 00:00:41.622000,0 days 00:00:23.868000,155.0,158.0,263.0,230.0,medium,4.0
0 days 00:38:51.885000,5,0 days 00:01:15.544000,8,"","",0 days 00:00:20.248000,0 days 00:00:35.415000,0 days 00:00:19.881000,203.0,194.0,264.0,278.0,medium,5.0
0 days 00:40:43.705000,5,0 days 00:01:51.820000,9,"","",0 days 00:00:36.422000,0 days 00:00:43.244000,0 days 00:00:32.154000,145.0,173.0,233.0,248.0,medium,6.0
0 days 00:42:16.590000,5,0 days 00:01:32.885000,10,"","",0 days 00:00:24.636000,0 days 00:00:38.597000,0 days 00:00:29.652000,169.0,181.0,264.0,264.0,medium,7.0
0 days 00:43:31.638000,5,0 days 00:01:15.048000,11,"","",0 days 00:00:20.152000,0 days 00:00:35.156000,0 days 00:00:19.740000,209.0,197.0,264.0,277.0,medium,8.0
0 days 00:44:47.191000,5,0 days 00:01:15.553000,12,"","",0 days 00:00:20.049000,0 days 00:00:35.459000,0 days 00:00:20.045000,194.0,195.0,258.0,277.0,medium,9.0
0 days 00:46:02.876000,5,0 days 00:01:15.685000,13,"","",0 days 00:00:20.193000,0 days 00:00:35.376000,0 days 00:00:20.116000,201.0,195.0,257.0,277.0,medium,10.0
0 days 00:47:18.476000,5,0 days 00:01:15.600000,14,"","",0 days 00:00:20.110000,0 days 00:00:35.385000,0 days 00:00:20.105000,207.0,194.0,259.0,276.0,medium,11.0
0 days 00:57:28.828000,5,"",15,"",0 days 00:48:40.734000,0 days 00:00:25.845000,0 days 00:00:40.359000,"",150.0,160.0,"",250.0,medium,12.0
0 days 00:58:57.782000,5,0 days 00:01:28.954000,16,0 days 00:57:29.549000,"",0 days 00:00:25.345000,0 days 00:00:41.659000,0 days 00:00:21.950000,163.0,177.0,265.0,259.0,soft,1.0
0 days 01:00:27.231000,5,0 days 00:01:29.449000,17,"","",0 days 00:00:22.501000,0 days 00:00:40.923000,0 days 00:00:26.025000,134.0,160.0,268.0,255.0,soft,2.0
0 days 01:01:41.069000,5,0 days 00:01:13.838000,18,"","",0 days 00:00:19.552000,0 days 00:00:34.688000,0 days 00:00:19.598000,207.0,199.0,270.0,283.0,soft,3.0
0 days 01:03:33.710000,5,0 days 00:01:52.641000,19,"",0 days 01:03:08.811000,0 days 00:00:28.367000,0 days 00:00:43.095000,0 days 00:00:41.179000,134.0,149.0,"",209.0,soft,4.0
0 days 01:05:09.443000,5,0 days 00:01:35.733000,20,0 days 01:03:34.408000,"",0 days 00:00:27.113000,0 days 00:00:42.951000,0 days 00:00:25.669000,148.0,159.0,266.0,259.0,soft,5.0
0 days 01:06:23.373000,5,0 days 00:01:13.930000,21,"","",0 days 00:00:19.653000,0 days 00:00:34.790000,0 days 00:00:19.487000,208.0,197.0,265.0,276.0,soft,6.0
0 days 01:08:20.056000,5,0 days 00:01:56.683000,22,"",0 days 01:07:47.395000,0 days 00:00:23.484000,0 days 00:00:44.514000,0 days 00:00:48.685000,146.0,159.0,"",216.0,soft,7.0
0 days 01:09:52.399000,5,0 days 00:01:32.343000,23,0 days 01:08:20.736000,"",0 days 00:00:28.380000,0 days 00:00:41.061000,0 days 00:00:22.902000,150.0,162.0,264.0,251.0,soft,8.0
0 days 01:11:06.489000,5,0 days 00:01:14.090000,24,"","",0 days 00:00:19.714000,0 days 00:00:34.852000,0 days 00:00:19.524000,212.0,198.0,265.0,278.0,soft,9.0
0 days 01:14:27.244000,5,"",25,"",0 days 01:12:28.013000,0 days 00:00:23.234000,0 days 00:00:42.693000,"",157.0,144.0,"",243.0,soft,10.0
0 days 01:15:57.156000,5,0 days 00:01:29.912000,26,0 days 01:14:27.872000,"",0 days 00:00:27.149000,0 days 00:00:40.353000,0 days 00:00:22.410000,137.0,166.0,243.0,258.0,soft,11.0
0 days 01:18:14.403000,5,0 days 00:02:17.247000,27,"","",0 days 00:00:22.949000,0 days 00:00:45.595000,0 days 00:01:08.703000,161.0,136.0,184.0,158.0,soft,12.0
0 days 01:19:44.606000,5,"",28,"",0 days 01:19:44.606000,0 days 00:00:26.835000,0 days 00:00:44.905000,"",140.0,157.0,"",194.0,soft,13.0
0 days 00:27:47.916000,4,0 days 00:01:37.527000,1,0 days 00:26:11.072000,"",0 days 00:00:29.553000,0 days 00:00:40.530000,0 days 00:00:27.444000,148.0,178.0,259.0,257.0,soft,1.0
0 days 00:29:02.846000,4,0 days 00:01:14.930000,2,"","",0 days 00:00:19.988000,0 days 00:00:35.337000,0 days 00:00:19.605000,207.0,196.0,264.0,273.0,soft,2.0
0 days 00:30:43.193000,4,0 days 00:01:40.347000,3,"","",0 days 00:00:25.512000,0 days 00:00:48.300000,0 days 00:00:26.535000,134.0,142.0,260.0,185.0,soft,3.0
0 days 00:31:57.453000,4,0 days 00:01:14.260000,4,"","",0 days 00:00:19.821000,0 days 00:00:34.983000,0 days 00:00:19.456000,213.0,197.0,263.0,275.0,soft,4.0
0 days 00:33:45.195000,4,0 days 00:01:47.742000,5,"","",0 days 00:00:26.231000,0 days 00:00:52.060000,0 days 00:00:29.451000,118.0,118.0,260.0,225.0,soft,5.0
0 days 00:34:59.410000,4,0 days 00:01:14.215000,6,"","",0 days 00:00:19.816000,0 days 00:00:34.825000,0 days 00:00:19.574000,211.0,198.0,263.0,275.0,soft,6.0
0 days 00:36:51.489000,4,0 days 00:01:52.079000,7,"","",0 days 00:00:24.052000,0 days 00:00:56.234000,0 days 00:00:31.793000,108.0,135.0,261.0,152.0,soft,7.0
0 days 00:38:05.574000,4,0 days 00:01:14.085000,8,"","",0 days 00:00:19.702000,0 days 00:00:34.857000,0 days 00:00:19.526000,209.0,198.0,263.0,275.0,soft,8.0
0 days 00:50:40.824000,4,"",9,"",0 days 00:39:37.986000,0 days 00:00:24.403000,0 days 00:00:51.739000,"",113.0,145.0,"",121.0,soft,9.0
0 days 00:52:13.776000,4,0 days 00:01:32.952000,10,0 days 00:50:41.471000,"",0 days 00:00:26.888000,0 days 00:00:42.527000,0 days 00:00:23.537000,141.0,180.0,266.0,257.0,soft,1.0
0 days 00:53:27.002000,4,0 days 00:01:13.226000,11,"","",0 days 00:00:19.402000,0 days 00:00:34.533000,0 days 00:00:19.291000,212.0,198.0,269.0,280.0,soft,2.0
0 days 00:55:13.926000,4,0 days 00:01:46.924000,12,"","",0 days 00:00:27.702000,0 days 00:00:51.655000,0 days 00:00:27.567000,120.0,136.0,262.0,202.0,soft,3.0
0 days 00:56:42.130000,4,0 days 00:01:28.204000,13,"","",0 days 00:00:19.627000,0 days 00:00:40.919000,0 days 00:00:27.658000,212.0,138.0,262.0,204.0,soft,4.0
0 days 00:57:55.814000,4,0 days 00:01:13.684000,14,"","",0 days 00:00:19.520000,0 days 00:00:34.769000,0 days 00:00:19.395000,214.0,198.0,265.0,276.0,soft,5.0
0 days 00:59:39.312000,4,0 days 00:01:43.498000,15,"","",0 days 00:00:28.613000,0 days 00:00:47.541000,0 days 00:00:27.344000,73.0,139.0,264.0,199.0,soft,6.0
0 days 01:14:13.713000,4,"",16,"",0 days 01:00:47.733000,0 days 00:00:19.579000,0 days 00:00:34.844000,"",212.0,197.0,"",275.0,soft,7.0
0 days 01:15:49.402000,4,0 days 00:01:35.689000,17,0 days 01:14:14.340000,"",0 days 00:00:29.341000,0 days 00:00:41.573000,0 days 00:00:24.775000,144.0,156.0,230.0,244.0,soft,8.0
0 days 01:18:01.638000,4,0 days 00:02:12.236000,18,"","",0 days 00:00:25.142000,0 days 00:00:46.897000,0 days 00:01:00.197000,136.0,126.0,150.0,184.0,soft,9.0
0 days 01:19:26.468000,4,"",19,"",0 days 01:19:26.468000,0 days 00:00:24.232000,0 days 00:00:41.727000,"",134.0,136.0,"",257.0,soft,10.0
0 days 00:21:01.853000,3,0 days 00:01:31.654000,1,0 days 00:19:30.856000,"",0 days 00:00:28.288000,0 days 00:00:41.176000,0 days 00:00:22.190000,170.0,175.0,259.0,254.0,soft,1.0
0 days 00:22:18.085000,3,0 days 00:01:16.232000,2,"","",0 days 00:00:20.270000,0 days 00:00:35.749000,0 days 00:00:20.213000,201.0,192.0,261.0,270.0,soft,2.0
0 days 00:24:03.481000,3,0 days 00:01:45.396000,3,"","",0 days 00:00:26.373000,0 days 00:00:50.017000,0 days 00:00:29.006000,148.0,152.0,261.0,224.0,soft,3.0
0 days 00:25:28.365000,3,0 days 00:01:24.884000,4,"","",0 days 00:00:20.285000,0 days 00:00:42.056000,0 days 00:00:22.543000,202.0,154.0,261.0,232.0,soft,4.0
0 days 00:26:44.015000,3,0 days 00:01:15.650000,5,"","",0 days 00:00:20.026000,0 days 00:00:35.659000,0 days 00:00:19.965000,208.0,194.0,262.0,273.0,soft,5.0
0 days 00:28:27.798000,3,0 days 00:01:43.783000,6,"","",0 days 00:00:24.813000,0 days 00:00:48.807000,0 days 00:00:30.163000,153.0,140.0,260.0,207.0,soft,6.0
0 days 00:29:51.663000,3,0 days 00:01:23.865000,7,"","",0 days 00:00:20.203000,0 days 00:00:36.806000,0 days 00:00:26.856000,205.0,140.0,262.0,275.0,soft,7.0
0 days 00:31:06.940000,3,0 days 00:01:15.277000,8,"","",0 days 00:00:20.104000,0 days 00:00:35.222000,0 days 00:00:19.951000,209.0,197.0,263.0,274.0,soft,8.0
0 days 00:32:43.734000,3,0 days 00:01:36.794000,9,"","",0 days 00:00:23.714000,0 days 00:00:46.559000,0 days 00:00:26.521000,158.0,138.0,266.0,200.0,soft,9.0
0 days 00:34:16.695000,3,0 days 00:01:32.961000,10,"","",0 days 00:00:21.507000,0 days 00:00:43.753000,0 days 00:00:27.701000,182.0,159.0,267.0,253.0,soft,10.0
0 days 00:35:31.384000,3,0 days 00:01:14.689000,11,"","",0 days 00:00:19.832000,0 days 00:00:35.082000,0 days 00:00:19.775000,208.0,199.0,268.0,281.0,soft,11.0
0 days 00:37:00.836000,3,0 days 00:01:29.452000,12,"","",0 days 00:00:22.578000,0 days 00:00:36.924000,0 days 00:00:29.950000,192.0,182.0,250.0,269.0,soft,12.0
0 days 00:38:19.819000,3,0 days 00:01:18.983000,13,"","",0 days 00:00:21.215000,0 days 00:00:36.829000,0 days 00:00:20.939000,196.0,184.0,255.0,276.0,soft,13.0
0 days 00:39:38.046000,3,0 days 00:01:18.227000,14,"","",0 days 00:00:20.766000,0 days 00:00:36.613000,0 days 00:00:20.848000,"",188.0,255.0,275.0,soft,14.0
0 days 00:40:55.997000,3,0 days 00:01:17.951000,15,"","",0 days 00:00:20.447000,0 days 00:00:36.384000,0 days 00:00:21.120000,198.0,185.0,256.0,276.0,soft,15.0
0 days 00:53:00.084000,3,"",16,"",0 days 00:42:26.514000,0 days 00:00:24.374000,0 days 00:00:42.695000,"",175.0,142.0,"",252.0,soft,16.0
0 days 00:54:29.585000,3,0 days 00:01:29.501000,17,0 days 00:53:00.765000,"",0 days 00:00:25.613000,0 days 00:00:42.364000,0 days 00:00:21.524000,180.0,169.0,266.0,257.0,soft,1.0
0 days 00:55:43.689000,3,0 days 00:01:14.104000,18,"","",0 days 00:00:19.650000,0 days 00:00:34.968000,0 days 00:00:19.486000,209.0,196.0,266.0,278.0,soft,2.0
0 days 00:57:17.874000,3,0 days 00:01:34.185000,19,"","",0 days 00:00:24.321000,0 days 00:00:45.648000,0 days 00:00:24.216000,180.0,158.0,263.0,253.0,soft,3.0
0 days 00:58:32.659000,3,0 days 00:01:14.785000,20,"","",0 days 00:00:19.798000,0 days 00:00:35.140000,0 days 00:00:19.847000,208.0,196.0,265.0,276.0,soft,4.0
0 days 01:00:15.624000,3,0 days 00:01:42.965000,21,"","",0 days 00:00:22.588000,0 days 00:00:51.499000,0 days 00:00:28.878000,160.0,137.0,264.0,211.0,soft,5.0
0 days 01:01:45.520000,3,0 days 00:01:29.896000,22,"","",0 days 00:00:19.870000,0 days 00:00:41.657000,0 days 00:00:28.369000,208.0,145.0,264.0,276.0,soft,6.0
0 days 01:03:03.235000,3,0 days 00:01:17.715000,23,"","",0 days 00:00:19.877000,0 days 00:00:35.188000,0 days 00:00:22.650000,211.0,195.0,233.0,276.0,soft,7.0
0 days 01:10:39.878000,3,"",24,"",0 days 01:04:21.133000,0 days 00:00:22.522000,0 days 00:00:39.172000,"",173.0,169.0,"",263.0,soft,8.0
0 days 01:12:30.983000,3,0 days 00:01:51.105000,25,0 days 01:10:40.541000,0 days 01:12:07.088000,0 days 00:00:25.159000,0 days 00:00:44.538000,0 days 00:00:41.408000,180.0,62.0,"",257.0,soft,9.0
0 days 01:13:56.548000,3,0 days 00:01:25.565000,26,0 days 01:12:31.590000,"",0 days 00:00:24.452000,0 days 00:00:37.545000,0 days 00:00:23.568000,188.0,182.0,249.0,269.0,soft,17.0
0 days 01:15:16.128000,3,0 days 00:01:19.580000,27,"","",0 days 00:00:21.497000,0 days 00:00:36.856000,0 days 00:00:21.227000,196.0,186.0,250.0,272.0,soft,18.0
0 days 01:17:25.473000,3,0 days 00:02:09.345000,28,"","",0 days 00:00:23.020000,0 days 00:00:42.010000,0 days 00:01:04.315000,156.0,146.0,13.0,225.0,soft,19.0
0 days 01:18:51.524000,3,"",29,"",0 days 01:18:51.524000,0 days 00:00:25.752000,0 days 00:00:43.938000,"",155.0,145.0,"",237.0,soft,20.0
0 days 00:29:33.118000,63,0 days 00:01:34.458000,1,0 days 00:27:59.206000,"",0 days 00:00:27.325000,0 days 00:00:43.098000,0 days 00:00:24.035000,175.0,170.0,261.0,246.0,soft,1.0
0 days 00:30:49.155000,63,0 days 00:01:16.037000,2,"","",0 days 00:00:20.323000,0 days 00:00:35.461000,0 days 00:00:20.253000,207.0,196.0,264.0,273.0,soft,2.0
0 days 00:32:32.139000,63,0 days 00:01:42.984000,3,"","",0 days 00:00:29.033000,0 days 00:00:48.408000,0 days 00:00:25.543000,92.0,127.0,261.0,164.0,soft,3.0
0 days 00:33:47.152000,63,0 days 00:01:15.013000,4,"","",0 days 00:00:20.147000,0 days 00:00:35.054000,0 days 00:00:19.812000,208.0,196.0,265.0,273.0,soft,4.0
0 days 00:37:09.890000,63,"",5,"",0 days 00:35:16.642000,0 days 00:00:27.035000,0 days 00:00:46.050000,"",98.0,148.0,"",204.0,soft,5.0
0 days 00:38:48.939000,63,0 days 00:01:39.049000,6,0 days 00:37:10.595000,"",0 days 00:00:28.861000,0 days 00:00:44.654000,0 days 00:00:25.534000,136.0,138.0,261.0,232.0,soft,6.0
0 days 00:40:03.610000,63,0 days 00:01:14.671000,7,"","",0 days 00:00:19.955000,0 days 00:00:34.978000,0 days 00:00:19.738000,211.0,198.0,263.0,272.0,soft,7.0
0 days 00:41:49.561000,63,0 days 00:01:45.951000,8,"","",0 days 00:00:27.790000,0 days 00:00:48.837000,0 days 00:00:29.324000,119.0,127.0,262.0,230.0,soft,8.0
0 days 00:43:03.741000,63,0 days 00:01:14.180000,9,"","",0 days 00:00:19.805000,0 days 00:00:34.697000,0 days 00:00:19.678000,213.0,199.0,264.0,273.0,soft,9.0
0 days 00:55:03.262000,63,"",10,"",0 days 00:44:29.844000,0 days 00:00:26.163000,0 days 00:00:45.112000,"",88.0,167.0,"",223.0,soft,10.0
0 days 00:56:46.961000,63,0 days 00:01:43.699000,11,0 days 00:55:03.904000,"",0 days 00:00:26.999000,0 days 00:00:46.354000,0 days 00:00:30.346000,167.0,111.0,262.0,202.0,soft,1.0
0 days 00:58:01.148000,63,0 days 00:01:14.187000,12,"","",0 days 00:00:19.829000,0 days 00:00:34.803000,0 days 00:00:19.555000,212.0,197.0,266.0,274.0,soft,2.0
0 days 00:59:44.075000,63,0 days 00:01:42.927000,13,"","",0 days 00:00:25.554000,0 days 00:00:47.078000,0 days 00:00:30.295000,142.0,135.0,265.0,194.0,soft,3.0
0 days 01:00:57.551000,63,0 days 00:01:13.476000,14,"","",0 days 00:00:19.631000,0 days 00:00:34.495000,0 days 00:00:19.350000,215.0,203.0,269.0,281.0,soft,4.0
0 days 01:02:36.148000,63,0 days 00:01:38.597000,15,"","",0 days 00:00:26.306000,0 days 00:00:46.693000,0 days 00:00:25.598000,136.0,121.0,263.0,223.0,soft,5.0
0 days 01:03:49.931000,63,0 days 00:01:13.783000,16,"","",0 days 00:00:19.549000,0 days 00:00:34.692000,0 days 00:00:19.542000,210.0,201.0,265.0,274.0,soft,6.0
0 days 01:05:27.783000,63,0 days 00:01:37.852000,17,"","",0 days 00:00:25.280000,0 days 00:00:45.244000,0 days 00:00:27.328000,148.0,143.0,263.0,194.0,soft,7.0
0 days 01:06:43.932000,63,0 days 00:01:16.149000,18,"","",0 days 00:00:19.580000,0 days 00:00:34.567000,0 days 00:00:22.002000,213.0,201.0,215.0,273.0,soft,8.0
0 days 01:08:25.698000,63,0 days 00:01:41.766000,19,"","",0 days 00:00:29.143000,0 days 00:00:47.505000,0 days 00:00:25.118000,62.0,139.0,263.0,199.0,soft,9.0
0 days 01:09:39.431000,63,0 days 00:01:13.733000,20,"","",0 days 00:00:19.536000,0 days 00:00:34.580000,0 days 00:00:19.617000,212.0,201.0,258.0,273.0,soft,10.0
0 days 01:11:16.517000,63,0 days 00:01:37.086000,21,"","",0 days 00:00:26.732000,0 days 00:00:45.707000,0 days 00:00:24.647000,141.0,134.0,264.0,163.0,soft,11.0
0 days 01:12:40.096000,63,0 days 00:01:23.579000,22,"","",0 days 00:00:19.615000,0 days 00:00:36.871000,0 days 00:00:27.093000,213.0,133.0,205.0,274.0,soft,12.0
0 days 01:14:18.444000,63,0 days 00:01:38.348000,23,"","",0 days 00:00:27.325000,0 days 00:00:46.133000,0 days 00:00:24.890000,92.0,130.0,263.0,178.0,soft,13.0
0 days 01:15:38.804000,63,0 days 00:01:20.360000,24,"","",0 days 00:00:19.670000,0 days 00:00:35.500000,0 days 00:00:25.190000,214.0,162.0,188.0,277.0,soft,14.0
0 days 01:17:53.482000,63,0 days 00:02:14.678000,25,"","",0 days 00:00:26.420000,0 days 00:00:44.506000,0 days 00:01:03.752000,143.0,129.0,115.0,170.0,soft,15.0
0 days 01:19:18.001000,63,"",26,"",0 days 01:19:18.001000,0 days 00:00:25.277000,0 days 00:00:43.460000,"",144.0,147.0,"",180.0,soft,16.0
0 days 00:22:43.902000,77,0 days 00:01:34.511000,1,0 days 00:21:10.038000,"",0 days 00:00:30.552000,0 days 00:00:41.972000,0 days 00:00:21.987000,153.0,175.0,262.0,253.0,soft,1.0
0 days 00:23:59.823000,77,0 days 00:01:15.921000,2,"","",0 days 00:00:20.016000,0 days 00:00:35.404000,0 days 00:00:20.501000,210.0,194.0,264.0,274.0,soft,2.0
0 days 00:25:36.087000,77,0 days 00:01:36.264000,3,"","",0 days 00:00:28.016000,0 days 00:00:43.322000,0 days 00:00:24.926000,150.0,145.0,263.0,249.0,soft,3.0
0 days 00:26:51.297000,77,0 days 00:01:15.210000,4,"","",0 days 00:00:20.024000,0 days 00:00:35.374000,0 days 00:00:19.812000,212.0,195.0,265.0,275.0,soft,4.0
0 days 00:28:32.599000,77,0 days 00:01:41.302000,5,"","",0 days 00:00:24.732000,0 days 00:00:46.189000,0 days 00:00:30.381000,129.0,140.0,267.0,241.0,soft,5.0
0 days 00:29:47.410000,77,0 days 00:01:14.811000,6,"","",0 days 00:00:19.838000,0 days 00:00:35.176000,0 days 00:00:19.797000,213.0,195.0,267.0,279.0,soft,6.0
0 days 00:39:22.643000,77,"",7,"",0 days 00:31:12.393000,0 days 00:00:23.338000,0 days 00:00:44.161000,"",100.0,159.0,"",246.0,soft,7.0
0 days 00:41:01.703000,77,0 days 00:01:39.060000,8,0 days 00:39:23.319000,"",0 days 00:00:27.689000,0 days 00:00:46.100000,0 days 00:00:25.271000,157.0,168.0,254.0,190.0,soft,8.0
0 days 00:42:39.602000,77,0 days 00:01:37.899000,9,"","",0 days 00:00:21.796000,0 days 00:00:42.213000,0 days 00:00:33.890000,153.0,155.0,263.0,248.0,soft,9.0
0 days 00:43:53.951000,77,0 days 00:01:14.349000,10,"","",0 days 00:00:19.635000,0 days 00:00:35.072000,0 days 00:00:19.642000,214.0,196.0,267.0,277.0,soft,10.0
0 days 00:45:25.873000,77,0 days 00:01:31.922000,11,"","",0 days 00:00:22.726000,0 days 00:00:44.356000,0 days 00:00:24.840000,164.0,134.0,262.0,228.0,soft,11.0
0 days 00:46:40.443000,77,0 days 00:01:14.570000,12,"","",0 days 00:00:19.945000,0 days 00:00:34.927000,0 days 00:00:19.698000,214.0,197.0,264.0,274.0,soft,12.0
0 days 00:54:41.250000,77,"",13,"",0 days 00:48:02.777000,0 days 00:00:23.850000,0 days 00:00:42.845000,"",156.0,173.0,"",244.0,soft,13.0
0 days 00:56:24.536000,77,0 days 00:01:43.286000,14,0 days 00:54:41.930000,"",0 days 00:00:39.305000,0 days 00:00:41.181000,0 days 00:00:22.800000,138.0,174.0,252.0,259.0,soft,1.0
0 days 00:57:52.304000,77,0 days 00:01:27.768000,15,"","",0 days 00:00:21.907000,0 days 00:00:42.985000,0 days 00:00:22.876000,165.0,155.0,265.0,253.0,soft,2.0
0 days 00:59:06.153000,77,0 days 00:01:13.849000,16,"","",0 days 00:00:19.508000,0 days 00:00:34.829000,0 days 00:00:19.512000,216.0,197.0,266.0,276.0,soft,3.0
0 days 01:00:46.112000,77,0 days 00:01:39.959000,17,"","",0 days 00:00:25.547000,0 days 00:00:45.767000,0 days 00:00:28.645000,145.0,148.0,264.0,227.0,soft,4.0
0 days 01:02:00.167000,77,0 days 00:01:14.055000,18,"","",0 days 00:00:19.759000,0 days 00:00:34.827000,0 days 00:00:19.469000,216.0,196.0,266.0,277.0,soft,5.0
0 days 01:03:45.602000,77,0 days 00:01:45.435000,19,"","",0 days 00:00:25.119000,0 days 00:00:54.856000,0 days 00:00:25.460000,74.0,156.0,264.0,251.0,soft,6.0
0 days 01:04:59.624000,77,0 days 00:01:14.022000,20,"","",0 days 00:00:19.507000,0 days 00:00:34.945000,0 days 00:00:19.570000,215.0,197.0,266.0,276.0,soft,7.0
0 days 01:06:54.611000,77,0 days 00:01:54.987000,21,"","",0 days 00:00:23.931000,0 days 00:01:00.695000,0 days 00:00:30.361000,159.0,145.0,263.0,193.0,soft,8.0
0 days 01:14:22.042000,77,"",22,"",0 days 01:08:09.843000,0 days 00:00:19.963000,0 days 00:00:37.776000,"",211.0,159.0,"",238.0,soft,9.0
0 days 01:15:54.021000,77,0 days 00:01:31.979000,23,0 days 01:14:22.667000,"",0 days 00:00:31.941000,0 days 00:00:37.773000,0 days 00:00:22.265000,145.0,182.0,249.0,263.0,soft,10.0
0 days 01:18:04.540000,77,0 days 00:02:10.519000,24,"","",0 days 00:00:23.560000,0 days 00:00:47.347000,0 days 00:00:59.612000,139.0,126.0,172.0,160.0,soft,11.0
0 days 01:19:42.245000,77,"",25,"",0 days 01:19:42.245000,0 days 00:00:25.368000,0 days 00:00:53.731000,"",134.0,144.0,"",156.0,soft,12.0
