Time,AirTemp,Humidity,Pressure,Rainfall,TrackTemp,WindDirection,WindSpeed
0 days 00:00:14.701000,26.5,82.0,1008.5,false,27.1,335,1.0
0 days 00:01:14.694000,26.5,82.0,1008.5,false,27.0,345,0.8
0 days 00:02:14.692000,26.5,82.0,1008.5,false,26.7,357,0.5
0 days 00:03:14.693000,26.5,81.0,1008.5,false,27.1,308,0.8
0 days 00:04:14.708000,26.5,83.0,1008.7,false,27.1,340,1.0
0 days 00:05:14.724000,26.5,82.0,1008.7,false,27.3,356,1.2
0 days 00:06:14.740000,26.5,82.0,1008.7,false,27.4,358,1.5
0 days 00:07:14.741000,26.4,82.0,1008.7,false,27.3,2,0.8
0 days 00:08:14.743000,26.4,82.0,1008.7,false,27.4,5,1.0
0 days 00:09:14.737000,26.4,81.0,1008.7,false,27.4,1,1.1
0 days 00:10:14.760000,26.4,81.0,1008.5,false,27.3,341,1.1
0 days 00:11:14.757000,26.5,81.0,1008.7,false,27.4,354,1.2
0 days 00:12:14.776000,26.5,81.0,1008.7,false,27.7,341,1.2
0 days 00:13:14.772000,26.4,81.0,1008.7,false,27.4,347,1.0
0 days 00:14:14.772000,26.4,81.0,1008.7,false,27.5,359,1.3
0 days 00:15:14.771000,26.4,81.0,1008.7,false,27.4,6,1.2
0 days 00:16:14.774000,26.4,81.0,1008.7,false,27.3,324,0.8
0 days 00:17:14.772000,26.4,81.0,1008.7,false,27.3,348,0.8
0 days 00:18:14.773000,26.4,81.0,1008.7,false,27.2,3,0.8
0 days 00:19:14.773000,26.5,81.0,1008.9,false,27.2,293,0.6
0 days 00:20:14.775000,26.5,81.0,1008.7,false,27.5,328,0.5
0 days 00:21:14.773000,26.6,81.0,1008.9,false,27.7,165,0.6
0 days 00:22:14.775000,26.6,82.0,1008.9,false,27.8,119,0.5
0 days 00:23:14.773000,26.7,82.0,1008.9,false,28.0,207,0.5
0 days 00:24:14.820000,26.8,82.0,1008.9,false,28.2,182,0.6
0 days 00:25:14.773000,26.9,82.0,1009.0,false,28.2,164,0.8
0 days 00:26:14.775000,26.9,82.0,1009.0,false,28.1,199,0.8
0 days 00:27:14.774000,26.9,81.0,1008.9,false,28.1,172,1.2
0 days 00:28:14.774000,27.0,81.0,1008.9,false,28.0,166,0.8
0 days 00:29:14.766000,26.9,81.0,1009.0,false,27.9,187,1.2
0 days 00:30:14.777000,26.9,81.0,1009.0,false,27.7,188,1.2
0 days 00:31:14.774000,27.0,81.0,1009.0,false,27.6,175,1.2
0 days 00:32:14.772000,27.1,82.0,1009.0,false,27.6,184,1.2
0 days 00:33:14.773000,27.1,82.0,1009.0,false,27.6,161,1.2
0 days 00:34:14.785000,27.1,82.0,1009.0,false,27.6,174,1.3
0 days 00:35:14.775000,27.1,82.0,1009.0,false,27.5,149,1.0
0 days 00:36:14.774000,27.1,82.0,1009.0,false,27.8,167,0.6
0 days 00:37:14.773000,27.1,82.0,1009.0,false,27.9,140,0.6
0 days 00:38:14.775000,27.1,82.0,1009.0,false,27.7,0,0.5
0 days 00:39:14.771000,27.0,82.0,1009.0,false,27.6,0,0.0
0 days 00:40:14.782000,27.0,83.0,1009.0,false,27.7,0,0.0
0 days 00:41:14.775000,27.0,82.0,1009.0,false,27.8,332,0.6
0 days 00:42:14.777000,26.9,83.0,1009.2,false,27.5,217,0.8
0 days 00:43:14.776000,26.9,83.0,1009.2,false,27.5,8,0.6
0 days 00:44:14.776000,26.9,83.0,1009.2,false,27.5,334,0.6
0 days 00:45:14.776000,27.0,83.0,1009.2,false,27.2,79,0.6
0 days 00:46:14.775000,27.0,83.0,1009.2,false,27.2,124,0.5
0 days 00:47:14.784000,27.0,84.0,1009.2,false,27.3,132,0.5
0 days 00:48:14.777000,27.0,83.0,1009.2,false,27.5,0,1.3
0 days 00:49:14.776000,26.9,83.0,1009.4,false,27.4,291,0.4
0 days 00:50:14.776000,26.9,82.0,1009.4,false,27.7,0,0.0
0 days 00:51:14.790000,26.8,83.0,1009.4,false,27.7,90,1.2
0 days 00:52:14.783000,26.9,82.0,1009.4,false,28.0,157,0.6
0 days 00:53:14.800000,26.9,81.0,1009.4,false,28.0,193,0.4
0 days 00:54:14.813000,26.9,82.0,1009.5,false,28.0,322,0.4
0 days 00:55:14.822000,27.0,81.0,1009.5,false,28.3,151,0.5
0 days 00:56:14.822000,27.0,81.0,1009.5,false,28.3,179,0.6
0 days 00:57:14.829000,27.0,81.0,1009.5,false,28.3,323,0.8
0 days 00:58:14.828000,27.0,80.0,1009.5,false,28.6,299,0.6
0 days 00:59:14.822000,27.0,80.0,1009.5,false,28.3,0,0.4
0 days 01:00:14.822000,27.1,80.0,1009.5,false,28.3,156,0.5
0 days 01:01:14.824000,27.0,80.0,1009.5,false,28.3,180,0.5
0 days 01:02:14.839000,26.9,80.0,1009.5,false,28.1,0,0.3
0 days 01:03:14.867000,26.9,80.0,1009.5,false,28.0,174,0.3
0 days 01:04:14.869000,26.9,80.0,1009.5,false,28.1,174,0.6
0 days 01:05:14.870000,26.9,80.0,1009.7,false,27.9,0,0.8
0 days 01:06:14.884000,26.9,80.0,1009.7,false,28.0,0,0.4
0 days 01:07:14.900000,27.0,80.0,1009.7,false,28.0,12,0.4
0 days 01:08:14.917000,27.0,81.0,1009.7,false,28.1,154,0.3
0 days 01:09:14.931000,27.1,81.0,1009.5,false,28.2,242,0.0
0 days 01:10:14.947000,27.1,81.0,1009.7,false,28.4,0,0.0
0 days 01:11:14.968000,27.2,81.0,1009.7,false,28.5,157,0.0
0 days 01:12:14.960000,27.2,81.0,1009.7,false,28.5,129,1.0
0 days 01:13:14.962000,27.1,80.0,1009.7,false,28.4,0,0.6
0 days 01:14:14.980000,27.1,81.0,1009.7,false,28.3,192,0.0
0 days 01:15:14.980000,27.2,81.0,1009.7,false,28.3,159,0.4
0 days 01:16:14.984000,27.2,81.0,1009.7,false,28.5,155,1.2
0 days 01:17:14.994000,27.2,80.0,1009.7,false,28.5,180,0.6
0 days 01:18:14.996000,27.2,80.0,1009.7,false,28.4,174,0.5
0 days 01:19:15.010000,27.2,80.0,1009.7,false,28.5,158,0.8
