2022-06-17 20:45:04	RISK OF RAIN FOR F1 SECOND PRACTICE SESSION IS 40%
2022-06-17 21:00:00	GREEN LIGHT - PIT EXIT OPEN
2022-06-17 21:01:16	PIT LANE INCIDENT INVOLVING CARS 5 (VET) AND 20 (MAG) NOTED - UNSAFE RELEASE
2022-06-17 21:02:26	FIA STEWARDS: PIT LANE INCIDENT INVOLVING CARS 5 (VET) AND 20 (MAG) WILL BE INVESTIGATED AFTER THE SESSION - UNSAFE RELEASE
2022-06-17 21:03:47	CAR 23 (ALB) MISSED THE APEX OF TURN 9
2022-06-17 21:12:30	CAR 1 (VER) OFF TRACK AND CONTINUED AT TURN 1
2022-06-17 21:12:59	CORRECTION - CAR 11 (PER) OFF TRACK AND CONTINUED AT TURN 1
2022-06-17 21:13:36	CAR 47 (MSC) MISSED THE APEX OF TURN 9
2022-06-17 21:13:54	CAR 10 (GAS) MISSED THE APEX OF TURN 14
2022-06-17 21:15:46	TURN 14 INCIDENT INVOLVING CAR 10 (GAS) NOTED - FAILING TO FOLLOW RACE DIRECTORS INSTRUCTIONS
2022-06-17 21:16:34	CAR 5 (VET) OFF TRACK AND CONTINUED AT TURN 1
2022-06-17 21:18:02	FIA STEWARDS: TURN 14 INCIDENT INVOLVING CAR 10 (GAS) WILL BE INVESTIGATED AFTER THE SESSION - FAILING TO FOLLOW RACE DIRECTORS INSTRUCTIONS
2022-06-17 21:22:11	VIRTUAL SAFETY CAR DEPLOYED
2022-06-17 21:22:53	VIRTUAL SAFETY CAR ENDING
2022-06-17 21:23:05	TRACK CLEAR
2022-06-17 21:23:07	DRS ENABLED
2022-06-17 21:30:26	PIT EXIT INCIDENT INVOLVING CARS 5 (VET) AND 55 (SAI) NOTED - DRIVING UNNECESSARILY SLOWLY
2022-06-17 21:33:26	CAR 47 (MSC) MISSED THE APEX OF TURN 14
2022-06-17 21:35:26	CAR 6 (LAT) MISSED THE APEX OF TURN 14
2022-06-17 21:36:27	CAR 55 (SAI) MISSED THE APEX OF TURN 9
2022-06-17 21:36:49	CAR 20 (MAG) MISSED THE APEX OF TURN 14
2022-06-17 21:44:28	CAR 5 (VET) MISSED THE APEX OF TURN 14
2022-06-17 21:45:17	TURN 14 INCIDENT INVOLVING CAR 5 (VET) NOTED - FAILING TO FOLLOW RACE DIRECTORS INSTRUCTIONS
2022-06-17 21:45:35	FIA STEWARDS: TURN 14 INCIDENT INVOLVING CAR 5 (VET) WILL BE INVESTIGATED AFTER THE SESSION - FAILING TO FOLLOW RACE DIRECTORS INSTRUCTIONS
2022-06-17 21:48:32	CAR 16 (LEC) MISSED THE APEX OF TURN 14
2022-06-17 21:50:35	CAR 6 (LAT) MISSED THE APEX OF TURN 14
2022-06-17 21:55:01	CAR 44 (HAM) MISSED THE APEX OF TURN 9
2022-06-17 21:55:16	CAR 31 (OCO) MISSED THE APEX OF TURN 9
2022-06-17 22:00:00	CHEQUERED FLAG
2022-06-17 22:00:18	FIRST CAR TO TAKE THE FLAG - CAR 22 (TSU)
2022-06-17 22:00:34	CAR 4 (NOR) MISSED THE APEX OF TURN 14
2022-06-17 22:01:12	CAR 18 (STR) MISSED THE APEX OF TURN 14
2022-06-17 22:01:21	TURN 14 INCIDENT INVOLVING CAR 18 (STR) NOTED - FAILING TO FOLLOW RACE DIRECTORS INSTRUCTIONS
2022-06-17 22:01:36	FIA STEWARDS: TURN 14 INCIDENT INVOLVING CAR 18 (STR) WILL BE INVESTIGATED AFTER THE SESSION - FAILING TO FOLLOW RACE DIRECTORS INSTRUCTIONS
2022-06-17 22:04:19	CAR 10 (GAS) OFF TRACK AND CONTINUED AT TURN 1
