2022-06-10 13:45:56	RISK OF RAIN FOR F1 SECOND PRACTICE SESSION IS 0%
2022-06-10 13:46:56	DRS DISABLED IN ZONE 1
2022-06-10 13:46:56	DRS DISABLED IN ZONE 2
2022-06-10 13:47:52	DRS ENABLED IN ZONE 1
2022-06-10 13:48:07	DRS ENABLED IN ZONE 2
2022-06-10 13:58:12	PINK HEAD PADDING MATERIAL MUST BE USED
2022-06-10 14:00:00	GREEN LIGHT - PIT EXIT OPEN
2022-06-10 14:03:25	YELLOW IN TRACK SECTOR 5
2022-06-10 14:03:26	DRS DISABLED IN ZONE 1
2022-06-10 14:04:07	DOUBLE YELLOW IN TRACK SECTOR 5
2022-06-10 14:04:09	CAR 4 (NOR) OFF TRACK AND CONTINUED AT TURN 3
2022-06-10 14:04:10	DRS ENABLED IN ZONE 1
2022-06-10 14:04:10	CLEAR IN TRACK SECTOR 5
2022-06-10 14:10:39	CAR 55 (SAI) MISSED THE APEX OF TURN 15
2022-06-10 14:29:41	YELLOW IN TRACK SECTOR 6
2022-06-10 14:29:42	CLEAR IN TRACK SECTOR 6
2022-06-10 14:29:51	YELLOW IN TRACK SECTOR 5
2022-06-10 14:29:52	DRS DISABLED IN ZONE 1
2022-06-10 14:29:58	DOUBLE YELLOW IN TRACK SECTOR 5
2022-06-10 14:30:00	CLEAR IN TRACK SECTOR 5
2022-06-10 14:30:00	DRS ENABLED IN ZONE 1
2022-06-10 14:30:18	CAR 20 (MAG) SPUN AND CONTINUED AT TURN 3
2022-06-10 14:34:35	YELLOW IN TRACK SECTOR 6
2022-06-10 14:35:28	DOUBLE YELLOW IN TRACK SECTOR 6
2022-06-10 14:35:34	CAR 47 (MSC) OFF TRACK AND CONTINUED AT TURN 4
2022-06-10 14:35:36	CLEAR IN TRACK SECTOR 6
2022-06-10 14:37:09	CAR 11 (PER) OFF TRACK AND CONTINUED AT TURN 1
2022-06-10 14:37:55	DOUBLE YELLOW IN TRACK SECTOR 9
2022-06-10 14:37:57	CAR 10 (GAS) OFF TRACK AND CONTINUED AT TURN 1
2022-06-10 14:38:14	YELLOW IN TRACK SECTOR 8
2022-06-10 14:38:19	CAR 16 (LEC) OFF TRACK AND CONTINUED AT TURN 7
2022-06-10 14:38:29	CLEAR IN TRACK SECTOR 9
2022-06-10 14:38:35	CLEAR IN TRACK SECTOR 8
2022-06-10 14:40:33	YELLOW IN TRACK SECTOR 15
2022-06-10 14:40:46	CAR 11 (PER) OFF TRACK AND CONTINUED AT TURN 15
2022-06-10 14:40:47	CLEAR IN TRACK SECTOR 15
2022-06-10 14:41:04	CAR 55 (SAI) MISSED THE APEX OF TURN 15
2022-06-10 14:51:31	YELLOW IN TRACK SECTOR 15
2022-06-10 14:51:47	DOUBLE YELLOW IN TRACK SECTOR 15
2022-06-10 14:51:51	YELLOW IN TRACK SECTOR 14
2022-06-10 14:51:53	CAR 18 (STR) OFF TRACK AND CONTINUED AT TURN 15
2022-06-10 14:51:56	CLEAR IN TRACK SECTOR 15
2022-06-10 14:51:59	CLEAR IN TRACK SECTOR 14
2022-06-10 14:52:00	CAR 63 (RUS) MISSED THE APEX OF TURN 15
2022-06-10 15:00:00	CHEQUERED FLAG
2022-06-10 15:00:11	YELLOW IN TRACK SECTOR 15
2022-06-10 15:00:18	FIRST CAR TO TAKE THE FLAG - CAR 77 (BOT)
2022-06-10 15:00:24	DOUBLE YELLOW IN TRACK SECTOR 15
2022-06-10 15:00:27	YELLOW IN TRACK SECTOR 14
2022-06-10 15:00:36	CAR 55 (SAI) OFF TRACK AND CONTINUED AT TURN 15
2022-06-10 15:00:37	CLEAR IN TRACK SECTOR 15
2022-06-10 15:00:40	CLEAR IN TRACK SECTOR 14
