Time,DriverNumber,LapTime,LapNumber,PitOutTime,PitInTime,Sector1Time,Sector2Time,Sector3Time,SpeedI1,SpeedI2,SpeedFL,SpeedST,Compound,TyreLife
0 days 00:23:24.977000,16,"",1,0 days 00:21:25.144000,"","",0 days 00:00:47.783000,0 days 00:00:37.692000,211.0,223.0,286.0,189.0,soft,1.0
0 days 00:24:56.448000,16,0 days 00:01:31.471000,2,"","",0 days 00:00:29.367000,0 days 00:00:39.067000,0 days 00:00:23.037000,241.0,269.0,286.0,314.0,soft,2.0
0 days 00:26:49.497000,16,0 days 00:01:53.049000,3,"",0 days 00:26:47.694000,0 days 00:00:35.658000,0 days 00:00:49.179000,0 days 00:00:28.212000,190.0,231.0,"",247.0,soft,3.0
0 days 00:44:52.882000,16,"",4,0 days 00:43:05.158000,"","",0 days 00:00:45.919000,0 days 00:00:29.579000,215.0,218.0,286.0,192.0,soft,4.0
0 days 00:46:24.238000,16,0 days 00:01:31.356000,5,"","",0 days 00:00:29.413000,0 days 00:00:39.065000,0 days 00:00:22.878000,239.0,270.0,286.0,315.0,soft,5.0
0 days 00:48:11.172000,16,0 days 00:01:46.934000,6,"",0 days 00:48:09.380000,0 days 00:00:33.843000,0 days 00:00:45.777000,0 days 00:00:27.314000,209.0,230.0,"",253.0,soft,6.0
0 days 00:52:57.658000,16,"",7,0 days 00:51:08.067000,"","",0 days 00:00:47.622000,0 days 00:00:28.327000,219.0,209.0,286.0,185.0,soft,1.0
0 days 00:54:28.590000,16,0 days 00:01:30.932000,8,"","",0 days 00:00:29.355000,0 days 00:00:38.850000,0 days 00:00:22.727000,242.0,271.0,286.0,312.0,soft,2.0
0 days 00:56:17.533000,16,0 days 00:01:48.943000,9,"",0 days 00:56:15.707000,0 days 00:00:34.668000,0 days 00:00:45.679000,0 days 00:00:28.596000,190.0,232.0,"",280.0,soft,3.0
0 days 01:05:57.048000,16,"",10,0 days 01:04:09.214000,"","",0 days 00:00:49.713000,0 days 00:00:25.004000,219.0,214.0,288.0,190.0,soft,1.0
0 days 01:07:27.779000,16,0 days 00:01:30.731000,11,"","",0 days 00:00:29.199000,0 days 00:00:38.825000,0 days 00:00:22.707000,240.0,270.0,288.0,316.0,soft,2.0
0 days 01:09:18.262000,16,0 days 00:01:50.483000,12,"",0 days 01:09:16.462000,0 days 00:00:35.570000,0 days 00:00:46.102000,0 days 00:00:28.811000,191.0,211.0,"",241.0,soft,3.0
0 days 01:13:17.410000,16,"",13,0 days 01:11:30.027000,"","",0 days 00:00:46.386000,0 days 00:00:28.875000,222.0,206.0,289.0,198.0,soft,1.0
0 days 01:14:47.968000,16,0 days 00:01:30.558000,14,"","",0 days 00:00:29.115000,0 days 00:00:38.702000,0 days 00:00:22.741000,241.0,270.0,288.0,316.0,soft,2.0
0 days 01:16:49.398000,16,0 days 00:02:01.430000,15,"",0 days 01:16:45.350000,0 days 00:00:36.213000,0 days 00:00:49.350000,0 days 00:00:35.867000,190.0,190.0,"",271.0,soft,3.0
0 days 00:20:27.962000,1,"",1,0 days 00:18:41.296000,"","",0 days 00:00:48.685000,0 days 00:00:24.760000,184.0,225.0,287.0,186.0,soft,1.0
0 days 00:21:59.871000,1,0 days 00:01:31.909000,2,"","",0 days 00:00:29.437000,0 days 00:00:39.480000,0 days 00:00:22.992000,237.0,270.0,286.0,317.0,soft,2.0
0 days 00:24:18.469000,1,0 days 00:02:18.598000,3,"","",0 days 00:00:44.957000,0 days 00:01:05.838000,0 days 00:00:27.803000,143.0,114.0,288.0,245.0,soft,3.0
0 days 00:25:50.254000,1,0 days 00:01:31.785000,4,"","",0 days 00:00:29.422000,0 days 00:00:39.518000,0 days 00:00:22.845000,237.0,270.0,288.0,321.0,soft,4.0
0 days 00:27:32.198000,1,0 days 00:01:41.944000,5,"",0 days 00:27:30.411000,0 days 00:00:32.247000,0 days 00:00:42.114000,0 days 00:00:27.583000,221.0,258.0,"",256.0,soft,5.0
0 days 00:44:24.478000,1,"",6,0 days 00:42:32.820000,"","",0 days 00:00:50.503000,0 days 00:00:26.462000,179.0,192.0,290.0,180.0,soft,1.0
0 days 00:45:55.235000,1,0 days 00:01:30.757000,7,"","",0 days 00:00:29.028000,0 days 00:00:38.834000,0 days 00:00:22.895000,239.0,271.0,288.0,322.0,soft,2.0
0 days 00:47:41.539000,1,0 days 00:01:46.304000,8,"",0 days 00:47:39.679000,0 days 00:00:34.026000,0 days 00:00:43.650000,0 days 00:00:28.628000,216.0,233.0,"",255.0,soft,3.0
0 days 01:06:14.287000,1,"",9,0 days 01:04:23.289000,"","",0 days 00:00:50.618000,0 days 00:00:24.790000,165.0,212.0,290.0,179.0,soft,1.0
0 days 01:07:45.030000,1,0 days 00:01:30.743000,10,"","",0 days 00:00:28.995000,0 days 00:00:38.987000,0 days 00:00:22.761000,239.0,271.0,289.0,321.0,soft,2.0
0 days 01:09:31.544000,1,0 days 00:01:46.514000,11,"",0 days 01:09:29.759000,0 days 00:00:32.873000,0 days 00:00:44.261000,0 days 00:00:29.380000,207.0,194.0,"",266.0,soft,3.0
0 days 01:13:44.933000,1,"",12,0 days 01:11:48.452000,"","",0 days 00:00:52.576000,0 days 00:00:29.414000,193.0,222.0,290.0,175.0,soft,1.0
0 days 01:15:15.614000,1,0 days 00:01:30.681000,13,"","",0 days 00:00:28.970000,0 days 00:00:38.832000,0 days 00:00:22.879000,239.0,271.0,289.0,322.0,soft,2.0
0 days 01:17:12.228000,1,0 days 00:01:56.614000,14,"",0 days 01:17:08.602000,0 days 00:00:37.699000,0 days 00:00:45.288000,0 days 00:00:33.627000,202.0,233.0,"",203.0,soft,3.0
0 days 00:23:35.872000,55,"",1,0 days 00:21:28.593000,"","",0 days 00:00:48.149000,0 days 00:00:46.793000,207.0,210.0,287.0,187.0,soft,1.0
0 days 00:25:07.439000,55,0 days 00:01:31.567000,2,"","",0 days 00:00:29.394000,0 days 00:00:39.218000,0 days 00:00:22.955000,240.0,268.0,287.0,315.0,soft,2.0
0 days 00:27:04.319000,55,0 days 00:01:56.880000,3,"",0 days 00:27:02.541000,0 days 00:00:38.745000,0 days 00:00:49.485000,0 days 00:00:28.650000,124.0,206.0,"",243.0,soft,3.0
0 days 00:44:58.391000,55,"",4,0 days 00:43:11.405000,"","",0 days 00:00:47.193000,0 days 00:00:26.867000,216.0,231.0,287.0,189.0,soft,4.0
0 days 00:46:30.136000,55,0 days 00:01:31.745000,5,"","",0 days 00:00:29.399000,0 days 00:00:39.385000,0 days 00:00:22.961000,238.0,269.0,284.0,315.0,soft,5.0
0 days 00:48:22.064000,55,0 days 00:01:51.928000,6,"",0 days 00:48:20.255000,0 days 00:00:36.946000,0 days 00:00:46.418000,0 days 00:00:28.564000,196.0,211.0,"",220.0,soft,6.0
0 days 00:53:08.474000,55,"",7,0 days 00:51:14.393000,"","",0 days 00:00:49.140000,0 days 00:00:29.688000,214.0,225.0,288.0,161.0,soft,1.0
0 days 00:54:39.261000,55,0 days 00:01:30.787000,8,"","",0 days 00:00:29.089000,0 days 00:00:38.885000,0 days 00:00:22.813000,240.0,269.0,287.0,315.0,soft,2.0
0 days 00:56:36.829000,55,0 days 00:01:57.568000,9,"",0 days 00:56:35.028000,0 days 00:00:37.513000,0 days 00:00:49.744000,0 days 00:00:30.311000,180.0,191.0,"",227.0,soft,3.0
0 days 01:06:03.963000,55,"",10,0 days 01:04:16.319000,"","",0 days 00:00:46.979000,0 days 00:00:26.663000,216.0,225.0,288.0,191.0,soft,1.0
0 days 01:07:34.650000,55,0 days 00:01:30.687000,11,"","",0 days 00:00:29.036000,0 days 00:00:38.842000,0 days 00:00:22.809000,240.0,270.0,284.0,315.0,soft,2.0
0 days 01:09:30.813000,55,0 days 00:01:56.163000,12,"",0 days 01:09:29.055000,0 days 00:00:37.578000,0 days 00:00:49.601000,0 days 00:00:28.984000,174.0,189.0,"",235.0,soft,3.0
0 days 01:13:25.274000,55,"",13,0 days 01:11:35.873000,"","",0 days 00:00:49.922000,0 days 00:00:26.408000,216.0,213.0,288.0,198.0,soft,1.0
0 days 01:14:56.013000,55,0 days 00:01:30.739000,14,"","",0 days 00:00:29.046000,0 days 00:00:38.985000,0 days 00:00:22.708000,241.0,269.0,286.0,315.0,soft,2.0
0 days 01:17:00.217000,55,0 days 00:02:04.204000,15,"",0 days 01:16:55.225000,0 days 00:00:38.814000,0 days 00:00:50.326000,0 days 00:00:35.064000,179.0,190.0,"",212.0,soft,3.0
0 days 00:20:49.182000,11,"",1,0 days 00:19:02.724000,"","",0 days 00:00:48.031000,0 days 00:00:24.984000,176.0,205.0,289.0,182.0,soft,1.0
0 days 00:22:21.565000,11,0 days 00:01:32.383000,2,"","",0 days 00:00:29.787000,0 days 00:00:39.415000,0 days 00:00:23.181000,237.0,269.0,286.0,318.0,soft,2.0
0 days 00:24:23.605000,11,0 days 00:02:02.040000,3,"",0 days 00:24:20.823000,0 days 00:00:36.698000,0 days 00:00:52.932000,0 days 00:00:32.410000,185.0,106.0,"",218.0,soft,3.0
0 days 00:32:26.776000,11,"",4,0 days 00:30:14.376000,"","",0 days 00:00:57.048000,0 days 00:00:40.987000,197.0,130.0,287.0,162.0,soft,4.0
0 days 00:33:59.087000,11,0 days 00:01:32.311000,5,"","",0 days 00:00:29.807000,0 days 00:00:39.462000,0 days 00:00:23.042000,236.0,269.0,289.0,320.0,soft,5.0
0 days 00:35:49.766000,11,0 days 00:01:50.679000,6,"",0 days 00:35:47.701000,0 days 00:00:34.594000,0 days 00:00:44.446000,0 days 00:00:31.639000,208.0,208.0,"",229.0,soft,6.0
0 days 00:44:30.743000,11,"",7,0 days 00:42:38.176000,"","",0 days 00:00:49.580000,0 days 00:00:27.264000,194.0,159.0,290.0,158.0,soft,1.0
0 days 00:46:02.120000,11,0 days 00:01:31.377000,8,"","",0 days 00:00:29.371000,0 days 00:00:39.018000,0 days 00:00:22.988000,238.0,270.0,289.0,323.0,soft,2.0
0 days 00:47:50.462000,11,0 days 00:01:48.342000,9,"",0 days 00:47:48.711000,0 days 00:00:34.624000,0 days 00:00:44.983000,0 days 00:00:28.735000,216.0,227.0,"",233.0,soft,3.0
0 days 00:53:40.467000,11,"",10,0 days 00:51:53.095000,"","",0 days 00:00:46.542000,0 days 00:00:24.872000,187.0,226.0,289.0,167.0,soft,1.0
0 days 00:55:11.475000,11,0 days 00:01:31.008000,11,"","",0 days 00:00:29.165000,0 days 00:00:39.097000,0 days 00:00:22.746000,241.0,270.0,289.0,322.0,soft,2.0
0 days 00:57:04.552000,11,0 days 00:01:53.077000,12,"",0 days 00:57:02.354000,0 days 00:00:34.390000,0 days 00:00:45.579000,0 days 00:00:33.108000,218.0,199.0,"",209.0,soft,3.0
0 days 01:06:19.271000,11,"",13,0 days 01:04:26.650000,"","",0 days 00:00:51.826000,0 days 00:00:26.054000,198.0,183.0,291.0,157.0,soft,1.0
0 days 01:07:50.284000,11,0 days 00:01:31.013000,14,"","",0 days 00:00:29.152000,0 days 00:00:39.110000,0 days 00:00:22.751000,239.0,270.0,290.0,323.0,soft,2.0
0 days 01:09:39.457000,11,0 days 00:01:49.173000,15,"",0 days 01:09:37.588000,0 days 00:00:35.066000,0 days 00:00:45.193000,0 days 00:00:28.914000,217.0,226.0,"",213.0,soft,3.0
0 days 01:13:50.672000,11,"",16,0 days 01:11:52.513000,"","",0 days 00:00:51.868000,0 days 00:00:29.243000,177.0,164.0,290.0,150.0,soft,1.0
0 days 01:15:21.593000,11,0 days 00:01:30.921000,17,"","",0 days 00:00:29.180000,0 days 00:00:38.894000,0 days 00:00:22.847000,239.0,269.0,288.0,322.0,soft,2.0
0 days 01:17:14.157000,11,"",18,"",0 days 01:17:14.157000,0 days 00:00:37.581000,0 days 00:00:46.592000,"",185.0,239.0,"",202.0,soft,3.0
0 days 00:25:19.614000,44,"",1,0 days 00:23:21.926000,"","",0 days 00:00:48.798000,0 days 00:00:29.577000,94.0,239.0,285.0,167.0,soft,1.0
0 days 00:26:51.899000,44,0 days 00:01:32.285000,2,"","",0 days 00:00:29.549000,0 days 00:00:39.740000,0 days 00:00:22.996000,238.0,266.0,286.0,314.0,soft,2.0
0 days 00:29:12.479000,44,0 days 00:02:20.580000,3,"","",0 days 00:00:41.984000,0 days 00:01:08.030000,0 days 00:00:30.566000,146.0,160.0,283.0,237.0,soft,3.0
0 days 00:30:44.975000,44,0 days 00:01:32.496000,4,"","",0 days 00:00:29.874000,0 days 00:00:39.472000,0 days 00:00:23.150000,237.0,266.0,282.0,309.0,soft,4.0
0 days 00:32:38.070000,44,0 days 00:01:53.095000,5,"",0 days 00:32:36.357000,0 days 00:00:34.900000,0 days 00:00:44.627000,0 days 00:00:33.568000,184.0,244.0,"",282.0,soft,5.0
0 days 00:45:15.444000,44,"",6,0 days 00:43:28.222000,"","",0 days 00:00:45.127000,0 days 00:00:29.641000,214.0,220.0,285.0,184.0,soft,1.0
0 days 00:46:46.940000,44,0 days 00:01:31.496000,7,"","",0 days 00:00:29.440000,0 days 00:00:39.234000,0 days 00:00:22.822000,239.0,266.0,285.0,315.0,soft,2.0
0 days 00:48:37.270000,44,0 days 00:01:50.330000,8,"",0 days 00:48:35.478000,0 days 00:00:35.901000,0 days 00:00:45.155000,0 days 00:00:29.274000,202.0,199.0,"",229.0,soft,3.0
0 days 00:54:02.856000,44,"",9,0 days 00:52:15.110000,"","",0 days 00:00:43.321000,0 days 00:00:31.060000,221.0,251.0,285.0,178.0,soft,1.0
0 days 00:55:33.904000,44,0 days 00:01:31.048000,10,"","",0 days 00:00:29.100000,0 days 00:00:39.038000,0 days 00:00:22.910000,240.0,268.0,285.0,314.0,soft,2.0
0 days 00:57:26.055000,44,0 days 00:01:52.151000,11,"",0 days 00:57:24.210000,0 days 00:00:34.333000,0 days 00:00:45.617000,0 days 00:00:32.201000,218.0,188.0,"",204.0,soft,3.0
0 days 01:05:49.726000,44,"",12,0 days 01:03:58.664000,"","",0 days 00:00:45.630000,0 days 00:00:31.346000,210.0,203.0,285.0,152.0,soft,4.0
0 days 01:07:21.884000,44,0 days 00:01:32.158000,13,"","",0 days 00:00:29.721000,0 days 00:00:39.335000,0 days 00:00:23.102000,237.0,267.0,285.0,312.0,soft,5.0
0 days 01:09:10.738000,44,0 days 00:01:48.854000,14,"",0 days 01:09:08.904000,0 days 00:00:33.315000,0 days 00:00:44.876000,0 days 00:00:30.663000,171.0,226.0,"",261.0,soft,6.0
0 days 01:13:03.589000,44,"",15,0 days 01:11:22.471000,"","",0 days 00:00:43.470000,0 days 00:00:25.307000,203.0,246.0,285.0,187.0,soft,1.0
0 days 01:14:34.827000,44,0 days 00:01:31.238000,16,"","",0 days 00:00:29.384000,0 days 00:00:38.965000,0 days 00:00:22.889000,239.0,268.0,285.0,312.0,soft,2.0
0 days 01:16:37.426000,44,"",17,"",0 days 01:16:37.426000,0 days 00:00:39.214000,0 days 00:00:49.837000,"",179.0,175.0,"",147.0,soft,3.0
0 days 00:22:42.248000,77,"",1,0 days 00:20:51.006000,"","",0 days 00:00:49.900000,0 days 00:00:26.033000,210.0,212.0,286.0,147.0,soft,1.0
0 days 00:24:14.167000,77,0 days 00:01:31.919000,2,"","",0 days 00:00:29.391000,0 days 00:00:39.500000,0 days 00:00:23.028000,240.0,268.0,287.0,313.0,soft,2.0
0 days 00:26:08.992000,77,0 days 00:01:54.825000,3,"",0 days 00:26:07.222000,0 days 00:00:36.347000,0 days 00:00:47.666000,0 days 00:00:30.812000,212.0,209.0,"",260.0,soft,3.0
0 days 00:31:44.566000,77,"",4,0 days 00:29:45.846000,"","",0 days 00:00:48.406000,0 days 00:00:33.319000,213.0,206.0,285.0,148.0,soft,4.0
0 days 00:33:17.025000,77,0 days 00:01:32.459000,5,"","",0 days 00:00:29.615000,0 days 00:00:39.744000,0 days 00:00:23.100000,238.0,267.0,286.0,313.0,soft,5.0
0 days 00:35:07.309000,77,0 days 00:01:50.284000,6,"",0 days 00:35:05.512000,0 days 00:00:33.846000,0 days 00:00:46.873000,0 days 00:00:29.565000,196.0,217.0,"",274.0,soft,6.0
0 days 00:44:36.251000,77,"",7,0 days 00:42:41.587000,"","",0 days 00:00:49.072000,0 days 00:00:29.976000,211.0,187.0,286.0,153.0,soft,1.0
0 days 00:46:08.068000,77,0 days 00:01:31.817000,8,"","",0 days 00:00:29.418000,0 days 00:00:39.466000,0 days 00:00:22.933000,240.0,268.0,287.0,315.0,soft,2.0
0 days 00:48:00.315000,77,0 days 00:01:52.247000,9,"",0 days 00:47:58.542000,0 days 00:00:35.041000,0 days 00:00:48.387000,0 days 00:00:28.819000,204.0,238.0,"",262.0,soft,3.0
0 days 00:53:14.096000,77,"",10,0 days 00:51:15.354000,"","",0 days 00:00:49.754000,0 days 00:00:30.328000,207.0,189.0,287.0,120.0,soft,1.0
0 days 00:54:45.813000,77,0 days 00:01:31.717000,11,"","",0 days 00:00:29.402000,0 days 00:00:39.454000,0 days 00:00:22.861000,240.0,268.0,285.0,315.0,soft,2.0
0 days 00:56:39.367000,77,0 days 00:01:53.554000,12,"",0 days 00:56:37.558000,0 days 00:00:35.394000,0 days 00:00:46.311000,0 days 00:00:31.849000,195.0,212.0,"",239.0,soft,3.0
0 days 01:13:10.487000,77,"",13,0 days 01:11:24.579000,"","",0 days 00:00:45.987000,0 days 00:00:24.815000,211.0,240.0,286.0,154.0,soft,1.0
0 days 01:14:42.047000,77,0 days 00:01:31.560000,14,"","",0 days 00:00:29.203000,0 days 00:00:39.296000,0 days 00:00:23.061000,239.0,269.0,286.0,314.0,soft,2.0
0 days 01:16:39.495000,77,"",15,"",0 days 01:16:39.495000,0 days 00:00:35.814000,0 days 00:00:49.151000,"",200.0,198.0,"",200.0,soft,3.0
0 days 00:22:14.014000,20,"",1,0 days 00:20:23.492000,"","",0 days 00:00:48.278000,0 days 00:00:25.154000,201.0,214.0,287.0,164.0,soft,1.0
0 days 00:23:46.300000,20,0 days 00:01:32.286000,2,"","",0 days 00:00:29.498000,0 days 00:00:39.729000,0 days 00:00:23.059000,240.0,270.0,287.0,316.0,soft,2.0
0 days 00:25:38.852000,20,0 days 00:01:52.552000,3,"",0 days 00:25:36.527000,0 days 00:00:34.920000,0 days 00:00:47.660000,0 days 00:00:29.972000,217.0,216.0,"",290.0,soft,3.0
0 days 00:31:18.279000,20,"",4,0 days 00:29:33.691000,"","",0 days 00:00:47.135000,0 days 00:00:24.255000,183.0,216.0,288.0,185.0,soft,1.0
0 days 00:32:50.234000,20,0 days 00:01:31.955000,5,"","",0 days 00:00:29.580000,0 days 00:00:39.379000,0 days 00:00:22.996000,240.0,270.0,288.0,318.0,soft,2.0
0 days 00:34:42.851000,20,0 days 00:01:52.617000,6,"",0 days 00:34:41.055000,0 days 00:00:34.628000,0 days 00:00:46.912000,0 days 00:00:31.077000,217.0,206.0,"",224.0,soft,3.0
0 days 00:44:11.936000,20,"",7,0 days 00:42:21.552000,"","",0 days 00:00:48.993000,0 days 00:00:27.226000,204.0,177.0,287.0,168.0,soft,1.0
0 days 00:45:43.397000,20,0 days 00:01:31.461000,8,"","",0 days 00:00:29.391000,0 days 00:00:39.191000,0 days 00:00:22.879000,241.0,271.0,287.0,316.0,soft,2.0
0 days 00:47:38.144000,20,0 days 00:01:54.747000,9,"",0 days 00:47:36.332000,0 days 00:00:33.724000,0 days 00:00:50.021000,0 days 00:00:31.002000,169.0,214.0,"",254.0,soft,3.0
0 days 01:13:39.577000,20,"",10,0 days 01:11:43.952000,"","",0 days 00:00:52.577000,0 days 00:00:27.895000,202.0,184.0,288.0,166.0,soft,1.0
0 days 01:15:11.385000,20,0 days 00:01:31.808000,11,"","",0 days 00:00:29.310000,0 days 00:00:39.456000,0 days 00:00:23.042000,241.0,270.0,278.0,318.0,soft,2.0
0 days 01:17:57.149000,20,"",12,"",0 days 01:17:57.149000,0 days 00:00:29.310000,"","","","","",217.0,soft,3.0
0 days 00:22:54.301000,14,"",1,0 days 00:20:59.585000,"","",0 days 00:00:50.402000,0 days 00:00:31.930000,213.0,229.0,289.0,179.0,soft,1.0
0 days 00:24:26.647000,14,0 days 00:01:32.346000,2,"","",0 days 00:00:29.571000,0 days 00:00:39.609000,0 days 00:00:23.166000,241.0,268.0,287.0,318.0,soft,2.0
0 days 00:26:22.680000,14,0 days 00:01:56.033000,3,"",0 days 00:26:20.917000,0 days 00:00:35.579000,0 days 00:00:49.304000,0 days 00:00:31.150000,195.0,197.0,"",234.0,soft,3.0
0 days 00:32:34.249000,14,"",4,0 days 00:30:34.262000,"","",0 days 00:00:50.394000,0 days 00:00:35.159000,183.0,195.0,287.0,195.0,soft,4.0
0 days 00:34:16.846000,14,0 days 00:01:42.597000,5,"",0 days 00:34:15.030000,0 days 00:00:29.701000,0 days 00:00:42.194000,0 days 00:00:30.702000,238.0,225.0,"",317.0,soft,5.0
0 days 00:45:21.482000,14,"",6,0 days 00:43:29.784000,"","",0 days 00:00:49.051000,0 days 00:00:29.683000,207.0,182.0,290.0,192.0,soft,1.0
0 days 00:46:53.285000,14,0 days 00:01:31.803000,7,"","",0 days 00:00:29.301000,0 days 00:00:39.384000,0 days 00:00:23.118000,241.0,268.0,287.0,321.0,soft,2.0
0 days 00:48:50.582000,14,0 days 00:01:57.297000,8,"",0 days 00:48:47.967000,0 days 00:00:36.774000,0 days 00:00:48.788000,0 days 00:00:31.735000,191.0,207.0,"",194.0,soft,3.0
0 days 00:53:52.349000,14,"",9,0 days 00:52:04.713000,"","",0 days 00:00:47.968000,0 days 00:00:25.511000,215.0,225.0,290.0,176.0,soft,1.0
0 days 00:55:23.970000,14,0 days 00:01:31.621000,10,"","",0 days 00:00:29.306000,0 days 00:00:39.305000,0 days 00:00:23.010000,241.0,268.0,286.0,318.0,soft,2.0
0 days 00:57:22.890000,14,0 days 00:01:58.920000,11,"",0 days 00:57:21.102000,0 days 00:00:36.774000,0 days 00:00:49.658000,0 days 00:00:32.488000,197.0,179.0,"",188.0,soft,3.0
0 days 01:13:30.178000,14,"",12,0 days 01:11:36.780000,"","",0 days 00:00:53.533000,0 days 00:00:27.058000,154.0,217.0,290.0,195.0,soft,1.0
0 days 01:15:02.373000,14,0 days 00:01:32.195000,13,"","",0 days 00:00:29.470000,0 days 00:00:39.551000,0 days 00:00:23.174000,239.0,268.0,287.0,320.0,soft,2.0
0 days 01:17:06.980000,14,"",14,"",0 days 01:17:06.980000,0 days 00:00:39.701000,0 days 00:00:51.731000,"",182.0,180.0,"",150.0,soft,3.0
0 days 00:25:16.328000,63,"",1,0 days 00:23:19.954000,"","",0 days 00:00:51.112000,0 days 00:00:29.026000,227.0,228.0,283.0,189.0,soft,1.0
0 days 00:26:48.874000,63,0 days 00:01:32.546000,2,"","",0 days 00:00:29.826000,0 days 00:00:39.625000,0 days 00:00:23.095000,237.0,265.0,283.0,311.0,soft,2.0
0 days 00:28:56.178000,63,0 days 00:02:07.304000,3,"","",0 days 00:00:38.794000,0 days 00:00:59.753000,0 days 00:00:28.757000,145.0,158.0,282.0,278.0,soft,3.0
0 days 00:30:28.447000,63,0 days 00:01:32.269000,4,"","",0 days 00:00:29.652000,0 days 00:00:39.530000,0 days 00:00:23.087000,237.0,266.0,282.0,309.0,soft,4.0
0 days 00:32:31.836000,63,0 days 00:02:03.389000,5,"",0 days 00:32:29.413000,0 days 00:00:40.444000,0 days 00:00:50.668000,0 days 00:00:32.277000,180.0,183.0,"",132.0,soft,5.0
0 days 00:45:10.787000,63,"",6,0 days 00:43:25.264000,"","",0 days 00:00:46.415000,0 days 00:00:26.269000,225.0,217.0,285.0,198.0,soft,1.0
0 days 00:46:42.393000,63,0 days 00:01:31.606000,7,"","",0 days 00:00:29.453000,0 days 00:00:39.293000,0 days 00:00:22.860000,238.0,266.0,286.0,314.0,soft,2.0
0 days 00:48:35.744000,63,0 days 00:01:53.351000,8,"",0 days 00:48:33.982000,0 days 00:00:35.191000,0 days 00:00:49.078000,0 days 00:00:29.082000,176.0,209.0,"",266.0,soft,3.0
0 days 00:53:58.275000,63,"",9,0 days 00:52:12.971000,"","",0 days 00:00:46.138000,0 days 00:00:27.845000,224.0,235.0,285.0,209.0,soft,1.0
0 days 00:55:29.527000,63,0 days 00:01:31.252000,10,"","",0 days 00:00:29.197000,0 days 00:00:39.104000,0 days 00:00:22.951000,239.0,265.0,284.0,313.0,soft,2.0
0 days 00:57:27.632000,63,0 days 00:01:58.105000,11,"",0 days 00:57:25.568000,0 days 00:00:35.217000,0 days 00:00:48.674000,0 days 00:00:34.214000,202.0,187.0,"",270.0,soft,3.0
0 days 01:05:45.844000,63,"",12,0 days 01:03:56.786000,"","",0 days 00:00:47.128000,0 days 00:00:27.996000,214.0,224.0,283.0,180.0,soft,4.0
0 days 01:07:18.135000,63,0 days 00:01:32.291000,13,"","",0 days 00:00:29.630000,0 days 00:00:39.627000,0 days 00:00:23.034000,236.0,266.0,284.0,308.0,soft,5.0
0 days 01:09:11.912000,63,0 days 00:01:53.777000,14,"",0 days 01:09:09.992000,0 days 00:00:36.604000,0 days 00:00:46.600000,0 days 00:00:30.573000,176.0,204.0,"",235.0,soft,6.0
0 days 01:12:58.931000,63,"",15,0 days 01:11:18.385000,"","",0 days 00:00:44.081000,0 days 00:00:25.532000,223.0,242.0,283.0,203.0,soft,1.0
0 days 01:14:31.147000,63,0 days 00:01:32.216000,16,"","",0 days 00:00:30.002000,0 days 00:00:39.362000,0 days 00:00:22.852000,238.0,267.0,284.0,309.0,soft,2.0
0 days 01:16:33.839000,63,"",17,"",0 days 01:16:33.839000,0 days 00:00:40.746000,0 days 00:00:50.123000,"",173.0,182.0,"",130.0,soft,3.0
0 days 00:17:18.657000,10,"",1,0 days 00:15:24.013000,"","",0 days 00:00:48.598000,0 days 00:00:26.118000,181.0,202.0,286.0,158.0,soft,1.0
0 days 00:18:51.673000,10,0 days 00:01:33.016000,2,"","",0 days 00:00:29.881000,0 days 00:00:39.929000,0 days 00:00:23.206000,236.0,268.0,284.0,314.0,soft,2.0
0 days 00:20:37.292000,10,0 days 00:01:45.619000,3,"",0 days 00:20:35.489000,0 days 00:00:32.743000,0 days 00:00:44.370000,0 days 00:00:28.506000,215.0,233.0,"",296.0,soft,3.0
0 days 00:25:34.350000,10,"",4,0 days 00:23:34.262000,"","",0 days 00:00:49.260000,0 days 00:00:27.245000,119.0,234.0,288.0,96.0,soft,1.0
0 days 00:27:06.665000,10,0 days 00:01:32.315000,5,"","",0 days 00:00:29.624000,0 days 00:00:39.552000,0 days 00:00:23.139000,237.0,269.0,284.0,317.0,soft,2.0
0 days 00:28:51.228000,10,0 days 00:01:44.563000,6,"",0 days 00:28:49.444000,0 days 00:00:32.029000,0 days 00:00:44.412000,0 days 00:00:28.122000,217.0,243.0,"",293.0,soft,3.0
0 days 00:32:13.972000,10,"",7,0 days 00:30:13.130000,"","",0 days 00:00:49.421000,0 days 00:00:36.682000,210.0,202.0,285.0,148.0,soft,1.0
0 days 00:33:46.068000,10,0 days 00:01:32.096000,8,"","",0 days 00:00:29.597000,0 days 00:00:39.481000,0 days 00:00:23.018000,238.0,268.0,287.0,315.0,soft,2.0
0 days 00:35:47.973000,10,0 days 00:02:01.905000,9,"",0 days 00:35:46.199000,0 days 00:00:38.350000,0 days 00:00:52.397000,0 days 00:00:31.158000,170.0,185.0,"",298.0,soft,3.0
0 days 00:45:28.587000,10,"",10,0 days 00:43:40.372000,"","",0 days 00:00:47.413000,0 days 00:00:25.768000,190.0,230.0,287.0,173.0,soft,4.0
0 days 00:47:01.446000,10,0 days 00:01:32.859000,11,"","",0 days 00:00:29.741000,0 days 00:00:39.883000,0 days 00:00:23.235000,237.0,268.0,286.0,316.0,soft,5.0
0 days 00:48:50.995000,10,0 days 00:01:49.549000,12,"",0 days 00:48:49.227000,0 days 00:00:32.754000,0 days 00:00:45.622000,0 days 00:00:31.173000,215.0,219.0,"",304.0,soft,6.0
0 days 00:54:17.645000,10,"",13,0 days 00:52:30.806000,"","",0 days 00:00:47.513000,0 days 00:00:25.278000,198.0,229.0,287.0,178.0,soft,1.0
0 days 00:55:49.280000,10,0 days 00:01:31.635000,14,"","",0 days 00:00:29.253000,0 days 00:00:39.335000,0 days 00:00:23.047000,239.0,269.0,279.0,314.0,soft,2.0
0 days 00:57:47.069000,10,0 days 00:01:57.789000,15,"",0 days 00:57:45.242000,0 days 00:00:36.584000,0 days 00:00:50.558000,0 days 00:00:30.647000,181.0,186.0,"",281.0,soft,3.0
0 days 01:06:58.905000,10,"",16,0 days 01:05:09.849000,"","",0 days 00:00:48.509000,0 days 00:00:25.198000,177.0,218.0,286.0,150.0,soft,4.0
0 days 01:08:32.143000,10,0 days 00:01:33.238000,17,"","",0 days 00:00:29.826000,0 days 00:00:40.083000,0 days 00:00:23.329000,237.0,268.0,285.0,312.0,soft,5.0
0 days 01:10:18.562000,10,0 days 00:01:46.419000,18,"",0 days 01:10:16.765000,0 days 00:00:32.518000,0 days 00:00:45.454000,0 days 00:00:28.447000,216.0,216.0,"",297.0,soft,6.0
0 days 01:14:15.653000,10,"",19,0 days 01:12:22.922000,"","",0 days 00:00:50.547000,0 days 00:00:26.335000,167.0,196.0,286.0,171.0,soft,1.0
0 days 01:15:47.991000,10,0 days 00:01:32.338000,20,"","",0 days 00:00:29.392000,0 days 00:00:39.815000,0 days 00:00:23.131000,239.0,269.0,276.0,315.0,soft,2.0
0 days 01:17:44.732000,10,"",21,"",0 days 01:17:44.732000,0 days 00:00:41.782000,0 days 00:00:46.524000,"",186.0,220.0,"",234.0,soft,3.0
0 days 00:21:43.250000,31,"",1,0 days 00:19:54.995000,"","",0 days 00:00:46.270000,0 days 00:00:27.462000,209.0,230.0,286.0,157.0,soft,1.0
0 days 00:23:15.917000,31,0 days 00:01:32.667000,2,"","",0 days 00:00:29.702000,0 days 00:00:39.726000,0 days 00:00:23.239000,239.0,269.0,285.0,315.0,soft,2.0
0 days 00:25:23.348000,31,0 days 00:02:07.431000,3,"",0 days 00:25:21.577000,0 days 00:00:47.349000,0 days 00:00:48.478000,0 days 00:00:31.604000,68.0,224.0,"",199.0,soft,3.0
0 days 00:32:21.501000,31,"",4,0 days 00:30:17.633000,"","",0 days 00:00:48.257000,0 days 00:00:43.113000,225.0,201.0,286.0,176.0,soft,1.0
0 days 00:33:53.542000,31,0 days 00:01:32.041000,5,"","",0 days 00:00:29.538000,0 days 00:00:39.431000,0 days 00:00:23.072000,239.0,269.0,286.0,317.0,soft,2.0
0 days 00:35:50.918000,31,0 days 00:01:57.376000,6,"",0 days 00:35:49.169000,0 days 00:00:34.662000,0 days 00:00:49.346000,0 days 00:00:33.368000,208.0,177.0,"",271.0,soft,3.0
0 days 00:45:04.345000,31,"",7,0 days 00:43:14.257000,"","",0 days 00:00:44.798000,0 days 00:00:30.569000,227.0,239.0,289.0,167.0,soft,1.0
0 days 00:46:36.127000,31,0 days 00:01:31.782000,8,"","",0 days 00:00:29.407000,0 days 00:00:39.294000,0 days 00:00:23.081000,240.0,269.0,287.0,320.0,soft,2.0
0 days 00:48:28.335000,31,0 days 00:01:52.208000,9,"",0 days 00:48:26.542000,0 days 00:00:34.193000,0 days 00:00:46.092000,0 days 00:00:31.923000,195.0,223.0,"",261.0,soft,3.0
0 days 00:53:32.886000,31,"",10,0 days 00:51:41.745000,"","",0 days 00:00:44.797000,0 days 00:00:34.653000,228.0,209.0,289.0,178.0,soft,1.0
0 days 00:55:04.842000,31,0 days 00:01:31.956000,11,"","",0 days 00:00:29.463000,0 days 00:00:39.463000,0 days 00:00:23.030000,239.0,268.0,286.0,319.0,soft,2.0
0 days 00:57:02.503000,31,0 days 00:01:57.661000,12,"",0 days 00:57:00.703000,0 days 00:00:35.286000,0 days 00:00:49.637000,0 days 00:00:32.738000,188.0,179.0,"",224.0,soft,3.0
0 days 00:22:18.566000,47,"",1,0 days 00:20:25.096000,"","",0 days 00:00:50.072000,0 days 00:00:25.752000,212.0,228.0,287.0,201.0,soft,1.0
0 days 00:23:51.158000,47,0 days 00:01:32.592000,2,"","",0 days 00:00:29.734000,0 days 00:00:39.736000,0 days 00:00:23.122000,239.0,271.0,289.0,316.0,soft,2.0
0 days 00:25:39.967000,47,0 days 00:01:48.809000,3,"",0 days 00:25:38.227000,0 days 00:00:32.290000,0 days 00:00:47.483000,0 days 00:00:29.036000,216.0,225.0,"",301.0,soft,3.0
0 days 00:31:34.005000,47,"",4,0 days 00:29:34.654000,"","",0 days 00:00:52.084000,0 days 00:00:32.493000,202.0,191.0,287.0,178.0,soft,1.0
0 days 00:33:06.385000,47,0 days 00:01:32.380000,5,"","",0 days 00:00:29.642000,0 days 00:00:39.743000,0 days 00:00:22.995000,239.0,271.0,289.0,318.0,soft,2.0
0 days 00:34:59.112000,47,0 days 00:01:52.727000,6,"",0 days 00:34:57.293000,0 days 00:00:34.766000,0 days 00:00:48.089000,0 days 00:00:29.872000,198.0,202.0,"",220.0,soft,3.0
0 days 00:44:19.428000,47,"",7,0 days 00:42:25.860000,"","",0 days 00:00:51.612000,0 days 00:00:27.425000,179.0,176.0,287.0,205.0,soft,1.0
0 days 00:45:51.426000,47,0 days 00:01:31.998000,8,"","",0 days 00:00:29.538000,0 days 00:00:39.430000,0 days 00:00:23.030000,241.0,271.0,287.0,317.0,soft,2.0
0 days 00:47:40.534000,47,0 days 00:01:49.108000,9,"",0 days 00:47:38.272000,0 days 00:00:31.656000,0 days 00:00:46.222000,0 days 00:00:31.230000,220.0,222.0,"",307.0,soft,3.0
0 days 00:53:02.889000,47,"",10,0 days 00:51:06.365000,"","",0 days 00:00:50.977000,0 days 00:00:33.148000,203.0,143.0,287.0,197.0,soft,1.0
0 days 00:54:45.662000,47,0 days 00:01:42.773000,11,"",0 days 00:54:43.837000,0 days 00:00:29.607000,0 days 00:00:41,0 days 00:00:32.166000,241.0,235.0,"",316.0,soft,2.0
0 days 00:19:32.796000,4,"",1,0 days 00:17:48.408000,"","",0 days 00:00:46.594000,0 days 00:00:25.305000,218.0,245.0,284.0,183.0,soft,1.0
0 days 00:21:05.909000,4,0 days 00:01:33.113000,2,"","",0 days 00:00:29.999000,0 days 00:00:39.802000,0 days 00:00:23.312000,238.0,266.0,282.0,310.0,soft,2.0
0 days 00:23:30.866000,4,0 days 00:02:24.957000,3,"","",0 days 00:00:44.692000,0 days 00:00:57.900000,0 days 00:00:42.365000,135.0,210.0,284.0,231.0,soft,3.0
0 days 00:25:04.225000,4,0 days 00:01:33.359000,4,"","",0 days 00:00:29.917000,0 days 00:00:40.038000,0 days 00:00:23.404000,236.0,265.0,283.0,314.0,soft,4.0
0 days 00:26:53.556000,4,0 days 00:01:49.331000,5,"",0 days 00:26:51.796000,0 days 00:00:32.854000,0 days 00:00:45.761000,0 days 00:00:30.716000,191.0,227.0,"",272.0,soft,5.0
0 days 00:31:22.211000,4,"",6,0 days 00:29:38.462000,"","",0 days 00:00:44.108000,0 days 00:00:28,198.0,239.0,286.0,190.0,soft,1.0
0 days 00:32:54.450000,4,0 days 00:01:32.239000,7,"","",0 days 00:00:29.632000,0 days 00:00:39.514000,0 days 00:00:23.093000,237.0,267.0,285.0,315.0,soft,2.0
0 days 00:34:45.143000,4,0 days 00:01:50.693000,8,"",0 days 00:34:43.339000,0 days 00:00:34.503000,0 days 00:00:45.621000,0 days 00:00:30.569000,204.0,196.0,"",256.0,soft,3.0
0 days 00:45:32.699000,4,"",9,0 days 00:43:46.779000,"","",0 days 00:00:43.721000,0 days 00:00:29.514000,224.0,226.0,282.0,195.0,soft,1.0
0 days 00:47:05.172000,4,0 days 00:01:32.473000,10,"","",0 days 00:00:29.564000,0 days 00:00:39.753000,0 days 00:00:23.156000,237.0,267.0,287.0,315.0,soft,2.0
0 days 00:48:53.222000,4,0 days 00:01:48.050000,11,"",0 days 00:48:51.428000,0 days 00:00:32.967000,0 days 00:00:45.778000,0 days 00:00:29.305000,218.0,190.0,"",271.0,soft,3.0
0 days 00:53:25.602000,4,"",12,0 days 00:51:28.466000,"","",0 days 00:00:46.728000,0 days 00:00:31.731000,224.0,241.0,286.0,108.0,soft,1.0
0 days 00:54:57.610000,4,0 days 00:01:32.008000,13,"","",0 days 00:00:29.544000,0 days 00:00:39.355000,0 days 00:00:23.109000,237.0,267.0,283.0,313.0,soft,2.0
0 days 00:56:52.337000,4,0 days 00:01:54.727000,14,"",0 days 00:56:50.028000,0 days 00:00:34.595000,0 days 00:00:47.894000,0 days 00:00:32.238000,188.0,190.0,"",239.0,soft,3.0
0 days 00:16:48.876000,23,"",1,0 days 00:15:02.640000,"","",0 days 00:00:47.181000,0 days 00:00:25.065000,221.0,228.0,286.0,187.0,medium,1.0
0 days 00:18:30.180000,23,0 days 00:01:41.304000,2,"",0 days 00:18:28.415000,0 days 00:00:30.926000,0 days 00:00:42.633000,0 days 00:00:27.745000,235.0,247.0,"",311.0,medium,2.0
0 days 00:22:48.080000,23,"",3,0 days 00:20:58.816000,"","",0 days 00:00:47.493000,0 days 00:00:29.067000,224.0,190.0,288.0,180.0,soft,1.0
0 days 00:24:21.156000,23,0 days 00:01:33.076000,4,"","",0 days 00:00:29.771000,0 days 00:00:39.950000,0 days 00:00:23.355000,237.0,270.0,288.0,316.0,soft,2.0
0 days 00:26:11.679000,23,0 days 00:01:50.523000,5,"",0 days 00:26:09.936000,0 days 00:00:37.281000,0 days 00:00:44.268000,0 days 00:00:28.974000,206.0,240.0,"",286.0,soft,3.0
0 days 00:31:03.429000,23,"",6,0 days 00:29:09.698000,"","",0 days 00:00:50.294000,0 days 00:00:26.337000,216.0,178.0,287.0,147.0,soft,1.0
0 days 00:32:36.155000,23,0 days 00:01:32.726000,7,"","",0 days 00:00:29.640000,0 days 00:00:39.785000,0 days 00:00:23.301000,240.0,272.0,288.0,314.0,soft,2.0
0 days 00:34:32.223000,23,0 days 00:01:56.068000,8,"",0 days 00:34:30.473000,0 days 00:00:37.792000,0 days 00:00:48.084000,0 days 00:00:30.192000,209.0,201.0,"",278.0,soft,3.0
0 days 00:41:44.749000,23,"",9,0 days 00:40:03.708000,"","",0 days 00:00:43.621000,0 days 00:00:24.799000,229.0,242.0,286.0,186.0,soft,4.0
0 days 00:43:26.986000,23,0 days 00:01:42.237000,10,"",0 days 00:43:23.505000,0 days 00:00:30.096000,0 days 00:00:42.724000,0 days 00:00:29.417000,235.0,241.0,"",312.0,soft,5.0
0 days 00:49:04.548000,23,"",11,0 days 00:47:13.110000,"","",0 days 00:00:50.179000,0 days 00:00:26.987000,199.0,178.0,286.0,180.0,soft,1.0
0 days 00:50:37.212000,23,0 days 00:01:32.664000,12,"","",0 days 00:00:29.564000,0 days 00:00:39.897000,0 days 00:00:23.203000,240.0,271.0,287.0,313.0,soft,2.0
0 days 00:52:33.744000,23,0 days 00:01:56.532000,13,"",0 days 00:52:31.949000,0 days 00:00:35.427000,0 days 00:00:50.044000,0 days 00:00:31.061000,171.0,197.0,"",294.0,soft,3.0
0 days 00:23:00.090000,24,"",1,0 days 00:20:54.406000,"","",0 days 00:00:55.708000,0 days 00:00:33.581000,200.0,193.0,286.0,139.0,soft,1.0
0 days 00:24:32.876000,24,0 days 00:01:32.786000,2,"","",0 days 00:00:29.649000,0 days 00:00:39.883000,0 days 00:00:23.254000,241.0,268.0,287.0,314.0,soft,2.0
0 days 00:26:27.465000,24,0 days 00:01:54.589000,3,"",0 days 00:26:25.686000,0 days 00:00:38.003000,0 days 00:00:47.180000,0 days 00:00:29.406000,212.0,222.0,"",212.0,soft,3.0
0 days 00:31:50.435000,24,"",4,0 days 00:29:48.373000,"","",0 days 00:00:52.273000,0 days 00:00:32.726000,158.0,204.0,286.0,146.0,soft,1.0
0 days 00:33:22.928000,24,0 days 00:01:32.493000,5,"","",0 days 00:00:29.501000,0 days 00:00:39.796000,0 days 00:00:23.196000,240.0,268.0,288.0,314.0,soft,2.0
0 days 00:35:22.924000,24,0 days 00:01:59.996000,6,"",0 days 00:35:21.089000,0 days 00:00:37.684000,0 days 00:00:51.747000,0 days 00:00:30.565000,183.0,208.0,"",214.0,soft,3.0
0 days 00:44:44.333000,24,"",7,0 days 00:42:44.535000,"","",0 days 00:00:51.878000,0 days 00:00:30.221000,182.0,205.0,285.0,126.0,soft,4.0
0 days 00:46:17.876000,24,0 days 00:01:33.543000,8,"","",0 days 00:00:29.826000,0 days 00:00:40.401000,0 days 00:00:23.316000,240.0,268.0,285.0,314.0,soft,5.0
0 days 00:48:08.241000,24,0 days 00:01:50.365000,9,"",0 days 00:48:06.076000,0 days 00:00:34.830000,0 days 00:00:46.570000,0 days 00:00:28.965000,213.0,227.0,"",247.0,soft,6.0
0 days 00:53:19.903000,24,"",10,0 days 00:51:17.331000,"","",0 days 00:00:51.455000,0 days 00:00:27.369000,207.0,147.0,285.0,64.0,soft,1.0
0 days 00:54:52.290000,24,0 days 00:01:32.387000,11,"","",0 days 00:00:29.493000,0 days 00:00:39.829000,0 days 00:00:23.065000,241.0,268.0,286.0,315.0,soft,2.0
0 days 00:56:47.737000,24,0 days 00:01:55.447000,12,"",0 days 00:56:45.796000,0 days 00:00:36.609000,0 days 00:00:49.221000,0 days 00:00:29.617000,160.0,213.0,"",252.0,soft,3.0
0 days 00:17:10.425000,22,"",1,0 days 00:15:15.898000,"","",0 days 00:00:48.814000,0 days 00:00:25.479000,211.0,221.0,285.0,104.0,soft,1.0
0 days 00:18:44.006000,22,0 days 00:01:33.581000,2,"","",0 days 00:00:30.115000,0 days 00:00:40.109000,0 days 00:00:23.357000,234.0,266.0,284.0,312.0,soft,2.0
0 days 00:20:33.569000,22,0 days 00:01:49.563000,3,"",0 days 00:20:30.877000,0 days 00:00:33.744000,0 days 00:00:46.369000,0 days 00:00:29.450000,214.0,218.0,"",291.0,soft,3.0
0 days 00:25:28.847000,22,"",4,0 days 00:23:26.918000,"","",0 days 00:00:52.365000,0 days 00:00:25.413000,216.0,221.0,285.0,69.0,soft,1.0
0 days 00:27:13.943000,22,0 days 00:01:45.096000,5,"",0 days 00:27:12.163000,0 days 00:00:31.965000,0 days 00:00:45.468000,0 days 00:00:27.663000,234.0,252.0,"",316.0,soft,2.0
0 days 00:31:38.631000,22,"",6,0 days 00:29:44.644000,"","",0 days 00:00:46.488000,0 days 00:00:31.663000,193.0,235.0,287.0,162.0,soft,1.0
0 days 00:33:11.381000,22,0 days 00:01:32.750000,7,"","",0 days 00:00:29.724000,0 days 00:00:39.811000,0 days 00:00:23.215000,235.0,267.0,286.0,318.0,soft,2.0
0 days 00:35:00.707000,22,0 days 00:01:49.326000,8,"",0 days 00:34:58.911000,0 days 00:00:33.514000,0 days 00:00:46.201000,0 days 00:00:29.611000,216.0,220.0,"",278.0,soft,3.0
0 days 00:23:18.119000,27,"",1,0 days 00:21:11.548000,"","",0 days 00:00:56.996000,0 days 00:00:32.923000,168.0,160.0,284.0,188.0,soft,1.0
0 days 00:24:51.553000,27,0 days 00:01:33.434000,2,"","",0 days 00:00:30.001000,0 days 00:00:40.059000,0 days 00:00:23.374000,237.0,264.0,279.0,310.0,soft,2.0
0 days 00:26:44.851000,27,0 days 00:01:53.298000,3,"",0 days 00:26:40.986000,0 days 00:00:35.918000,0 days 00:00:46.223000,0 days 00:00:31.157000,216.0,218.0,"",204.0,soft,3.0
0 days 00:32:00.035000,27,"",4,0 days 00:29:49.380000,"","",0 days 00:01:00.680000,0 days 00:00:30.423000,160.0,177.0,282.0,141.0,soft,1.0
0 days 00:33:32.812000,27,0 days 00:01:32.777000,5,"","",0 days 00:00:29.833000,0 days 00:00:39.760000,0 days 00:00:23.184000,238.0,264.0,279.0,310.0,soft,2.0
0 days 00:35:29.861000,27,0 days 00:01:57.049000,6,"",0 days 00:35:28.110000,0 days 00:00:37.023000,0 days 00:00:48.650000,0 days 00:00:31.376000,201.0,170.0,"",208.0,soft,3.0
0 days 00:19:25.179000,3,"",1,0 days 00:17:40.088000,"","",0 days 00:00:46.763000,0 days 00:00:24.773000,207.0,238.0,281.0,188.0,soft,1.0
0 days 00:20:58.782000,3,0 days 00:01:33.603000,2,"","",0 days 00:00:30.007000,0 days 00:00:40.188000,0 days 00:00:23.408000,237.0,265.0,281.0,307.0,soft,2.0
0 days 00:23:04.910000,3,0 days 00:02:06.128000,3,"","",0 days 00:00:42.141000,0 days 00:00:57.452000,0 days 00:00:26.535000,161.0,183.0,283.0,212.0,soft,3.0
0 days 00:24:38.435000,3,0 days 00:01:33.525000,4,"","",0 days 00:00:30.006000,0 days 00:00:40.159000,0 days 00:00:23.360000,237.0,265.0,283.0,311.0,soft,4.0
0 days 00:26:29.974000,3,0 days 00:01:51.539000,5,"",0 days 00:26:28.188000,0 days 00:00:34.284000,0 days 00:00:47.504000,0 days 00:00:29.751000,184.0,208.0,"",256.0,soft,5.0
0 days 00:31:08.152000,3,"",6,0 days 00:29:29.183000,"","",0 days 00:00:43.193000,0 days 00:00:24.556000,225.0,246.0,283.0,195.0,soft,1.0
0 days 00:32:41.097000,3,0 days 00:01:32.945000,7,"","",0 days 00:00:29.763000,0 days 00:00:39.862000,0 days 00:00:23.320000,237.0,266.0,282.0,311.0,soft,2.0
0 days 00:34:40.212000,3,0 days 00:01:59.115000,8,"",0 days 00:34:38.437000,0 days 00:00:35.891000,0 days 00:00:48.376000,0 days 00:00:34.848000,179.0,194.0,"",245.0,soft,3.0
0 days 00:22:36.941000,18,"",1,0 days 00:20:46.720000,"","",0 days 00:00:47.894000,0 days 00:00:24.406000,178.0,232.0,282.0,126.0,soft,1.0
0 days 00:24:10.250000,18,0 days 00:01:33.309000,2,"","",0 days 00:00:29.917000,0 days 00:00:39.995000,0 days 00:00:23.397000,238.0,267.0,283.0,309.0,soft,2.0
0 days 00:26:05.264000,18,0 days 00:01:55.014000,3,"",0 days 00:26:03.497000,0 days 00:00:34.307000,0 days 00:00:48.289000,0 days 00:00:32.418000,217.0,193.0,"",237.0,soft,3.0
0 days 00:31:28.783000,18,"",4,0 days 00:29:39.365000,"","",0 days 00:00:44.161000,0 days 00:00:34.109000,207.0,212.0,284.0,175.0,soft,1.0
0 days 00:33:01.815000,18,0 days 00:01:33.032000,5,"","",0 days 00:00:29.906000,0 days 00:00:39.844000,0 days 00:00:23.282000,238.0,267.0,284.0,311.0,soft,2.0
0 days 00:34:47.158000,18,0 days 00:01:45.343000,6,"",0 days 00:34:45.333000,0 days 00:00:32.247000,0 days 00:00:44.190000,0 days 00:00:28.906000,215.0,230.0,"",287.0,soft,3.0
0 days 00:16:58.666000,6,"",1,0 days 00:15:11.777000,"","",0 days 00:00:45.969000,0 days 00:00:25.979000,227.0,246.0,285.0,166.0,medium,1.0
0 days 00:18:42.110000,6,0 days 00:01:43.444000,2,"",0 days 00:18:40.321000,0 days 00:00:30.834000,0 days 00:00:42.612000,0 days 00:00:29.998000,236.0,211.0,"",313.0,medium,2.0
0 days 00:23:47.531000,6,"",3,0 days 00:21:38.333000,"","",0 days 00:00:49.485000,0 days 00:00:39.062000,224.0,121.0,288.0,78.0,soft,1.0
0 days 00:25:21.165000,6,0 days 00:01:33.634000,4,"","",0 days 00:00:29.810000,0 days 00:00:40.495000,0 days 00:00:23.329000,240.0,270.0,289.0,319.0,soft,2.0
0 days 00:27:17.730000,6,0 days 00:01:56.565000,5,"",0 days 00:27:15.890000,0 days 00:00:32.953000,0 days 00:00:54.041000,0 days 00:00:29.571000,218.0,242.0,"",303.0,soft,3.0
0 days 00:32:07.289000,6,"",6,0 days 00:30:01.230000,"","",0 days 00:00:53.772000,0 days 00:00:33.350000,230.0,110.0,285.0,146.0,soft,1.0
0 days 00:33:41.075000,6,0 days 00:01:33.786000,7,"","",0 days 00:00:30.116000,0 days 00:00:40.370000,0 days 00:00:23.300000,237.0,270.0,287.0,315.0,soft,2.0
0 days 00:35:43.081000,6,0 days 00:02:02.006000,8,"",0 days 00:35:41.291000,0 days 00:00:35.597000,0 days 00:00:53.898000,0 days 00:00:32.511000,171.0,183.0,"",298.0,soft,3.0
