Time,DriverNumber,LapTime,LapNumber,PitOutTime,PitInTime,Sector1Time,Sector2Time,Sector3Time,SpeedI1,SpeedI2,SpeedFL,SpeedST,Compound,TyreLife
0 days 00:17:50.414000,1,"",1,0 days 00:16:05.702000,"","",0 days 00:00:53.610000,0 days 00:00:23.543000,288.0,75.0,315.0,"",hard,1.0
0 days 00:19:14.451000,1,0 days 00:01:24.037000,2,"","",0 days 00:00:19.038000,0 days 00:00:47.062000,0 days 00:00:17.937000,319.0,231.0,316.0,318.0,hard,2.0
0 days 00:20:28.555000,1,0 days 00:01:14.104000,3,"","",0 days 00:00:18.839000,0 days 00:00:38.010000,0 days 00:00:17.255000,320.0,260.0,320.0,322.0,hard,3.0
0 days 00:22:10.616000,1,0 days 00:01:42.061000,4,"",0 days 00:22:07.599000,0 days 00:00:27.925000,0 days 00:00:50.502000,0 days 00:00:23.634000,120.0,200.0,"",266.0,hard,4.0
0 days 00:24:18.793000,1,0 days 00:02:08.177000,5,0 days 00:22:36.070000,"",0 days 00:00:49.543000,0 days 00:00:58.142000,0 days 00:00:20.492000,204.0,197.0,316.0,"",hard,5.0
0 days 00:25:32.439000,1,0 days 00:01:13.646000,6,"","",0 days 00:00:18.746000,0 days 00:00:37.816000,0 days 00:00:17.084000,322.0,259.0,323.0,323.0,hard,6.0
0 days 00:27:28.105000,1,0 days 00:01:55.666000,7,"","",0 days 00:00:28.777000,0 days 00:01:06.248000,0 days 00:00:20.641000,165.0,193.0,319.0,257.0,hard,7.0
0 days 00:28:57.359000,1,0 days 00:01:29.254000,8,"","",0 days 00:00:18.745000,0 days 00:00:52.540000,0 days 00:00:17.969000,324.0,230.0,318.0,325.0,hard,8.0
0 days 00:30:10.934000,1,0 days 00:01:13.575000,9,"","",0 days 00:00:18.558000,0 days 00:00:37.883000,0 days 00:00:17.134000,321.0,260.0,329.0,"",hard,9.0
0 days 00:31:39.245000,1,0 days 00:01:28.311000,10,"",0 days 00:31:36.211000,0 days 00:00:20.504000,0 days 00:00:44.747000,0 days 00:00:23.060000,278.0,217.0,"",280.0,hard,10.0
0 days 00:43:59.137000,1,"",11,0 days 00:42:38.440000,"","",0 days 00:00:43.505000,0 days 00:00:17.703000,286.0,233.0,319.0,"",soft,1.0
0 days 00:45:10.998000,1,0 days 00:01:11.861000,12,"","",0 days 00:00:18.294000,0 days 00:00:36.852000,0 days 00:00:16.715000,321.0,261.0,321.0,324.0,soft,2.0
0 days 00:46:43.198000,1,0 days 00:01:32.200000,13,"",0 days 00:46:40.161000,0 days 00:00:24.454000,0 days 00:00:44.315000,0 days 00:00:23.431000,269.0,206.0,"",239.0,soft,3.0
0 days 00:53:32.578000,1,"",14,0 days 00:51:41.768000,"","",0 days 00:01:09.361000,0 days 00:00:17.859000,127.0,216.0,319.0,"",soft,4.0
0 days 00:54:44.676000,1,0 days 00:01:12.098000,15,"","",0 days 00:00:18.408000,0 days 00:00:36.881000,0 days 00:00:16.809000,322.0,261.0,322.0,324.0,soft,5.0
0 days 00:56:08.592000,1,0 days 00:01:23.916000,16,"",0 days 00:56:05.586000,0 days 00:00:20.499000,0 days 00:00:41.002000,0 days 00:00:22.415000,276.0,226.0,"",262.0,soft,6.0
0 days 01:03:31.628000,1,"",17,0 days 01:01:43.492000,"","",0 days 00:00:51.595000,0 days 00:00:17.698000,262.0,235.0,297.0,"",soft,7.0
0 days 01:04:47.478000,1,0 days 00:01:15.850000,18,"","",0 days 00:00:19.316000,0 days 00:00:39.028000,0 days 00:00:17.506000,299.0,244.0,306.0,284.0,soft,8.0
0 days 01:06:03.645000,1,0 days 00:01:16.167000,19,"","",0 days 00:00:19.319000,0 days 00:00:39.176000,0 days 00:00:17.672000,305.0,247.0,303.0,288.0,soft,9.0
0 days 01:07:19.879000,1,0 days 00:01:16.234000,20,"","",0 days 00:00:19.373000,0 days 00:00:39.222000,0 days 00:00:17.639000,"",246.0,304.0,290.0,soft,10.0
0 days 01:08:35.858000,1,0 days 00:01:15.979000,21,"","",0 days 00:00:19.342000,0 days 00:00:38.991000,0 days 00:00:17.646000,302.0,246.0,302.0,289.0,soft,11.0
0 days 01:09:52.154000,1,0 days 00:01:16.296000,22,"","",0 days 00:00:19.376000,0 days 00:00:39.274000,0 days 00:00:17.646000,301.0,246.0,302.0,288.0,soft,12.0
0 days 01:11:08.608000,1,0 days 00:01:16.454000,23,"","",0 days 00:00:19.344000,0 days 00:00:39.387000,0 days 00:00:17.723000,"",247.0,304.0,295.0,soft,13.0
0 days 01:12:27.027000,1,0 days 00:01:18.419000,24,"","",0 days 00:00:19.469000,0 days 00:00:41.215000,0 days 00:00:17.735000,303.0,231.0,303.0,297.0,soft,14.0
0 days 01:13:43.713000,1,0 days 00:01:16.686000,25,"","",0 days 00:00:19.400000,0 days 00:00:39.577000,0 days 00:00:17.709000,306.0,238.0,303.0,296.0,soft,15.0
0 days 01:15:00.307000,1,0 days 00:01:16.594000,26,"","",0 days 00:00:19.428000,0 days 00:00:39.486000,0 days 00:00:17.680000,304.0,238.0,303.0,293.0,soft,16.0
0 days 01:16:56.669000,1,0 days 00:01:56.362000,27,"","",0 days 00:00:24.265000,0 days 00:00:48.865000,0 days 00:00:43.232000,198.0,159.0,85.0,295.0,soft,17.0
0 days 01:18:52.711000,1,0 days 00:01:56.042000,28,"",0 days 01:18:49.703000,0 days 00:00:53.056000,0 days 00:00:40.536000,0 days 00:00:22.450000,275.0,232.0,"",182.0,soft,18.0
0 days 00:16:46.212000,55,"",1,0 days 00:15:12.945000,"","",0 days 00:00:47.255000,0 days 00:00:21.021000,211.0,73.0,290.0,"",hard,1.0
0 days 00:18:02.586000,55,0 days 00:01:16.374000,2,"","",0 days 00:00:19.801000,0 days 00:00:38.892000,0 days 00:00:17.681000,297.0,249.0,294.0,287.0,hard,2.0
0 days 00:19:18.274000,55,0 days 00:01:15.688000,3,"","",0 days 00:00:19.509000,0 days 00:00:38.544000,0 days 00:00:17.635000,"",252.0,295.0,288.0,hard,3.0
0 days 00:20:33.834000,55,0 days 00:01:15.560000,4,"","",0 days 00:00:19.374000,0 days 00:00:38.510000,0 days 00:00:17.676000,"",250.0,297.0,289.0,hard,4.0
0 days 00:21:55.834000,55,0 days 00:01:22,5,"",0 days 00:21:52.773000,0 days 00:00:19.267000,0 days 00:00:41.236000,0 days 00:00:21.497000,"",222.0,"",288.0,hard,5.0
0 days 00:24:12.215000,55,0 days 00:02:16.381000,6,0 days 00:22:21.109000,"",0 days 00:01:02.083000,0 days 00:00:56.230000,0 days 00:00:18.068000,175.0,185.0,298.0,"",hard,6.0
0 days 00:25:27.197000,55,0 days 00:01:14.982000,7,"","",0 days 00:00:19.284000,0 days 00:00:38.259000,0 days 00:00:17.439000,303.0,255.0,304.0,294.0,hard,7.0
0 days 00:26:51.887000,55,0 days 00:01:24.690000,8,"","",0 days 00:00:19.168000,0 days 00:00:47.748000,0 days 00:00:17.774000,"",201.0,313.0,299.0,hard,8.0
0 days 00:28:05.957000,55,0 days 00:01:14.070000,9,"","",0 days 00:00:18.668000,0 days 00:00:38.129000,0 days 00:00:17.273000,316.0,255.0,317.0,312.0,hard,9.0
0 days 00:29:34.814000,55,0 days 00:01:28.857000,10,"",0 days 00:29:31.849000,0 days 00:00:18.853000,0 days 00:00:46.677000,0 days 00:00:23.327000,311.0,219.0,"",323.0,hard,10.0
0 days 00:31:29.899000,55,0 days 00:01:55.085000,11,0 days 00:29:59.755000,"",0 days 00:00:42.050000,0 days 00:00:55.623000,0 days 00:00:17.412000,278.0,237.0,315.0,"",hard,11.0
0 days 00:32:44.466000,55,0 days 00:01:14.567000,12,"","",0 days 00:00:18.729000,0 days 00:00:38.416000,0 days 00:00:17.422000,315.0,254.0,313.0,321.0,hard,12.0
0 days 00:34:17.757000,55,0 days 00:01:33.291000,13,"",0 days 00:34:14.788000,0 days 00:00:22.447000,0 days 00:00:48.637000,0 days 00:00:22.207000,200.0,216.0,"",310.0,hard,13.0
0 days 00:52:13.127000,55,"",14,0 days 00:50:46.866000,"","",0 days 00:00:43.966000,0 days 00:00:22.923000,242.0,90.0,312.0,"",medium,1.0
0 days 00:53:25.231000,55,0 days 00:01:12.104000,15,"","",0 days 00:00:18.480000,0 days 00:00:36.754000,0 days 00:00:16.870000,317.0,260.0,315.0,313.0,medium,2.0
0 days 00:55:28.043000,55,0 days 00:02:02.812000,16,"","",0 days 00:00:29.993000,0 days 00:01:14.920000,0 days 00:00:17.899000,143.0,158.0,312.0,238.0,medium,3.0
0 days 00:56:40.558000,55,0 days 00:01:12.515000,17,"","",0 days 00:00:18.482000,0 days 00:00:37,0 days 00:00:17.033000,318.0,261.0,311.0,314.0,medium,4.0
0 days 00:58:10.748000,55,0 days 00:01:30.190000,18,"","",0 days 00:00:26.324000,0 days 00:00:46.165000,0 days 00:00:17.701000,227.0,198.0,296.0,230.0,medium,5.0
0 days 00:59:25.065000,55,0 days 00:01:14.317000,19,"","",0 days 00:00:19.097000,0 days 00:00:37.918000,0 days 00:00:17.302000,300.0,249.0,298.0,289.0,medium,6.0
0 days 01:00:39.315000,55,0 days 00:01:14.250000,20,"","",0 days 00:00:18.957000,0 days 00:00:37.866000,0 days 00:00:17.427000,303.0,256.0,299.0,295.0,medium,7.0
0 days 01:01:54.252000,55,0 days 00:01:14.937000,21,"","",0 days 00:00:19.146000,0 days 00:00:38.275000,0 days 00:00:17.516000,300.0,251.0,299.0,290.0,medium,8.0
0 days 01:03:08.741000,55,0 days 00:01:14.489000,22,"","",0 days 00:00:18.960000,0 days 00:00:37.960000,0 days 00:00:17.569000,303.0,255.0,298.0,294.0,medium,9.0
0 days 01:04:27.138000,55,0 days 00:01:18.397000,23,"",0 days 01:04:24.112000,0 days 00:00:19.078000,0 days 00:00:38.506000,0 days 00:00:20.813000,302.0,250.0,"",292.0,medium,10.0
0 days 01:09:29.869000,55,"",24,0 days 01:07:58.061000,"","",0 days 00:00:50.877000,0 days 00:00:17.565000,264.0,230.0,312.0,"",soft,1.0
0 days 01:10:41.908000,55,0 days 00:01:12.039000,25,"","",0 days 00:00:18.359000,0 days 00:00:36.755000,0 days 00:00:16.925000,317.0,260.0,309.0,315.0,soft,2.0
0 days 01:12:40.780000,55,0 days 00:01:58.872000,26,"","",0 days 00:00:33.532000,0 days 00:00:58.922000,0 days 00:00:26.418000,135.0,160.0,175.0,223.0,soft,3.0
0 days 01:14:31.140000,55,0 days 00:01:50.360000,27,"","",0 days 00:00:35.672000,0 days 00:00:57.092000,0 days 00:00:17.596000,186.0,225.0,311.0,166.0,soft,4.0
0 days 01:15:43.373000,55,0 days 00:01:12.233000,28,"","",0 days 00:00:18.596000,0 days 00:00:36.743000,0 days 00:00:16.894000,315.0,260.0,311.0,311.0,soft,5.0
0 days 01:17:42.597000,55,0 days 00:01:59.224000,29,"","",0 days 00:00:23.641000,0 days 00:00:53.677000,0 days 00:00:41.906000,186.0,152.0,69.0,266.0,soft,6.0
0 days 01:19:29.354000,55,0 days 00:01:46.757000,30,"",0 days 01:19:26.301000,0 days 00:00:45.851000,0 days 00:00:39.310000,0 days 00:00:21.596000,302.0,210.0,"",212.0,soft,7.0
0 days 00:16:48.973000,47,"",1,0 days 00:15:16.323000,"","",0 days 00:00:47.323000,0 days 00:00:20.784000,250.0,140.0,312.0,"",hard,1.0
0 days 00:18:06.395000,47,0 days 00:01:17.422000,2,"","",0 days 00:00:19.990000,0 days 00:00:39.961000,0 days 00:00:17.471000,314.0,241.0,315.0,289.0,hard,2.0
0 days 00:19:22.026000,47,0 days 00:01:15.631000,3,"","",0 days 00:00:19.298000,0 days 00:00:39.024000,0 days 00:00:17.309000,317.0,251.0,316.0,314.0,hard,3.0
0 days 00:20:37.495000,47,0 days 00:01:15.469000,4,"","",0 days 00:00:19.227000,0 days 00:00:38.908000,0 days 00:00:17.334000,315.0,248.0,318.0,309.0,hard,4.0
0 days 00:21:53.228000,47,0 days 00:01:15.733000,5,"","",0 days 00:00:19.146000,0 days 00:00:39.052000,0 days 00:00:17.535000,316.0,246.0,316.0,316.0,hard,5.0
0 days 00:23:52.802000,47,0 days 00:01:59.574000,6,"","",0 days 00:00:29.354000,0 days 00:01:12.180000,0 days 00:00:18.040000,139.0,212.0,315.0,242.0,hard,6.0
0 days 00:25:09.158000,47,0 days 00:01:16.356000,7,"","",0 days 00:00:19.235000,0 days 00:00:39.485000,0 days 00:00:17.636000,315.0,241.0,297.0,317.0,hard,7.0
0 days 00:26:25.692000,47,0 days 00:01:16.534000,8,"","",0 days 00:00:19.364000,0 days 00:00:39.498000,0 days 00:00:17.672000,303.0,248.0,298.0,294.0,hard,8.0
0 days 00:27:57.194000,47,0 days 00:01:31.502000,9,"",0 days 00:27:54.202000,0 days 00:00:23.480000,0 days 00:00:43.919000,0 days 00:00:24.103000,181.0,231.0,"",274.0,hard,9.0
0 days 00:30:00.548000,47,0 days 00:02:03.354000,10,0 days 00:28:12.588000,0 days 00:29:57.593000,0 days 00:00:55.282000,0 days 00:00:45.723000,0 days 00:00:22.349000,242.0,222.0,"","",hard,10.0
0 days 00:40:21.242000,47,"",11,0 days 00:38:36.638000,"","",0 days 00:00:47.552000,0 days 00:00:18.299000,243.0,152.0,311.0,"",medium,1.0
0 days 00:41:34.622000,47,0 days 00:01:13.380000,12,"","",0 days 00:00:18.763000,0 days 00:00:37.489000,0 days 00:00:17.128000,316.0,258.0,314.0,313.0,medium,2.0
0 days 00:43:20.658000,47,0 days 00:01:46.036000,13,"","",0 days 00:00:29.756000,0 days 00:00:57.918000,0 days 00:00:18.362000,239.0,206.0,311.0,226.0,medium,3.0
0 days 00:44:34.443000,47,0 days 00:01:13.785000,14,"","",0 days 00:00:18.796000,0 days 00:00:37.906000,0 days 00:00:17.083000,314.0,260.0,309.0,312.0,medium,4.0
0 days 00:46:29.743000,47,0 days 00:01:55.300000,15,"","",0 days 00:00:28.274000,0 days 00:01:08.469000,0 days 00:00:18.557000,244.0,192.0,313.0,172.0,medium,5.0
0 days 00:47:44.228000,47,0 days 00:01:14.485000,16,"","",0 days 00:00:18.906000,0 days 00:00:38.061000,0 days 00:00:17.518000,315.0,246.0,296.0,314.0,medium,6.0
0 days 00:49:10.529000,47,0 days 00:01:26.301000,17,"",0 days 00:49:07.486000,0 days 00:00:23.170000,0 days 00:00:40.931000,0 days 00:00:22.200000,199.0,237.0,"",282.0,medium,7.0
0 days 00:59:13.641000,47,"",18,0 days 00:57:32.285000,"","",0 days 00:00:48.973000,0 days 00:00:18.244000,260.0,211.0,314.0,"",soft,1.0
0 days 01:00:25.955000,47,0 days 00:01:12.314000,19,"","",0 days 00:00:18.413000,0 days 00:00:37.061000,0 days 00:00:16.840000,319.0,261.0,316.0,316.0,soft,2.0
0 days 01:02:36.398000,47,0 days 00:02:10.443000,20,"","",0 days 00:00:27.460000,0 days 00:01:22.736000,0 days 00:00:20.247000,120.0,50.0,313.0,241.0,soft,3.0
0 days 01:04:13.875000,47,0 days 00:01:37.477000,21,"","",0 days 00:00:23.252000,0 days 00:00:56.121000,0 days 00:00:18.104000,202.0,200.0,296.0,315.0,soft,4.0
0 days 01:05:27.794000,47,0 days 00:01:13.919000,22,"","",0 days 00:00:19.104000,0 days 00:00:37.655000,0 days 00:00:17.160000,302.0,258.0,300.0,295.0,soft,5.0
0 days 01:06:54.651000,47,0 days 00:01:26.857000,23,"",0 days 01:06:51.683000,0 days 00:00:23.168000,0 days 00:00:42.132000,0 days 00:00:21.557000,199.0,242.0,"",289.0,soft,6.0
0 days 01:14:32.069000,47,"",24,0 days 01:12:53.221000,"","",0 days 00:00:44.598000,0 days 00:00:18.319000,182.0,208.0,296.0,"",soft,7.0
0 days 01:15:48.729000,47,0 days 00:01:16.660000,25,"","",0 days 00:00:19.656000,0 days 00:00:39.179000,0 days 00:00:17.825000,296.0,240.0,292.0,292.0,soft,8.0
0 days 01:17:37.388000,47,0 days 00:01:48.659000,26,"","",0 days 00:00:19.643000,0 days 00:00:44.302000,0 days 00:00:44.714000,293.0,122.0,40.0,288.0,soft,9.0
0 days 01:19:21.796000,47,0 days 00:01:44.408000,27,"",0 days 01:19:18.724000,0 days 00:00:40.870000,0 days 00:00:41.045000,0 days 00:00:22.493000,292.0,214.0,"",206.0,soft,10.0
0 days 00:17:33.343000,44,"",1,0 days 00:15:42.039000,"","",0 days 00:00:47.760000,0 days 00:00:19.997000,264.0,71.0,303.0,"",medium,1.0
0 days 00:18:48.361000,44,0 days 00:01:15.018000,2,"","",0 days 00:00:19.311000,0 days 00:00:38.284000,0 days 00:00:17.423000,293.0,248.0,299.0,302.0,medium,2.0
0 days 00:20:03.429000,44,0 days 00:01:15.068000,3,"","",0 days 00:00:19.307000,0 days 00:00:38.431000,0 days 00:00:17.330000,298.0,254.0,302.0,"",medium,3.0
0 days 00:21:18.680000,44,0 days 00:01:15.251000,4,"","",0 days 00:00:19.151000,0 days 00:00:38.655000,0 days 00:00:17.445000,302.0,249.0,302.0,306.0,medium,4.0
0 days 00:22:34.264000,44,0 days 00:01:15.584000,5,"","",0 days 00:00:19.187000,0 days 00:00:38.807000,0 days 00:00:17.590000,308.0,249.0,300.0,308.0,medium,5.0
0 days 00:23:49.727000,44,0 days 00:01:15.463000,6,"","",0 days 00:00:19.185000,0 days 00:00:38.740000,0 days 00:00:17.538000,298.0,250.0,298.0,303.0,medium,6.0
0 days 00:25:04.944000,44,0 days 00:01:15.217000,7,"","",0 days 00:00:19.363000,0 days 00:00:38.230000,0 days 00:00:17.624000,302.0,253.0,299.0,302.0,medium,7.0
0 days 00:26:20.296000,44,0 days 00:01:15.352000,8,"","",0 days 00:00:19.147000,0 days 00:00:38.671000,0 days 00:00:17.534000,300.0,250.0,301.0,300.0,medium,8.0
0 days 00:27:35.370000,44,0 days 00:01:15.074000,9,"","",0 days 00:00:19.102000,0 days 00:00:38.441000,0 days 00:00:17.531000,302.0,253.0,302.0,299.0,medium,9.0
0 days 00:29:39.700000,44,0 days 00:02:04.330000,10,"","",0 days 00:00:34.219000,0 days 00:01:11.157000,0 days 00:00:18.954000,119.0,177.0,312.0,301.0,medium,10.0
0 days 00:30:53.692000,44,0 days 00:01:13.992000,11,"","",0 days 00:00:18.688000,0 days 00:00:37.951000,0 days 00:00:17.353000,316.0,256.0,317.0,318.0,medium,11.0
0 days 00:32:30.478000,44,0 days 00:01:36.786000,12,"",0 days 00:32:27.483000,0 days 00:00:20.444000,0 days 00:00:54.056000,0 days 00:00:22.286000,276.0,206.0,"",277.0,medium,12.0
0 days 00:45:28.203000,44,"",13,0 days 00:43:41.316000,"","",0 days 00:00:46.789000,0 days 00:00:17.888000,252.0,188.0,311.0,"",medium,13.0
0 days 00:46:41.977000,44,0 days 00:01:13.774000,14,"","",0 days 00:00:18.711000,0 days 00:00:37.900000,0 days 00:00:17.163000,315.0,258.0,314.0,315.0,medium,14.0
0 days 00:48:39.392000,44,0 days 00:01:57.415000,15,"",0 days 00:48:36.353000,0 days 00:00:29.698000,0 days 00:00:57.371000,0 days 00:00:30.346000,239.0,165.0,"",269.0,medium,15.0
0 days 00:50:47.102000,44,0 days 00:02:07.710000,16,0 days 00:49:10.126000,"",0 days 00:00:56.547000,0 days 00:00:53.361000,0 days 00:00:17.802000,246.0,152.0,316.0,"",medium,16.0
0 days 00:52:09.237000,44,0 days 00:01:22.135000,17,"",0 days 00:52:06.182000,0 days 00:00:18.931000,0 days 00:00:41.396000,0 days 00:00:21.808000,316.0,228.0,"",319.0,medium,17.0
0 days 01:05:11.564000,44,"",18,0 days 01:03:35.908000,"","",0 days 00:00:51.398000,0 days 00:00:17.915000,251.0,188.0,314.0,"",soft,1.0
0 days 01:06:48.577000,44,0 days 00:01:37.013000,19,"","",0 days 00:00:18.420000,0 days 00:00:51.906000,0 days 00:00:26.687000,318.0,137.0,213.0,319.0,soft,2.0
0 days 01:08:50.134000,44,0 days 00:02:01.557000,20,"","",0 days 00:00:32.288000,0 days 00:01:07.025000,0 days 00:00:22.244000,174.0,76.0,315.0,195.0,soft,3.0
0 days 01:10:02.174000,44,0 days 00:01:12.040000,21,"","",0 days 00:00:18.340000,0 days 00:00:37.053000,0 days 00:00:16.647000,320.0,259.0,317.0,321.0,soft,4.0
0 days 01:11:50.979000,44,0 days 00:01:48.805000,22,"",0 days 01:11:47.971000,0 days 00:00:30.020000,0 days 00:00:56.473000,0 days 00:00:22.312000,143.0,134.0,"",250.0,soft,5.0
0 days 01:16:16.459000,44,"",23,0 days 01:14:53.578000,"","",0 days 00:00:41.960000,0 days 00:00:18.695000,260.0,242.0,274.0,"",medium,18.0
0 days 01:18:39.730000,44,0 days 00:02:23.271000,24,"","",0 days 00:00:24.985000,0 days 00:00:53.236000,0 days 00:01:05.050000,197.0,126.0,87.0,277.0,medium,19.0
0 days 01:20:20.776000,44,0 days 00:01:41.046000,25,"",0 days 01:20:17.726000,0 days 00:00:25.241000,0 days 00:00:48.490000,0 days 00:00:27.315000,240.0,112.0,"",238.0,medium,20.0
0 days 00:16:54.098000,31,"",1,0 days 00:15:07.435000,"","",0 days 00:00:42.794000,0 days 00:00:18.116000,258.0,221.0,310.0,"",hard,1.0
0 days 00:18:09.593000,31,0 days 00:01:15.495000,2,"","",0 days 00:00:19.367000,0 days 00:00:38.878000,0 days 00:00:17.250000,316.0,255.0,316.0,315.0,hard,2.0
0 days 00:19:49.308000,31,0 days 00:01:39.715000,3,"","",0 days 00:00:25.004000,0 days 00:00:55.985000,0 days 00:00:18.726000,187.0,208.0,315.0,257.0,hard,3.0
0 days 00:21:03.848000,31,0 days 00:01:14.540000,4,"","",0 days 00:00:19.022000,0 days 00:00:38.290000,0 days 00:00:17.228000,316.0,259.0,314.0,321.0,hard,4.0
0 days 00:22:48.042000,31,0 days 00:01:44.194000,5,"","",0 days 00:00:24.287000,0 days 00:01:01.135000,0 days 00:00:18.772000,195.0,178.0,321.0,258.0,hard,5.0
0 days 00:24:21.146000,31,0 days 00:01:33.104000,6,"","",0 days 00:00:19.985000,0 days 00:00:52.523000,0 days 00:00:20.596000,163.0,72.0,316.0,316.0,hard,6.0
0 days 00:25:35.504000,31,0 days 00:01:14.358000,7,"","",0 days 00:00:18.902000,0 days 00:00:38.218000,0 days 00:00:17.238000,318.0,258.0,318.0,322.0,hard,7.0
0 days 00:27:15.575000,31,0 days 00:01:40.071000,8,"","",0 days 00:00:27.136000,0 days 00:00:55.032000,0 days 00:00:17.903000,163.0,217.0,319.0,280.0,hard,8.0
0 days 00:28:29.736000,31,0 days 00:01:14.161000,9,"","",0 days 00:00:18.790000,0 days 00:00:38.248000,0 days 00:00:17.123000,320.0,258.0,325.0,325.0,hard,9.0
0 days 00:29:45.292000,31,0 days 00:01:15.556000,10,"","",0 days 00:00:19.140000,0 days 00:00:39.001000,0 days 00:00:17.415000,305.0,249.0,309.0,318.0,hard,10.0
0 days 00:31:00.608000,31,0 days 00:01:15.316000,11,"","",0 days 00:00:19.174000,0 days 00:00:38.718000,0 days 00:00:17.424000,298.0,250.0,303.0,301.0,hard,11.0
0 days 00:32:16.270000,31,0 days 00:01:15.662000,12,"","",0 days 00:00:19.352000,0 days 00:00:38.898000,0 days 00:00:17.412000,299.0,250.0,303.0,294.0,hard,12.0
0 days 00:33:31.924000,31,0 days 00:01:15.654000,13,"","",0 days 00:00:19.386000,0 days 00:00:38.884000,0 days 00:00:17.384000,298.0,248.0,303.0,291.0,hard,13.0
0 days 00:34:47.995000,31,0 days 00:01:16.071000,14,"","",0 days 00:00:19.497000,0 days 00:00:39.032000,0 days 00:00:17.542000,296.0,244.0,303.0,289.0,hard,14.0
0 days 00:36:09.532000,31,0 days 00:01:21.537000,15,"",0 days 00:36:06.581000,0 days 00:00:19.421000,0 days 00:00:39.128000,0 days 00:00:22.988000,"",240.0,"",287.0,hard,15.0
0 days 00:48:46.484000,31,"",16,0 days 00:46:57.875000,"","",0 days 00:00:50.149000,0 days 00:00:18.300000,253.0,204.0,318.0,"",hard,16.0
0 days 00:50:00.974000,31,0 days 00:01:14.490000,17,"","",0 days 00:00:18.943000,0 days 00:00:38.321000,0 days 00:00:17.226000,319.0,254.0,321.0,323.0,hard,17.0
0 days 00:51:46.669000,31,0 days 00:01:45.695000,18,"","",0 days 00:00:30.236000,0 days 00:00:56.730000,0 days 00:00:18.729000,162.0,133.0,317.0,154.0,hard,18.0
0 days 00:53:01.978000,31,0 days 00:01:15.309000,19,"","",0 days 00:00:19.043000,0 days 00:00:38.840000,0 days 00:00:17.426000,320.0,256.0,302.0,323.0,hard,19.0
0 days 00:54:17.585000,31,0 days 00:01:15.607000,20,"","",0 days 00:00:19.349000,0 days 00:00:38.752000,0 days 00:00:17.506000,302.0,252.0,300.0,302.0,hard,20.0
0 days 00:55:33.561000,31,0 days 00:01:15.976000,21,"","",0 days 00:00:19.515000,0 days 00:00:39.027000,0 days 00:00:17.434000,296.0,243.0,300.0,289.0,hard,21.0
0 days 00:57:10.628000,31,0 days 00:01:37.067000,22,"",0 days 00:57:07.602000,0 days 00:00:28.082000,0 days 00:00:45.439000,0 days 00:00:23.546000,200.0,224.0,"",178.0,hard,22.0
0 days 01:07:55.225000,31,"",23,0 days 01:06:32.302000,"","",0 days 00:00:43.755000,0 days 00:00:17.822000,240.0,226.0,317.0,"",medium,1.0
0 days 01:09:07.930000,31,0 days 00:01:12.705000,24,"","",0 days 00:00:18.533000,0 days 00:00:37.342000,0 days 00:00:16.830000,318.0,261.0,322.0,322.0,medium,2.0
0 days 01:11:02.137000,31,0 days 00:01:54.207000,25,"","",0 days 00:00:29.637000,0 days 00:01:06.375000,0 days 00:00:18.195000,148.0,208.0,316.0,199.0,medium,3.0
0 days 01:12:15.510000,31,0 days 00:01:13.373000,26,"","",0 days 00:00:18.697000,0 days 00:00:37.629000,0 days 00:00:17.047000,320.0,260.0,317.0,323.0,medium,4.0
0 days 01:14:04.277000,31,0 days 00:01:48.767000,27,"","",0 days 00:00:30.525000,0 days 00:01:00.313000,0 days 00:00:17.929000,132.0,206.0,315.0,236.0,medium,5.0
0 days 01:15:17.535000,31,0 days 00:01:13.258000,28,"","",0 days 00:00:18.787000,0 days 00:00:37.450000,0 days 00:00:17.021000,319.0,260.0,319.0,319.0,medium,6.0
0 days 01:17:14.713000,31,0 days 00:01:57.178000,29,"","",0 days 00:00:26.650000,0 days 00:00:55.421000,0 days 00:00:35.107000,168.0,126.0,60.0,272.0,medium,7.0
0 days 01:19:02.550000,31,0 days 00:01:47.837000,30,"",0 days 01:18:59.534000,0 days 00:00:44.350000,0 days 00:00:38.551000,0 days 00:00:24.936000,305.0,204.0,"",227.0,medium,8.0
0 days 00:16:39.673000,24,"",1,0 days 00:15:10.054000,"","",0 days 00:00:45.167000,0 days 00:00:18.753000,251.0,206.0,303.0,"",medium,1.0
0 days 00:17:56.429000,24,0 days 00:01:16.756000,2,"","",0 days 00:00:19.874000,0 days 00:00:39.381000,0 days 00:00:17.501000,310.0,244.0,310.0,283.0,medium,2.0
0 days 00:19:34.288000,24,0 days 00:01:37.859000,3,"","",0 days 00:00:28.613000,0 days 00:00:50.739000,0 days 00:00:18.507000,99.0,184.0,309.0,225.0,medium,3.0
0 days 00:20:49.009000,24,0 days 00:01:14.721000,4,"","",0 days 00:00:19.032000,0 days 00:00:38.346000,0 days 00:00:17.343000,315.0,253.0,308.0,309.0,medium,4.0
0 days 00:22:25.525000,24,0 days 00:01:36.516000,5,"","",0 days 00:00:29.497000,0 days 00:00:48.928000,0 days 00:00:18.091000,245.0,188.0,309.0,218.0,medium,5.0
0 days 00:23:40.192000,24,0 days 00:01:14.667000,6,"","",0 days 00:00:18.956000,0 days 00:00:38.343000,0 days 00:00:17.368000,316.0,254.0,309.0,311.0,medium,6.0
0 days 00:25:24.826000,24,0 days 00:01:44.634000,7,"","",0 days 00:00:26.129000,0 days 00:01:00.522000,0 days 00:00:17.983000,168.0,197.0,295.0,228.0,medium,7.0
0 days 00:26:40.933000,24,0 days 00:01:16.107000,8,"","",0 days 00:00:19.712000,0 days 00:00:38.765000,0 days 00:00:17.630000,290.0,244.0,293.0,283.0,medium,8.0
0 days 00:27:56.914000,24,0 days 00:01:15.981000,9,"","",0 days 00:00:19.503000,0 days 00:00:38.757000,0 days 00:00:17.721000,291.0,244.0,296.0,281.0,medium,9.0
0 days 00:29:12.904000,24,0 days 00:01:15.990000,10,"","",0 days 00:00:19.407000,0 days 00:00:38.829000,0 days 00:00:17.754000,298.0,248.0,299.0,290.0,medium,10.0
0 days 00:30:28.873000,24,0 days 00:01:15.969000,11,"","",0 days 00:00:19.506000,0 days 00:00:38.767000,0 days 00:00:17.696000,297.0,247.0,299.0,289.0,medium,11.0
0 days 00:31:44.945000,24,0 days 00:01:16.072000,12,"","",0 days 00:00:19.434000,0 days 00:00:38.894000,0 days 00:00:17.744000,298.0,247.0,298.0,291.0,medium,12.0
0 days 00:33:01.940000,24,0 days 00:01:16.995000,13,"","",0 days 00:00:19.538000,0 days 00:00:39.611000,0 days 00:00:17.846000,"",237.0,300.0,301.0,medium,13.0
0 days 00:34:18.116000,24,0 days 00:01:16.176000,14,"","",0 days 00:00:19.493000,0 days 00:00:38.952000,0 days 00:00:17.731000,"",246.0,299.0,290.0,medium,14.0
0 days 00:35:48.155000,24,0 days 00:01:30.039000,15,"",0 days 00:35:45.154000,0 days 00:00:22.031000,0 days 00:00:44.286000,0 days 00:00:23.722000,282.0,209.0,"",294.0,medium,15.0
0 days 00:46:46.380000,24,"",16,0 days 00:45:16.510000,"","",0 days 00:00:50.107000,0 days 00:00:18.060000,274.0,188.0,311.0,"",soft,1.0
0 days 00:47:59.816000,24,0 days 00:01:13.436000,17,"","",0 days 00:00:18.808000,0 days 00:00:37.353000,0 days 00:00:17.275000,314.0,257.0,314.0,313.0,soft,2.0
0 days 00:49:45.100000,24,0 days 00:01:45.284000,18,"",0 days 00:49:42.133000,0 days 00:00:25.518000,0 days 00:00:54.600000,0 days 00:00:25.166000,235.0,167.0,"",245.0,soft,3.0
0 days 00:51:54.393000,24,0 days 00:02:09.293000,19,0 days 00:50:02.412000,"",0 days 00:01:03.991000,0 days 00:00:47.361000,0 days 00:00:17.941000,196.0,193.0,315.0,"",soft,4.0
0 days 00:53:07.508000,24,0 days 00:01:13.115000,20,"","",0 days 00:00:18.826000,0 days 00:00:37.379000,0 days 00:00:16.910000,318.0,258.0,316.0,317.0,soft,5.0
0 days 00:54:52.030000,24,0 days 00:01:44.522000,21,"",0 days 00:54:49.077000,0 days 00:00:27.235000,0 days 00:00:53.778000,0 days 00:00:23.509000,221.0,139.0,"",256.0,soft,6.0
0 days 00:56:59.914000,24,0 days 00:02:07.884000,22,0 days 00:55:09.552000,"",0 days 00:01:01.814000,0 days 00:00:48.074000,0 days 00:00:17.996000,199.0,198.0,310.0,"",soft,7.0
0 days 00:58:13.454000,24,0 days 00:01:13.540000,23,"","",0 days 00:00:18.832000,0 days 00:00:37.646000,0 days 00:00:17.062000,316.0,258.0,315.0,313.0,soft,8.0
0 days 00:59:44.219000,24,0 days 00:01:30.765000,24,"",0 days 00:59:41.284000,0 days 00:00:22.897000,0 days 00:00:44.860000,0 days 00:00:23.008000,279.0,205.0,"",240.0,soft,9.0
0 days 01:11:31.414000,24,"",25,0 days 01:10:02.368000,"","",0 days 00:00:49.812000,0 days 00:00:18.183000,259.0,194.0,309.0,"",soft,10.0
0 days 01:12:44.957000,24,0 days 00:01:13.543000,26,"","",0 days 00:00:19.068000,0 days 00:00:37.397000,0 days 00:00:17.078000,313.0,260.0,314.0,313.0,soft,11.0
0 days 01:14:22.027000,24,0 days 00:01:37.070000,27,"","",0 days 00:00:24.173000,0 days 00:00:55.165000,0 days 00:00:17.732000,276.0,210.0,311.0,229.0,soft,12.0
0 days 01:15:36.079000,24,0 days 00:01:14.052000,28,"","",0 days 00:00:19.199000,0 days 00:00:37.643000,0 days 00:00:17.210000,315.0,257.0,313.0,312.0,soft,13.0
0 days 01:17:42.949000,24,0 days 00:02:06.870000,29,"","",0 days 00:00:27.806000,0 days 00:00:52.090000,0 days 00:00:46.974000,181.0,122.0,29.0,209.0,soft,14.0
0 days 01:19:28.815000,24,0 days 00:01:45.866000,30,"",0 days 01:19:25.772000,0 days 00:00:41.133000,0 days 00:00:42.434000,0 days 00:00:22.299000,299.0,223.0,"",220.0,soft,15.0
0 days 00:21:22.904000,23,"",1,0 days 00:19:47.690000,"","",0 days 00:00:53.225000,0 days 00:00:19.408000,281.0,171.0,317.0,"",medium,1.0
0 days 00:22:39.055000,23,0 days 00:01:16.151000,2,"","",0 days 00:00:19.448000,0 days 00:00:39.278000,0 days 00:00:17.425000,314.0,233.0,318.0,286.0,medium,2.0
0 days 00:23:54.146000,23,0 days 00:01:15.091000,3,"","",0 days 00:00:19.055000,0 days 00:00:38.690000,0 days 00:00:17.346000,316.0,244.0,318.0,316.0,medium,3.0
0 days 00:25:10.193000,23,0 days 00:01:16.047000,4,"","",0 days 00:00:19.187000,0 days 00:00:39.119000,0 days 00:00:17.741000,322.0,249.0,306.0,326.0,medium,4.0
0 days 00:26:31.347000,23,0 days 00:01:21.154000,5,"","",0 days 00:00:19.321000,0 days 00:00:43.504000,0 days 00:00:18.329000,310.0,149.0,303.0,302.0,medium,5.0
0 days 00:27:47.041000,23,0 days 00:01:15.694000,6,"","",0 days 00:00:19.267000,0 days 00:00:38.902000,0 days 00:00:17.525000,306.0,245.0,304.0,305.0,medium,6.0
0 days 00:29:03.352000,23,0 days 00:01:16.311000,7,"","",0 days 00:00:19.291000,0 days 00:00:39.208000,0 days 00:00:17.812000,300.0,240.0,305.0,304.0,medium,7.0
0 days 00:30:19.780000,23,0 days 00:01:16.428000,8,"","",0 days 00:00:19.192000,0 days 00:00:39.554000,0 days 00:00:17.682000,303.0,236.0,306.0,"",medium,8.0
0 days 00:31:36.568000,23,0 days 00:01:16.788000,9,"","",0 days 00:00:19.416000,0 days 00:00:39.660000,0 days 00:00:17.712000,302.0,240.0,306.0,300.0,medium,9.0
0 days 00:32:58.659000,23,0 days 00:01:22.091000,10,"",0 days 00:32:55.731000,0 days 00:00:19.537000,0 days 00:00:40.089000,0 days 00:00:22.465000,301.0,225.0,"",301.0,medium,10.0
0 days 00:34:46.404000,23,0 days 00:01:47.745000,11,0 days 00:33:20.336000,0 days 00:34:43.456000,0 days 00:00:41.017000,0 days 00:00:45.190000,0 days 00:00:21.538000,241.0,237.0,"","",medium,11.0
0 days 00:47:02.823000,23,"",12,0 days 00:45:34.333000,"","",0 days 00:00:47.793000,0 days 00:00:20.297000,286.0,118.0,318.0,"",soft,1.0
0 days 00:48:15.791000,23,0 days 00:01:12.968000,13,"","",0 days 00:00:18.608000,0 days 00:00:37.327000,0 days 00:00:17.033000,321.0,255.0,323.0,324.0,soft,2.0
0 days 00:50:02.002000,23,0 days 00:01:46.211000,14,"","",0 days 00:00:27.045000,0 days 00:00:57.578000,0 days 00:00:21.588000,177.0,75.0,313.0,268.0,soft,3.0
0 days 00:51:36.996000,23,0 days 00:01:34.994000,15,"","",0 days 00:00:22.429000,0 days 00:00:53.399000,0 days 00:00:19.166000,280.0,185.0,320.0,258.0,soft,4.0
0 days 00:52:50.372000,23,0 days 00:01:13.376000,16,"","",0 days 00:00:18.727000,0 days 00:00:37.724000,0 days 00:00:16.925000,323.0,257.0,323.0,326.0,soft,5.0
0 days 00:54:27.401000,23,0 days 00:01:37.029000,17,"","",0 days 00:00:24.344000,0 days 00:00:54.553000,0 days 00:00:18.132000,274.0,195.0,320.0,315.0,soft,6.0
0 days 00:55:41.895000,23,0 days 00:01:14.494000,18,"","",0 days 00:00:18.761000,0 days 00:00:38.492000,0 days 00:00:17.241000,314.0,247.0,320.0,324.0,soft,7.0
0 days 00:57:08.941000,23,0 days 00:01:27.046000,19,"",0 days 00:57:05.983000,0 days 00:00:20.986000,0 days 00:00:42.338000,0 days 00:00:23.722000,284.0,236.0,"",318.0,soft,8.0
0 days 01:06:13.066000,23,"",20,0 days 01:04:49.428000,"","",0 days 00:00:44.638000,0 days 00:00:17.652000,292.0,204.0,322.0,"",soft,1.0
0 days 01:07:25.699000,23,0 days 00:01:12.633000,21,"","",0 days 00:00:18.575000,0 days 00:00:37.163000,0 days 00:00:16.895000,325.0,259.0,325.0,328.0,soft,2.0
0 days 01:09:07.542000,23,0 days 00:01:41.843000,22,"","",0 days 00:00:25.833000,0 days 00:00:56.229000,0 days 00:00:19.781000,273.0,187.0,277.0,262.0,soft,3.0
0 days 01:10:44.418000,23,0 days 00:01:36.876000,23,"","",0 days 00:00:24.356000,0 days 00:00:54.487000,0 days 00:00:18.033000,282.0,110.0,322.0,240.0,soft,4.0
0 days 01:11:58.565000,23,0 days 00:01:14.147000,24,"","",0 days 00:00:18.388000,0 days 00:00:37.521000,0 days 00:00:18.238000,325.0,263.0,302.0,328.0,soft,5.0
0 days 01:13:29.892000,23,0 days 00:01:31.327000,25,"","",0 days 00:00:24.761000,0 days 00:00:47.449000,0 days 00:00:19.117000,278.0,186.0,288.0,265.0,soft,6.0
0 days 01:14:54.472000,23,0 days 00:01:24.580000,26,"","",0 days 00:00:22.555000,0 days 00:00:44.592000,0 days 00:00:17.433000,289.0,230.0,322.0,277.0,soft,7.0
0 days 01:16:07.815000,23,0 days 00:01:13.343000,27,"","",0 days 00:00:18.788000,0 days 00:00:37.652000,0 days 00:00:16.903000,326.0,259.0,325.0,327.0,soft,8.0
0 days 01:18:26.490000,23,0 days 00:02:18.675000,28,"","",0 days 00:00:23.036000,0 days 00:00:54.301000,0 days 00:01:01.338000,292.0,140.0,5.0,318.0,soft,9.0
0 days 01:19:58.426000,23,0 days 00:01:31.936000,29,"",0 days 01:19:55.398000,0 days 00:00:26.599000,0 days 00:00:43.325000,0 days 00:00:22.012000,275.0,216.0,"",210.0,soft,10.0
0 days 00:17:38.023000,22,"",1,0 days 00:15:58.961000,"","",0 days 00:00:49.351000,0 days 00:00:22.266000,281.0,112.0,313.0,"",hard,1.0
0 days 00:18:55.726000,22,0 days 00:01:17.703000,2,"","",0 days 00:00:19.906000,0 days 00:00:40.368000,0 days 00:00:17.429000,317.0,243.0,315.0,311.0,hard,2.0
0 days 00:20:12.035000,22,0 days 00:01:16.309000,3,"","",0 days 00:00:19.426000,0 days 00:00:39.480000,0 days 00:00:17.403000,318.0,243.0,317.0,305.0,hard,3.0
0 days 00:21:45.471000,22,0 days 00:01:33.436000,4,"","",0 days 00:00:23.325000,0 days 00:00:51.983000,0 days 00:00:18.128000,129.0,225.0,314.0,267.0,hard,4.0
0 days 00:23:01.414000,22,0 days 00:01:15.943000,5,"","",0 days 00:00:19.235000,0 days 00:00:39.386000,0 days 00:00:17.322000,319.0,250.0,319.0,310.0,hard,5.0
0 days 00:24:37.295000,22,0 days 00:01:35.881000,6,"","",0 days 00:00:24.702000,0 days 00:00:52.361000,0 days 00:00:18.818000,266.0,209.0,318.0,282.0,hard,6.0
0 days 00:25:52.486000,22,0 days 00:01:15.191000,7,"","",0 days 00:00:19.073000,0 days 00:00:38.929000,0 days 00:00:17.189000,321.0,254.0,324.0,321.0,hard,7.0
0 days 00:27:39.028000,22,0 days 00:01:46.542000,8,"",0 days 00:27:36.344000,0 days 00:00:23.814000,0 days 00:00:57.860000,0 days 00:00:24.868000,153.0,192.0,"",280.0,hard,8.0
0 days 00:29:35.606000,22,0 days 00:01:56.578000,9,0 days 00:28:08.301000,"",0 days 00:00:49.989000,0 days 00:00:48.073000,0 days 00:00:18.516000,278.0,189.0,315.0,"",hard,9.0
0 days 00:30:50.825000,22,0 days 00:01:15.219000,10,"","",0 days 00:00:19.069000,0 days 00:00:38.847000,0 days 00:00:17.303000,317.0,252.0,318.0,319.0,hard,10.0
0 days 00:32:20.756000,22,0 days 00:01:29.931000,11,"","",0 days 00:00:23.752000,0 days 00:00:48.487000,0 days 00:00:17.692000,187.0,235.0,302.0,276.0,hard,11.0
0 days 00:33:37.296000,22,0 days 00:01:16.540000,12,"","",0 days 00:00:19.566000,0 days 00:00:39.528000,0 days 00:00:17.446000,302.0,246.0,304.0,301.0,hard,12.0
0 days 00:34:54.003000,22,0 days 00:01:16.707000,13,"","",0 days 00:00:19.511000,0 days 00:00:39.663000,0 days 00:00:17.533000,305.0,249.0,304.0,298.0,hard,13.0
0 days 00:36:10.527000,22,0 days 00:01:16.524000,14,"","",0 days 00:00:19.449000,0 days 00:00:39.713000,0 days 00:00:17.362000,307.0,246.0,304.0,301.0,hard,14.0
0 days 00:37:34.670000,22,0 days 00:01:24.143000,15,"",0 days 00:37:31.686000,0 days 00:00:19.581000,0 days 00:00:41.556000,0 days 00:00:23.006000,306.0,155.0,"",298.0,hard,15.0
0 days 00:50:01.208000,22,"",16,0 days 00:48:30.846000,"","",0 days 00:00:48.816000,0 days 00:00:20.657000,280.0,176.0,321.0,"",medium,1.0
0 days 00:51:33.434000,22,0 days 00:01:32.226000,17,"","",0 days 00:00:20.610000,0 days 00:00:51.886000,0 days 00:00:19.730000,291.0,111.0,317.0,326.0,medium,2.0
0 days 00:52:47.266000,22,0 days 00:01:13.832000,18,"","",0 days 00:00:18.933000,0 days 00:00:37.893000,0 days 00:00:17.006000,320.0,257.0,320.0,322.0,medium,3.0
0 days 00:54:35.246000,22,0 days 00:01:47.980000,19,"",0 days 00:54:32.267000,0 days 00:00:25.339000,0 days 00:00:58.861000,0 days 00:00:23.780000,229.0,190.0,"",282.0,medium,4.0
0 days 00:56:34.551000,22,0 days 00:01:59.305000,20,0 days 00:55:02.571000,"",0 days 00:00:48.950000,0 days 00:00:52.408000,0 days 00:00:17.947000,275.0,214.0,318.0,"",medium,5.0
0 days 00:57:47.898000,22,0 days 00:01:13.347000,21,"","",0 days 00:00:18.636000,0 days 00:00:37.714000,0 days 00:00:16.997000,323.0,259.0,319.0,323.0,medium,6.0
0 days 00:59:22.368000,22,0 days 00:01:34.470000,22,"",0 days 00:59:19.440000,0 days 00:00:22.088000,0 days 00:00:49.761000,0 days 00:00:22.621000,265.0,222.0,"",289.0,medium,7.0
0 days 01:04:46.526000,22,"",23,0 days 01:03:16.769000,"","",0 days 00:00:51.555000,0 days 00:00:18.237000,288.0,167.0,315.0,"",soft,1.0
0 days 01:06:00.042000,22,0 days 00:01:13.516000,24,"","",0 days 00:00:18.697000,0 days 00:00:37.660000,0 days 00:00:17.159000,319.0,258.0,318.0,322.0,soft,2.0
0 days 01:07:50.402000,22,0 days 00:01:50.360000,25,"","",0 days 00:00:25.553000,0 days 00:00:59.594000,0 days 00:00:25.213000,147.0,121.0,247.0,276.0,soft,3.0
0 days 01:09:34.977000,22,0 days 00:01:44.575000,26,"","",0 days 00:00:27.127000,0 days 00:00:59.210000,0 days 00:00:18.238000,216.0,212.0,315.0,257.0,soft,4.0
0 days 01:10:48.801000,22,0 days 00:01:13.824000,27,"","",0 days 00:00:18.602000,0 days 00:00:38.190000,0 days 00:00:17.032000,319.0,253.0,319.0,323.0,soft,5.0
0 days 01:12:37.421000,22,0 days 00:01:48.620000,28,"",0 days 01:12:34.382000,0 days 00:00:23.751000,0 days 00:01:00.383000,0 days 00:00:24.486000,254.0,155.0,"",256.0,soft,6.0
0 days 01:14:34.715000,22,0 days 00:01:57.294000,29,0 days 01:13:02.367000,"",0 days 00:00:46.580000,0 days 00:00:51.611000,0 days 00:00:19.103000,194.0,210.0,277.0,"",hard,16.0
0 days 01:16:00.503000,22,0 days 00:01:25.788000,30,"","",0 days 00:00:21.565000,0 days 00:00:45.354000,0 days 00:00:18.869000,296.0,218.0,276.0,262.0,hard,17.0
0 days 01:17:54.785000,22,0 days 00:01:54.282000,31,"","",0 days 00:00:22.995000,0 days 00:00:50.912000,0 days 00:00:40.375000,292.0,182.0,55.0,251.0,hard,18.0
0 days 01:19:43.118000,22,0 days 00:01:48.333000,32,"",0 days 01:19:40.057000,0 days 00:00:40.816000,0 days 00:00:43.258000,0 days 00:00:24.259000,304.0,154.0,"",214.0,hard,19.0
0 days 00:16:25.700000,20,"",1,0 days 00:15:01.928000,"","",0 days 00:00:44.477000,0 days 00:00:17.781000,259.0,225.0,308.0,"",hard,1.0
0 days 00:17:42.143000,20,0 days 00:01:16.443000,2,"","",0 days 00:00:19.699000,0 days 00:00:39.352000,0 days 00:00:17.392000,310.0,240.0,314.0,299.0,hard,2.0
0 days 00:18:57.164000,20,0 days 00:01:15.021000,3,"","",0 days 00:00:19.045000,0 days 00:00:38.763000,0 days 00:00:17.213000,317.0,252.0,318.0,312.0,hard,3.0
0 days 00:20:15.401000,20,0 days 00:01:18.237000,4,"","",0 days 00:00:19.003000,0 days 00:00:40.809000,0 days 00:00:18.425000,320.0,101.0,317.0,316.0,hard,4.0
0 days 00:21:31.812000,20,0 days 00:01:16.411000,5,"","",0 days 00:00:19.034000,0 days 00:00:39.745000,0 days 00:00:17.632000,317.0,226.0,317.0,318.0,hard,5.0
0 days 00:22:47.546000,20,0 days 00:01:15.734000,6,"","",0 days 00:00:19.012000,0 days 00:00:38.971000,0 days 00:00:17.751000,319.0,255.0,317.0,319.0,hard,6.0
0 days 00:24:02.926000,20,0 days 00:01:15.380000,7,"","",0 days 00:00:19.005000,0 days 00:00:38.818000,0 days 00:00:17.557000,320.0,256.0,316.0,"",hard,7.0
0 days 00:25:18.745000,20,0 days 00:01:15.752000,8,"","","",0 days 00:00:39.056000,0 days 00:00:17.691000,"",251.0,297.0,318.0,hard,8.0
0 days 00:26:59.242000,20,0 days 00:01:40.497000,9,"",0 days 00:26:56.185000,0 days 00:00:23.337000,0 days 00:00:52.618000,0 days 00:00:24.542000,199.0,182.0,"",286.0,hard,9.0
0 days 00:29:03.652000,20,0 days 00:02:04.410000,10,0 days 00:27:14.282000,0 days 00:29:00.641000,0 days 00:00:59.384000,0 days 00:00:42.166000,0 days 00:00:22.860000,271.0,232.0,"","",hard,10.0
0 days 00:41:42.021000,20,"",11,0 days 00:40:01.278000,"","",0 days 00:00:43.532000,0 days 00:00:18.253000,256.0,197.0,311.0,"",medium,1.0
0 days 00:42:55.197000,20,0 days 00:01:13.176000,12,"","",0 days 00:00:18.728000,0 days 00:00:37.397000,0 days 00:00:17.051000,315.0,256.0,306.0,312.0,medium,2.0
0 days 00:44:31.259000,20,0 days 00:01:36.062000,13,"","",0 days 00:00:20.904000,0 days 00:00:53.758000,0 days 00:00:21.400000,270.0,208.0,189.0,299.0,medium,3.0
0 days 00:46:17.061000,20,0 days 00:01:45.802000,14,"","",0 days 00:00:27.884000,0 days 00:00:59.600000,0 days 00:00:18.318000,271.0,205.0,310.0,137.0,medium,4.0
0 days 00:47:43.221000,20,0 days 00:01:26.160000,15,"",0 days 00:47:40.221000,0 days 00:00:18.816000,0 days 00:00:42.381000,0 days 00:00:24.963000,315.0,228.0,"",312.0,medium,5.0
0 days 00:59:45.061000,20,"",16,0 days 00:58:23.718000,"","",0 days 00:00:45.775000,0 days 00:00:17.745000,275.0,213.0,314.0,"",soft,1.0
0 days 01:00:58.492000,20,0 days 00:01:13.431000,17,"","",0 days 00:00:18.475000,0 days 00:00:38.017000,0 days 00:00:16.939000,319.0,259.0,317.0,316.0,soft,2.0
0 days 01:02:44.269000,20,0 days 00:01:45.777000,18,"","",0 days 00:00:25.876000,0 days 00:00:58.736000,0 days 00:00:21.165000,262.0,187.0,270.0,296.0,soft,3.0
0 days 01:04:32.782000,20,0 days 00:01:48.513000,19,"","",0 days 00:00:26.649000,0 days 00:01:02.962000,0 days 00:00:18.902000,271.0,162.0,315.0,218.0,soft,4.0
0 days 01:05:45.779000,20,0 days 00:01:12.997000,20,"","",0 days 00:00:18.665000,0 days 00:00:37.175000,0 days 00:00:17.157000,316.0,259.0,316.0,313.0,soft,5.0
0 days 01:06:59.062000,20,0 days 00:01:13.283000,21,"","",0 days 00:00:18.637000,0 days 00:00:37.672000,0 days 00:00:16.974000,307.0,257.0,326.0,317.0,soft,6.0
0 days 01:08:38.976000,20,0 days 00:01:39.914000,22,"",0 days 01:08:35.945000,0 days 00:00:23.172000,0 days 00:00:51.905000,0 days 00:00:24.837000,199.0,232.0,"",276.0,soft,7.0
0 days 01:16:18.023000,20,"",23,0 days 01:14:35.665000,"","",0 days 00:00:39.372000,0 days 00:00:17.910000,266.0,240.0,293.0,"",soft,8.0
0 days 01:17:59.261000,20,0 days 00:01:41.238000,24,"","",0 days 00:00:23.743000,0 days 00:00:42.946000,0 days 00:00:34.549000,239.0,209.0,62.0,285.0,soft,9.0
0 days 01:20:06.483000,20,0 days 00:02:07.222000,25,"",0 days 01:20:03.448000,0 days 00:00:48.619000,0 days 00:00:51.015000,0 days 00:00:27.588000,292.0,84.0,"",219.0,soft,10.0
0 days 00:17:00.402000,18,"",1,0 days 00:15:29.790000,0 days 00:16:57.393000,"",0 days 00:00:43.156000,0 days 00:00:23.211000,263.0,197.0,"","",medium,1.0
0 days 00:26:09.575000,18,"",2,0 days 00:24:45.965000,"","",0 days 00:00:45.657000,0 days 00:00:18.040000,272.0,220.0,296.0,"",hard,1.0
0 days 00:27:25.762000,18,0 days 00:01:16.187000,3,"","",0 days 00:00:19.573000,0 days 00:00:39.129000,0 days 00:00:17.485000,299.0,240.0,311.0,297.0,hard,2.0
0 days 00:28:41.476000,18,0 days 00:01:15.714000,4,"","",0 days 00:00:19.184000,0 days 00:00:38.996000,0 days 00:00:17.534000,312.0,253.0,312.0,317.0,hard,3.0
0 days 00:30:15.512000,18,0 days 00:01:34.036000,5,"","",0 days 00:00:26.571000,0 days 00:00:48.518000,0 days 00:00:18.947000,219.0,158.0,314.0,260.0,hard,4.0
0 days 00:31:30.812000,18,0 days 00:01:15.300000,6,"","",0 days 00:00:19.119000,0 days 00:00:38.753000,0 days 00:00:17.428000,313.0,254.0,320.0,319.0,hard,5.0
0 days 00:33:13.846000,18,0 days 00:01:43.034000,7,"","",0 days 00:00:24.651000,0 days 00:00:57.867000,0 days 00:00:20.516000,160.0,132.0,311.0,259.0,hard,6.0
0 days 00:34:29.705000,18,0 days 00:01:15.859000,8,"","",0 days 00:00:19.125000,0 days 00:00:39.156000,0 days 00:00:17.578000,315.0,254.0,312.0,317.0,hard,7.0
0 days 00:35:57.260000,18,0 days 00:01:27.555000,9,"",0 days 00:35:54.323000,0 days 00:00:20.678000,0 days 00:00:44.037000,0 days 00:00:22.840000,290.0,204.0,"",244.0,hard,8.0
0 days 00:46:52.201000,18,"",10,0 days 00:45:20.827000,"","",0 days 00:00:46.193000,0 days 00:00:20.972000,231.0,121.0,301.0,"",medium,1.0
0 days 00:48:06.320000,18,0 days 00:01:14.119000,11,"","",0 days 00:00:19.078000,0 days 00:00:37.765000,0 days 00:00:17.276000,304.0,252.0,296.0,300.0,medium,2.0
0 days 00:49:46.311000,18,0 days 00:01:39.991000,12,"","",0 days 00:00:26.221000,0 days 00:00:55.412000,0 days 00:00:18.358000,205.0,202.0,314.0,215.0,medium,3.0
0 days 00:50:59.874000,18,0 days 00:01:13.563000,13,"","",0 days 00:00:18.781000,0 days 00:00:37.631000,0 days 00:00:17.151000,316.0,258.0,312.0,318.0,medium,4.0
0 days 00:52:42.419000,18,0 days 00:01:42.545000,14,"",0 days 00:52:39.494000,0 days 00:00:26.798000,0 days 00:00:52.022000,0 days 00:00:23.725000,168.0,188.0,"",247.0,medium,5.0
0 days 00:54:37.755000,18,0 days 00:01:55.336000,15,0 days 00:53:07.009000,"",0 days 00:00:45.421000,0 days 00:00:51.627000,0 days 00:00:18.288000,269.0,169.0,313.0,"",medium,6.0
0 days 00:56:01.948000,18,0 days 00:01:24.193000,16,"",0 days 00:55:58.991000,0 days 00:00:18.837000,0 days 00:00:41.077000,0 days 00:00:24.279000,316.0,220.0,"",316.0,medium,7.0
0 days 01:04:38.109000,18,"",17,0 days 01:03:04.883000,"","",0 days 00:00:53.304000,0 days 00:00:19.997000,260.0,120.0,314.0,"",soft,1.0
0 days 01:05:51.127000,18,0 days 00:01:13.018000,18,"","",0 days 00:00:18.656000,0 days 00:00:37.225000,0 days 00:00:17.137000,317.0,261.0,312.0,318.0,soft,2.0
0 days 01:07:39.164000,18,0 days 00:01:48.037000,19,"","",0 days 00:00:29.523000,0 days 00:00:58.673000,0 days 00:00:19.841000,196.0,151.0,289.0,256.0,soft,3.0
0 days 01:09:17.943000,18,0 days 00:01:38.779000,20,"","",0 days 00:00:26.467000,0 days 00:00:54.556000,0 days 00:00:17.756000,262.0,229.0,314.0,234.0,soft,4.0
0 days 01:10:30.784000,18,0 days 00:01:12.841000,21,"","",0 days 00:00:18.480000,0 days 00:00:37.397000,0 days 00:00:16.964000,317.0,258.0,312.0,318.0,soft,5.0
0 days 01:12:38.368000,18,0 days 00:02:07.584000,22,"","",0 days 00:00:31.925000,0 days 00:01:13.544000,0 days 00:00:22.115000,115.0,173.0,282.0,234.0,soft,6.0
0 days 01:14:10.928000,18,0 days 00:01:32.560000,23,"","",0 days 00:00:24.738000,0 days 00:00:49.875000,0 days 00:00:17.947000,281.0,218.0,313.0,271.0,soft,7.0
0 days 01:15:23.687000,18,0 days 00:01:12.759000,24,"","",0 days 00:00:18.593000,0 days 00:00:37.167000,0 days 00:00:16.999000,317.0,258.0,313.0,316.0,soft,8.0
0 days 01:17:40.457000,18,0 days 00:02:16.770000,25,"","",0 days 00:00:19.628000,0 days 00:00:46.289000,0 days 00:01:10.853000,293.0,172.0,4.0,309.0,soft,9.0
0 days 01:19:16.192000,18,0 days 00:01:35.735000,26,"",0 days 01:19:13.245000,0 days 00:00:23.146000,0 days 00:00:43.740000,0 days 00:00:28.849000,291.0,168.0,"",215.0,soft,10.0
0 days 00:17:29.084000,16,"",1,0 days 00:15:55.676000,"","",0 days 00:00:48.854000,0 days 00:00:19.765000,254.0,162.0,292.0,"",hard,1.0
0 days 00:18:45.915000,16,0 days 00:01:16.831000,2,"","",0 days 00:00:19.929000,0 days 00:00:39.345000,0 days 00:00:17.557000,296.0,242.0,298.0,285.0,hard,2.0
0 days 00:20:01.407000,16,0 days 00:01:15.492000,3,"","",0 days 00:00:19.495000,0 days 00:00:38.510000,0 days 00:00:17.487000,304.0,253.0,298.0,296.0,hard,3.0
0 days 00:21:17.399000,16,0 days 00:01:15.992000,4,"","",0 days 00:00:19.550000,0 days 00:00:38.787000,0 days 00:00:17.655000,297.0,249.0,303.0,292.0,hard,4.0
0 days 00:22:38.489000,16,0 days 00:01:21.090000,5,"",0 days 00:22:35.521000,0 days 00:00:19.319000,0 days 00:00:39.557000,0 days 00:00:22.214000,305.0,243.0,"",298.0,hard,5.0
0 days 00:24:42.683000,16,0 days 00:02:04.194000,6,0 days 00:23:02.569000,"",0 days 00:01:00.647000,0 days 00:00:45.172000,0 days 00:00:18.375000,272.0,152.0,300.0,"",hard,6.0
0 days 00:25:57.558000,16,0 days 00:01:14.875000,7,"","",0 days 00:00:19.299000,0 days 00:00:38.223000,0 days 00:00:17.353000,302.0,255.0,305.0,293.0,hard,7.0
0 days 00:27:12.225000,16,0 days 00:01:14.667000,8,"","",0 days 00:00:19.244000,0 days 00:00:38.273000,0 days 00:00:17.150000,301.0,252.0,318.0,292.0,hard,8.0
0 days 00:29:08.185000,16,0 days 00:01:55.960000,9,"","",0 days 00:00:26.075000,0 days 00:01:09.717000,0 days 00:00:20.168000,148.0,77.0,316.0,312.0,hard,9.0
0 days 00:30:22.274000,16,0 days 00:01:14.089000,10,"","",0 days 00:00:18.759000,0 days 00:00:38.181000,0 days 00:00:17.149000,318.0,258.0,322.0,315.0,hard,10.0
0 days 00:31:37.356000,16,0 days 00:01:15.082000,11,"","",0 days 00:00:18.994000,0 days 00:00:38.563000,0 days 00:00:17.525000,312.0,250.0,319.0,"",hard,11.0
0 days 00:33:19.063000,16,0 days 00:01:41.707000,12,"",0 days 00:33:16.107000,0 days 00:00:24.602000,0 days 00:00:51.667000,0 days 00:00:25.438000,199.0,141.0,"",285.0,hard,12.0
0 days 00:47:25.534000,16,"",13,0 days 00:45:49.009000,"","",0 days 00:00:42.887000,0 days 00:00:17.675000,267.0,233.0,312.0,"",medium,1.0
0 days 00:48:37.938000,16,0 days 00:01:12.404000,14,"","",0 days 00:00:18.622000,0 days 00:00:36.818000,0 days 00:00:16.964000,318.0,263.0,315.0,314.0,medium,2.0
0 days 00:50:25.703000,16,0 days 00:01:47.765000,15,"",0 days 00:50:22.718000,0 days 00:00:27.736000,0 days 00:00:54.600000,0 days 00:00:25.429000,142.0,165.0,"",257.0,medium,3.0
0 days 00:52:42.294000,16,0 days 00:02:16.591000,16,0 days 00:50:55.345000,"",0 days 00:01:08.633000,0 days 00:00:50.380000,0 days 00:00:17.578000,119.0,212.0,311.0,"",medium,4.0
0 days 00:53:54.643000,16,0 days 00:01:12.349000,17,"","",0 days 00:00:18.618000,0 days 00:00:36.726000,0 days 00:00:17.005000,316.0,262.0,312.0,311.0,medium,5.0
0 days 00:55:32.310000,16,0 days 00:01:37.667000,18,"","",0 days 00:00:22.651000,0 days 00:00:53.247000,0 days 00:00:21.769000,245.0,153.0,298.0,279.0,medium,6.0
0 days 00:56:46.489000,16,0 days 00:01:14.179000,19,"","",0 days 00:00:18.996000,0 days 00:00:37.957000,0 days 00:00:17.226000,301.0,253.0,301.0,289.0,medium,7.0
0 days 00:58:00.431000,16,0 days 00:01:13.942000,20,"","",0 days 00:00:18.910000,0 days 00:00:37.692000,0 days 00:00:17.340000,305.0,256.0,300.0,296.0,medium,8.0
0 days 00:59:14.551000,16,0 days 00:01:14.120000,21,"","",0 days 00:00:19.108000,0 days 00:00:37.870000,0 days 00:00:17.142000,304.0,254.0,306.0,293.0,medium,9.0
0 days 01:00:29.077000,16,0 days 00:01:14.526000,22,"","",0 days 00:00:18.926000,0 days 00:00:38.178000,0 days 00:00:17.422000,308.0,254.0,302.0,302.0,medium,10.0
0 days 01:01:43.899000,16,0 days 00:01:14.822000,23,"","",0 days 00:00:19.061000,0 days 00:00:38.236000,0 days 00:00:17.525000,303.0,253.0,298.0,293.0,medium,11.0
0 days 01:03:17.883000,16,0 days 00:01:33.984000,24,"",0 days 01:03:14.888000,0 days 00:00:22.551000,0 days 00:00:47.214000,0 days 00:00:24.219000,209.0,209.0,"",292.0,medium,12.0
0 days 01:10:07.767000,16,"",25,0 days 01:08:33.767000,"","",0 days 00:00:52.569000,0 days 00:00:19.457000,197.0,94.0,313.0,"",soft,1.0
0 days 01:11:19.624000,16,0 days 00:01:11.857000,26,"","",0 days 00:00:18.471000,0 days 00:00:36.455000,0 days 00:00:16.931000,317.0,261.0,313.0,316.0,soft,2.0
0 days 01:13:06.465000,16,0 days 00:01:46.841000,27,"","",0 days 00:00:30.829000,0 days 00:00:58.367000,0 days 00:00:17.645000,107.0,222.0,311.0,260.0,soft,3.0
0 days 01:14:18.343000,16,0 days 00:01:11.878000,28,"","",0 days 00:00:18.430000,0 days 00:00:36.539000,0 days 00:00:16.909000,317.0,262.0,311.0,312.0,soft,4.0
0 days 01:15:52.801000,16,0 days 00:01:34.458000,29,"","",0 days 00:00:18.968000,0 days 00:00:55.529000,0 days 00:00:19.961000,294.0,186.0,270.0,300.0,soft,5.0
0 days 01:17:55.548000,16,0 days 00:02:02.747000,30,"","",0 days 00:00:26.552000,0 days 00:00:53.415000,0 days 00:00:42.780000,198.0,144.0,32.0,205.0,soft,6.0
0 days 01:19:53.450000,16,0 days 00:01:57.902000,31,"",0 days 01:19:50.387000,0 days 00:00:49.138000,0 days 00:00:46.301000,0 days 00:00:22.463000,302.0,182.0,"",234.0,soft,7.0
0 days 00:17:22.363000,14,"",1,0 days 00:15:48.364000,"","",0 days 00:00:48.100000,0 days 00:00:19.662000,258.0,139.0,312.0,"",hard,1.0
0 days 00:18:38.852000,14,0 days 00:01:16.489000,2,"","",0 days 00:00:20.233000,0 days 00:00:39.018000,0 days 00:00:17.238000,310.0,252.0,307.0,319.0,hard,2.0
0 days 00:19:53.711000,14,0 days 00:01:14.859000,3,"","",0 days 00:00:19.166000,0 days 00:00:38.422000,0 days 00:00:17.271000,"",251.0,316.0,293.0,hard,3.0
0 days 00:21:37.242000,14,0 days 00:01:43.531000,4,"","",0 days 00:00:25.576000,0 days 00:00:56.564000,0 days 00:00:21.391000,157.0,75.0,315.0,287.0,hard,4.0
0 days 00:22:58.960000,14,0 days 00:01:21.718000,5,"","",0 days 00:00:18.981000,0 days 00:00:44.586000,0 days 00:00:18.151000,314.0,218.0,314.0,323.0,hard,5.0
0 days 00:24:14.254000,14,0 days 00:01:15.294000,6,"","",0 days 00:00:18.803000,0 days 00:00:38.706000,0 days 00:00:17.785000,312.0,254.0,300.0,320.0,hard,6.0
0 days 00:25:29.781000,14,0 days 00:01:15.527000,7,"","",0 days 00:00:19.538000,0 days 00:00:38.786000,0 days 00:00:17.203000,298.0,253.0,320.0,293.0,hard,7.0
0 days 00:26:45.498000,14,0 days 00:01:15.717000,8,"","",0 days 00:00:19.249000,0 days 00:00:39.084000,0 days 00:00:17.384000,305.0,253.0,303.0,318.0,hard,8.0
0 days 00:28:01.084000,14,0 days 00:01:15.586000,9,"","",0 days 00:00:19.288000,0 days 00:00:38.797000,0 days 00:00:17.501000,301.0,250.0,302.0,296.0,hard,9.0
0 days 00:29:16.778000,14,0 days 00:01:15.694000,10,"","",0 days 00:00:19.342000,0 days 00:00:38.875000,0 days 00:00:17.477000,296.0,248.0,302.0,292.0,hard,10.0
0 days 00:30:32.959000,14,0 days 00:01:16.181000,11,"","",0 days 00:00:19.516000,0 days 00:00:39.136000,0 days 00:00:17.529000,295.0,247.0,304.0,295.0,hard,11.0
0 days 00:32:04.103000,14,0 days 00:01:31.144000,12,"",0 days 00:32:01.120000,0 days 00:00:24.353000,0 days 00:00:43.511000,0 days 00:00:23.280000,200.0,217.0,"",286.0,hard,12.0
0 days 00:46:35.245000,14,"",13,0 days 00:45:11.830000,"","",0 days 00:00:45.017000,0 days 00:00:18.725000,236.0,184.0,318.0,"",medium,1.0
0 days 00:47:48.008000,14,0 days 00:01:12.763000,14,"","",0 days 00:00:18.505000,0 days 00:00:37.248000,0 days 00:00:17.010000,318.0,261.0,318.0,322.0,medium,2.0
0 days 00:49:33.081000,14,0 days 00:01:45.073000,15,"","",0 days 00:00:28.851000,0 days 00:00:56.642000,0 days 00:00:19.580000,204.0,187.0,316.0,260.0,medium,3.0
0 days 00:50:46.196000,14,0 days 00:01:13.115000,16,"","",0 days 00:00:18.695000,0 days 00:00:37.263000,0 days 00:00:17.157000,319.0,261.0,318.0,321.0,medium,4.0
0 days 00:52:23.317000,14,0 days 00:01:37.121000,17,"",0 days 00:52:20.318000,0 days 00:00:23.468000,0 days 00:00:49.749000,0 days 00:00:23.904000,259.0,159.0,"",189.0,medium,5.0
0 days 01:08:00.094000,14,"",18,0 days 01:06:02.661000,"","",0 days 00:00:50.945000,0 days 00:00:19.113000,223.0,180.0,317.0,"",medium,6.0
0 days 01:09:12.648000,14,0 days 00:01:12.554000,19,"","",0 days 00:00:18.519000,0 days 00:00:37.145000,0 days 00:00:16.890000,319.0,263.0,319.0,323.0,medium,7.0
0 days 01:10:58.240000,14,0 days 00:01:45.592000,20,"","",0 days 00:00:26.138000,0 days 00:00:59.115000,0 days 00:00:20.339000,202.0,171.0,314.0,298.0,medium,8.0
0 days 01:12:11.756000,14,0 days 00:01:13.516000,21,"","",0 days 00:00:18.669000,0 days 00:00:37.448000,0 days 00:00:17.399000,317.0,261.0,299.0,321.0,medium,9.0
0 days 01:13:48.800000,14,0 days 00:01:37.044000,22,"","",0 days 00:00:23.101000,0 days 00:00:53.499000,0 days 00:00:20.444000,274.0,152.0,299.0,293.0,medium,10.0
0 days 01:15:03.707000,14,0 days 00:01:14.907000,23,"","",0 days 00:00:19.232000,0 days 00:00:38.428000,0 days 00:00:17.247000,295.0,249.0,299.0,301.0,medium,11.0
0 days 01:16:50.699000,14,0 days 00:01:46.992000,24,"","",0 days 00:00:20.261000,0 days 00:00:48.581000,0 days 00:00:38.150000,248.0,146.0,54.0,288.0,medium,12.0
0 days 01:18:45.544000,14,0 days 00:01:54.845000,25,"",0 days 01:18:42.610000,0 days 00:00:53.151000,0 days 00:00:38.573000,0 days 00:00:23.121000,302.0,248.0,"",210.0,medium,13.0
0 days 00:17:51.975000,11,"",1,0 days 00:16:10.169000,"","",0 days 00:00:50.816000,0 days 00:00:21.723000,284.0,47.0,321.0,"",hard,1.0
0 days 00:19:06.591000,11,0 days 00:01:14.616000,2,"","",0 days 00:00:18.902000,0 days 00:00:38.518000,0 days 00:00:17.196000,322.0,256.0,319.0,315.0,hard,2.0
0 days 00:20:21.068000,11,0 days 00:01:14.477000,3,"","",0 days 00:00:18.909000,0 days 00:00:38.337000,0 days 00:00:17.231000,321.0,257.0,320.0,324.0,hard,3.0
0 days 00:22:02.557000,11,0 days 00:01:41.489000,4,"",0 days 00:21:59.587000,0 days 00:00:25.014000,0 days 00:00:53.801000,0 days 00:00:22.674000,227.0,184.0,"",272.0,hard,4.0
0 days 00:24:25.877000,11,0 days 00:02:23.320000,5,0 days 00:22:29.211000,"",0 days 00:01:06.856000,0 days 00:00:56.243000,0 days 00:00:20.221000,270.0,135.0,318.0,"",hard,5.0
0 days 00:25:39.849000,11,0 days 00:01:13.972000,6,"","",0 days 00:00:18.748000,0 days 00:00:38.117000,0 days 00:00:17.107000,322.0,260.0,323.0,324.0,hard,6.0
0 days 00:27:34.210000,11,0 days 00:01:54.361000,7,"","",0 days 00:00:25.332000,0 days 00:01:06.640000,0 days 00:00:22.389000,180.0,39.0,318.0,241.0,hard,7.0
0 days 00:28:59.669000,11,0 days 00:01:25.459000,8,"",0 days 00:28:56.718000,0 days 00:00:18.679000,0 days 00:00:40.044000,0 days 00:00:26.736000,323.0,204.0,"",328.0,hard,8.0
0 days 00:39:45.294000,11,"",9,0 days 00:38:20.623000,"","",0 days 00:00:45.522000,0 days 00:00:17.800000,287.0,214.0,319.0,"",soft,1.0
0 days 00:40:57.147000,11,0 days 00:01:11.853000,10,"","",0 days 00:00:18.432000,0 days 00:00:36.773000,0 days 00:00:16.648000,322.0,261.0,322.0,324.0,soft,2.0
0 days 00:42:37.354000,11,0 days 00:01:40.207000,11,"",0 days 00:42:34.349000,0 days 00:00:26.848000,0 days 00:00:50.522000,0 days 00:00:22.837000,207.0,206.0,"",251.0,soft,3.0
0 days 00:50:29.335000,11,"",12,0 days 00:48:58.742000,"","",0 days 00:00:51.862000,0 days 00:00:17.737000,280.0,211.0,321.0,"",soft,4.0
0 days 00:51:41.256000,11,0 days 00:01:11.921000,13,"","",0 days 00:00:18.356000,0 days 00:00:36.920000,0 days 00:00:16.645000,323.0,262.0,326.0,327.0,soft,5.0
0 days 00:53:09.585000,11,0 days 00:01:28.329000,14,"",0 days 00:53:06.554000,0 days 00:00:21.326000,0 days 00:00:45.058000,0 days 00:00:21.945000,277.0,223.0,"",289.0,soft,6.0
0 days 01:00:51.931000,11,"",15,0 days 00:59:16.334000,"","",0 days 00:00:42.817000,0 days 00:00:17.762000,267.0,216.0,300.0,"",soft,7.0
0 days 01:02:08.112000,11,0 days 00:01:16.181000,16,"","",0 days 00:00:19.426000,0 days 00:00:39.207000,0 days 00:00:17.548000,303.0,241.0,300.0,284.0,soft,8.0
0 days 01:03:23.869000,11,0 days 00:01:15.757000,17,"","",0 days 00:00:19.401000,0 days 00:00:38.801000,0 days 00:00:17.555000,"",242.0,301.0,287.0,soft,9.0
0 days 01:04:40.043000,11,0 days 00:01:16.174000,18,"","",0 days 00:00:19.318000,0 days 00:00:39.327000,0 days 00:00:17.529000,304.0,238.0,308.0,291.0,soft,10.0
0 days 01:05:56.642000,11,0 days 00:01:16.599000,19,"","",0 days 00:00:19.325000,0 days 00:00:39.470000,0 days 00:00:17.804000,306.0,237.0,304.0,301.0,soft,11.0
0 days 01:07:13.263000,11,0 days 00:01:16.621000,20,"","",0 days 00:00:19.511000,0 days 00:00:39.591000,0 days 00:00:17.519000,305.0,234.0,307.0,296.0,soft,12.0
0 days 01:08:29.518000,11,0 days 00:01:16.255000,21,"","",0 days 00:00:19.217000,0 days 00:00:39.438000,0 days 00:00:17.600000,308.0,235.0,304.0,292.0,soft,13.0
0 days 01:09:46.109000,11,0 days 00:01:16.591000,22,"","",0 days 00:00:19.412000,0 days 00:00:39.556000,0 days 00:00:17.623000,306.0,239.0,303.0,291.0,soft,14.0
0 days 01:11:02.855000,11,0 days 00:01:16.746000,23,"","",0 days 00:00:19.434000,0 days 00:00:39.714000,0 days 00:00:17.598000,305.0,237.0,320.0,294.0,soft,15.0
0 days 01:12:22.240000,11,0 days 00:01:19.385000,24,"","",0 days 00:00:19.395000,0 days 00:00:42.275000,0 days 00:00:17.715000,309.0,237.0,303.0,309.0,soft,16.0
0 days 01:13:39.198000,11,0 days 00:01:16.958000,25,"","",0 days 00:00:19.459000,0 days 00:00:39.783000,0 days 00:00:17.716000,306.0,239.0,305.0,293.0,soft,17.0
0 days 01:14:56.166000,11,0 days 00:01:16.968000,26,"","",0 days 00:00:19.593000,0 days 00:00:39.707000,0 days 00:00:17.668000,307.0,237.0,307.0,296.0,soft,18.0
0 days 01:16:13.163000,11,0 days 00:01:16.997000,27,"","",0 days 00:00:19.579000,0 days 00:00:39.703000,0 days 00:00:17.715000,305.0,243.0,305.0,297.0,soft,19.0
0 days 01:18:21.519000,11,0 days 00:02:08.356000,28,"","",0 days 00:00:28.585000,0 days 00:01:03.127000,0 days 00:00:36.644000,179.0,135.0,40.0,259.0,soft,20.0
0 days 01:20:14.294000,11,0 days 00:01:52.775000,29,"",0 days 01:20:11.313000,0 days 00:00:43.332000,0 days 00:00:45.589000,0 days 00:00:23.854000,265.0,185.0,"",223.0,soft,21.0
0 days 00:17:12.060000,10,"",1,0 days 00:15:45.604000,"","",0 days 00:00:44.742000,0 days 00:00:17.668000,276.0,228.0,313.0,"",hard,1.0
0 days 00:18:28.486000,10,0 days 00:01:16.426000,2,"","",0 days 00:00:19.455000,0 days 00:00:39.652000,0 days 00:00:17.319000,317.0,245.0,316.0,304.0,hard,2.0
0 days 00:19:43.926000,10,0 days 00:01:15.440000,3,"","",0 days 00:00:19.120000,0 days 00:00:38.943000,0 days 00:00:17.377000,319.0,250.0,319.0,319.0,hard,3.0
0 days 00:21:16.504000,10,0 days 00:01:32.578000,4,"","",0 days 00:00:25.513000,0 days 00:00:48.057000,0 days 00:00:19.008000,239.0,145.0,316.0,289.0,hard,4.0
0 days 00:22:42.169000,10,0 days 00:01:25.665000,5,"","",0 days 00:00:19.033000,0 days 00:00:48.312000,0 days 00:00:18.320000,319.0,215.0,316.0,322.0,hard,5.0
0 days 00:23:57.345000,10,0 days 00:01:15.176000,6,"","",0 days 00:00:18.984000,0 days 00:00:38.779000,0 days 00:00:17.413000,321.0,252.0,319.0,323.0,hard,6.0
0 days 00:25:29.910000,10,0 days 00:01:32.565000,7,"","",0 days 00:00:24.083000,0 days 00:00:50.406000,0 days 00:00:18.076000,248.0,231.0,316.0,242.0,hard,7.0
0 days 00:27:00.210000,10,0 days 00:01:30.300000,8,"","",0 days 00:00:22.402000,0 days 00:00:49.787000,0 days 00:00:18.111000,293.0,201.0,315.0,245.0,hard,8.0
0 days 00:28:15.164000,10,0 days 00:01:14.954000,9,"","",0 days 00:00:18.833000,0 days 00:00:38.820000,0 days 00:00:17.301000,319.0,251.0,319.0,322.0,hard,9.0
0 days 00:29:43.047000,10,0 days 00:01:27.883000,10,"","",0 days 00:00:23.355000,0 days 00:00:44.622000,0 days 00:00:19.906000,271.0,69.0,305.0,258.0,hard,10.0
0 days 00:30:58.670000,10,0 days 00:01:15.623000,11,"","",0 days 00:00:19.236000,0 days 00:00:38.945000,0 days 00:00:17.442000,306.0,255.0,306.0,309.0,hard,11.0
0 days 00:32:14.099000,10,0 days 00:01:15.429000,12,"","",0 days 00:00:19.109000,0 days 00:00:38.861000,0 days 00:00:17.459000,318.0,254.0,304.0,308.0,hard,12.0
0 days 00:33:30.061000,10,0 days 00:01:15.962000,13,"","",0 days 00:00:19.353000,0 days 00:00:39.097000,0 days 00:00:17.512000,307.0,253.0,303.0,306.0,hard,13.0
0 days 00:34:50.808000,10,0 days 00:01:20.747000,14,"",0 days 00:34:47.774000,0 days 00:00:19.393000,0 days 00:00:39.958000,0 days 00:00:21.396000,308.0,236.0,"","",hard,14.0
0 days 00:47:36.816000,10,"",15,0 days 00:46:10.825000,"","",0 days 00:00:48.002000,0 days 00:00:17.974000,268.0,211.0,314.0,"",medium,1.0
0 days 00:48:49.787000,10,0 days 00:01:12.971000,16,"","",0 days 00:00:18.632000,0 days 00:00:37.439000,0 days 00:00:16.900000,319.0,260.0,321.0,321.0,medium,2.0
0 days 00:50:24.459000,10,0 days 00:01:34.672000,17,"","",0 days 00:00:23.955000,0 days 00:00:50.990000,0 days 00:00:19.727000,274.0,211.0,315.0,281.0,medium,3.0
0 days 00:51:38.191000,10,0 days 00:01:13.732000,18,"","",0 days 00:00:18.752000,0 days 00:00:37.934000,0 days 00:00:17.046000,319.0,257.0,324.0,322.0,medium,4.0
0 days 00:53:17.122000,10,0 days 00:01:38.931000,19,"","",0 days 00:00:25.270000,0 days 00:00:52.877000,0 days 00:00:20.784000,213.0,172.0,272.0,293.0,medium,5.0
0 days 00:54:52.997000,10,0 days 00:01:35.875000,20,"","",0 days 00:00:24.011000,0 days 00:00:53.420000,0 days 00:00:18.444000,298.0,209.0,317.0,265.0,medium,6.0
0 days 00:56:10.112000,10,0 days 00:01:17.115000,21,"","",0 days 00:00:19.805000,0 days 00:00:39.727000,0 days 00:00:17.583000,297.0,242.0,300.0,323.0,medium,7.0
0 days 00:57:30.918000,10,0 days 00:01:20.806000,22,"",0 days 00:57:27.952000,0 days 00:00:19.344000,0 days 00:00:40.362000,0 days 00:00:21.100000,306.0,246.0,"",295.0,medium,8.0
0 days 01:03:38.837000,10,"",23,0 days 01:02:14.977000,"","",0 days 00:00:45.396000,0 days 00:00:19.151000,282.0,202.0,313.0,"",soft,1.0
0 days 01:04:51.304000,10,0 days 00:01:12.467000,24,"","",0 days 00:00:18.481000,0 days 00:00:37.016000,0 days 00:00:16.970000,320.0,260.0,319.0,321.0,soft,2.0
0 days 01:06:34.939000,10,0 days 00:01:43.635000,25,"","",0 days 00:00:27.054000,0 days 00:00:56.249000,0 days 00:00:20.332000,257.0,196.0,280.0,288.0,soft,3.0
0 days 01:08:10.669000,10,0 days 00:01:35.730000,26,"","",0 days 00:00:24.036000,0 days 00:00:53.984000,0 days 00:00:17.710000,297.0,227.0,317.0,274.0,soft,4.0
0 days 01:09:23.185000,10,0 days 00:01:12.516000,27,"","",0 days 00:00:18.503000,0 days 00:00:37.286000,0 days 00:00:16.727000,320.0,262.0,320.0,323.0,soft,5.0
0 days 01:10:59.030000,10,0 days 00:01:35.845000,28,"",0 days 01:10:56.033000,0 days 00:00:21.229000,0 days 00:00:51.348000,0 days 00:00:23.268000,278.0,137.0,"",306.0,soft,6.0
0 days 01:13:17.265000,10,0 days 00:02:18.235000,29,0 days 01:11:21.074000,0 days 01:13:14.283000,0 days 00:01:03.967000,0 days 00:00:50.191000,0 days 00:00:24.077000,270.0,102.0,"","",hard,15.0
0 days 01:15:14.405000,10,0 days 00:01:57.140000,30,0 days 01:13:32.757000,"",0 days 00:00:56.910000,0 days 00:00:42.009000,0 days 00:00:18.221000,273.0,233.0,284.0,"",hard,16.0
0 days 01:17:01.426000,10,0 days 00:01:47.021000,31,"","",0 days 00:00:19.979000,0 days 00:00:47.350000,0 days 00:00:39.692000,298.0,184.0,47.0,282.0,hard,17.0
0 days 01:19:00.300000,10,0 days 00:01:58.874000,32,"",0 days 01:18:57.308000,0 days 00:00:51.871000,0 days 00:00:43.942000,0 days 00:00:23.061000,290.0,203.0,"",216.0,hard,18.0
0 days 00:17:06.061000,6,"",1,0 days 00:15:35.630000,"","",0 days 00:00:45.431000,0 days 00:00:18.852000,269.0,202.0,309.0,"",medium,1.0
0 days 00:18:23.556000,6,0 days 00:01:17.495000,2,"","",0 days 00:00:19.791000,0 days 00:00:40.262000,0 days 00:00:17.442000,316.0,234.0,315.0,291.0,medium,2.0
0 days 00:19:39.633000,6,0 days 00:01:16.077000,3,"","",0 days 00:00:19.226000,0 days 00:00:39.473000,0 days 00:00:17.378000,318.0,240.0,318.0,317.0,medium,3.0
0 days 00:21:12.361000,6,0 days 00:01:32.728000,4,"","",0 days 00:00:25.969000,0 days 00:00:48.982000,0 days 00:00:17.777000,262.0,229.0,317.0,250.0,medium,4.0
0 days 00:22:33.077000,6,0 days 00:01:20.716000,5,"",0 days 00:22:29.872000,0 days 00:00:19.077000,0 days 00:00:39.458000,0 days 00:00:22.181000,319.0,244.0,"",322.0,medium,5.0
0 days 00:24:43.669000,6,0 days 00:02:10.592000,6,0 days 00:23:05.773000,"",0 days 00:01:09.723000,0 days 00:00:42.074000,0 days 00:00:18.795000,268.0,198.0,306.0,"",medium,6.0
0 days 00:26:01.038000,6,0 days 00:01:17.369000,7,"","",0 days 00:00:19.752000,0 days 00:00:40.109000,0 days 00:00:17.508000,308.0,242.0,303.0,303.0,medium,7.0
0 days 00:27:18.053000,6,0 days 00:01:17.015000,8,"","",0 days 00:00:19.475000,0 days 00:00:40.023000,0 days 00:00:17.517000,306.0,244.0,304.0,301.0,medium,8.0
0 days 00:28:35.266000,6,0 days 00:01:17.213000,9,"","",0 days 00:00:19.492000,0 days 00:00:40.139000,0 days 00:00:17.582000,308.0,244.0,304.0,305.0,medium,9.0
0 days 00:29:52.996000,6,0 days 00:01:17.730000,10,"","",0 days 00:00:19.586000,0 days 00:00:40.513000,0 days 00:00:17.631000,305.0,244.0,303.0,304.0,medium,10.0
0 days 00:31:12.265000,6,0 days 00:01:19.269000,11,"","",0 days 00:00:21.151000,0 days 00:00:40.547000,0 days 00:00:17.571000,307.0,245.0,307.0,305.0,medium,11.0
0 days 00:32:29.476000,6,0 days 00:01:17.211000,12,"","",0 days 00:00:19.479000,0 days 00:00:40.195000,0 days 00:00:17.537000,"",247.0,306.0,309.0,medium,12.0
0 days 00:33:46.898000,6,0 days 00:01:17.422000,13,"","",0 days 00:00:19.402000,0 days 00:00:40.306000,0 days 00:00:17.714000,305.0,245.0,306.0,308.0,medium,13.0
0 days 00:35:04.454000,6,0 days 00:01:17.556000,14,"","",0 days 00:00:19.439000,0 days 00:00:40.354000,0 days 00:00:17.763000,304.0,241.0,306.0,306.0,medium,14.0
0 days 00:36:27.219000,6,0 days 00:01:22.765000,15,"",0 days 00:36:24.268000,0 days 00:00:19.598000,0 days 00:00:41.621000,0 days 00:00:21.546000,305.0,237.0,"","",medium,15.0
0 days 00:38:18.163000,6,0 days 00:01:50.944000,16,0 days 00:36:48.817000,0 days 00:38:15.205000,0 days 00:00:39.857000,0 days 00:00:48.064000,0 days 00:00:23.023000,293.0,216.0,"","",medium,16.0
0 days 00:47:56.145000,6,"",17,0 days 00:46:31.027000,"","",0 days 00:00:44.287000,0 days 00:00:18.203000,102.0,219.0,317.0,"",soft,1.0
0 days 00:49:10.126000,6,0 days 00:01:13.981000,18,"","",0 days 00:00:18.760000,0 days 00:00:38.245000,0 days 00:00:16.976000,321.0,255.0,321.0,324.0,soft,2.0
0 days 00:50:51.195000,6,0 days 00:01:41.069000,19,"","",0 days 00:00:29.019000,0 days 00:00:52.716000,0 days 00:00:19.334000,267.0,210.0,288.0,247.0,soft,3.0
0 days 00:52:21.742000,6,0 days 00:01:30.547000,20,"","",0 days 00:00:24.278000,0 days 00:00:48.069000,0 days 00:00:18.200000,282.0,218.0,318.0,275.0,soft,4.0
0 days 00:53:35.396000,6,0 days 00:01:13.654000,21,"","",0 days 00:00:18.792000,0 days 00:00:37.911000,0 days 00:00:16.951000,322.0,259.0,323.0,324.0,soft,5.0
0 days 00:55:13.033000,6,0 days 00:01:37.637000,22,"","",0 days 00:00:26.783000,0 days 00:00:52.582000,0 days 00:00:18.272000,250.0,221.0,316.0,257.0,soft,6.0
0 days 00:56:27.235000,6,0 days 00:01:14.202000,23,"","",0 days 00:00:18.704000,0 days 00:00:38.258000,0 days 00:00:17.240000,322.0,258.0,304.0,323.0,soft,7.0
0 days 00:58:01.778000,6,0 days 00:01:34.543000,24,"",0 days 00:57:58.863000,0 days 00:00:26.350000,0 days 00:00:46.195000,0 days 00:00:21.998000,143.0,226.0,"",288.0,soft,8.0
0 days 01:07:06.326000,6,"",25,0 days 01:05:37.424000,"","",0 days 00:00:45.451000,0 days 00:00:18.076000,216.0,213.0,320.0,"",soft,1.0
0 days 01:08:19.345000,6,0 days 00:01:13.019000,26,"","",0 days 00:00:18.567000,0 days 00:00:37.466000,0 days 00:00:16.986000,322.0,260.0,319.0,326.0,soft,2.0
0 days 01:10:01.496000,6,0 days 00:01:42.151000,27,"","",0 days 00:00:25.361000,0 days 00:00:56.606000,0 days 00:00:20.184000,285.0,96.0,284.0,274.0,soft,3.0
0 days 01:11:42.966000,6,0 days 00:01:41.470000,28,"","",0 days 00:00:25.627000,0 days 00:00:57.109000,0 days 00:00:18.734000,255.0,186.0,317.0,177.0,soft,4.0
0 days 01:12:55.999000,6,0 days 00:01:13.033000,29,"","",0 days 00:00:18.513000,0 days 00:00:37.588000,0 days 00:00:16.932000,322.0,259.0,321.0,324.0,soft,5.0
0 days 01:15:06.884000,6,0 days 00:02:10.885000,30,"","",0 days 00:00:32.986000,0 days 00:01:13.745000,0 days 00:00:24.154000,125.0,136.0,277.0,264.0,soft,6.0
0 days 01:17:06.633000,6,0 days 00:01:59.749000,31,"","",0 days 00:00:24.792000,0 days 00:00:53.060000,0 days 00:00:41.897000,282.0,208.0,49.0,251.0,soft,7.0
0 days 01:18:59.065000,6,0 days 00:01:52.432000,32,"",0 days 01:18:56.108000,0 days 00:00:46.209000,0 days 00:00:43.867000,0 days 00:00:22.356000,281.0,210.0,"",226.0,soft,8.0
0 days 00:17:49.920000,5,"",1,0 days 00:16:18.988000,0 days 00:17:46.860000,"",0 days 00:00:45.095000,0 days 00:00:22.805000,284.0,204.0,"","",medium,1.0
0 days 00:23:13.977000,5,"",2,0 days 00:21:55.151000,"","",0 days 00:00:42.116000,0 days 00:00:17.744000,271.0,230.0,295.0,"",hard,1.0
0 days 00:24:30.274000,5,0 days 00:01:16.297000,3,"","",0 days 00:00:19.687000,0 days 00:00:39.137000,0 days 00:00:17.473000,299.0,251.0,302.0,297.0,hard,2.0
0 days 00:25:50.895000,5,0 days 00:01:20.621000,4,"","",0 days 00:00:19.538000,0 days 00:00:43.584000,0 days 00:00:17.499000,305.0,226.0,313.0,303.0,hard,3.0
0 days 00:27:06.113000,5,0 days 00:01:15.218000,5,"","",0 days 00:00:19.171000,0 days 00:00:38.608000,0 days 00:00:17.439000,314.0,258.0,313.0,317.0,hard,4.0
0 days 00:28:29.071000,5,0 days 00:01:22.958000,6,"","",0 days 00:00:19.132000,0 days 00:00:46.330000,0 days 00:00:17.496000,309.0,214.0,315.0,319.0,hard,5.0
0 days 00:29:44.411000,5,0 days 00:01:15.340000,7,"","",0 days 00:00:19.040000,0 days 00:00:38.850000,0 days 00:00:17.450000,313.0,256.0,317.0,320.0,hard,6.0
0 days 00:31:22.221000,5,0 days 00:01:37.810000,8,"","",0 days 00:00:25.470000,0 days 00:00:51.911000,0 days 00:00:20.429000,222.0,108.0,314.0,206.0,hard,7.0
0 days 00:32:50.112000,5,0 days 00:01:27.891000,9,"","",0 days 00:00:19.027000,0 days 00:00:50.470000,0 days 00:00:18.394000,317.0,202.0,312.0,318.0,hard,8.0
0 days 00:34:05.065000,5,0 days 00:01:14.953000,10,"","",0 days 00:00:18.945000,0 days 00:00:38.554000,0 days 00:00:17.454000,315.0,255.0,313.0,316.0,hard,9.0
0 days 00:35:30.505000,5,0 days 00:01:25.440000,11,"",0 days 00:35:27.554000,0 days 00:00:21.230000,0 days 00:00:42.011000,0 days 00:00:22.199000,278.0,224.0,"",256.0,hard,10.0
0 days 00:46:58.262000,5,"",12,0 days 00:45:26.810000,"","",0 days 00:00:48.371000,0 days 00:00:23.738000,208.0,114.0,298.0,"",medium,1.0
0 days 00:48:12.836000,5,0 days 00:01:14.574000,13,"","",0 days 00:00:19.053000,0 days 00:00:37.880000,0 days 00:00:17.641000,305.0,258.0,302.0,292.0,medium,2.0
0 days 00:49:51.356000,5,0 days 00:01:38.520000,14,"","",0 days 00:00:22.944000,0 days 00:00:56.869000,0 days 00:00:18.707000,244.0,191.0,316.0,258.0,medium,3.0
0 days 00:51:16.518000,5,0 days 00:01:25.162000,15,"","",0 days 00:00:20.253000,0 days 00:00:47.085000,0 days 00:00:17.824000,236.0,218.0,316.0,321.0,medium,4.0
0 days 00:52:29.773000,5,0 days 00:01:13.255000,16,"","",0 days 00:00:18.675000,0 days 00:00:37.635000,0 days 00:00:16.945000,318.0,262.0,311.0,319.0,medium,5.0
0 days 00:54:10.509000,5,0 days 00:01:40.736000,17,"","",0 days 00:00:27.314000,0 days 00:00:54.818000,0 days 00:00:18.604000,135.0,210.0,315.0,269.0,medium,6.0
0 days 00:55:23.768000,5,0 days 00:01:13.259000,18,"","",0 days 00:00:18.591000,0 days 00:00:37.571000,0 days 00:00:17.097000,318.0,257.0,308.0,318.0,medium,7.0
0 days 00:56:56.772000,5,0 days 00:01:33.004000,19,"",0 days 00:56:53.810000,0 days 00:00:21.978000,0 days 00:00:48.379000,0 days 00:00:22.647000,219.0,216.0,"",262.0,medium,8.0
0 days 01:04:05.522000,5,"",20,0 days 01:02:49.354000,"","",0 days 00:00:41.041000,0 days 00:00:17.589000,276.0,233.0,314.0,"",soft,1.0
0 days 01:05:17.679000,5,0 days 00:01:12.157000,21,"","",0 days 00:00:18.432000,0 days 00:00:36.858000,0 days 00:00:16.867000,316.0,258.0,322.0,317.0,soft,2.0
0 days 01:06:58.375000,5,0 days 00:01:40.696000,22,"","",0 days 00:00:25.311000,0 days 00:00:52.682000,0 days 00:00:22.703000,190.0,162.0,202.0,264.0,soft,3.0
0 days 01:08:44.754000,5,0 days 00:01:46.379000,23,"","",0 days 00:00:27.945000,0 days 00:00:56.571000,0 days 00:00:21.863000,252.0,186.0,313.0,164.0,soft,4.0
0 days 01:09:57.510000,5,0 days 00:01:12.756000,24,"","",0 days 00:00:18.448000,0 days 00:00:37.510000,0 days 00:00:16.798000,318.0,260.0,312.0,319.0,soft,5.0
0 days 01:11:42.073000,5,0 days 00:01:44.563000,25,"",0 days 01:11:39.122000,0 days 00:00:22.585000,0 days 00:00:55.590000,0 days 00:00:26.388000,265.0,182.0,"",281.0,soft,6.0
0 days 01:13:37.289000,5,0 days 00:01:55.216000,26,0 days 01:12:05.370000,"",0 days 00:00:43.743000,0 days 00:00:49.020000,0 days 00:00:22.453000,267.0,161.0,313.0,"",soft,7.0
0 days 01:14:50.082000,5,0 days 00:01:12.793000,27,"","",0 days 00:00:18.792000,0 days 00:00:37.068000,0 days 00:00:16.933000,316.0,259.0,315.0,317.0,soft,8.0
0 days 01:16:18.209000,5,0 days 00:01:28.127000,28,"","",0 days 00:00:22.379000,0 days 00:00:46.598000,0 days 00:00:19.150000,192.0,209.0,263.0,269.0,soft,9.0
0 days 01:18:31.834000,5,0 days 00:02:13.625000,29,"","",0 days 00:00:24.946000,0 days 00:00:47.536000,0 days 00:01:01.143000,197.0,218.0,5.0,203.0,soft,10.0
0 days 01:20:03.816000,5,0 days 00:01:31.982000,30,"",0 days 01:20:00.861000,0 days 00:00:24.406000,0 days 00:00:43.863000,0 days 00:00:23.713000,225.0,152.0,"",225.0,soft,11.0
0 days 00:17:17.952000,4,"",1,0 days 00:15:27.186000,"","",0 days 00:00:49.413000,0 days 00:00:18.082000,259.0,217.0,292.0,"",hard,1.0
0 days 00:18:57.126000,4,0 days 00:01:39.174000,2,"","",0 days 00:00:19.958000,0 days 00:00:39.220000,0 days 00:00:39.996000,292.0,250.0,267.0,294.0,hard,2.0
0 days 00:20:16.995000,4,0 days 00:01:19.869000,3,"","",0 days 00:00:23.641000,0 days 00:00:38.736000,0 days 00:00:17.492000,301.0,257.0,299.0,209.0,hard,3.0
0 days 00:21:33.158000,4,0 days 00:01:16.163000,4,"","",0 days 00:00:19.411000,0 days 00:00:38.764000,0 days 00:00:17.988000,"",251.0,301.0,306.0,hard,4.0
0 days 00:22:48.970000,4,0 days 00:01:15.812000,5,"","",0 days 00:00:19.326000,0 days 00:00:38.866000,0 days 00:00:17.620000,304.0,253.0,300.0,"",hard,5.0
0 days 00:24:04.952000,4,0 days 00:01:15.982000,6,"","",0 days 00:00:19.355000,0 days 00:00:39.042000,0 days 00:00:17.585000,309.0,251.0,302.0,308.0,hard,6.0
0 days 00:25:21.232000,4,0 days 00:01:16.280000,7,"","",0 days 00:00:19.532000,0 days 00:00:39.055000,0 days 00:00:17.693000,305.0,253.0,298.0,306.0,hard,7.0
0 days 00:27:11.234000,4,0 days 00:01:50.002000,8,"","",0 days 00:00:28.518000,0 days 00:01:03.169000,0 days 00:00:18.315000,150.0,187.0,313.0,283.0,hard,8.0
0 days 00:28:26.267000,4,0 days 00:01:15.033000,9,"","",0 days 00:00:19.092000,0 days 00:00:38.551000,0 days 00:00:17.390000,317.0,256.0,313.0,319.0,hard,9.0
0 days 00:30:10.275000,4,0 days 00:01:44.008000,10,"","",0 days 00:00:26.597000,0 days 00:00:59.465000,0 days 00:00:17.946000,162.0,194.0,314.0,269.0,hard,10.0
0 days 00:31:25.312000,4,0 days 00:01:15.037000,11,"","",0 days 00:00:19.009000,0 days 00:00:38.621000,0 days 00:00:17.407000,316.0,254.0,316.0,318.0,hard,11.0
0 days 00:33:09.028000,4,0 days 00:01:43.716000,12,"","",0 days 00:00:25.532000,0 days 00:00:59.889000,0 days 00:00:18.295000,144.0,175.0,313.0,273.0,hard,12.0
0 days 00:34:24.944000,4,0 days 00:01:15.916000,13,"","",0 days 00:00:19.734000,0 days 00:00:38.673000,0 days 00:00:17.509000,314.0,256.0,313.0,319.0,hard,13.0
0 days 00:36:07.261000,4,0 days 00:01:42.317000,14,"",0 days 00:36:04.196000,0 days 00:00:25.198000,0 days 00:00:47.556000,0 days 00:00:29.563000,200.0,161.0,"",270.0,hard,14.0
0 days 00:54:42.393000,4,"",15,0 days 00:53:04.376000,"","",0 days 00:00:42.654000,0 days 00:00:18.755000,179.0,223.0,295.0,"",hard,15.0
0 days 00:55:58.830000,4,0 days 00:01:16.437000,16,"","",0 days 00:00:19.537000,0 days 00:00:39.091000,0 days 00:00:17.809000,297.0,249.0,293.0,297.0,hard,16.0
0 days 00:57:15.484000,4,0 days 00:01:16.654000,17,"","",0 days 00:00:19.534000,0 days 00:00:39.160000,0 days 00:00:17.960000,294.0,250.0,293.0,296.0,hard,17.0
0 days 00:58:31.894000,4,0 days 00:01:16.410000,18,"","",0 days 00:00:19.449000,0 days 00:00:39.252000,0 days 00:00:17.709000,297.0,252.0,295.0,"",hard,18.0
0 days 00:59:50.702000,4,0 days 00:01:18.808000,19,"","",0 days 00:00:19.411000,0 days 00:00:41.631000,0 days 00:00:17.766000,299.0,234.0,296.0,295.0,hard,19.0
0 days 01:01:07.487000,4,0 days 00:01:16.785000,20,"","",0 days 00:00:19.457000,0 days 00:00:39.576000,0 days 00:00:17.752000,302.0,254.0,295.0,301.0,hard,20.0
0 days 01:02:35.319000,4,0 days 00:01:27.832000,21,"",0 days 01:02:32.308000,0 days 00:00:19.878000,0 days 00:00:41.223000,0 days 00:00:26.731000,298.0,174.0,"",299.0,hard,21.0
0 days 01:10:12.564000,4,"",22,0 days 01:08:41.467000,"","",0 days 00:00:47.707000,0 days 00:00:23.544000,272.0,144.0,314.0,"",medium,1.0
0 days 01:11:25.519000,4,0 days 00:01:12.955000,23,"","",0 days 00:00:18.578000,0 days 00:00:37.389000,0 days 00:00:16.988000,320.0,260.0,309.0,322.0,medium,2.0
0 days 01:13:11.524000,4,0 days 00:01:46.005000,24,"","",0 days 00:00:30.631000,0 days 00:00:56.198000,0 days 00:00:19.176000,134.0,65.0,316.0,273.0,medium,3.0
0 days 01:14:24.691000,4,0 days 00:01:13.167000,25,"","",0 days 00:00:18.562000,0 days 00:00:37.449000,0 days 00:00:17.156000,318.0,260.0,314.0,321.0,medium,4.0
0 days 01:15:40.352000,4,0 days 00:01:15.661000,26,"","",0 days 00:00:19.088000,0 days 00:00:38.890000,0 days 00:00:17.683000,301.0,214.0,298.0,316.0,medium,5.0
0 days 01:17:47.833000,4,0 days 00:02:07.481000,27,"","",0 days 00:00:28.083000,0 days 00:00:53.772000,0 days 00:00:45.626000,152.0,185.0,40.0,245.0,medium,6.0
0 days 01:19:37.693000,4,0 days 00:01:49.860000,28,"",0 days 01:19:34.677000,0 days 00:00:41.380000,0 days 00:00:43.763000,0 days 00:00:24.717000,276.0,160.0,"",219.0,medium,7.0
0 days 00:18:42.505000,3,"",1,0 days 00:16:55.950000,"","",0 days 00:00:50.291000,0 days 00:00:20.227000,264.0,77.0,309.0,"",hard,1.0
0 days 00:19:59.149000,3,0 days 00:01:16.644000,2,"","",0 days 00:00:19.669000,0 days 00:00:39.460000,0 days 00:00:17.515000,313.0,249.0,312.0,302.0,hard,2.0
0 days 00:21:26.850000,3,0 days 00:01:27.701000,3,"","",0 days 00:00:24.047000,0 days 00:00:45.460000,0 days 00:00:18.194000,277.0,220.0,311.0,317.0,hard,3.0
0 days 00:22:42.484000,3,0 days 00:01:15.634000,4,"","",0 days 00:00:19.091000,0 days 00:00:39.139000,0 days 00:00:17.404000,317.0,251.0,321.0,319.0,hard,4.0
0 days 00:24:28.936000,3,0 days 00:01:46.452000,5,"","",0 days 00:00:27.195000,0 days 00:00:58.801000,0 days 00:00:20.456000,176.0,116.0,312.0,283.0,hard,5.0
0 days 00:25:44.188000,3,0 days 00:01:15.252000,6,"","",0 days 00:00:19.251000,0 days 00:00:38.653000,0 days 00:00:17.348000,316.0,253.0,314.0,319.0,hard,6.0
0 days 00:27:20.866000,3,0 days 00:01:36.678000,7,"","",0 days 00:00:26.774000,0 days 00:00:51.503000,0 days 00:00:18.401000,195.0,219.0,313.0,269.0,hard,7.0
0 days 00:28:35.924000,3,0 days 00:01:15.058000,8,"","",0 days 00:00:19.073000,0 days 00:00:38.599000,0 days 00:00:17.386000,317.0,250.0,317.0,318.0,hard,8.0
0 days 00:29:53.244000,3,0 days 00:01:17.320000,9,"","",0 days 00:00:19.647000,0 days 00:00:40.163000,0 days 00:00:17.510000,295.0,233.0,319.0,287.0,hard,9.0
0 days 00:31:10.154000,3,0 days 00:01:16.910000,10,"","",0 days 00:00:19.989000,0 days 00:00:39.333000,0 days 00:00:17.588000,292.0,248.0,298.0,307.0,hard,10.0
0 days 00:32:26.619000,3,0 days 00:01:16.465000,11,"","",0 days 00:00:19.419000,0 days 00:00:39.262000,0 days 00:00:17.784000,297.0,240.0,297.0,298.0,hard,11.0
0 days 00:33:42.890000,3,0 days 00:01:16.271000,12,"","",0 days 00:00:19.471000,0 days 00:00:39.188000,0 days 00:00:17.612000,302.0,247.0,296.0,299.0,hard,12.0
0 days 00:34:59.107000,3,0 days 00:01:16.217000,13,"","",0 days 00:00:19.304000,0 days 00:00:39.089000,0 days 00:00:17.824000,305.0,246.0,301.0,300.0,hard,13.0
0 days 00:36:33.948000,3,0 days 00:01:34.841000,14,"",0 days 00:36:30.993000,0 days 00:00:22.199000,0 days 00:00:48.476000,0 days 00:00:24.166000,254.0,177.0,"",294.0,hard,14.0
0 days 00:49:52.560000,3,"",15,0 days 00:48:11.329000,"","",0 days 00:00:42.445000,0 days 00:00:19.022000,266.0,227.0,297.0,"",hard,15.0
0 days 00:51:09.240000,3,0 days 00:01:16.680000,16,"","",0 days 00:00:19.742000,0 days 00:00:39.173000,0 days 00:00:17.765000,300.0,246.0,294.0,303.0,hard,16.0
0 days 00:52:25.741000,3,0 days 00:01:16.501000,17,"","",0 days 00:00:19.715000,0 days 00:00:39.095000,0 days 00:00:17.691000,299.0,248.0,296.0,295.0,hard,17.0
0 days 00:53:41.835000,3,0 days 00:01:16.094000,18,"","",0 days 00:00:19.501000,0 days 00:00:38.926000,0 days 00:00:17.667000,301.0,252.0,297.0,298.0,hard,18.0
0 days 00:54:58.443000,3,0 days 00:01:16.608000,19,"","",0 days 00:00:19.486000,0 days 00:00:39.171000,0 days 00:00:17.951000,298.0,247.0,294.0,"",hard,19.0
0 days 00:56:24.118000,3,0 days 00:01:25.675000,20,"","",0 days 00:00:21.602000,0 days 00:00:45.517000,0 days 00:00:18.556000,268.0,205.0,310.0,299.0,hard,20.0
0 days 00:57:46.928000,3,0 days 00:01:22.810000,21,"",0 days 00:57:43.872000,0 days 00:00:19.113000,0 days 00:00:39.372000,0 days 00:00:24.325000,316.0,233.0,"",315.0,hard,21.0
0 days 01:09:39.197000,3,"",22,0 days 01:08:15.224000,"","",0 days 00:00:44.049000,0 days 00:00:19.662000,280.0,166.0,314.0,"",medium,1.0
0 days 01:10:52.556000,3,0 days 00:01:13.359000,23,"","",0 days 00:00:18.630000,0 days 00:00:37.619000,0 days 00:00:17.110000,319.0,251.0,309.0,320.0,medium,2.0
0 days 01:12:42.177000,3,0 days 00:01:49.621000,24,"","",0 days 00:00:27.649000,0 days 00:00:58.531000,0 days 00:00:23.441000,156.0,105.0,310.0,270.0,medium,3.0
0 days 01:13:55.773000,3,0 days 00:01:13.596000,25,"","",0 days 00:00:18.884000,0 days 00:00:37.524000,0 days 00:00:17.188000,316.0,257.0,305.0,316.0,medium,4.0
0 days 01:15:14.781000,3,0 days 00:01:19.008000,26,"","",0 days 00:00:21.951000,0 days 00:00:39.438000,0 days 00:00:17.619000,284.0,237.0,300.0,294.0,medium,5.0
0 days 01:17:32.482000,3,0 days 00:02:17.701000,27,"","",0 days 00:00:23.748000,0 days 00:00:48.924000,0 days 00:01:05.029000,235.0,164.0,4.0,270.0,medium,6.0
0 days 01:19:13.969000,3,0 days 00:01:41.487000,28,"",0 days 01:19:10.970000,0 days 00:00:28.037000,0 days 00:00:46.196000,0 days 00:00:27.254000,185.0,153.0,"",233.0,medium,7.0
0 days 00:18:44.353000,63,"",1,0 days 00:17:23.185000,"","",0 days 00:00:43.936000,0 days 00:00:17.434000,165.0,185.0,312.0,"",medium,1.0
0 days 00:19:59.239000,63,0 days 00:01:14.886000,2,"","",0 days 00:00:19.185000,0 days 00:00:38.498000,0 days 00:00:17.203000,310.0,251.0,322.0,303.0,medium,2.0
0 days 00:21:14.269000,63,0 days 00:01:15.030000,3,"","",0 days 00:00:19.144000,0 days 00:00:38.435000,0 days 00:00:17.451000,313.0,254.0,301.0,311.0,medium,3.0
0 days 00:22:29.650000,63,0 days 00:01:15.381000,4,"","",0 days 00:00:19.232000,0 days 00:00:38.536000,0 days 00:00:17.613000,306.0,243.0,297.0,304.0,medium,4.0
0 days 00:23:44.973000,63,0 days 00:01:15.323000,5,"","",0 days 00:00:19.283000,0 days 00:00:38.404000,0 days 00:00:17.636000,304.0,251.0,296.0,300.0,medium,5.0
0 days 00:25:00.394000,63,0 days 00:01:15.421000,6,"","",0 days 00:00:19.405000,0 days 00:00:38.412000,0 days 00:00:17.604000,301.0,253.0,297.0,296.0,medium,6.0
0 days 00:26:15.349000,63,0 days 00:01:14.955000,7,"","",0 days 00:00:19.136000,0 days 00:00:38.461000,0 days 00:00:17.358000,304.0,254.0,316.0,301.0,medium,7.0
0 days 00:27:30.116000,63,0 days 00:01:14.767000,8,"","",0 days 00:00:18.914000,0 days 00:00:38.417000,0 days 00:00:17.436000,319.0,255.0,319.0,322.0,medium,8.0
0 days 00:29:16.110000,63,0 days 00:01:45.994000,9,"","",0 days 00:00:24.089000,0 days 00:01:01.189000,0 days 00:00:20.716000,170.0,72.0,314.0,260.0,medium,9.0
0 days 00:30:30.242000,63,0 days 00:01:14.132000,10,"","",0 days 00:00:18.673000,0 days 00:00:38.055000,0 days 00:00:17.404000,317.0,256.0,318.0,320.0,medium,10.0
0 days 00:32:05.301000,63,0 days 00:01:35.059000,11,"",0 days 00:32:02.345000,0 days 00:00:23.073000,0 days 00:00:48.449000,0 days 00:00:23.537000,240.0,138.0,"",255.0,medium,11.0
0 days 00:49:58.313000,63,"",12,0 days 00:48:02.761000,"","",0 days 00:00:56.388000,0 days 00:00:19.139000,255.0,94.0,314.0,"",medium,12.0
0 days 00:51:29.491000,63,0 days 00:01:31.178000,13,"","",0 days 00:00:18.965000,0 days 00:00:53.850000,0 days 00:00:18.363000,294.0,180.0,311.0,320.0,medium,13.0
0 days 00:52:43.082000,63,0 days 00:01:13.591000,14,"","",0 days 00:00:18.733000,0 days 00:00:37.723000,0 days 00:00:17.135000,316.0,248.0,317.0,316.0,medium,14.0
0 days 00:54:11.140000,63,0 days 00:01:28.058000,15,"",0 days 00:54:08.118000,0 days 00:00:22.972000,0 days 00:00:43.303000,0 days 00:00:21.783000,220.0,238.0,"",260.0,medium,15.0
0 days 01:00:12.662000,63,"",16,0 days 00:58:50.913000,"","",0 days 00:00:44.944000,0 days 00:00:17.529000,279.0,233.0,316.0,"",soft,1.0
0 days 01:01:24.851000,63,0 days 00:01:12.189000,17,"","",0 days 00:00:18.360000,0 days 00:00:36.893000,0 days 00:00:16.936000,320.0,258.0,310.0,320.0,soft,2.0
0 days 01:03:15.219000,63,0 days 00:01:50.368000,18,"",0 days 01:03:12.247000,0 days 00:00:27.287000,0 days 00:00:56.763000,0 days 00:00:26.318000,216.0,181.0,"",222.0,soft,3.0
0 days 01:05:17.035000,63,0 days 00:02:01.816000,19,0 days 01:03:42.413000,"",0 days 00:00:51.807000,0 days 00:00:52.605000,0 days 00:00:17.404000,251.0,235.0,316.0,"",soft,4.0
0 days 01:06:29.090000,63,0 days 00:01:12.055000,20,"","",0 days 00:00:18.389000,0 days 00:00:36.809000,0 days 00:00:16.857000,320.0,260.0,314.0,322.0,soft,5.0
0 days 01:08:04.940000,63,0 days 00:01:35.850000,21,"",0 days 01:08:01.957000,0 days 00:00:22.463000,0 days 00:00:50.372000,0 days 00:00:23.015000,220.0,171.0,"",314.0,soft,6.0
0 days 01:15:03.601000,63,"",22,0 days 01:13:14.777000,"","",0 days 00:00:43.434000,0 days 00:00:23.442000,136.0,220.0,230.0,"",medium,16.0
0 days 01:16:59.860000,63,0 days 00:01:56.259000,23,"","",0 days 00:00:24.939000,0 days 00:00:45.771000,0 days 00:00:45.549000,238.0,147.0,53.0,162.0,medium,17.0
0 days 01:18:49.180000,63,0 days 00:01:49.320000,24,"",0 days 01:18:46.135000,0 days 00:00:47.589000,0 days 00:00:39.985000,0 days 00:00:21.746000,288.0,238.0,"",207.0,medium,18.0
0 days 00:16:31.368000,77,"",1,0 days 00:15:03.762000,"","",0 days 00:00:44.416000,0 days 00:00:20.605000,264.0,166.0,303.0,"",medium,1.0
0 days 00:17:47.516000,77,0 days 00:01:16.148000,2,"","",0 days 00:00:19.431000,0 days 00:00:39.001000,0 days 00:00:17.716000,312.0,224.0,310.0,305.0,medium,2.0
0 days 00:19:27.613000,77,0 days 00:01:40.097000,3,"","",0 days 00:00:24.925000,0 days 00:00:55.303000,0 days 00:00:19.869000,231.0,130.0,311.0,247.0,medium,3.0
0 days 00:20:41.717000,77,0 days 00:01:14.104000,4,"","",0 days 00:00:18.781000,0 days 00:00:38.141000,0 days 00:00:17.182000,316.0,256.0,312.0,314.0,medium,4.0
0 days 00:22:16.067000,77,0 days 00:01:34.350000,5,"","",0 days 00:00:24.825000,0 days 00:00:51.247000,0 days 00:00:18.278000,270.0,220.0,310.0,230.0,medium,5.0
0 days 00:23:29.874000,77,0 days 00:01:13.807000,6,"","",0 days 00:00:18.731000,0 days 00:00:37.781000,0 days 00:00:17.295000,315.0,260.0,307.0,312.0,medium,6.0
0 days 00:24:57.553000,77,0 days 00:01:27.679000,7,"","",0 days 00:00:23.546000,0 days 00:00:46.114000,0 days 00:00:18.019000,252.0,237.0,294.0,253.0,medium,7.0
0 days 00:26:13.345000,77,0 days 00:01:15.792000,8,"","",0 days 00:00:19.367000,0 days 00:00:38.908000,0 days 00:00:17.517000,292.0,248.0,295.0,285.0,medium,8.0
0 days 00:27:28.663000,77,0 days 00:01:15.318000,9,"","",0 days 00:00:19.303000,0 days 00:00:38.548000,0 days 00:00:17.467000,301.0,248.0,307.0,288.0,medium,9.0
0 days 00:28:46.906000,77,0 days 00:01:18.243000,10,"","",0 days 00:00:19.364000,0 days 00:00:41.292000,0 days 00:00:17.587000,305.0,248.0,298.0,303.0,medium,10.0
0 days 00:30:02.766000,77,0 days 00:01:15.860000,11,"","",0 days 00:00:19.155000,0 days 00:00:38.732000,0 days 00:00:17.973000,301.0,253.0,299.0,295.0,medium,11.0
0 days 00:31:18.767000,77,0 days 00:01:16.001000,12,"","",0 days 00:00:19.228000,0 days 00:00:39.145000,0 days 00:00:17.628000,300.0,247.0,302.0,301.0,medium,12.0
0 days 00:32:34.703000,77,0 days 00:01:15.936000,13,"","",0 days 00:00:19.280000,0 days 00:00:39.034000,0 days 00:00:17.622000,304.0,253.0,300.0,297.0,medium,13.0
0 days 00:33:50.757000,77,0 days 00:01:16.054000,14,"","",0 days 00:00:19.341000,0 days 00:00:39.043000,0 days 00:00:17.670000,"",250.0,299.0,295.0,medium,14.0
0 days 00:35:11.480000,77,0 days 00:01:20.723000,15,"",0 days 00:35:08.529000,0 days 00:00:19.525000,0 days 00:00:39.633000,0 days 00:00:21.565000,292.0,243.0,"",296.0,medium,15.0
0 days 00:45:55.744000,77,"",16,0 days 00:44:28.469000,"","",0 days 00:00:47.259000,0 days 00:00:18.066000,266.0,226.0,308.0,"",soft,1.0
0 days 00:47:08.599000,77,0 days 00:01:12.855000,17,"","",0 days 00:00:18.881000,0 days 00:00:36.922000,0 days 00:00:17.052000,314.0,260.0,311.0,310.0,soft,2.0
0 days 00:48:42.610000,77,0 days 00:01:34.011000,18,"","",0 days 00:00:24.753000,0 days 00:00:50.969000,0 days 00:00:18.289000,258.0,164.0,315.0,238.0,soft,3.0
0 days 00:49:55.310000,77,0 days 00:01:12.700000,19,"","",0 days 00:00:18.553000,0 days 00:00:37.226000,0 days 00:00:16.921000,317.0,261.0,317.0,316.0,soft,4.0
0 days 00:51:55.992000,77,0 days 00:02:00.682000,20,"",0 days 00:51:53.020000,0 days 00:00:22.089000,0 days 00:01:03.861000,0 days 00:00:34.732000,135.0,55.0,"",277.0,soft,5.0
0 days 00:54:01.741000,77,0 days 00:02:05.749000,21,0 days 00:52:12.735000,"",0 days 00:00:56.345000,0 days 00:00:51.735000,0 days 00:00:17.669000,165.0,205.0,314.0,"",soft,6.0
0 days 00:55:14.538000,77,0 days 00:01:12.797000,22,"","",0 days 00:00:18.537000,0 days 00:00:37.279000,0 days 00:00:16.981000,320.0,262.0,314.0,314.0,soft,7.0
0 days 00:56:47.762000,77,0 days 00:01:33.224000,23,"",0 days 00:56:44.789000,0 days 00:00:23.153000,0 days 00:00:48.108000,0 days 00:00:21.963000,267.0,235.0,"",262.0,soft,8.0
0 days 01:06:58.523000,77,"",24,0 days 01:05:25.436000,"","",0 days 00:00:55.774000,0 days 00:00:18.322000,256.0,192.0,312.0,"",soft,9.0
0 days 01:08:10.989000,77,0 days 00:01:12.466000,25,"","",0 days 00:00:18.525000,0 days 00:00:37.030000,0 days 00:00:16.911000,317.0,261.0,325.0,313.0,soft,10.0
0 days 01:09:54.393000,77,0 days 00:01:43.404000,26,"",0 days 01:09:51.394000,0 days 00:00:24.762000,0 days 00:00:52.544000,0 days 00:00:26.098000,220.0,91.0,"",258.0,soft,11.0
0 days 01:11:55.586000,77,0 days 00:02:01.193000,27,0 days 01:10:12.900000,"",0 days 00:00:53.614000,0 days 00:00:49.680000,0 days 00:00:17.899000,263.0,230.0,308.0,"",soft,12.0
0 days 01:13:09.147000,77,0 days 00:01:13.561000,28,"","",0 days 00:00:18.662000,0 days 00:00:37.741000,0 days 00:00:17.158000,316.0,257.0,317.0,311.0,soft,13.0
0 days 01:15:07.300000,77,0 days 00:01:58.153000,29,"","",0 days 00:00:22.166000,0 days 00:01:06.874000,0 days 00:00:29.113000,143.0,31.0,299.0,285.0,soft,14.0
0 days 01:17:08.726000,77,0 days 00:02:01.426000,30,"","",0 days 00:00:26.704000,0 days 00:00:52.349000,0 days 00:00:42.373000,239.0,136.0,45.0,221.0,soft,15.0
0 days 01:18:55.684000,77,0 days 00:01:46.958000,31,"",0 days 01:18:52.700000,0 days 00:00:43.255000,0 days 00:00:42.261000,0 days 00:00:21.442000,300.0,227.0,"",228.0,soft,16.0
