2022-05-20 11:45:03	RISK OF RAIN FOR F1 FIRST PRACTICE SESSION IS 0%
2022-05-20 12:00:00	GREEN LIGHT - PIT EXIT OPEN
2022-05-20 12:36:33	TURN 12 INCIDENT INVOLVING CARS 44 (HAM) AND 14 (ALO) NOTED - IMPEDING
2022-05-20 12:37:08	CAR 45 (DEV) MISSED THE APEX OF TURN 15
2022-05-20 12:37:21	CAR 63 (RUS) MISSED THE APEX OF TURN 15
2022-05-20 12:50:12	FIA STEWARDS: TURN 12 INCIDENT INVOLVING CARS 44 (HAM) AND 14 (ALO) WILL BE INVESTIGATED AFTER THE SESSION - IMPEDING
2022-05-20 12:53:17	TURN 15 INCIDENT INVOLVING CARS 1 (VER) AND 77 (BOT) NOTED - IMPEDING
2022-05-20 12:54:44	TURN 12 INCIDENT INVOLVING CARS 36 (VIP) AND 63 (RUS) NOTED - IMPEDING
2022-05-20 12:55:24	FIA STEWARDS: TURN 15 INCIDENT INVOLVING CARS 1 (VER) AND 77 (BOT) REVIEWED NO FURTHER INVESTIGATION - IMPEDING
2022-05-20 12:55:45	CAR 45 (DEV) TIME 2:22.970 DELETED - TRACK LIMITS AT TURN 2 LAP 25 14:54:05
2022-05-20 12:56:26	FIA STEWARDS: TURN 12 INCIDENT INVOLVING CARS 36 (VIP) AND 63 (RUS) WILL BE INVESTIGATED AFTER THE SESSION - IMPEDING
2022-05-20 13:00:00	CHEQUERED FLAG
2022-05-20 13:00:06	FIRST CAR TO TAKE THE FLAG - CAR 45 (DEV)
2022-05-20 13:02:25	YELLOW IN TRACK SECTOR 17
2022-05-20 13:02:27	DRS DISABLED IN ZONE 2
2022-05-20 13:02:40	CLEAR IN TRACK SECTOR 17
2022-05-20 13:02:40	DRS ENABLED IN ZONE 2
2022-05-20 13:15:18	RISK OF RAIN FOR F3 QUALIFYING SESSION IS 0%
