2022-11-12 15:15:02	PINK HEAD PADDING MATERIAL MUST BE USED
2022-11-12 15:15:07	CHANGE IN CLIMATIC CONDITIONS
2022-11-12 15:15:18	RISK OF RAIN FOR F1 SECOND PRACTICE SESSION IS 20%
2022-11-12 15:30:00	GREEN LIGHT - PIT EXIT OPEN
2022-11-12 15:39:47	YELLOW IN TRACK SECTOR 13
2022-11-12 15:40:03	CLEAR IN TRACK SECTOR 13
2022-11-12 15:54:13	DOUBLE YELLOW IN TRACK SECTOR 4
2022-11-12 15:54:14	CLEAR IN TRACK SECTOR 4
2022-11-12 16:30:00	CHEQUERED FLAG
2022-11-12 16:30:12	AIR TEMPERATURE 3 HOURS BEFORE THE SPRINT = 25.5 DEGREES
2022-11-12 16:30:35	FIRST CAR TO TAKE THE FLAG - CAR 14 (ALO)
