Time,DriverNumber,LapTime,LapNumber,PitOutTime,PitInTime,Sector1Time,Sector2Time,Sector3Time,SpeedI1,SpeedI2,SpeedFL,SpeedST,Compound,TyreLife
0 days 00:16:33.039000,1,"",1,0 days 00:15:02.529000,"","",0 days 00:00:40.326000,0 days 00:00:22.898000,159.0,164.0,247.0,261.0,hard,1.0
0 days 00:18:03.343000,1,0 days 00:01:30.304000,2,"","",0 days 00:00:21.735000,0 days 00:00:37.806000,0 days 00:00:30.763000,183.0,124.0,250.0,272.0,hard,2.0
0 days 00:19:26.225000,1,0 days 00:01:22.882000,3,"","",0 days 00:00:21.201000,0 days 00:00:38.057000,0 days 00:00:23.624000,193.0,142.0,259.0,275.0,hard,3.0
0 days 00:20:52.427000,1,0 days 00:01:26.202000,4,"","",0 days 00:00:20.717000,0 days 00:00:36.558000,0 days 00:00:28.927000,196.0,154.0,260.0,277.0,hard,4.0
0 days 00:22:09.009000,1,0 days 00:01:16.582000,5,"","",0 days 00:00:20.385000,0 days 00:00:35.750000,0 days 00:00:20.447000,201.0,189.0,254.0,276.0,hard,5.0
0 days 00:23:35.468000,1,0 days 00:01:26.459000,6,"","",0 days 00:00:22.284000,0 days 00:00:41.325000,0 days 00:00:22.850000,161.0,160.0,260.0,256.0,hard,6.0
0 days 00:24:51.744000,1,0 days 00:01:16.276000,7,"","",0 days 00:00:19.989000,0 days 00:00:35.947000,0 days 00:00:20.340000,205.0,191.0,262.0,275.0,hard,7.0
0 days 00:26:37.640000,1,0 days 00:01:45.896000,8,"","",0 days 00:00:24.977000,0 days 00:00:49.276000,0 days 00:00:31.643000,68.0,169.0,262.0,259.0,hard,8.0
0 days 00:27:53.573000,1,0 days 00:01:15.933000,9,"","",0 days 00:00:19.961000,0 days 00:00:35.489000,0 days 00:00:20.483000,207.0,194.0,262.0,279.0,hard,9.0
0 days 00:29:32.221000,1,0 days 00:01:38.648000,10,"","",0 days 00:00:23.681000,0 days 00:00:50.646000,0 days 00:00:24.321000,100.0,142.0,262.0,206.0,hard,10.0
0 days 00:30:47.548000,1,0 days 00:01:15.327000,11,"","",0 days 00:00:19.812000,0 days 00:00:35.364000,0 days 00:00:20.151000,205.0,195.0,263.0,278.0,hard,11.0
0 days 00:32:24.325000,1,0 days 00:01:36.777000,12,"","",0 days 00:00:25.161000,0 days 00:00:48.890000,0 days 00:00:22.726000,151.0,163.0,263.0,212.0,hard,12.0
0 days 00:33:45.598000,1,0 days 00:01:21.273000,13,"","",0 days 00:00:19.796000,0 days 00:00:36.384000,0 days 00:00:25.093000,206.0,112.0,263.0,278.0,hard,13.0
0 days 00:42:39.602000,1,"",14,"",0 days 00:37:14.274000,0 days 00:00:19.968000,0 days 00:00:51.189000,"",194.0,133.0,"",242.0,hard,14.0
0 days 00:44:08.809000,1,0 days 00:01:29.207000,15,0 days 00:42:40.187000,"",0 days 00:00:26.793000,0 days 00:00:40.017000,0 days 00:00:22.397000,170.0,180.0,262.0,271.0,hard,15.0
0 days 00:45:24.814000,1,0 days 00:01:16.005000,16,"","",0 days 00:00:20.175000,0 days 00:00:35.477000,0 days 00:00:20.353000,207.0,190.0,263.0,277.0,hard,16.0
0 days 00:47:03.408000,1,0 days 00:01:38.594000,17,"","",0 days 00:00:22.304000,0 days 00:00:39.450000,0 days 00:00:36.840000,175.0,152.0,264.0,259.0,hard,17.0
0 days 00:48:19.013000,1,0 days 00:01:15.605000,18,"","",0 days 00:00:19.863000,0 days 00:00:35.486000,0 days 00:00:20.256000,207.0,192.0,263.0,277.0,hard,18.0
0 days 00:54:13.431000,1,"",19,"",0 days 00:49:39.182000,0 days 00:00:23.161000,0 days 00:00:41.450000,"",104.0,170.0,"",251.0,hard,19.0
0 days 00:55:39.538000,1,0 days 00:01:26.107000,20,0 days 00:54:14.069000,"",0 days 00:00:26.236000,0 days 00:00:38.815000,0 days 00:00:21.056000,175.0,186.0,263.0,266.0,medium,1.0
0 days 00:56:54.250000,1,0 days 00:01:14.712000,21,"","",0 days 00:00:19.789000,0 days 00:00:35.063000,0 days 00:00:19.860000,205.0,194.0,264.0,275.0,medium,2.0
0 days 00:58:28.481000,1,0 days 00:01:34.231000,22,"","",0 days 00:00:24.263000,0 days 00:00:41.817000,0 days 00:00:28.151000,161.0,163.0,264.0,238.0,medium,3.0
0 days 01:14:00.313000,1,"",23,"",0 days 01:00:18.639000,0 days 00:00:53.677000,0 days 00:00:39.726000,"",172.0,169.0,"",274.0,medium,4.0
0 days 01:15:34.183000,1,0 days 00:01:33.870000,24,0 days 01:14:00.934000,"",0 days 00:00:30.729000,0 days 00:00:40.552000,0 days 00:00:22.589000,165.0,165.0,222.0,206.0,medium,5.0
0 days 01:17:41.833000,1,0 days 00:02:07.650000,25,"","",0 days 00:00:23.010000,0 days 00:00:42.835000,0 days 00:01:01.805000,173.0,159.0,90.0,203.0,medium,6.0
0 days 01:19:13.402000,1,"",26,"",0 days 01:19:13.402000,0 days 00:00:28.887000,0 days 00:00:44.347000,"",136.0,139.0,"",208.0,medium,7.0
0 days 00:16:52.761000,55,0 days 00:01:40.821000,1,0 days 00:15:12.775000,"",0 days 00:00:30.160000,0 days 00:00:44.532000,0 days 00:00:26.129000,141.0,166.0,255.0,257.0,medium,1.0
0 days 00:18:15.008000,55,0 days 00:01:22.247000,2,"","",0 days 00:00:21.415000,0 days 00:00:38.060000,0 days 00:00:22.772000,180.0,184.0,259.0,273.0,medium,2.0
0 days 00:19:39.847000,55,0 days 00:01:24.839000,3,"","",0 days 00:00:20.761000,0 days 00:00:36.633000,0 days 00:00:27.445000,190.0,190.0,260.0,275.0,medium,3.0
0 days 00:20:57.099000,55,0 days 00:01:17.252000,4,"","",0 days 00:00:20.436000,0 days 00:00:36.099000,0 days 00:00:20.717000,195.0,191.0,261.0,274.0,medium,4.0
0 days 00:22:43.637000,55,0 days 00:01:46.538000,5,"","",0 days 00:00:24.135000,0 days 00:00:47.062000,0 days 00:00:35.341000,168.0,155.0,258.0,222.0,medium,5.0
0 days 00:24:00.209000,55,0 days 00:01:16.572000,6,"","",0 days 00:00:20.351000,0 days 00:00:35.748000,0 days 00:00:20.473000,199.0,196.0,261.0,274.0,medium,6.0
0 days 00:25:16.229000,55,0 days 00:01:16.020000,7,"","",0 days 00:00:19.974000,0 days 00:00:35.619000,0 days 00:00:20.427000,204.0,192.0,261.0,274.0,medium,7.0
0 days 00:26:59.952000,55,0 days 00:01:43.723000,8,"","",0 days 00:00:26.650000,0 days 00:00:46.437000,0 days 00:00:30.636000,109.0,155.0,258.0,221.0,medium,8.0
0 days 00:28:21.178000,55,0 days 00:01:21.226000,9,"","",0 days 00:00:20.131000,0 days 00:00:37.074000,0 days 00:00:24.021000,206.0,157.0,260.0,275.0,medium,9.0
0 days 00:29:37.060000,55,0 days 00:01:15.882000,10,"","",0 days 00:00:19.875000,0 days 00:00:35.587000,0 days 00:00:20.420000,207.0,184.0,263.0,276.0,medium,10.0
0 days 00:31:46.667000,55,0 days 00:02:09.607000,11,"",0 days 00:31:04.366000,0 days 00:00:25.521000,0 days 00:00:43.761000,0 days 00:01:00.325000,145.0,142.0,"",231.0,medium,11.0
0 days 00:33:20.158000,55,0 days 00:01:33.491000,12,0 days 00:31:47.412000,"",0 days 00:00:25.262000,0 days 00:00:41.154000,0 days 00:00:27.075000,161.0,166.0,258.0,270.0,medium,12.0
0 days 00:54:50.303000,55,"",13,"",0 days 00:36:38.235000,0 days 00:00:20.580000,0 days 00:00:43.024000,"",170.0,85.0,"",255.0,medium,13.0
0 days 00:56:34.017000,55,0 days 00:01:43.714000,14,0 days 00:54:51.003000,"",0 days 00:00:27.191000,0 days 00:00:42.055000,0 days 00:00:34.468000,150.0,162.0,259.0,268.0,medium,1.0
0 days 00:57:58.378000,55,0 days 00:01:24.361000,15,"","",0 days 00:00:21.173000,0 days 00:00:40.078000,0 days 00:00:23.110000,175.0,176.0,262.0,274.0,medium,2.0
0 days 00:59:22.505000,55,0 days 00:01:24.127000,16,"","",0 days 00:00:19.674000,0 days 00:00:35.011000,0 days 00:00:29.442000,207.0,197.0,208.0,278.0,medium,3.0
0 days 01:01:18.104000,55,0 days 00:01:55.599000,17,"","",0 days 00:00:29.996000,0 days 00:00:53.665000,0 days 00:00:31.938000,125.0,107.0,261.0,218.0,medium,4.0
0 days 01:02:46.870000,55,0 days 00:01:28.766000,18,"","",0 days 00:00:21.896000,0 days 00:00:40.440000,0 days 00:00:26.430000,160.0,150.0,261.0,243.0,medium,5.0
0 days 01:04:01.471000,55,0 days 00:01:14.601000,19,"","",0 days 00:00:19.678000,0 days 00:00:35.057000,0 days 00:00:19.866000,211.0,196.0,265.0,276.0,medium,6.0
0 days 01:06:19.581000,55,0 days 00:02:18.110000,20,"",0 days 01:05:39.111000,0 days 00:00:26.245000,0 days 00:00:51.396000,0 days 00:01:00.469000,125.0,131.0,"",114.0,medium,7.0
0 days 01:08:04.461000,55,0 days 00:01:44.880000,21,0 days 01:06:20.264000,"",0 days 00:00:31.631000,0 days 00:00:50.510000,0 days 00:00:22.739000,136.0,163.0,262.0,200.0,medium,8.0
0 days 01:09:32.884000,55,0 days 00:01:28.423000,22,"","",0 days 00:00:19.702000,0 days 00:00:45.311000,0 days 00:00:23.410000,211.0,149.0,261.0,221.0,medium,9.0
0 days 01:11:01.887000,55,0 days 00:01:29.003000,23,"","",0 days 00:00:19.588000,0 days 00:00:39.543000,0 days 00:00:29.872000,212.0,133.0,167.0,278.0,medium,10.0
0 days 01:12:52.326000,55,0 days 00:01:50.439000,24,"","",0 days 00:00:30.698000,0 days 00:00:55.596000,0 days 00:00:24.145000,134.0,143.0,258.0,130.0,medium,11.0
0 days 01:14:07.356000,55,0 days 00:01:15.030000,25,"","",0 days 00:00:19.851000,0 days 00:00:35.139000,0 days 00:00:20.040000,207.0,197.0,264.0,274.0,medium,12.0
0 days 01:15:25.339000,55,0 days 00:01:17.983000,26,"","",0 days 00:00:20.465000,0 days 00:00:36.596000,0 days 00:00:20.922000,192.0,187.0,255.0,275.0,medium,13.0
0 days 01:17:38.384000,55,0 days 00:02:13.045000,27,"","",0 days 00:00:26.891000,0 days 00:00:46.489000,0 days 00:00:59.665000,126.0,139.0,65.0,204.0,medium,14.0
0 days 01:19:02.830000,55,"",28,"",0 days 01:19:02.830000,0 days 00:00:23.713000,0 days 00:00:41.743000,"",171.0,125.0,"",226.0,medium,15.0
0 days 00:18:16.839000,47,0 days 00:01:48.537000,1,0 days 00:16:28.923000,"",0 days 00:00:33.789000,0 days 00:00:47.665000,0 days 00:00:27.083000,88.0,150.0,257.0,197.0,hard,1.0
0 days 00:19:40.975000,47,0 days 00:01:24.136000,2,"","",0 days 00:00:22.773000,0 days 00:00:38.729000,0 days 00:00:22.634000,159.0,177.0,264.0,264.0,hard,2.0
0 days 00:21:02.851000,47,0 days 00:01:21.876000,3,"","",0 days 00:00:21.769000,0 days 00:00:38.309000,0 days 00:00:21.798000,181.0,180.0,263.0,269.0,hard,3.0
0 days 00:22:23.435000,47,0 days 00:01:20.584000,4,"","",0 days 00:00:21.463000,0 days 00:00:37.876000,0 days 00:00:21.245000,178.0,182.0,262.0,254.0,hard,4.0
0 days 00:23:43.654000,47,0 days 00:01:20.219000,5,"","",0 days 00:00:21.145000,0 days 00:00:37.748000,0 days 00:00:21.326000,188.0,183.0,262.0,273.0,hard,5.0
0 days 00:25:05.212000,47,0 days 00:01:21.558000,6,"","",0 days 00:00:21.735000,0 days 00:00:37.650000,0 days 00:00:22.173000,180.0,182.0,262.0,274.0,hard,6.0
0 days 00:26:24.396000,47,0 days 00:01:19.184000,7,"","",0 days 00:00:20.965000,0 days 00:00:37.097000,0 days 00:00:21.122000,196.0,185.0,263.0,277.0,hard,7.0
0 days 00:27:53.784000,47,0 days 00:01:29.388000,8,"","",0 days 00:00:21.012000,0 days 00:00:40.047000,0 days 00:00:28.329000,"",145.0,139.0,245.0,hard,8.0
0 days 00:29:38.809000,47,0 days 00:01:45.025000,9,"","",0 days 00:00:28.745000,0 days 00:00:49.576000,0 days 00:00:26.704000,79.0,137.0,261.0,215.0,hard,9.0
0 days 00:30:58.472000,47,0 days 00:01:19.663000,10,"","",0 days 00:00:21.212000,0 days 00:00:37.276000,0 days 00:00:21.175000,184.0,183.0,256.0,276.0,hard,10.0
0 days 00:32:17.108000,47,0 days 00:01:18.636000,11,"","",0 days 00:00:21.111000,0 days 00:00:36.652000,0 days 00:00:20.873000,197.0,187.0,263.0,275.0,hard,11.0
0 days 00:36:56.572000,47,"",12,"",0 days 00:36:56.572000,0 days 00:00:20.587000,0 days 00:00:42.838000,"",198.0,88.0,"",274.0,hard,12.0
0 days 00:19:04.447000,44,0 days 00:01:32.042000,1,0 days 00:17:33.006000,"",0 days 00:00:26.548000,0 days 00:00:42.345000,0 days 00:00:23.149000,152.0,171.0,260.0,250.0,hard,1.0
0 days 00:20:24.732000,44,0 days 00:01:20.285000,2,"","",0 days 00:00:21.706000,0 days 00:00:37.181000,0 days 00:00:21.398000,188.0,186.0,262.0,272.0,hard,2.0
0 days 00:21:43.197000,44,0 days 00:01:18.465000,3,"","",0 days 00:00:20.950000,0 days 00:00:36.621000,0 days 00:00:20.894000,199.0,188.0,262.0,272.0,hard,3.0
0 days 00:23:14.706000,44,0 days 00:01:31.509000,4,"","",0 days 00:00:26.585000,0 days 00:00:39.942000,0 days 00:00:24.982000,156.0,157.0,262.0,269.0,hard,4.0
0 days 00:24:31.459000,44,0 days 00:01:16.753000,5,"","",0 days 00:00:20.463000,0 days 00:00:35.870000,0 days 00:00:20.420000,202.0,193.0,262.0,274.0,hard,5.0
0 days 00:26:04.875000,44,0 days 00:01:33.416000,6,"","",0 days 00:00:23.681000,0 days 00:00:43.841000,0 days 00:00:25.894000,99.0,83.0,262.0,228.0,hard,6.0
0 days 00:39:15.651000,44,"",7,"",0 days 00:27:17.095000,0 days 00:00:20.116000,0 days 00:00:35.851000,"",206.0,193.0,"",274.0,hard,7.0
0 days 00:40:45.977000,44,0 days 00:01:30.326000,8,0 days 00:39:16.703000,"",0 days 00:00:28.572000,0 days 00:00:39.652000,0 days 00:00:22.102000,151.0,181.0,261.0,258.0,medium,1.0
0 days 00:42:01.948000,44,0 days 00:01:15.971000,9,"","",0 days 00:00:20.203000,0 days 00:00:35.640000,0 days 00:00:20.128000,207.0,194.0,264.0,274.0,medium,2.0
0 days 00:43:44.179000,44,0 days 00:01:42.231000,10,"","",0 days 00:00:29.407000,0 days 00:00:48.296000,0 days 00:00:24.528000,129.0,141.0,262.0,182.0,medium,3.0
0 days 00:44:59.678000,44,0 days 00:01:15.499000,11,"","",0 days 00:00:20.056000,0 days 00:00:35.427000,0 days 00:00:20.016000,208.0,196.0,263.0,273.0,medium,4.0
0 days 00:46:53.430000,44,0 days 00:01:53.752000,12,"","",0 days 00:00:25.629000,0 days 00:00:53.217000,0 days 00:00:34.906000,135.0,125.0,260.0,166.0,medium,5.0
0 days 00:48:23.714000,44,0 days 00:01:30.284000,13,"","",0 days 00:00:20.043000,0 days 00:00:45.022000,0 days 00:00:25.219000,209.0,63.0,262.0,199.0,medium,6.0
0 days 00:56:55.007000,44,"",14,"",0 days 00:49:38.163000,0 days 00:00:19.832000,0 days 00:00:35.975000,"",212.0,133.0,"",273.0,medium,7.0
0 days 00:58:42.245000,44,0 days 00:01:47.238000,15,0 days 00:56:55.602000,0 days 00:58:17.690000,0 days 00:00:26.466000,0 days 00:00:39.665000,0 days 00:00:41.107000,171.0,177.0,"",250.0,medium,8.0
0 days 01:00:15.941000,44,0 days 00:01:33.696000,16,0 days 00:58:42.806000,"",0 days 00:00:26.333000,0 days 00:00:38.529000,0 days 00:00:28.834000,172.0,181.0,248.0,258.0,hard,8.0
0 days 01:01:34.352000,44,0 days 00:01:18.411000,17,"","",0 days 00:00:20.824000,0 days 00:00:36.665000,0 days 00:00:20.922000,197.0,187.0,252.0,269.0,hard,9.0
0 days 01:02:52.219000,44,0 days 00:01:17.867000,18,"","",0 days 00:00:20.660000,0 days 00:00:36.442000,0 days 00:00:20.765000,204.0,188.0,251.0,270.0,hard,10.0
0 days 01:04:10.401000,44,0 days 00:01:18.182000,19,"","",0 days 00:00:20.612000,0 days 00:00:36.814000,0 days 00:00:20.756000,203.0,190.0,251.0,269.0,hard,11.0
0 days 01:05:29.054000,44,0 days 00:01:18.653000,20,"","",0 days 00:00:20.695000,0 days 00:00:37.122000,0 days 00:00:20.836000,205.0,188.0,250.0,264.0,hard,12.0
0 days 01:06:46.858000,44,0 days 00:01:17.804000,21,"","",0 days 00:00:20.721000,0 days 00:00:36.472000,0 days 00:00:20.611000,203.0,190.0,252.0,264.0,hard,13.0
0 days 01:08:05.212000,44,0 days 00:01:18.354000,22,"","",0 days 00:00:20.478000,0 days 00:00:36.784000,0 days 00:00:21.092000,204.0,189.0,253.0,270.0,hard,14.0
0 days 01:09:23.907000,44,0 days 00:01:18.695000,23,"","",0 days 00:00:20.895000,0 days 00:00:37.032000,0 days 00:00:20.768000,195.0,190.0,251.0,268.0,hard,15.0
0 days 01:10:42.617000,44,"",24,"","",0 days 00:00:20.795000,0 days 00:00:36.842000,0 days 00:00:21.058000,198.0,189.0,250.0,271.0,hard,16.0
0 days 01:12:05.129000,44,0 days 00:01:22.512000,25,"","",0 days 00:00:21.494000,0 days 00:00:39.377000,0 days 00:00:21.641000,160.0,183.0,251.0,239.0,hard,17.0
0 days 01:13:43.470000,44,0 days 00:01:38.341000,26,"",0 days 01:13:16.985000,0 days 00:00:20.497000,0 days 00:00:36.927000,0 days 00:00:40.917000,202.0,189.0,"",259.0,hard,18.0
0 days 01:15:10.464000,44,0 days 00:01:26.994000,27,0 days 01:13:43.990000,"",0 days 00:00:24.751000,0 days 00:00:39.605000,0 days 00:00:22.638000,165.0,176.0,221.0,247.0,medium,9.0
0 days 01:17:27.880000,44,0 days 00:02:17.416000,28,"","",0 days 00:00:25.976000,0 days 00:00:46.791000,0 days 00:01:04.649000,127.0,119.0,4.0,189.0,medium,10.0
0 days 01:19:01.722000,44,"",29,"",0 days 01:19:01.722000,0 days 00:00:29.850000,0 days 00:00:45.673000,"",139.0,127.0,"",178.0,medium,11.0
0 days 00:17:52.813000,31,0 days 00:01:54.009000,1,0 days 00:15:59.395000,"",0 days 00:00:32.068000,0 days 00:00:44.018000,0 days 00:00:37.923000,139.0,139.0,254.0,225.0,hard,1.0
0 days 00:19:16.743000,31,0 days 00:01:23.930000,2,"","",0 days 00:00:23.026000,0 days 00:00:38.759000,0 days 00:00:22.145000,164.0,175.0,260.0,266.0,hard,2.0
0 days 00:20:37.702000,31,0 days 00:01:20.959000,3,"","",0 days 00:00:22.010000,0 days 00:00:37.454000,0 days 00:00:21.495000,181.0,181.0,260.0,274.0,hard,3.0
0 days 00:21:56.977000,31,0 days 00:01:19.275000,4,"","",0 days 00:00:21.306000,0 days 00:00:36.896000,0 days 00:00:21.073000,183.0,183.0,261.0,274.0,hard,4.0
0 days 00:23:15.783000,31,0 days 00:01:18.806000,5,"","",0 days 00:00:20.964000,0 days 00:00:36.738000,0 days 00:00:21.104000,191.0,183.0,263.0,274.0,hard,5.0
0 days 00:24:56.736000,31,0 days 00:01:40.953000,6,"","",0 days 00:00:28.477000,0 days 00:00:44.950000,0 days 00:00:27.526000,39.0,162.0,260.0,227.0,hard,6.0
0 days 00:26:17.534000,31,0 days 00:01:20.798000,7,"","",0 days 00:00:21.111000,0 days 00:00:37.768000,0 days 00:00:21.919000,185.0,169.0,261.0,273.0,hard,7.0
0 days 00:27:42.260000,31,0 days 00:01:24.726000,8,"","",0 days 00:00:21.211000,0 days 00:00:38.327000,0 days 00:00:25.188000,188.0,174.0,252.0,274.0,hard,8.0
0 days 00:29:04.966000,31,0 days 00:01:22.706000,9,"","",0 days 00:00:22.663000,0 days 00:00:37.852000,0 days 00:00:22.191000,159.0,179.0,259.0,273.0,hard,9.0
0 days 00:39:05.280000,31,"",10,"",0 days 00:30:19.044000,0 days 00:00:20.981000,0 days 00:00:36.959000,"",186.0,181.0,"",273.0,hard,10.0
0 days 00:40:36.077000,31,0 days 00:01:30.797000,11,0 days 00:39:06.152000,"",0 days 00:00:27.657000,0 days 00:00:38.861000,0 days 00:00:24.279000,154.0,177.0,254.0,267.0,hard,11.0
0 days 01:01:23.209000,31,"",12,"",0 days 00:41:49.280000,0 days 00:00:21.306000,0 days 00:00:36.771000,"",190.0,179.0,"",273.0,hard,12.0
0 days 01:03:10.758000,31,0 days 00:01:47.549000,13,0 days 01:01:23.845000,"",0 days 00:00:28.080000,0 days 00:00:46.465000,0 days 00:00:33.004000,58.0,160.0,258.0,265.0,medium,1.0
0 days 01:04:38.556000,31,0 days 00:01:27.798000,14,"","",0 days 00:00:24.142000,0 days 00:00:37.485000,0 days 00:00:26.171000,174.0,179.0,260.0,271.0,medium,2.0
0 days 01:05:56.068000,31,0 days 00:01:17.512000,15,"","",0 days 00:00:20.885000,0 days 00:00:36.073000,0 days 00:00:20.554000,190.0,188.0,260.0,272.0,medium,3.0
0 days 01:07:19.330000,31,0 days 00:01:23.262000,16,"","",0 days 00:00:22.128000,0 days 00:00:38.571000,0 days 00:00:22.563000,174.0,171.0,260.0,259.0,medium,4.0
0 days 01:08:36.112000,31,0 days 00:01:16.782000,17,"","",0 days 00:00:20.472000,0 days 00:00:36.006000,0 days 00:00:20.304000,195.0,190.0,260.0,271.0,medium,5.0
0 days 01:09:52.427000,31,0 days 00:01:16.315000,18,"","",0 days 00:00:20.277000,0 days 00:00:35.774000,0 days 00:00:20.264000,198.0,191.0,261.0,272.0,medium,6.0
0 days 01:11:25.317000,31,0 days 00:01:32.890000,19,"","",0 days 00:00:25.080000,0 days 00:00:40.036000,0 days 00:00:27.774000,131.0,174.0,260.0,260.0,medium,7.0
0 days 01:12:43.177000,31,0 days 00:01:17.860000,20,"","",0 days 00:00:20.479000,0 days 00:00:36.502000,0 days 00:00:20.879000,197.0,185.0,261.0,273.0,medium,8.0
0 days 01:14:05.665000,31,0 days 00:01:22.488000,21,"","",0 days 00:00:20.291000,0 days 00:00:40.460000,0 days 00:00:21.737000,194.0,177.0,260.0,274.0,medium,9.0
0 days 01:15:24.483000,31,0 days 00:01:18.818000,22,"","",0 days 00:00:20.478000,0 days 00:00:36.542000,0 days 00:00:21.798000,"",170.0,240.0,274.0,medium,10.0
0 days 01:17:43.082000,31,0 days 00:02:18.599000,23,"","",0 days 00:00:26.698000,0 days 00:00:44.139000,0 days 00:01:07.762000,114.0,128.0,100.0,217.0,medium,11.0
0 days 01:19:15.672000,31,"",24,"",0 days 01:19:15.672000,0 days 00:00:28.573000,0 days 00:00:44.576000,"",119.0,148.0,"",210.0,medium,12.0
0 days 00:17:42.334000,24,0 days 00:01:53.311000,1,0 days 00:15:49.706000,"",0 days 00:00:36.101000,0 days 00:00:44.090000,0 days 00:00:33.120000,121.0,159.0,256.0,249.0,hard,1.0
0 days 00:19:06.821000,24,0 days 00:01:24.487000,2,"","",0 days 00:00:22.183000,0 days 00:00:38.597000,0 days 00:00:23.707000,172.0,177.0,260.0,271.0,hard,2.0
0 days 00:20:26.893000,24,0 days 00:01:20.072000,3,"","",0 days 00:00:21.493000,0 days 00:00:37.288000,0 days 00:00:21.291000,184.0,184.0,262.0,272.0,hard,3.0
0 days 00:21:45.886000,24,0 days 00:01:18.993000,4,"","",0 days 00:00:20.980000,0 days 00:00:36.958000,0 days 00:00:21.055000,185.0,186.0,261.0,273.0,hard,4.0
0 days 00:23:23.671000,24,0 days 00:01:37.785000,5,"","",0 days 00:00:27.160000,0 days 00:00:44.204000,0 days 00:00:26.421000,139.0,169.0,259.0,215.0,hard,5.0
0 days 00:24:42.361000,24,0 days 00:01:18.690000,6,"","",0 days 00:00:21.157000,0 days 00:00:36.792000,0 days 00:00:20.741000,194.0,187.0,263.0,272.0,hard,6.0
0 days 00:26:10.949000,24,0 days 00:01:28.588000,7,"","",0 days 00:00:22.201000,0 days 00:00:41.907000,0 days 00:00:24.480000,169.0,131.0,260.0,256.0,hard,7.0
0 days 00:27:29.299000,24,0 days 00:01:18.350000,8,"","",0 days 00:00:20.961000,0 days 00:00:36.717000,0 days 00:00:20.672000,196.0,188.0,261.0,272.0,hard,8.0
0 days 00:28:47.045000,24,0 days 00:01:17.746000,9,"","",0 days 00:00:20.772000,0 days 00:00:36.386000,0 days 00:00:20.588000,200.0,190.0,260.0,270.0,hard,9.0
0 days 00:39:52.088000,24,"",10,"",0 days 00:30:05.921000,0 days 00:00:20.941000,0 days 00:00:41.398000,"",154.0,174.0,"",254.0,hard,10.0
0 days 00:41:24.769000,24,0 days 00:01:32.681000,11,0 days 00:39:52.836000,"",0 days 00:00:28.394000,0 days 00:00:40.920000,0 days 00:00:23.367000,145.0,173.0,259.0,262.0,medium,1.0
0 days 00:42:42.300000,24,0 days 00:01:17.531000,12,"","",0 days 00:00:20.819000,0 days 00:00:36.330000,0 days 00:00:20.382000,196.0,190.0,261.0,270.0,medium,2.0
0 days 00:44:16.643000,24,0 days 00:01:34.343000,13,"","",0 days 00:00:27.629000,0 days 00:00:43.301000,0 days 00:00:23.413000,146.0,164.0,260.0,249.0,medium,3.0
0 days 00:45:33.060000,24,0 days 00:01:16.417000,14,"","",0 days 00:00:20.452000,0 days 00:00:35.719000,0 days 00:00:20.246000,200.0,191.0,262.0,272.0,medium,4.0
0 days 00:47:12.704000,24,0 days 00:01:39.644000,15,"","",0 days 00:00:27.610000,0 days 00:00:44.509000,0 days 00:00:27.525000,133.0,118.0,262.0,248.0,medium,5.0
0 days 00:48:34.347000,24,0 days 00:01:21.643000,16,"","",0 days 00:00:20.517000,0 days 00:00:35.884000,0 days 00:00:25.242000,206.0,192.0,237.0,273.0,medium,6.0
0 days 00:50:13.680000,24,0 days 00:01:39.333000,17,"","",0 days 00:00:27.487000,0 days 00:00:46.092000,0 days 00:00:25.754000,128.0,160.0,261.0,246.0,medium,7.0
0 days 00:51:31.531000,24,0 days 00:01:17.851000,18,"","",0 days 00:00:20.490000,0 days 00:00:36.480000,0 days 00:00:20.881000,207.0,187.0,263.0,272.0,medium,8.0
0 days 00:53:13.580000,24,0 days 00:01:42.049000,19,"","",0 days 00:00:29.694000,0 days 00:00:45.551000,0 days 00:00:26.804000,124.0,141.0,236.0,231.0,medium,9.0
0 days 00:54:43.547000,24,0 days 00:01:29.967000,20,"","",0 days 00:00:27.440000,0 days 00:00:40.693000,0 days 00:00:21.834000,105.0,174.0,261.0,257.0,medium,10.0
0 days 00:56:00.415000,24,0 days 00:01:16.868000,21,"","",0 days 00:00:20.360000,0 days 00:00:36.008000,0 days 00:00:20.500000,204.0,190.0,263.0,270.0,medium,11.0
0 days 01:06:32.329000,24,"",22,"",0 days 00:57:18.318000,0 days 00:00:22.516000,0 days 00:00:39.858000,"",171.0,171.0,"",249.0,medium,12.0
0 days 01:08:14.507000,24,0 days 00:01:42.178000,23,0 days 01:06:32.950000,"",0 days 00:00:28.177000,0 days 00:00:47.591000,0 days 00:00:26.410000,150.0,148.0,246.0,253.0,hard,11.0
0 days 01:09:35.651000,24,0 days 00:01:21.144000,24,"","",0 days 00:00:22.141000,0 days 00:00:37.611000,0 days 00:00:21.392000,188.0,178.0,251.0,267.0,hard,12.0
0 days 01:10:56.345000,24,0 days 00:01:20.694000,25,"","",0 days 00:00:21.551000,0 days 00:00:37.508000,0 days 00:00:21.635000,189.0,182.0,247.0,267.0,hard,13.0
0 days 01:12:16.766000,24,0 days 00:01:20.421000,26,"","",0 days 00:00:21.554000,0 days 00:00:37.476000,0 days 00:00:21.391000,190.0,183.0,249.0,266.0,hard,14.0
0 days 01:13:56.811000,24,"",27,"",0 days 01:13:56.811000,0 days 00:00:21.575000,0 days 00:00:47.198000,"",191.0,57.0,"",269.0,hard,15.0
0 days 00:16:39.802000,23,0 days 00:01:36.758000,1,0 days 00:15:04.010000,"",0 days 00:00:29.585000,0 days 00:00:42.744000,0 days 00:00:24.429000,142.0,159.0,257.0,248.0,hard,1.0
0 days 00:18:04.093000,23,0 days 00:01:24.291000,2,"","",0 days 00:00:22.838000,0 days 00:00:39.025000,0 days 00:00:22.428000,160.0,174.0,260.0,267.0,hard,2.0
0 days 00:19:26.628000,23,0 days 00:01:22.535000,3,"","",0 days 00:00:21.915000,0 days 00:00:37.922000,0 days 00:00:22.698000,176.0,176.0,262.0,277.0,hard,3.0
0 days 00:20:46.678000,23,0 days 00:01:20.050000,4,"","",0 days 00:00:21.517000,0 days 00:00:37.157000,0 days 00:00:21.376000,183.0,184.0,263.0,279.0,hard,4.0
0 days 00:22:05.266000,23,0 days 00:01:18.588000,5,"","",0 days 00:00:20.841000,0 days 00:00:36.835000,0 days 00:00:20.912000,189.0,180.0,263.0,278.0,hard,5.0
0 days 00:23:24.094000,23,0 days 00:01:18.828000,6,"","",0 days 00:00:20.895000,0 days 00:00:36.765000,0 days 00:00:21.168000,"",184.0,262.0,278.0,hard,6.0
0 days 00:25:03.314000,23,0 days 00:01:39.220000,7,"","",0 days 00:00:26.660000,0 days 00:00:46.027000,0 days 00:00:26.533000,143.0,162.0,262.0,253.0,hard,7.0
0 days 00:26:21.451000,23,0 days 00:01:18.137000,8,"","",0 days 00:00:20.723000,0 days 00:00:36.709000,0 days 00:00:20.705000,193.0,187.0,263.0,279.0,hard,8.0
0 days 00:27:39.493000,23,0 days 00:01:18.042000,9,"","",0 days 00:00:20.610000,0 days 00:00:36.719000,0 days 00:00:20.713000,192.0,186.0,262.0,278.0,hard,9.0
0 days 00:29:13.497000,23,0 days 00:01:34.004000,10,"","",0 days 00:00:25.605000,0 days 00:00:45.801000,0 days 00:00:22.598000,81.0,166.0,263.0,243.0,hard,10.0
0 days 00:30:31.492000,23,0 days 00:01:17.995000,11,"","",0 days 00:00:20.490000,0 days 00:00:36.705000,0 days 00:00:20.800000,193.0,189.0,264.0,277.0,hard,11.0
0 days 00:32:03.585000,23,0 days 00:01:32.093000,12,"","",0 days 00:00:23.322000,0 days 00:00:42.996000,0 days 00:00:25.775000,150.0,122.0,262.0,258.0,hard,12.0
0 days 00:33:21.096000,23,0 days 00:01:17.511000,13,"","",0 days 00:00:20.436000,0 days 00:00:36.448000,0 days 00:00:20.627000,195.0,189.0,263.0,278.0,hard,13.0
0 days 00:42:12.892000,23,"",14,"",0 days 00:36:53.783000,0 days 00:00:26.430000,0 days 00:00:47.644000,"",72.0,142.0,"",184.0,hard,14.0
0 days 00:43:48.281000,23,0 days 00:01:35.389000,15,0 days 00:42:13.500000,"",0 days 00:00:27.562000,0 days 00:00:41.766000,0 days 00:00:26.061000,158.0,149.0,262.0,271.0,soft,1.0
0 days 00:45:04.733000,23,0 days 00:01:16.452000,16,"","",0 days 00:00:20.161000,0 days 00:00:35.952000,0 days 00:00:20.339000,198.0,189.0,262.0,278.0,soft,2.0
0 days 00:46:57.598000,23,0 days 00:01:52.865000,17,"","",0 days 00:00:25.498000,0 days 00:00:50.350000,0 days 00:00:37.017000,94.0,111.0,263.0,242.0,soft,3.0
0 days 00:48:30.847000,23,0 days 00:01:33.249000,18,"","",0 days 00:00:20.218000,0 days 00:00:43.658000,0 days 00:00:29.373000,203.0,122.0,238.0,278.0,soft,4.0
0 days 00:50:06.220000,23,0 days 00:01:35.373000,19,"","",0 days 00:00:26.122000,0 days 00:00:45.663000,0 days 00:00:23.588000,143.0,170.0,262.0,244.0,soft,5.0
0 days 00:51:22.397000,23,0 days 00:01:16.177000,20,"","",0 days 00:00:20.188000,0 days 00:00:35.742000,0 days 00:00:20.247000,199.0,190.0,262.0,275.0,soft,6.0
0 days 00:53:01.415000,23,0 days 00:01:39.018000,21,"","",0 days 00:00:24.247000,0 days 00:00:48.289000,0 days 00:00:26.482000,154.0,110.0,262.0,220.0,soft,7.0
0 days 00:54:17.525000,23,0 days 00:01:16.110000,22,"","",0 days 00:00:20.124000,0 days 00:00:35.836000,0 days 00:00:20.150000,198.0,194.0,261.0,276.0,soft,8.0
0 days 00:55:59.651000,23,0 days 00:01:42.126000,23,"","",0 days 00:00:27.663000,0 days 00:00:48.438000,0 days 00:00:26.025000,119.0,125.0,262.0,210.0,soft,9.0
0 days 00:57:15.791000,23,0 days 00:01:16.140000,24,"","",0 days 00:00:20.039000,0 days 00:00:35.859000,0 days 00:00:20.242000,200.0,192.0,262.0,276.0,soft,10.0
0 days 00:58:54.957000,23,0 days 00:01:39.166000,25,"","",0 days 00:00:28.722000,0 days 00:00:46.416000,0 days 00:00:24.028000,122.0,159.0,241.0,232.0,soft,11.0
0 days 01:00:31.721000,23,0 days 00:01:36.764000,26,"","",0 days 00:00:29.895000,0 days 00:00:44.547000,0 days 00:00:22.322000,149.0,162.0,263.0,264.0,soft,12.0
0 days 01:01:48.581000,23,0 days 00:01:16.860000,27,"","",0 days 00:00:20.130000,0 days 00:00:36.092000,0 days 00:00:20.638000,196.0,192.0,262.0,277.0,soft,13.0
0 days 01:03:36.330000,23,0 days 00:01:47.749000,28,"",0 days 01:03:10.987000,0 days 00:00:24.944000,0 days 00:00:40.621000,0 days 00:00:42.184000,157.0,158.0,"",265.0,soft,14.0
0 days 01:05:03.355000,23,0 days 00:01:27.025000,29,0 days 01:03:36.990000,"",0 days 00:00:25.635000,0 days 00:00:39.847000,0 days 00:00:21.543000,177.0,172.0,256.0,218.0,hard,15.0
0 days 01:06:22.062000,23,0 days 00:01:18.707000,30,"","",0 days 00:00:21.032000,0 days 00:00:36.873000,0 days 00:00:20.802000,186.0,187.0,256.0,277.0,hard,16.0
0 days 01:07:40.850000,23,0 days 00:01:18.788000,31,"","",0 days 00:00:20.715000,0 days 00:00:37.011000,0 days 00:00:21.062000,190.0,171.0,258.0,278.0,hard,17.0
0 days 01:09:01.155000,23,0 days 00:01:20.305000,32,"","",0 days 00:00:21.772000,0 days 00:00:37.265000,0 days 00:00:21.268000,180.0,186.0,257.0,282.0,hard,18.0
0 days 01:10:20.044000,23,0 days 00:01:18.889000,33,"","",0 days 00:00:20.794000,0 days 00:00:37.012000,0 days 00:00:21.083000,191.0,188.0,257.0,279.0,hard,19.0
0 days 01:11:39.359000,23,0 days 00:01:19.315000,34,"","",0 days 00:00:20.935000,0 days 00:00:37.399000,0 days 00:00:20.981000,193.0,188.0,257.0,279.0,hard,20.0
0 days 01:12:58.961000,23,0 days 00:01:19.602000,35,"","",0 days 00:00:20.619000,0 days 00:00:37.428000,0 days 00:00:21.555000,194.0,182.0,257.0,280.0,hard,21.0
0 days 01:14:39.212000,23,0 days 00:01:40.251000,36,"",0 days 01:14:12.485000,0 days 00:00:21.121000,0 days 00:00:37.814000,0 days 00:00:41.316000,188.0,184.0,"",278.0,hard,22.0
0 days 01:16:05.529000,23,0 days 00:01:26.317000,37,0 days 01:14:39.830000,"",0 days 00:00:25.040000,0 days 00:00:39.717000,0 days 00:00:21.560000,121.0,171.0,257.0,279.0,soft,15.0
0 days 01:18:19.315000,23,0 days 00:02:13.786000,38,"","",0 days 00:00:25.744000,0 days 00:00:42.802000,0 days 00:01:05.240000,151.0,149.0,130.0,259.0,soft,16.0
0 days 01:19:52.042000,23,"",39,"",0 days 01:19:52.042000,0 days 00:00:26.689000,0 days 00:00:46.763000,"",132.0,146.0,"",232.0,soft,17.0
0 days 00:18:23.258000,22,0 days 00:01:53.264000,1,0 days 00:16:30.562000,"",0 days 00:00:33.013000,0 days 00:00:50.926000,0 days 00:00:29.325000,136.0,149.0,251.0,232.0,hard,1.0
0 days 00:19:47.135000,22,0 days 00:01:23.877000,2,"","",0 days 00:00:23.073000,0 days 00:00:38.539000,0 days 00:00:22.265000,181.0,175.0,259.0,268.0,hard,2.0
0 days 00:21:07.019000,22,0 days 00:01:19.884000,3,"","",0 days 00:00:21.281000,0 days 00:00:37.298000,0 days 00:00:21.305000,193.0,180.0,260.0,275.0,hard,3.0
0 days 00:22:25.800000,22,0 days 00:01:18.781000,4,"","",0 days 00:00:20.717000,0 days 00:00:37.013000,0 days 00:00:21.051000,200.0,183.0,260.0,276.0,hard,4.0
0 days 00:23:44.453000,22,0 days 00:01:18.653000,5,"","",0 days 00:00:20.494000,0 days 00:00:36.810000,0 days 00:00:21.349000,202.0,181.0,261.0,276.0,hard,5.0
0 days 00:25:25.262000,22,0 days 00:01:40.809000,6,"","",0 days 00:00:28.008000,0 days 00:00:44.965000,0 days 00:00:27.836000,104.0,162.0,259.0,239.0,hard,6.0
0 days 00:26:43.370000,22,0 days 00:01:18.108000,7,"","",0 days 00:00:20.548000,0 days 00:00:36.724000,0 days 00:00:20.836000,198.0,184.0,263.0,277.0,hard,7.0
0 days 00:28:08.537000,22,0 days 00:01:25.167000,8,"","",0 days 00:00:23.835000,0 days 00:00:39.341000,0 days 00:00:21.991000,172.0,178.0,263.0,266.0,hard,8.0
0 days 00:29:26.174000,22,0 days 00:01:17.637000,9,"","",0 days 00:00:20.253000,0 days 00:00:36.670000,0 days 00:00:20.714000,202.0,187.0,262.0,276.0,hard,9.0
0 days 00:30:56.547000,22,0 days 00:01:30.373000,10,"","",0 days 00:00:26.359000,0 days 00:00:41.586000,0 days 00:00:22.428000,92.0,171.0,256.0,259.0,hard,10.0
0 days 00:32:14.179000,22,0 days 00:01:17.632000,11,"","",0 days 00:00:20.438000,0 days 00:00:36.560000,0 days 00:00:20.634000,206.0,187.0,262.0,275.0,hard,11.0
0 days 00:33:49.501000,22,0 days 00:01:35.322000,12,"","",0 days 00:00:21.834000,0 days 00:00:45.415000,0 days 00:00:28.073000,145.0,146.0,262.0,236.0,hard,12.0
0 days 00:41:50.672000,22,"",13,"",0 days 00:37:07.590000,0 days 00:00:20.339000,0 days 00:00:36.446000,"",205.0,188.0,"",275.0,hard,13.0
0 days 00:43:22.737000,22,0 days 00:01:32.065000,14,0 days 00:41:51.269000,"",0 days 00:00:30.751000,0 days 00:00:39.181000,0 days 00:00:22.133000,169.0,176.0,262.0,261.0,medium,1.0
0 days 00:44:40.021000,22,0 days 00:01:17.284000,15,"","",0 days 00:00:20.778000,0 days 00:00:36.004000,0 days 00:00:20.502000,201.0,187.0,261.0,274.0,medium,2.0
0 days 00:45:56.173000,22,0 days 00:01:16.152000,16,"","",0 days 00:00:20.010000,0 days 00:00:35.808000,0 days 00:00:20.334000,208.0,190.0,262.0,277.0,medium,3.0
0 days 00:47:31.499000,22,0 days 00:01:35.326000,17,"","",0 days 00:00:27.037000,0 days 00:00:44.131000,0 days 00:00:24.158000,162.0,160.0,263.0,231.0,medium,4.0
0 days 00:48:47.130000,22,0 days 00:01:15.631000,18,"","",0 days 00:00:20.036000,0 days 00:00:35.461000,0 days 00:00:20.134000,208.0,192.0,263.0,278.0,medium,5.0
0 days 00:50:24.298000,22,0 days 00:01:37.168000,19,"","",0 days 00:00:27.545000,0 days 00:00:44.774000,0 days 00:00:24.849000,152.0,141.0,263.0,249.0,medium,6.0
0 days 00:51:48.352000,22,0 days 00:01:24.054000,20,"","",0 days 00:00:19.938000,0 days 00:00:37.339000,0 days 00:00:26.777000,208.0,143.0,227.0,277.0,medium,7.0
0 days 00:53:20.027000,22,0 days 00:01:31.675000,21,"","",0 days 00:00:26.378000,0 days 00:00:41.902000,0 days 00:00:23.395000,160.0,160.0,264.0,247.0,medium,8.0
0 days 00:54:35.563000,22,0 days 00:01:15.536000,22,"","",0 days 00:00:19.868000,0 days 00:00:35.535000,0 days 00:00:20.133000,208.0,192.0,262.0,277.0,medium,9.0
0 days 00:56:21.910000,22,0 days 00:01:46.347000,23,"","",0 days 00:00:28.778000,0 days 00:00:47.063000,0 days 00:00:30.506000,105.0,122.0,263.0,238.0,medium,10.0
0 days 00:57:43.058000,22,0 days 00:01:21.148000,24,"","",0 days 00:00:19.896000,0 days 00:00:37.261000,0 days 00:00:23.991000,206.0,155.0,239.0,262.0,medium,11.0
0 days 00:59:24.666000,22,0 days 00:01:41.608000,25,"","",0 days 00:00:24.577000,0 days 00:00:47.095000,0 days 00:00:29.936000,147.0,166.0,264.0,232.0,medium,12.0
0 days 01:01:02.059000,22,0 days 00:01:37.393000,26,"","",0 days 00:00:23.569000,0 days 00:00:44.264000,0 days 00:00:29.560000,159.0,137.0,264.0,234.0,medium,13.0
0 days 01:02:32.704000,22,0 days 00:01:30.645000,27,"","",0 days 00:00:21.098000,0 days 00:00:43.452000,0 days 00:00:26.095000,167.0,146.0,263.0,245.0,medium,14.0
0 days 01:04:13.302000,22,0 days 00:01:40.598000,28,"","",0 days 00:00:24.306000,0 days 00:00:47.516000,0 days 00:00:28.776000,153.0,114.0,264.0,242.0,medium,15.0
0 days 01:05:41.078000,22,0 days 00:01:27.776000,29,"","",0 days 00:00:19.846000,0 days 00:00:43.202000,0 days 00:00:24.728000,208.0,126.0,263.0,236.0,medium,16.0
0 days 01:06:56.736000,22,0 days 00:01:15.658000,30,"","",0 days 00:00:19.930000,0 days 00:00:35.491000,0 days 00:00:20.237000,209.0,192.0,263.0,277.0,medium,17.0
0 days 01:12:07.091000,22,"",31,"",0 days 01:08:17.853000,0 days 00:00:24.436000,0 days 00:00:40.257000,"",176.0,166.0,"",236.0,medium,18.0
0 days 01:13:32.870000,22,0 days 00:01:25.779000,32,0 days 01:12:07.628000,"",0 days 00:00:24.430000,0 days 00:00:39.672000,0 days 00:00:21.677000,190.0,178.0,253.0,266.0,medium,19.0
0 days 01:14:51.375000,22,0 days 00:01:18.505000,33,"","",0 days 00:00:21.082000,0 days 00:00:36.487000,0 days 00:00:20.936000,196.0,185.0,253.0,276.0,medium,20.0
0 days 01:16:10.317000,22,0 days 00:01:18.942000,34,"","",0 days 00:00:20.414000,0 days 00:00:37.075000,0 days 00:00:21.453000,202.0,164.0,255.0,278.0,medium,21.0
0 days 01:18:23.205000,22,0 days 00:02:12.888000,35,"","",0 days 00:00:26.129000,0 days 00:00:43.291000,0 days 00:01:03.468000,153.0,142.0,150.0,223.0,medium,22.0
0 days 01:19:54.666000,22,"",36,"",0 days 01:19:54.666000,0 days 00:00:25.716000,0 days 00:00:46.002000,"",158.0,108.0,"",220.0,medium,23.0
0 days 00:17:46.189000,20,0 days 00:01:51.208000,1,0 days 00:15:55.960000,"",0 days 00:00:31.555000,0 days 00:00:46.216000,0 days 00:00:33.437000,146.0,135.0,257.0,265.0,hard,1.0
0 days 00:19:08.544000,20,0 days 00:01:22.355000,2,"","",0 days 00:00:22.049000,0 days 00:00:38.171000,0 days 00:00:22.135000,178.0,181.0,260.0,274.0,hard,2.0
0 days 00:20:28.932000,20,0 days 00:01:20.388000,3,"","",0 days 00:00:21.560000,0 days 00:00:37.132000,0 days 00:00:21.696000,188.0,186.0,262.0,275.0,hard,3.0
0 days 00:21:47.946000,20,0 days 00:01:19.014000,4,"","",0 days 00:00:21.167000,0 days 00:00:36.709000,0 days 00:00:21.138000,192.0,187.0,262.0,276.0,hard,4.0
0 days 00:23:19.726000,20,0 days 00:01:31.780000,5,"","",0 days 00:00:22.228000,0 days 00:00:43.450000,0 days 00:00:26.102000,147.0,180.0,258.0,273.0,hard,5.0
0 days 00:24:41.360000,20,0 days 00:01:21.634000,6,"","",0 days 00:00:20.864000,0 days 00:00:39.253000,0 days 00:00:21.517000,200.0,175.0,263.0,276.0,hard,6.0
0 days 00:25:59.422000,20,0 days 00:01:18.062000,7,"","",0 days 00:00:20.648000,0 days 00:00:36.626000,0 days 00:00:20.788000,199.0,187.0,262.0,275.0,hard,7.0
0 days 00:27:17.490000,20,0 days 00:01:18.068000,8,"","",0 days 00:00:20.549000,0 days 00:00:36.676000,0 days 00:00:20.843000,202.0,188.0,261.0,273.0,hard,8.0
0 days 00:28:34.792000,20,0 days 00:01:17.302000,9,"","",0 days 00:00:20.500000,0 days 00:00:36.067000,0 days 00:00:20.735000,201.0,188.0,260.0,273.0,hard,9.0
0 days 00:29:52.266000,20,0 days 00:01:17.474000,10,"","",0 days 00:00:20.565000,0 days 00:00:36.332000,0 days 00:00:20.577000,202.0,189.0,261.0,274.0,hard,10.0
0 days 00:31:18.564000,20,0 days 00:01:26.298000,11,"","",0 days 00:00:20.540000,0 days 00:00:39.621000,0 days 00:00:26.137000,203.0,174.0,260.0,275.0,hard,11.0
0 days 00:32:39.696000,20,0 days 00:01:21.132000,12,"","",0 days 00:00:20.555000,0 days 00:00:36.465000,0 days 00:00:24.112000,201.0,190.0,261.0,275.0,hard,12.0
0 days 00:33:58.971000,20,0 days 00:01:19.275000,13,"","",0 days 00:00:20.480000,0 days 00:00:36.491000,0 days 00:00:22.304000,199.0,190.0,251.0,275.0,hard,13.0
0 days 00:46:31.219000,20,"",14,"",0 days 00:35:37.042000,0 days 00:00:23.476000,"","",136.0,"","",234.0,hard,14.0
0 days 00:47:58.400000,20,0 days 00:01:27.181000,15,0 days 00:46:31.964000,"",0 days 00:00:27.327000,0 days 00:00:38.081000,0 days 00:00:21.773000,175.0,179.0,259.0,270.0,medium,1.0
0 days 00:49:14.915000,20,0 days 00:01:16.515000,16,"","",0 days 00:00:20.598000,0 days 00:00:35.715000,0 days 00:00:20.202000,198.0,192.0,262.0,273.0,medium,2.0
0 days 00:50:30.802000,20,0 days 00:01:15.887000,17,"","",0 days 00:00:20.167000,0 days 00:00:35.541000,0 days 00:00:20.179000,207.0,194.0,263.0,273.0,medium,3.0
0 days 00:52:06.195000,20,0 days 00:01:35.393000,18,"","",0 days 00:00:27.018000,0 days 00:00:46.520000,0 days 00:00:21.855000,139.0,163.0,261.0,232.0,medium,4.0
0 days 00:53:34.174000,20,0 days 00:01:27.979000,19,"","",0 days 00:00:20.358000,0 days 00:00:44.400000,0 days 00:00:23.221000,205.0,140.0,262.0,215.0,medium,5.0
0 days 00:54:49.980000,20,0 days 00:01:15.806000,20,"","",0 days 00:00:20.268000,0 days 00:00:35.439000,0 days 00:00:20.099000,206.0,194.0,263.0,274.0,medium,6.0
0 days 00:56:18.135000,20,0 days 00:01:28.155000,21,"","",0 days 00:00:20.166000,0 days 00:00:38.949000,0 days 00:00:29.040000,"",155.0,262.0,274.0,medium,7.0
0 days 00:57:34.423000,20,0 days 00:01:16.288000,22,"","",0 days 00:00:20.246000,0 days 00:00:35.593000,0 days 00:00:20.449000,205.0,190.0,263.0,274.0,medium,8.0
0 days 00:59:18.209000,20,0 days 00:01:43.786000,23,"","",0 days 00:00:27.078000,0 days 00:00:46.320000,0 days 00:00:30.388000,126.0,122.0,261.0,218.0,medium,9.0
0 days 01:00:40.691000,20,0 days 00:01:22.482000,24,"","",0 days 00:00:20.286000,0 days 00:00:35.446000,0 days 00:00:26.750000,206.0,192.0,206.0,275.0,medium,10.0
0 days 01:02:23.507000,20,0 days 00:01:42.816000,25,"","",0 days 00:00:26.898000,0 days 00:00:45.662000,0 days 00:00:30.256000,151.0,60.0,262.0,231.0,medium,11.0
0 days 01:11:11.821000,20,"",26,"",0 days 01:04:13.815000,0 days 00:00:38.813000,0 days 00:00:53.156000,"",136.0,150.0,"",152.0,medium,12.0
0 days 01:13:35.042000,20,0 days 00:02:23.221000,27,0 days 01:11:12.477000,0 days 01:12:46.267000,0 days 00:00:35.145000,0 days 00:00:42.392000,0 days 00:01:05.684000,103.0,162.0,"",254.0,hard,15.0
0 days 01:15:10.044000,20,0 days 00:01:35.002000,28,0 days 01:13:35.684000,"",0 days 00:00:32.504000,0 days 00:00:39.792000,0 days 00:00:22.706000,171.0,173.0,234.0,253.0,hard,16.0
0 days 01:17:26.828000,20,0 days 00:02:16.784000,29,"","",0 days 00:00:24.497000,0 days 00:00:39.901000,0 days 00:01:12.386000,165.0,169.0,3.0,254.0,hard,17.0
0 days 01:18:48.291000,20,"",30,"",0 days 01:18:48.291000,0 days 00:00:24.679000,0 days 00:00:38.342000,"",177.0,168.0,"",267.0,hard,18.0
0 days 00:17:34.552000,18,0 days 00:01:48.628000,1,0 days 00:15:46.972000,"",0 days 00:00:35.341000,0 days 00:00:43.365000,0 days 00:00:29.922000,155.0,155.0,255.0,247.0,hard,1.0
0 days 00:18:57.662000,18,0 days 00:01:23.110000,2,"","",0 days 00:00:22.420000,0 days 00:00:38.671000,0 days 00:00:22.019000,176.0,174.0,261.0,265.0,hard,2.0
0 days 00:20:17.011000,18,0 days 00:01:19.349000,3,"","",0 days 00:00:21.132000,0 days 00:00:37.118000,0 days 00:00:21.099000,187.0,184.0,263.0,268.0,hard,3.0
0 days 00:21:34.969000,18,0 days 00:01:17.958000,4,"","",0 days 00:00:20.673000,0 days 00:00:36.510000,0 days 00:00:20.775000,191.0,187.0,264.0,275.0,hard,4.0
0 days 00:22:52.937000,18,0 days 00:01:17.968000,5,"","",0 days 00:00:20.534000,0 days 00:00:36.517000,0 days 00:00:20.917000,197.0,186.0,263.0,275.0,hard,5.0
0 days 00:24:10.582000,18,0 days 00:01:17.645000,6,"","",0 days 00:00:20.316000,0 days 00:00:36.662000,0 days 00:00:20.667000,200.0,185.0,255.0,273.0,hard,6.0
0 days 00:38:53.267000,18,"",7,"",0 days 00:25:45.446000,0 days 00:00:28.604000,0 days 00:00:46.491000,"",118.0,153.0,"",253.0,hard,7.0
0 days 00:40:30.535000,18,0 days 00:01:37.268000,8,0 days 00:39:02.520000,"",0 days 00:00:35.710000,0 days 00:00:39.359000,0 days 00:00:22.199000,171.0,178.0,260.0,253.0,hard,8.0
0 days 00:41:49.200000,18,0 days 00:01:18.665000,9,"","",0 days 00:00:20.943000,0 days 00:00:36.803000,0 days 00:00:20.919000,193.0,187.0,263.0,273.0,hard,9.0
0 days 00:43:06.730000,18,0 days 00:01:17.530000,10,"","",0 days 00:00:20.477000,0 days 00:00:36.495000,0 days 00:00:20.558000,201.0,188.0,263.0,275.0,hard,10.0
0 days 00:44:26.865000,18,0 days 00:01:20.135000,11,"","",0 days 00:00:20.542000,0 days 00:00:36.705000,0 days 00:00:22.888000,200.0,173.0,263.0,276.0,hard,11.0
0 days 00:52:14.529000,18,"",12,"",0 days 00:45:47.609000,0 days 00:00:20.710000,0 days 00:00:43.329000,"",189.0,159.0,"",246.0,hard,12.0
0 days 00:53:48.827000,18,0 days 00:01:34.298000,13,0 days 00:52:15.223000,"",0 days 00:00:28.089000,0 days 00:00:38.225000,0 days 00:00:27.984000,177.0,182.0,261.0,262.0,soft,1.0
0 days 00:55:09.360000,18,0 days 00:01:20.533000,14,"","",0 days 00:00:20.053000,0 days 00:00:37.825000,0 days 00:00:22.655000,199.0,169.0,263.0,251.0,soft,2.0
0 days 00:56:24.899000,18,0 days 00:01:15.539000,15,"","",0 days 00:00:19.944000,0 days 00:00:35.498000,0 days 00:00:20.097000,202.0,191.0,264.0,276.0,soft,3.0
0 days 00:58:23.379000,18,0 days 00:01:58.480000,16,"","",0 days 00:00:40.006000,0 days 00:00:46.611000,0 days 00:00:31.863000,78.0,141.0,262.0,209.0,soft,4.0
0 days 00:59:40.937000,18,0 days 00:01:17.558000,17,"","",0 days 00:00:19.890000,0 days 00:00:35.472000,0 days 00:00:22.196000,204.0,192.0,232.0,276.0,soft,5.0
0 days 01:01:46.312000,18,0 days 00:02:05.375000,18,"","",0 days 00:00:32.205000,0 days 00:00:53.298000,0 days 00:00:39.872000,102.0,136.0,237.0,156.0,soft,6.0
0 days 01:03:22.648000,18,0 days 00:01:36.336000,19,"","",0 days 00:00:29.771000,0 days 00:00:41.913000,0 days 00:00:24.652000,154.0,166.0,255.0,231.0,soft,7.0
0 days 01:09:35.495000,18,"",20,"",0 days 01:04:38.496000,0 days 00:00:20.157000,0 days 00:00:38.845000,"",201.0,166.0,"",275.0,soft,8.0
0 days 01:11:03.919000,18,0 days 00:01:28.424000,21,0 days 01:09:36.116000,"",0 days 00:00:26.649000,0 days 00:00:38.514000,0 days 00:00:23.261000,159.0,179.0,250.0,270.0,soft,9.0
0 days 01:12:23.589000,18,0 days 00:01:19.670000,22,"","",0 days 00:00:21.525000,0 days 00:00:36.853000,0 days 00:00:21.292000,188.0,185.0,252.0,271.0,soft,10.0
0 days 01:13:42.760000,18,0 days 00:01:19.171000,23,"","",0 days 00:00:20.691000,0 days 00:00:36.859000,0 days 00:00:21.621000,194.0,183.0,253.0,273.0,soft,11.0
0 days 01:15:01.217000,18,0 days 00:01:18.457000,24,"","",0 days 00:00:20.811000,0 days 00:00:36.588000,0 days 00:00:21.058000,191.0,184.0,253.0,273.0,soft,12.0
0 days 01:16:56.552000,18,0 days 00:01:55.335000,25,"","",0 days 00:00:26.565000,0 days 00:00:44.822000,0 days 00:00:43.948000,114.0,134.0,23.0,227.0,soft,13.0
0 days 01:18:42.746000,18,"",26,"",0 days 01:18:42.746000,0 days 00:00:44.150000,0 days 00:00:44.416000,"",128.0,153.0,"",227.0,soft,14.0
0 days 00:17:18.118000,16,0 days 00:01:48.833000,1,0 days 00:15:30.146000,"",0 days 00:00:37.335000,0 days 00:00:46.446000,0 days 00:00:25.052000,142.0,157.0,256.0,180.0,medium,1.0
0 days 00:18:41.415000,16,0 days 00:01:23.297000,2,"","",0 days 00:00:21.676000,0 days 00:00:39.484000,0 days 00:00:22.137000,173.0,176.0,259.0,267.0,medium,2.0
0 days 00:19:59.408000,16,0 days 00:01:17.993000,3,"","",0 days 00:00:20.653000,0 days 00:00:36.259000,0 days 00:00:21.081000,198.0,183.0,261.0,272.0,medium,3.0
0 days 00:21:29.053000,16,0 days 00:01:29.645000,4,"","",0 days 00:00:20.210000,0 days 00:00:39.903000,0 days 00:00:29.532000,200.0,152.0,258.0,273.0,medium,4.0
0 days 00:22:45.210000,16,0 days 00:01:16.157000,5,"","",0 days 00:00:20.123000,0 days 00:00:35.729000,0 days 00:00:20.305000,204.0,192.0,262.0,274.0,medium,5.0
0 days 00:24:24.553000,16,0 days 00:01:39.343000,6,"","",0 days 00:00:23.395000,0 days 00:00:51.063000,0 days 00:00:24.885000,123.0,141.0,259.0,210.0,medium,6.0
0 days 00:25:40.436000,16,0 days 00:01:15.883000,7,"","",0 days 00:00:20.021000,0 days 00:00:35.681000,0 days 00:00:20.181000,206.0,193.0,262.0,276.0,medium,7.0
0 days 00:27:36.038000,16,0 days 00:01:55.602000,8,"",0 days 00:26:56.002000,0 days 00:00:19.945000,0 days 00:00:36.847000,0 days 00:00:58.810000,207.0,147.0,"",273.0,medium,8.0
0 days 00:29:24.192000,16,0 days 00:01:48.154000,9,0 days 00:27:36.808000,"",0 days 00:00:34.326000,0 days 00:00:50.542000,0 days 00:00:23.286000,72.0,146.0,259.0,175.0,medium,9.0
0 days 00:30:39.906000,16,0 days 00:01:15.714000,10,"","",0 days 00:00:19.811000,0 days 00:00:35.741000,0 days 00:00:20.162000,208.0,191.0,262.0,275.0,medium,10.0
0 days 00:32:34.694000,16,0 days 00:01:54.788000,11,"","",0 days 00:00:38.330000,0 days 00:00:52.465000,0 days 00:00:23.993000,48.0,139.0,259.0,176.0,medium,11.0
0 days 00:33:52.467000,16,0 days 00:01:17.773000,12,"","",0 days 00:00:19.960000,0 days 00:00:35.756000,0 days 00:00:22.057000,208.0,191.0,261.0,275.0,medium,12.0
0 days 00:55:10.381000,16,"",13,"",0 days 00:37:13.039000,0 days 00:00:20.016000,0 days 00:00:37.989000,"",203.0,131.0,"",270.0,medium,13.0
0 days 00:56:51.063000,16,0 days 00:01:40.682000,14,0 days 00:55:11.106000,"",0 days 00:00:27.813000,0 days 00:00:46.165000,0 days 00:00:26.704000,165.0,160.0,261.0,161.0,medium,1.0
0 days 00:58:08.281000,16,0 days 00:01:17.218000,15,"","",0 days 00:00:20.173000,0 days 00:00:35.904000,0 days 00:00:21.141000,205.0,189.0,265.0,280.0,medium,2.0
0 days 00:59:23.027000,16,0 days 00:01:14.746000,16,"","",0 days 00:00:19.682000,0 days 00:00:35.034000,0 days 00:00:20.030000,210.0,195.0,265.0,276.0,medium,3.0
0 days 01:00:58.110000,16,0 days 00:01:35.083000,17,"","",0 days 00:00:20.605000,0 days 00:00:48,0 days 00:00:26.478000,163.0,132.0,259.0,185.0,medium,4.0
0 days 01:02:18.018000,16,0 days 00:01:19.908000,18,"","",0 days 00:00:19.717000,0 days 00:00:35.534000,0 days 00:00:24.657000,209.0,176.0,259.0,274.0,medium,5.0
0 days 01:03:32.549000,16,0 days 00:01:14.531000,19,"","",0 days 00:00:19.666000,0 days 00:00:35.028000,0 days 00:00:19.837000,210.0,197.0,262.0,273.0,medium,6.0
0 days 01:05:14.889000,16,0 days 00:01:42.340000,20,"","",0 days 00:00:24.807000,0 days 00:00:50.203000,0 days 00:00:27.330000,112.0,114.0,259.0,200.0,medium,7.0
0 days 01:06:44.526000,16,0 days 00:01:29.637000,21,"","",0 days 00:00:19.634000,0 days 00:00:44.555000,0 days 00:00:25.448000,209.0,118.0,258.0,191.0,medium,8.0
0 days 01:07:59.505000,16,0 days 00:01:14.979000,22,"","",0 days 00:00:19.654000,0 days 00:00:35.389000,0 days 00:00:19.936000,"",198.0,262.0,274.0,medium,9.0
0 days 01:09:59.720000,16,0 days 00:02:00.215000,23,"",0 days 01:09:27.325000,0 days 00:00:19.632000,0 days 00:00:47.317000,0 days 00:00:53.266000,208.0,118.0,"",169.0,medium,10.0
0 days 01:11:55.308000,16,0 days 00:01:55.588000,24,0 days 01:10:00.432000,"",0 days 00:00:32.841000,0 days 00:00:56.901000,0 days 00:00:25.846000,70.0,119.0,259.0,143.0,medium,11.0
0 days 01:13:17.074000,16,0 days 00:01:21.766000,25,"","",0 days 00:00:19.813000,0 days 00:00:37.290000,0 days 00:00:24.663000,209.0,141.0,252.0,276.0,medium,12.0
0 days 01:14:33.257000,16,0 days 00:01:16.183000,26,"","",0 days 00:00:20.025000,0 days 00:00:35.664000,0 days 00:00:20.494000,208.0,192.0,256.0,275.0,medium,13.0
0 days 01:15:50.608000,16,0 days 00:01:17.351000,27,"","",0 days 00:00:20.103000,0 days 00:00:36.556000,0 days 00:00:20.692000,199.0,190.0,255.0,275.0,medium,14.0
0 days 01:18:11.987000,16,0 days 00:02:21.379000,28,"","",0 days 00:00:23.348000,0 days 00:00:51.445000,0 days 00:01:06.586000,132.0,108.0,5.0,175.0,medium,15.0
0 days 01:19:46.588000,16,"",29,"",0 days 01:19:46.588000,0 days 00:00:25.272000,0 days 00:00:47.327000,"",148.0,95.0,"",228.0,medium,16.0
0 days 00:17:28.428000,14,0 days 00:01:45.088000,1,0 days 00:15:45.165000,"",0 days 00:00:34.537000,0 days 00:00:42.683000,0 days 00:00:27.868000,147.0,160.0,258.0,248.0,hard,1.0
0 days 00:18:49.004000,14,0 days 00:01:20.576000,2,"","",0 days 00:00:21.664000,0 days 00:00:37.329000,0 days 00:00:21.583000,193.0,180.0,260.0,269.0,hard,2.0
0 days 00:20:14.085000,14,0 days 00:01:25.081000,3,"","",0 days 00:00:21.114000,0 days 00:00:39.347000,0 days 00:00:24.620000,194.0,161.0,261.0,273.0,hard,3.0
0 days 00:21:31.582000,14,0 days 00:01:17.497000,4,"","",0 days 00:00:20.813000,0 days 00:00:36.187000,0 days 00:00:20.497000,"",190.0,262.0,272.0,hard,4.0
0 days 00:23:00.249000,14,0 days 00:01:28.667000,5,"","",0 days 00:00:20.506000,0 days 00:00:38.983000,0 days 00:00:29.178000,198.0,171.0,260.0,274.0,hard,5.0
0 days 00:24:30.171000,14,0 days 00:01:29.922000,6,"","",0 days 00:00:20.620000,0 days 00:00:40.625000,0 days 00:00:28.677000,197.0,142.0,259.0,273.0,hard,6.0
0 days 00:25:48.698000,14,0 days 00:01:18.527000,7,"","",0 days 00:00:20.535000,0 days 00:00:36.741000,0 days 00:00:21.251000,201.0,183.0,260.0,273.0,hard,7.0
0 days 00:27:06.071000,14,0 days 00:01:17.373000,8,"","",0 days 00:00:20.474000,0 days 00:00:36.332000,0 days 00:00:20.567000,193.0,188.0,260.0,272.0,hard,8.0
0 days 00:28:24.477000,14,0 days 00:01:18.406000,9,"","",0 days 00:00:20.725000,0 days 00:00:36.679000,0 days 00:00:21.002000,194.0,188.0,261.0,273.0,hard,9.0
0 days 00:30:04.950000,14,0 days 00:01:40.473000,10,"","",0 days 00:00:23.241000,0 days 00:00:47.823000,0 days 00:00:29.409000,161.0,98.0,257.0,191.0,hard,10.0
0 days 00:31:26.010000,14,0 days 00:01:21.060000,11,"","",0 days 00:00:20.766000,0 days 00:00:37.356000,0 days 00:00:22.938000,191.0,185.0,261.0,271.0,hard,11.0
0 days 00:32:43.447000,14,0 days 00:01:17.437000,12,"","",0 days 00:00:20.428000,0 days 00:00:36.221000,0 days 00:00:20.788000,198.0,190.0,260.0,273.0,hard,12.0
0 days 00:57:14.807000,14,"",13,"",0 days 00:34:05.679000,0 days 00:00:20.620000,0 days 00:00:38.583000,"",189.0,162.0,"",273.0,hard,13.0
0 days 00:58:43.376000,14,0 days 00:01:28.569000,14,0 days 00:57:15.482000,"",0 days 00:00:25.586000,0 days 00:00:39.822000,0 days 00:00:23.161000,168.0,162.0,251.0,259.0,medium,1.0
0 days 01:00:09.781000,14,0 days 00:01:26.405000,15,"","",0 days 00:00:24.081000,0 days 00:00:38.785000,0 days 00:00:23.539000,182.0,167.0,258.0,260.0,medium,2.0
0 days 01:01:32.449000,14,0 days 00:01:22.668000,16,"","",0 days 00:00:21.084000,0 days 00:00:38.464000,0 days 00:00:23.120000,186.0,172.0,260.0,260.0,medium,3.0
0 days 01:02:48.198000,14,0 days 00:01:15.749000,17,"","",0 days 00:00:19.984000,0 days 00:00:35.611000,0 days 00:00:20.154000,203.0,191.0,262.0,271.0,medium,4.0
0 days 01:04:17.233000,14,0 days 00:01:29.035000,18,"","",0 days 00:00:22.674000,0 days 00:00:42.742000,0 days 00:00:23.619000,172.0,163.0,261.0,257.0,medium,5.0
0 days 01:05:46.569000,14,0 days 00:01:29.336000,19,"","",0 days 00:00:20.059000,0 days 00:00:39.456000,0 days 00:00:29.821000,201.0,151.0,260.0,246.0,medium,6.0
0 days 01:07:10.976000,14,0 days 00:01:24.407000,20,"","",0 days 00:00:20.063000,0 days 00:00:40.152000,0 days 00:00:24.192000,202.0,137.0,260.0,272.0,medium,7.0
0 days 01:08:26.811000,14,0 days 00:01:15.835000,21,"","",0 days 00:00:20.029000,0 days 00:00:35.751000,0 days 00:00:20.055000,206.0,193.0,261.0,271.0,medium,8.0
0 days 01:09:50.586000,14,0 days 00:01:23.775000,22,"","",0 days 00:00:19.953000,0 days 00:00:37.847000,0 days 00:00:25.975000,207.0,128.0,260.0,272.0,medium,9.0
0 days 01:11:19.012000,14,0 days 00:01:28.426000,23,"","",0 days 00:00:20.092000,0 days 00:00:43.019000,0 days 00:00:25.315000,205.0,116.0,260.0,227.0,medium,10.0
0 days 01:12:36.617000,14,0 days 00:01:17.605000,24,"","",0 days 00:00:20.287000,0 days 00:00:36.586000,0 days 00:00:20.732000,197.0,187.0,261.0,270.0,medium,11.0
0 days 01:13:55.593000,14,0 days 00:01:18.976000,25,"","",0 days 00:00:20.854000,0 days 00:00:37.057000,0 days 00:00:21.065000,199.0,188.0,260.0,271.0,medium,12.0
0 days 01:15:15.071000,14,0 days 00:01:19.478000,26,"","",0 days 00:00:20.805000,0 days 00:00:37.341000,0 days 00:00:21.332000,195.0,187.0,253.0,272.0,medium,13.0
0 days 01:17:24.035000,14,0 days 00:02:08.964000,27,"","",0 days 00:00:24.242000,0 days 00:00:45.054000,0 days 00:00:59.668000,114.0,149.0,5.0,162.0,medium,14.0
0 days 01:18:46.029000,14,"",28,"",0 days 01:18:46.029000,0 days 00:00:24.724000,0 days 00:00:38.793000,"",181.0,152.0,"",272.0,medium,15.0
0 days 00:16:57.744000,11,0 days 00:01:38.976000,1,0 days 00:15:19.341000,"",0 days 00:00:26.633000,0 days 00:00:42.569000,0 days 00:00:29.774000,146.0,158.0,249.0,252.0,hard,1.0
0 days 00:18:20.111000,11,0 days 00:01:22.367000,2,"","",0 days 00:00:22.193000,0 days 00:00:37.833000,0 days 00:00:22.341000,183.0,180.0,252.0,269.0,hard,2.0
0 days 00:19:41.611000,11,0 days 00:01:21.500000,3,"","",0 days 00:00:21.343000,0 days 00:00:37.443000,0 days 00:00:22.714000,189.0,177.0,262.0,277.0,hard,3.0
0 days 00:21:16.948000,11,0 days 00:01:35.337000,4,"","",0 days 00:00:22.709000,0 days 00:00:48.633000,0 days 00:00:23.995000,157.0,145.0,254.0,248.0,hard,4.0
0 days 00:22:35.170000,11,0 days 00:01:18.222000,5,"","",0 days 00:00:20.828000,0 days 00:00:36.327000,0 days 00:00:21.067000,193.0,186.0,254.0,277.0,hard,5.0
0 days 00:24:34.593000,11,0 days 00:01:59.423000,6,"","",0 days 00:00:29.903000,0 days 00:00:58.281000,0 days 00:00:31.239000,58.0,116.0,261.0,230.0,hard,6.0
0 days 00:25:52.056000,11,0 days 00:01:17.463000,7,"","",0 days 00:00:20.502000,0 days 00:00:35.894000,0 days 00:00:21.067000,197.0,189.0,264.0,278.0,hard,7.0
0 days 00:27:36.824000,11,0 days 00:01:44.768000,8,"","",0 days 00:00:27.565000,0 days 00:00:52.570000,0 days 00:00:24.633000,102.0,122.0,262.0,237.0,hard,8.0
0 days 00:28:53.319000,11,0 days 00:01:16.495000,9,"","",0 days 00:00:20.371000,0 days 00:00:35.811000,0 days 00:00:20.313000,205.0,189.0,263.0,276.0,hard,9.0
0 days 00:30:57.812000,11,0 days 00:02:04.493000,10,"",0 days 00:30:30.892000,0 days 00:00:32.036000,0 days 00:00:48.624000,0 days 00:00:43.833000,75.0,152.0,"",249.0,hard,10.0
0 days 00:32:48.648000,11,0 days 00:01:50.836000,11,0 days 00:30:58.461000,"",0 days 00:00:31.050000,0 days 00:00:49.906000,0 days 00:00:29.880000,63.0,132.0,262.0,260.0,hard,11.0
0 days 00:34:12.280000,11,0 days 00:01:23.632000,12,"","",0 days 00:00:20.130000,0 days 00:00:35.712000,0 days 00:00:27.790000,203.0,189.0,159.0,278.0,hard,12.0
0 days 00:48:39.128000,11,"",13,"",0 days 00:35:58.100000,0 days 00:00:25.415000,"","",157.0,"","","",hard,13.0
0 days 00:50:10.510000,11,0 days 00:01:31.382000,14,0 days 00:48:39.755000,"",0 days 00:00:24.888000,0 days 00:00:39.052000,0 days 00:00:27.442000,162.0,171.0,262.0,266.0,medium,1.0
0 days 00:51:26.788000,11,0 days 00:01:16.278000,15,"","",0 days 00:00:20.394000,0 days 00:00:35.492000,0 days 00:00:20.392000,201.0,192.0,262.0,276.0,medium,2.0
0 days 00:53:09.049000,11,0 days 00:01:42.261000,16,"","",0 days 00:00:26.187000,0 days 00:00:49.171000,0 days 00:00:26.903000,156.0,122.0,262.0,179.0,medium,3.0
0 days 00:54:24.619000,11,0 days 00:01:15.570000,17,"","",0 days 00:00:20.033000,0 days 00:00:35.476000,0 days 00:00:20.061000,203.0,188.0,262.0,276.0,medium,4.0
0 days 00:56:13.934000,11,0 days 00:01:49.315000,18,"","",0 days 00:00:28.369000,0 days 00:00:53.589000,0 days 00:00:27.357000,133.0,135.0,263.0,235.0,medium,5.0
0 days 00:57:28.834000,11,0 days 00:01:14.900000,19,"","",0 days 00:00:19.781000,0 days 00:00:35.170000,0 days 00:00:19.949000,206.0,195.0,263.0,276.0,medium,6.0
0 days 00:59:12.461000,11,0 days 00:01:43.627000,20,"","",0 days 00:00:28.979000,0 days 00:00:49.041000,0 days 00:00:25.607000,124.0,126.0,263.0,225.0,medium,7.0
0 days 01:00:27.284000,11,0 days 00:01:14.823000,21,"","",0 days 00:00:19.754000,0 days 00:00:35.254000,0 days 00:00:19.815000,207.0,195.0,263.0,278.0,medium,8.0
0 days 01:02:29.169000,11,0 days 00:02:01.885000,22,"","",0 days 00:00:32.756000,0 days 00:00:57.131000,0 days 00:00:31.998000,83.0,98.0,263.0,204.0,medium,9.0
0 days 01:04:07.962000,11,0 days 00:01:38.793000,23,"","",0 days 00:00:26.590000,0 days 00:00:48.044000,0 days 00:00:24.159000,136.0,132.0,263.0,234.0,medium,10.0
0 days 01:05:22.532000,11,0 days 00:01:14.570000,24,"","",0 days 00:00:19.746000,0 days 00:00:35.072000,0 days 00:00:19.752000,208.0,195.0,264.0,275.0,medium,11.0
0 days 01:07:24.337000,11,0 days 00:02:01.805000,25,"","",0 days 00:00:27.155000,0 days 00:00:58.666000,0 days 00:00:35.984000,88.0,117.0,265.0,188.0,medium,12.0
0 days 01:09:07.278000,11,0 days 00:01:42.941000,26,"","",0 days 00:00:34.597000,0 days 00:00:43.017000,0 days 00:00:25.327000,166.0,131.0,263.0,267.0,medium,13.0
0 days 01:14:37.620000,11,"",27,"",0 days 01:10:27.281000,0 days 00:00:24.720000,0 days 00:00:39.377000,"",81.0,167.0,"",250.0,medium,14.0
0 days 01:16:08.925000,11,0 days 00:01:31.305000,28,0 days 01:14:38.152000,"",0 days 00:00:28.939000,0 days 00:00:39.183000,0 days 00:00:23.183000,163.0,176.0,240.0,265.0,hard,14.0
0 days 01:18:24.415000,11,0 days 00:02:15.490000,29,"","",0 days 00:00:22.961000,0 days 00:00:42.712000,0 days 00:01:09.817000,149.0,134.0,159.0,250.0,hard,15.0
0 days 01:19:57.990000,11,"",30,"",0 days 01:19:57.990000,0 days 00:00:25.574000,0 days 00:00:45.679000,"",136.0,109.0,"",210.0,hard,16.0
0 days 00:17:57.932000,10,0 days 00:01:49.641000,1,0 days 00:16:09.005000,"",0 days 00:00:28.718000,0 days 00:00:42.343000,0 days 00:00:38.580000,150.0,156.0,252.0,249.0,hard,1.0
0 days 00:19:23.073000,10,0 days 00:01:25.141000,2,"","",0 days 00:00:23.054000,0 days 00:00:39.213000,0 days 00:00:22.874000,175.0,174.0,260.0,264.0,hard,2.0
0 days 00:20:43.860000,10,0 days 00:01:20.787000,3,"","",0 days 00:00:21.625000,0 days 00:00:37.392000,0 days 00:00:21.770000,188.0,182.0,261.0,273.0,hard,3.0
0 days 00:22:02.881000,10,0 days 00:01:19.021000,4,"","",0 days 00:00:21.109000,0 days 00:00:36.748000,0 days 00:00:21.164000,195.0,186.0,262.0,277.0,hard,4.0
0 days 00:23:21.084000,10,0 days 00:01:18.203000,5,"","",0 days 00:00:20.547000,0 days 00:00:36.444000,0 days 00:00:21.212000,199.0,190.0,257.0,279.0,hard,5.0
0 days 00:25:00.616000,10,0 days 00:01:39.532000,6,"","",0 days 00:00:27.961000,0 days 00:00:47.239000,0 days 00:00:24.332000,163.0,155.0,262.0,242.0,hard,6.0
0 days 00:26:18.359000,10,0 days 00:01:17.743000,7,"","",0 days 00:00:20.479000,0 days 00:00:36.297000,0 days 00:00:20.967000,201.0,190.0,264.0,277.0,hard,7.0
0 days 00:27:58.511000,10,0 days 00:01:40.152000,8,"","",0 days 00:00:24.043000,0 days 00:00:46.266000,0 days 00:00:29.843000,117.0,158.0,263.0,260.0,hard,8.0
0 days 00:29:15.276000,10,0 days 00:01:16.765000,9,"","",0 days 00:00:20.327000,0 days 00:00:35.965000,0 days 00:00:20.473000,205.0,192.0,264.0,278.0,hard,9.0
0 days 00:30:46.152000,10,0 days 00:01:30.876000,10,"","",0 days 00:00:20.520000,0 days 00:00:46.194000,0 days 00:00:24.162000,200.0,144.0,262.0,227.0,hard,10.0
0 days 00:32:09.779000,10,0 days 00:01:23.627000,11,"","",0 days 00:00:22.637000,0 days 00:00:38.772000,0 days 00:00:22.218000,191.0,170.0,264.0,269.0,hard,11.0
0 days 00:33:26.294000,10,0 days 00:01:16.515000,12,"","",0 days 00:00:20.043000,0 days 00:00:36.025000,0 days 00:00:20.447000,206.0,192.0,263.0,277.0,hard,12.0
0 days 00:43:35.016000,10,"",13,"",0 days 00:36:51.248000,0 days 00:00:21.367000,0 days 00:00:46.262000,"",145.0,108.0,"",228.0,hard,13.0
0 days 00:45:09.108000,10,0 days 00:01:34.092000,14,0 days 00:43:35.636000,"",0 days 00:00:27.036000,0 days 00:00:44.600000,0 days 00:00:22.456000,163.0,159.0,262.0,268.0,medium,1.0
0 days 00:46:35.292000,10,0 days 00:01:26.184000,15,"","",0 days 00:00:20.749000,0 days 00:00:43.193000,0 days 00:00:22.242000,197.0,153.0,263.0,268.0,medium,2.0
0 days 00:47:51.480000,10,0 days 00:01:16.188000,16,"","",0 days 00:00:20.106000,0 days 00:00:35.921000,0 days 00:00:20.161000,202.0,192.0,263.0,276.0,medium,3.0
0 days 00:49:07.174000,10,0 days 00:01:15.694000,17,"","",0 days 00:00:19.970000,0 days 00:00:35.585000,0 days 00:00:20.139000,205.0,193.0,263.0,277.0,medium,4.0
0 days 00:50:43.317000,10,0 days 00:01:36.143000,18,"","",0 days 00:00:28.100000,0 days 00:00:44.270000,0 days 00:00:23.773000,89.0,148.0,265.0,248.0,medium,5.0
0 days 00:51:58.467000,10,0 days 00:01:15.150000,19,"","",0 days 00:00:19.814000,0 days 00:00:35.387000,0 days 00:00:19.949000,210.0,195.0,264.0,277.0,medium,6.0
0 days 00:53:43.371000,10,0 days 00:01:44.904000,20,"","",0 days 00:00:24.849000,0 days 00:00:52.426000,0 days 00:00:27.629000,162.0,161.0,266.0,209.0,medium,7.0
0 days 00:54:58.454000,10,0 days 00:01:15.083000,21,"","",0 days 00:00:19.905000,0 days 00:00:35.259000,0 days 00:00:19.919000,206.0,197.0,263.0,278.0,medium,8.0
0 days 00:56:37.750000,10,0 days 00:01:39.296000,22,"","",0 days 00:00:26.932000,0 days 00:00:46.985000,0 days 00:00:25.379000,161.0,134.0,266.0,247.0,medium,9.0
0 days 00:58:12.299000,10,0 days 00:01:34.549000,23,"","",0 days 00:00:23.221000,0 days 00:00:42.894000,0 days 00:00:28.434000,158.0,162.0,265.0,251.0,medium,10.0
0 days 00:59:45.467000,10,0 days 00:01:33.168000,24,"","",0 days 00:00:19.989000,0 days 00:00:43.431000,0 days 00:00:29.748000,208.0,148.0,265.0,222.0,medium,11.0
0 days 01:01:00.823000,10,0 days 00:01:15.356000,25,"","",0 days 00:00:19.948000,0 days 00:00:35.371000,0 days 00:00:20.037000,"",194.0,265.0,279.0,medium,12.0
0 days 01:02:49.786000,10,0 days 00:01:48.963000,26,"",0 days 01:02:25.772000,0 days 00:00:26.720000,0 days 00:00:40.472000,0 days 00:00:41.771000,166.0,166.0,"",262.0,medium,13.0
0 days 01:07:19.081000,10,"",27,0 days 01:02:50.430000,0 days 01:04:10.649000,0 days 00:00:24.587000,0 days 00:00:39.680000,"",189.0,171.0,"",277.0,hard,14.0
0 days 01:08:50.898000,10,0 days 00:01:31.817000,28,0 days 01:07:19.601000,"",0 days 00:00:28.085000,0 days 00:00:39.794000,0 days 00:00:23.938000,176.0,167.0,265.0,266.0,medium,14.0
0 days 01:10:10.823000,10,0 days 00:01:19.925000,29,"","",0 days 00:00:20.754000,0 days 00:00:37.649000,0 days 00:00:21.522000,178.0,175.0,264.0,262.0,medium,15.0
0 days 01:11:26.147000,10,0 days 00:01:15.324000,30,"","",0 days 00:00:19.929000,0 days 00:00:35.449000,0 days 00:00:19.946000,208.0,196.0,265.0,278.0,medium,16.0
0 days 01:13:02.883000,10,0 days 00:01:36.736000,31,"","",0 days 00:00:24.761000,0 days 00:00:48.505000,0 days 00:00:23.470000,147.0,159.0,265.0,244.0,medium,17.0
0 days 01:14:28.352000,10,0 days 00:01:25.469000,32,"","",0 days 00:00:19.980000,0 days 00:00:42.219000,0 days 00:00:23.270000,206.0,151.0,264.0,214.0,medium,18.0
0 days 01:16:13.227000,10,"",33,"",0 days 01:16:13.227000,0 days 00:00:20.069000,0 days 00:01:00.864000,"",157.0,84.0,"",140.0,medium,19.0
0 days 00:33:15.048000,6,0 days 00:01:56.590000,1,0 days 00:31:19.177000,"",0 days 00:00:36.305000,0 days 00:00:49.891000,0 days 00:00:30.394000,111.0,69.0,245.0,227.0,hard,1.0
0 days 00:34:53.355000,6,0 days 00:01:38.307000,2,"","",0 days 00:00:24.767000,0 days 00:00:41.882000,0 days 00:00:31.658000,151.0,165.0,252.0,255.0,hard,2.0
0 days 00:39:28.869000,6,"",3,"",0 days 00:36:35.449000,"","","","","","","",hard,3.0
0 days 00:41:04.240000,6,0 days 00:01:35.371000,4,0 days 00:39:29.532000,"",0 days 00:00:29.097000,0 days 00:00:42.916000,0 days 00:00:23.358000,156.0,163.0,257.0,251.0,hard,4.0
0 days 00:42:28.814000,6,0 days 00:01:24.574000,5,"","",0 days 00:00:22.928000,0 days 00:00:39.327000,0 days 00:00:22.319000,165.0,174.0,258.0,264.0,hard,5.0
0 days 00:43:50.629000,6,0 days 00:01:21.815000,6,"","",0 days 00:00:21.714000,0 days 00:00:38.307000,0 days 00:00:21.794000,183.0,177.0,261.0,265.0,hard,6.0
0 days 00:45:11.220000,6,0 days 00:01:20.591000,7,"","",0 days 00:00:21.447000,0 days 00:00:37.624000,0 days 00:00:21.520000,185.0,179.0,262.0,273.0,hard,7.0
0 days 00:46:42.693000,6,0 days 00:01:31.473000,8,"","",0 days 00:00:21.268000,0 days 00:00:40.774000,0 days 00:00:29.431000,193.0,87.0,259.0,252.0,hard,8.0
0 days 00:48:02.955000,6,0 days 00:01:20.262000,9,"","",0 days 00:00:21.467000,0 days 00:00:37.220000,0 days 00:00:21.575000,183.0,183.0,260.0,276.0,hard,9.0
0 days 00:49:22.141000,6,0 days 00:01:19.186000,10,"","",0 days 00:00:20.992000,0 days 00:00:36.975000,0 days 00:00:21.219000,197.0,183.0,262.0,276.0,hard,10.0
0 days 00:50:59.578000,6,0 days 00:01:37.437000,11,"","",0 days 00:00:24.786000,0 days 00:00:45.576000,0 days 00:00:27.075000,156.0,137.0,260.0,237.0,hard,11.0
0 days 00:52:19.193000,6,0 days 00:01:19.615000,12,"","",0 days 00:00:21.024000,0 days 00:00:37.024000,0 days 00:00:21.567000,193.0,184.0,261.0,275.0,hard,12.0
0 days 00:53:38.435000,6,0 days 00:01:19.242000,13,"","",0 days 00:00:20.880000,0 days 00:00:37.160000,0 days 00:00:21.202000,198.0,184.0,262.0,275.0,hard,13.0
0 days 00:55:36.257000,6,0 days 00:01:57.822000,14,"",0 days 00:55:10.569000,0 days 00:00:28.408000,0 days 00:00:45.101000,0 days 00:00:44.313000,159.0,158.0,"",246.0,hard,14.0
0 days 00:57:12.266000,6,0 days 00:01:36.009000,15,0 days 00:55:36.896000,"",0 days 00:00:28.612000,0 days 00:00:44.472000,0 days 00:00:22.925000,156.0,167.0,261.0,230.0,soft,1.0
0 days 00:58:30.523000,6,0 days 00:01:18.257000,16,"","",0 days 00:00:20.780000,0 days 00:00:36.759000,0 days 00:00:20.718000,198.0,186.0,263.0,276.0,soft,2.0
0 days 01:00:03.818000,6,0 days 00:01:33.295000,17,"","",0 days 00:00:24.498000,0 days 00:00:43.686000,0 days 00:00:25.111000,157.0,157.0,261.0,262.0,soft,3.0
0 days 01:01:23.861000,6,0 days 00:01:20.043000,18,"","",0 days 00:00:20.531000,0 days 00:00:37.962000,0 days 00:00:21.550000,199.0,179.0,259.0,276.0,soft,4.0
0 days 01:03:00.606000,6,0 days 00:01:36.745000,19,"","",0 days 00:00:24.490000,0 days 00:00:47.848000,0 days 00:00:24.407000,157.0,165.0,262.0,210.0,soft,5.0
0 days 01:04:32.784000,6,0 days 00:01:32.178000,20,"","",0 days 00:00:20.520000,0 days 00:00:42.321000,0 days 00:00:29.337000,199.0,79.0,261.0,278.0,soft,6.0
0 days 01:05:50.776000,6,0 days 00:01:17.992000,21,"","",0 days 00:00:20.524000,0 days 00:00:36.611000,0 days 00:00:20.857000,201.0,189.0,262.0,276.0,soft,7.0
0 days 01:07:36.972000,6,0 days 00:01:46.196000,22,"","",0 days 00:00:30.586000,0 days 00:00:46.855000,0 days 00:00:28.755000,137.0,155.0,238.0,263.0,soft,8.0
0 days 01:09:18.733000,6,0 days 00:01:41.761000,23,"","",0 days 00:00:30.383000,0 days 00:00:45.157000,0 days 00:00:26.221000,104.0,169.0,262.0,240.0,soft,9.0
0 days 01:10:36.447000,6,0 days 00:01:17.714000,24,"","",0 days 00:00:20.453000,0 days 00:00:36.566000,0 days 00:00:20.695000,199.0,189.0,264.0,280.0,soft,10.0
0 days 01:12:15.658000,6,0 days 00:01:39.211000,25,"","",0 days 00:00:27.557000,0 days 00:00:45.327000,0 days 00:00:26.327000,100.0,143.0,261.0,256.0,soft,11.0
0 days 01:13:36.560000,6,0 days 00:01:20.902000,26,"","",0 days 00:00:20.655000,0 days 00:00:38.106000,0 days 00:00:22.141000,198.0,176.0,253.0,272.0,soft,12.0
0 days 01:14:57.884000,6,0 days 00:01:21.324000,27,"","",0 days 00:00:21.401000,0 days 00:00:38.101000,0 days 00:00:21.822000,189.0,181.0,255.0,276.0,soft,13.0
0 days 01:16:21.133000,6,0 days 00:01:23.249000,28,"","",0 days 00:00:21.790000,0 days 00:00:38.800000,0 days 00:00:22.659000,187.0,176.0,254.0,276.0,soft,14.0
0 days 01:18:39.585000,6,0 days 00:02:18.452000,29,"","",0 days 00:00:28.753000,0 days 00:00:49.270000,0 days 00:01:00.429000,154.0,125.0,8.0,218.0,soft,15.0
0 days 01:20:21.960000,6,"",30,"",0 days 01:20:21.960000,0 days 00:00:31.595000,0 days 00:00:50.194000,"",93.0,135.0,"",219.0,soft,16.0
0 days 00:17:02.795000,5,0 days 00:01:41.552000,1,0 days 00:15:21.839000,"",0 days 00:00:29.494000,0 days 00:00:44.356000,0 days 00:00:27.702000,137.0,144.0,251.0,244.0,hard,1.0
0 days 00:18:28.722000,5,0 days 00:01:25.927000,2,"","",0 days 00:00:23.209000,0 days 00:00:39.602000,0 days 00:00:23.116000,160.0,167.0,255.0,265.0,hard,2.0
0 days 00:19:51.583000,5,0 days 00:01:22.861000,3,"","",0 days 00:00:22.348000,0 days 00:00:38.474000,0 days 00:00:22.039000,167.0,176.0,263.0,270.0,hard,3.0
0 days 00:21:12.040000,5,0 days 00:01:20.457000,4,"","",0 days 00:00:21.478000,0 days 00:00:37.476000,0 days 00:00:21.503000,177.0,182.0,263.0,271.0,hard,4.0
0 days 00:22:31.243000,5,0 days 00:01:19.203000,5,"","",0 days 00:00:21.012000,0 days 00:00:36.817000,0 days 00:00:21.374000,186.0,184.0,263.0,274.0,hard,5.0
0 days 00:23:49.793000,5,0 days 00:01:18.550000,6,"","",0 days 00:00:20.823000,0 days 00:00:36.610000,0 days 00:00:21.117000,197.0,187.0,263.0,275.0,hard,6.0
0 days 00:25:21.651000,5,0 days 00:01:31.858000,7,"","",0 days 00:00:22.604000,0 days 00:00:40.146000,0 days 00:00:29.108000,146.0,162.0,259.0,269.0,hard,7.0
0 days 00:26:42.461000,5,0 days 00:01:20.810000,8,"","",0 days 00:00:21.225000,0 days 00:00:36.366000,0 days 00:00:23.219000,190.0,186.0,260.0,275.0,hard,8.0
0 days 00:28:00.132000,5,0 days 00:01:17.671000,9,"","",0 days 00:00:20.652000,0 days 00:00:36.267000,0 days 00:00:20.752000,198.0,189.0,265.0,275.0,hard,9.0
0 days 00:29:45.280000,5,0 days 00:01:45.148000,10,"","",0 days 00:00:25.864000,0 days 00:00:45.198000,0 days 00:00:34.086000,53.0,164.0,258.0,256.0,hard,10.0
0 days 00:31:08.963000,5,0 days 00:01:23.683000,11,"","",0 days 00:00:20.654000,0 days 00:00:38.194000,0 days 00:00:24.835000,198.0,154.0,261.0,274.0,hard,11.0
0 days 00:32:26.109000,5,0 days 00:01:17.146000,12,"","",0 days 00:00:20.524000,0 days 00:00:36.044000,0 days 00:00:20.578000,202.0,189.0,263.0,275.0,hard,12.0
0 days 00:44:57.244000,5,"",13,"",0 days 00:34:01.547000,0 days 00:00:22.806000,0 days 00:00:43.877000,"",164.0,161.0,"",249.0,hard,13.0
0 days 00:46:26.353000,5,0 days 00:01:29.109000,14,0 days 00:44:57.960000,"",0 days 00:00:28.024000,0 days 00:00:39.214000,0 days 00:00:21.871000,155.0,174.0,263.0,257.0,soft,1.0
0 days 00:47:45.859000,5,0 days 00:01:19.506000,15,"","",0 days 00:00:20.750000,0 days 00:00:36.785000,0 days 00:00:21.971000,189.0,180.0,264.0,273.0,soft,2.0
0 days 00:49:01.246000,5,0 days 00:01:15.387000,16,"","",0 days 00:00:19.976000,0 days 00:00:35.284000,0 days 00:00:20.127000,209.0,192.0,263.0,276.0,soft,3.0
0 days 00:50:29.771000,5,0 days 00:01:28.525000,17,"","",0 days 00:00:23.531000,0 days 00:00:39.852000,0 days 00:00:25.142000,158.0,159.0,264.0,253.0,soft,4.0
0 days 00:51:45.231000,5,0 days 00:01:15.460000,18,"","",0 days 00:00:19.984000,0 days 00:00:35.336000,0 days 00:00:20.140000,202.0,193.0,263.0,277.0,soft,5.0
0 days 00:53:28.498000,5,0 days 00:01:43.267000,19,"","",0 days 00:00:30.582000,0 days 00:00:42.174000,0 days 00:00:30.511000,152.0,149.0,263.0,241.0,soft,6.0
0 days 00:54:44.605000,5,0 days 00:01:16.107000,20,"","",0 days 00:00:20.229000,0 days 00:00:35.360000,0 days 00:00:20.518000,206.0,193.0,263.0,277.0,soft,7.0
0 days 00:56:28.188000,5,0 days 00:01:43.583000,21,"","",0 days 00:00:25.197000,0 days 00:00:46.361000,0 days 00:00:32.025000,83.0,125.0,263.0,246.0,soft,8.0
0 days 00:57:43.958000,5,0 days 00:01:15.770000,22,"","",0 days 00:00:20.075000,0 days 00:00:35.564000,0 days 00:00:20.131000,207.0,193.0,265.0,277.0,soft,9.0
0 days 01:04:33.574000,5,"",23,"",0 days 00:59:08.626000,0 days 00:00:24.305000,0 days 00:00:41.414000,"",136.0,163.0,"",248.0,soft,10.0
0 days 01:06:03.424000,5,0 days 00:01:29.850000,24,0 days 01:04:34.213000,"",0 days 00:00:25.973000,0 days 00:00:41.305000,0 days 00:00:22.572000,110.0,161.0,253.0,264.0,soft,11.0
0 days 01:07:22.764000,5,0 days 00:01:19.340000,25,"","",0 days 00:00:21.160000,0 days 00:00:36.838000,0 days 00:00:21.342000,191.0,184.0,254.0,271.0,soft,12.0
0 days 01:08:42.813000,5,0 days 00:01:20.049000,26,"","",0 days 00:00:22.139000,0 days 00:00:36.846000,0 days 00:00:21.064000,184.0,184.0,254.0,272.0,soft,13.0
0 days 01:10:01.353000,5,0 days 00:01:18.540000,27,"","",0 days 00:00:20.870000,0 days 00:00:36.675000,0 days 00:00:20.995000,192.0,186.0,253.0,273.0,soft,14.0
0 days 01:11:20.480000,5,0 days 00:01:19.127000,28,"","",0 days 00:00:20.889000,0 days 00:00:37.051000,0 days 00:00:21.187000,197.0,185.0,253.0,274.0,soft,15.0
0 days 01:12:40.040000,5,0 days 00:01:19.560000,29,"","",0 days 00:00:21.120000,0 days 00:00:37.279000,0 days 00:00:21.161000,193.0,186.0,253.0,263.0,soft,16.0
0 days 01:14:00.378000,5,0 days 00:01:20.338000,30,"","",0 days 00:00:21.230000,0 days 00:00:37.431000,0 days 00:00:21.677000,194.0,183.0,253.0,273.0,soft,17.0
0 days 01:15:20.918000,5,0 days 00:01:20.540000,31,"","",0 days 00:00:21.296000,0 days 00:00:37.772000,0 days 00:00:21.472000,192.0,181.0,249.0,273.0,soft,18.0
0 days 01:17:38.550000,5,0 days 00:02:17.632000,32,"","",0 days 00:00:26.863000,0 days 00:00:45.687000,0 days 00:01:05.082000,129.0,144.0,79.0,161.0,soft,19.0
0 days 01:19:11.778000,5,"",33,"",0 days 01:19:11.778000,0 days 00:00:30.800000,0 days 00:00:44.178000,"",116.0,135.0,"",240.0,soft,20.0
0 days 00:17:24.215000,4,0 days 00:01:49.631000,1,0 days 00:15:35.953000,"",0 days 00:00:36.092000,0 days 00:00:48.489000,0 days 00:00:25.050000,143.0,125.0,255.0,209.0,hard,1.0
0 days 00:18:45.692000,4,0 days 00:01:21.477000,2,"","",0 days 00:00:21.830000,0 days 00:00:38.311000,0 days 00:00:21.336000,187.0,174.0,257.0,258.0,hard,2.0
0 days 00:20:04.104000,4,0 days 00:01:18.412000,3,"","",0 days 00:00:21.091000,0 days 00:00:36.636000,0 days 00:00:20.685000,198.0,183.0,261.0,270.0,hard,3.0
0 days 00:21:21.496000,4,0 days 00:01:17.392000,4,"","",0 days 00:00:20.622000,0 days 00:00:36.269000,0 days 00:00:20.501000,200.0,189.0,261.0,273.0,hard,4.0
0 days 00:22:38.096000,4,0 days 00:01:16.600000,5,"","",0 days 00:00:20.231000,0 days 00:00:36.007000,0 days 00:00:20.362000,203.0,189.0,262.0,275.0,hard,5.0
0 days 00:24:08.593000,4,0 days 00:01:30.497000,6,"","",0 days 00:00:22.170000,0 days 00:00:46.212000,0 days 00:00:22.115000,162.0,154.0,260.0,234.0,hard,6.0
0 days 00:25:27.755000,4,0 days 00:01:19.162000,7,"","",0 days 00:00:20.206000,0 days 00:00:36.568000,0 days 00:00:22.388000,203.0,188.0,258.0,274.0,hard,7.0
0 days 00:26:52.404000,4,0 days 00:01:24.649000,8,"","",0 days 00:00:20.133000,0 days 00:00:40.288000,0 days 00:00:24.228000,202.0,150.0,261.0,221.0,hard,8.0
0 days 00:28:08.982000,4,0 days 00:01:16.578000,9,"","",0 days 00:00:20.165000,0 days 00:00:35.975000,0 days 00:00:20.438000,206.0,191.0,263.0,277.0,hard,9.0
0 days 00:40:08.890000,4,"",10,"",0 days 00:29:34.707000,0 days 00:00:22.811000,0 days 00:00:41.816000,"",174.0,166.0,"",260.0,hard,10.0
0 days 00:41:41.911000,4,0 days 00:01:33.021000,11,0 days 00:40:09.624000,"",0 days 00:00:27.381000,0 days 00:00:43.975000,0 days 00:00:21.665000,154.0,174.0,260.0,245.0,medium,1.0
0 days 00:42:57.631000,4,0 days 00:01:15.720000,12,"","",0 days 00:00:19.940000,0 days 00:00:35.611000,0 days 00:00:20.169000,206.0,194.0,262.0,272.0,medium,2.0
0 days 00:44:30.932000,4,0 days 00:01:33.301000,13,"","",0 days 00:00:23.917000,0 days 00:00:46.682000,0 days 00:00:22.702000,149.0,161.0,262.0,106.0,medium,3.0
0 days 00:45:46.233000,4,0 days 00:01:15.301000,14,"","",0 days 00:00:19.796000,0 days 00:00:35.681000,0 days 00:00:19.824000,209.0,195.0,263.0,274.0,medium,4.0
0 days 00:47:24.548000,4,0 days 00:01:38.315000,15,"","",0 days 00:00:22.878000,0 days 00:00:47.082000,0 days 00:00:28.355000,159.0,108.0,262.0,211.0,medium,5.0
0 days 00:48:39.604000,4,0 days 00:01:15.056000,16,"","",0 days 00:00:19.882000,0 days 00:00:35.245000,0 days 00:00:19.929000,208.0,194.0,262.0,275.0,medium,6.0
0 days 00:58:52.160000,4,"",17,"",0 days 00:50:06.859000,0 days 00:00:24.198000,0 days 00:00:45.286000,"",136.0,151.0,"",210.0,medium,7.0
0 days 01:00:21.540000,4,0 days 00:01:29.380000,18,0 days 00:58:52.825000,"",0 days 00:00:26.881000,0 days 00:00:39.484000,0 days 00:00:23.015000,180.0,180.0,262.0,257.0,medium,8.0
0 days 01:01:38.981000,4,0 days 00:01:17.441000,19,"","",0 days 00:00:19.792000,0 days 00:00:35.391000,0 days 00:00:22.258000,205.0,193.0,261.0,275.0,medium,9.0
0 days 01:03:05.519000,4,0 days 00:01:26.538000,20,"","",0 days 00:00:19.727000,0 days 00:00:38.729000,0 days 00:00:28.082000,207.0,140.0,259.0,275.0,medium,10.0
0 days 01:04:58.556000,4,0 days 00:01:53.037000,21,"","",0 days 00:00:38.045000,0 days 00:00:49.642000,0 days 00:00:25.350000,101.0,139.0,261.0,199.0,medium,11.0
0 days 01:06:14.814000,4,0 days 00:01:16.258000,22,"","",0 days 00:00:20.312000,0 days 00:00:35.834000,0 days 00:00:20.112000,209.0,192.0,263.0,274.0,medium,12.0
0 days 01:07:31.511000,4,0 days 00:01:16.697000,23,"","",0 days 00:00:19.847000,0 days 00:00:36.436000,0 days 00:00:20.414000,206.0,190.0,256.0,271.0,medium,13.0
0 days 01:08:51.221000,4,0 days 00:01:19.710000,24,"","",0 days 00:00:22.671000,0 days 00:00:36.614000,0 days 00:00:20.425000,203.0,191.0,264.0,275.0,medium,14.0
0 days 01:10:11.504000,4,0 days 00:01:20.283000,25,"","",0 days 00:00:21.390000,0 days 00:00:37.351000,0 days 00:00:21.542000,194.0,187.0,253.0,269.0,medium,15.0
0 days 01:11:48.288000,4,0 days 00:01:36.784000,26,"",0 days 01:11:23.932000,0 days 00:00:20.735000,0 days 00:00:37.299000,0 days 00:00:38.750000,196.0,186.0,"",272.0,medium,16.0
0 days 01:13:12.891000,4,0 days 00:01:24.603000,27,0 days 01:11:48.899000,"",0 days 00:00:23.681000,0 days 00:00:36.826000,0 days 00:00:24.096000,198.0,190.0,253.0,274.0,hard,11.0
0 days 01:14:31.591000,4,0 days 00:01:18.700000,28,"","",0 days 00:00:20.345000,0 days 00:00:37.771000,0 days 00:00:20.584000,203.0,185.0,254.0,272.0,hard,12.0
0 days 01:15:49.201000,4,0 days 00:01:17.610000,29,"","",0 days 00:00:20.212000,0 days 00:00:37.160000,0 days 00:00:20.238000,201.0,193.0,254.0,271.0,hard,13.0
0 days 01:17:57.545000,4,0 days 00:02:08.344000,30,"","",0 days 00:00:23.080000,0 days 00:00:43.911000,0 days 00:01:01.353000,137.0,115.0,30.0,209.0,hard,14.0
0 days 01:19:29.244000,4,"",31,"",0 days 01:19:29.244000,0 days 00:00:35.700000,0 days 00:00:40.035000,"",130.0,156.0,"",254.0,hard,15.0
0 days 00:17:38.552000,3,0 days 00:01:45.107000,1,0 days 00:15:54.142000,"",0 days 00:00:31.667000,0 days 00:00:41.310000,0 days 00:00:32.130000,163.0,170.0,257.0,258.0,hard,1.0
0 days 00:18:58.916000,3,0 days 00:01:20.364000,2,"","",0 days 00:00:21.473000,0 days 00:00:37.693000,0 days 00:00:21.198000,181.0,184.0,262.0,275.0,hard,2.0
0 days 00:20:22.265000,3,0 days 00:01:23.349000,3,"","",0 days 00:00:20.783000,0 days 00:00:39.784000,0 days 00:00:22.782000,193.0,158.0,262.0,250.0,hard,3.0
0 days 00:21:39.388000,3,0 days 00:01:17.123000,4,"","",0 days 00:00:20.380000,0 days 00:00:36.195000,0 days 00:00:20.548000,196.0,191.0,262.0,276.0,hard,4.0
0 days 00:23:10.101000,3,0 days 00:01:30.713000,5,"","",0 days 00:00:22.464000,0 days 00:00:44.681000,0 days 00:00:23.568000,154.0,154.0,261.0,221.0,hard,5.0
0 days 00:24:27.035000,3,0 days 00:01:16.934000,6,"","",0 days 00:00:20.346000,0 days 00:00:36.031000,0 days 00:00:20.557000,197.0,194.0,264.0,275.0,hard,6.0
0 days 00:25:51.176000,3,0 days 00:01:24.141000,7,"","",0 days 00:00:20.417000,0 days 00:00:37.029000,0 days 00:00:26.695000,198.0,149.0,261.0,276.0,hard,7.0
0 days 00:27:17.475000,3,0 days 00:01:26.299000,8,"","",0 days 00:00:20.377000,0 days 00:00:39.099000,0 days 00:00:26.823000,200.0,147.0,146.0,277.0,hard,8.0
0 days 00:28:58.799000,3,0 days 00:01:41.324000,9,"","",0 days 00:00:26.849000,0 days 00:00:48.604000,0 days 00:00:25.871000,162.0,58.0,262.0,149.0,hard,9.0
0 days 00:30:15.248000,3,0 days 00:01:16.449000,10,"","",0 days 00:00:20.302000,0 days 00:00:35.890000,0 days 00:00:20.257000,203.0,195.0,263.0,274.0,hard,10.0
0 days 00:31:31.555000,3,0 days 00:01:16.307000,11,"","",0 days 00:00:20.141000,0 days 00:00:35.952000,0 days 00:00:20.214000,205.0,194.0,263.0,275.0,hard,11.0
0 days 00:42:16.068000,3,"",12,"",0 days 00:32:50.155000,0 days 00:00:22.845000,0 days 00:00:38.606000,"",158.0,151.0,"",252.0,hard,12.0
0 days 00:43:59.609000,3,0 days 00:01:43.541000,13,0 days 00:42:16.734000,"",0 days 00:00:28.765000,0 days 00:00:45.991000,0 days 00:00:28.785000,171.0,91.0,260.0,254.0,medium,1.0
0 days 00:45:15.309000,3,0 days 00:01:15.700000,14,"","",0 days 00:00:20.109000,0 days 00:00:35.596000,0 days 00:00:19.995000,205.0,196.0,263.0,276.0,medium,2.0
0 days 00:46:47.455000,3,0 days 00:01:32.146000,15,"","",0 days 00:00:19.931000,0 days 00:00:40.242000,0 days 00:00:31.973000,208.0,129.0,263.0,231.0,medium,3.0
0 days 00:48:13.036000,3,0 days 00:01:25.581000,16,"","",0 days 00:00:20.210000,0 days 00:00:40.161000,0 days 00:00:25.210000,205.0,136.0,262.0,241.0,medium,4.0
0 days 00:49:28.277000,3,0 days 00:01:15.241000,17,"","",0 days 00:00:20.053000,0 days 00:00:35.290000,0 days 00:00:19.898000,207.0,196.0,264.0,275.0,medium,5.0
0 days 00:51:05.426000,3,0 days 00:01:37.149000,18,"","",0 days 00:00:22.492000,0 days 00:00:47.759000,0 days 00:00:26.898000,145.0,125.0,263.0,200.0,medium,6.0
0 days 00:52:41.939000,3,0 days 00:01:36.513000,19,"","",0 days 00:00:20.122000,0 days 00:00:49.704000,0 days 00:00:26.687000,206.0,129.0,263.0,75.0,medium,7.0
0 days 00:53:57.297000,3,0 days 00:01:15.358000,20,"","",0 days 00:00:19.992000,0 days 00:00:35.455000,0 days 00:00:19.911000,207.0,199.0,265.0,277.0,medium,8.0
0 days 01:01:31.737000,3,"",21,"",0 days 00:55:18.387000,0 days 00:00:23.459000,0 days 00:00:39.916000,"",157.0,143.0,"",249.0,medium,9.0
0 days 01:03:15.997000,3,0 days 00:01:44.260000,22,0 days 01:01:32.361000,"",0 days 00:00:31.110000,0 days 00:00:44.047000,0 days 00:00:29.103000,150.0,149.0,254.0,253.0,medium,10.0
0 days 01:04:51.704000,3,0 days 00:01:35.707000,23,"","",0 days 00:00:25.560000,0 days 00:00:46.567000,0 days 00:00:23.580000,112.0,145.0,261.0,252.0,medium,11.0
0 days 01:06:07.174000,3,0 days 00:01:15.470000,24,"","",0 days 00:00:19.978000,0 days 00:00:35.422000,0 days 00:00:20.070000,209.0,200.0,262.0,274.0,medium,12.0
0 days 01:07:45.759000,3,0 days 00:01:38.585000,25,"","",0 days 00:00:21.621000,0 days 00:00:46.524000,0 days 00:00:30.440000,152.0,153.0,260.0,187.0,medium,13.0
0 days 01:09:13.808000,3,0 days 00:01:28.049000,26,"","",0 days 00:00:21.219000,0 days 00:00:41.960000,0 days 00:00:24.870000,176.0,150.0,263.0,226.0,medium,14.0
0 days 01:10:28.965000,3,0 days 00:01:15.157000,27,"","",0 days 00:00:19.901000,0 days 00:00:35.455000,0 days 00:00:19.801000,207.0,196.0,263.0,275.0,medium,15.0
0 days 01:11:46.081000,3,0 days 00:01:17.116000,28,"","",0 days 00:00:20.016000,0 days 00:00:36.525000,0 days 00:00:20.575000,206.0,192.0,263.0,277.0,medium,16.0
0 days 01:13:21.859000,3,0 days 00:01:35.778000,29,"",0 days 01:12:57.955000,0 days 00:00:20.487000,0 days 00:00:37.129000,0 days 00:00:38.162000,205.0,188.0,"",277.0,medium,17.0
0 days 01:14:43.121000,3,0 days 00:01:21.262000,30,0 days 01:13:22.484000,"",0 days 00:00:24.049000,0 days 00:00:36.724000,0 days 00:00:20.489000,193.0,193.0,255.0,275.0,hard,13.0
0 days 01:16:01.382000,3,0 days 00:01:18.261000,31,"","",0 days 00:00:20.717000,0 days 00:00:36.747000,0 days 00:00:20.797000,200.0,190.0,256.0,277.0,hard,14.0
0 days 01:18:17.051000,3,0 days 00:02:15.669000,32,"","",0 days 00:00:25.163000,0 days 00:00:42.717000,0 days 00:01:07.789000,152.0,148.0,5.0,229.0,hard,15.0
0 days 01:19:49.932000,3,"",33,"",0 days 01:19:49.932000,0 days 00:00:27.342000,0 days 00:00:46.929000,"",131.0,124.0,"",206.0,hard,16.0
0 days 00:16:46.690000,63,0 days 00:01:37.672000,1,0 days 00:15:09.940000,"",0 days 00:00:29.073000,0 days 00:00:43.012000,0 days 00:00:25.587000,148.0,163.0,250.0,246.0,hard,1.0
0 days 00:18:11.192000,63,0 days 00:01:24.502000,2,"","",0 days 00:00:22.690000,0 days 00:00:38.862000,0 days 00:00:22.950000,178.0,176.0,252.0,263.0,hard,2.0
0 days 00:19:33.350000,63,0 days 00:01:22.158000,3,"","",0 days 00:00:21.908000,0 days 00:00:37.963000,0 days 00:00:22.287000,182.0,178.0,254.0,264.0,hard,3.0
0 days 00:20:55.161000,63,0 days 00:01:21.811000,4,"","",0 days 00:00:21.314000,0 days 00:00:37.292000,0 days 00:00:23.205000,184.0,181.0,250.0,265.0,hard,4.0
0 days 00:23:40.576000,63,"",5,"",0 days 00:22:09.288000,0 days 00:00:21.148000,0 days 00:00:37.348000,"",185.0,182.0,"",268.0,hard,5.0
0 days 00:25:11.464000,63,0 days 00:01:30.888000,6,0 days 00:23:41.173000,"",0 days 00:00:28.369000,0 days 00:00:38.841000,0 days 00:00:23.678000,179.0,177.0,254.0,259.0,hard,6.0
0 days 00:26:29.971000,63,0 days 00:01:18.507000,7,"","",0 days 00:00:20.760000,0 days 00:00:36.581000,0 days 00:00:21.166000,191.0,187.0,255.0,272.0,hard,7.0
0 days 00:27:48.633000,63,0 days 00:01:18.662000,8,"","",0 days 00:00:20.601000,0 days 00:00:36.369000,0 days 00:00:21.692000,197.0,190.0,260.0,272.0,hard,8.0
0 days 00:29:06.471000,63,0 days 00:01:17.838000,9,"","",0 days 00:00:20.529000,0 days 00:00:36.393000,0 days 00:00:20.916000,198.0,191.0,264.0,274.0,hard,9.0
0 days 00:30:29.862000,63,0 days 00:01:23.391000,10,"","",0 days 00:00:22.071000,0 days 00:00:38.961000,0 days 00:00:22.359000,181.0,178.0,262.0,263.0,hard,10.0
0 days 00:31:47.159000,63,0 days 00:01:17.297000,11,"","",0 days 00:00:20.377000,0 days 00:00:36.187000,0 days 00:00:20.733000,199.0,193.0,263.0,273.0,hard,11.0
0 days 00:41:08.250000,63,"",12,"",0 days 00:33:00.815000,0 days 00:00:20.413000,0 days 00:00:37.602000,"",201.0,158.0,"",272.0,hard,12.0
0 days 00:42:34.281000,63,0 days 00:01:26.031000,13,0 days 00:41:08.865000,"",0 days 00:00:25.406000,0 days 00:00:37.833000,0 days 00:00:22.792000,186.0,184.0,262.0,266.0,medium,1.0
0 days 00:43:55.005000,63,0 days 00:01:20.724000,14,"","",0 days 00:00:20.327000,0 days 00:00:36.559000,0 days 00:00:23.838000,197.0,178.0,264.0,274.0,medium,2.0
0 days 00:45:11.923000,63,0 days 00:01:16.918000,15,"","",0 days 00:00:20.161000,0 days 00:00:35.655000,0 days 00:00:21.102000,203.0,194.0,265.0,275.0,medium,3.0
0 days 00:47:08.094000,63,0 days 00:01:56.171000,16,"","",0 days 00:00:26.279000,0 days 00:00:48.134000,0 days 00:00:41.758000,180.0,97.0,259.0,244.0,medium,4.0
0 days 00:48:24.559000,63,0 days 00:01:16.465000,17,"","",0 days 00:00:20.285000,0 days 00:00:35.687000,0 days 00:00:20.493000,202.0,196.0,268.0,273.0,medium,5.0
0 days 00:49:53.930000,63,0 days 00:01:29.371000,18,"","",0 days 00:00:22.321000,0 days 00:00:45.137000,0 days 00:00:21.913000,167.0,180.0,263.0,201.0,medium,6.0
0 days 00:51:09.354000,63,0 days 00:01:15.424000,19,"","",0 days 00:00:19.880000,0 days 00:00:35.468000,0 days 00:00:20.076000,207.0,198.0,266.0,275.0,medium,7.0
0 days 00:52:34.894000,63,0 days 00:01:25.540000,20,"","",0 days 00:00:19.903000,0 days 00:00:41.917000,0 days 00:00:23.720000,"",160.0,264.0,229.0,medium,8.0
0 days 00:53:50.105000,63,0 days 00:01:15.211000,21,"","",0 days 00:00:19.746000,0 days 00:00:35.405000,0 days 00:00:20.060000,208.0,200.0,266.0,275.0,medium,9.0
0 days 00:55:23.979000,63,0 days 00:01:33.874000,22,"","",0 days 00:00:23.836000,0 days 00:00:43.777000,0 days 00:00:26.261000,168.0,134.0,262.0,241.0,medium,10.0
0 days 00:56:39.776000,63,0 days 00:01:15.797000,23,"","",0 days 00:00:19.706000,0 days 00:00:35.714000,0 days 00:00:20.377000,207.0,197.0,250.0,276.0,medium,11.0
0 days 00:58:17.758000,63,0 days 00:01:37.982000,24,"","",0 days 00:00:24.313000,0 days 00:00:45.429000,0 days 00:00:28.240000,156.0,133.0,264.0,243.0,medium,12.0
0 days 01:06:12.843000,63,"",25,"",0 days 00:59:29.160000,0 days 00:00:19.763000,0 days 00:00:36.444000,"",209.0,167.0,"",277.0,medium,13.0
0 days 01:07:40.113000,63,0 days 00:01:27.270000,26,0 days 01:06:13.553000,"",0 days 00:00:24.944000,0 days 00:00:38.090000,0 days 00:00:24.236000,186.0,175.0,250.0,266.0,hard,13.0
0 days 01:08:59.150000,63,0 days 00:01:19.037000,27,"","",0 days 00:00:21.441000,0 days 00:00:36.569000,0 days 00:00:21.027000,195.0,190.0,251.0,271.0,hard,14.0
0 days 01:10:16.904000,63,0 days 00:01:17.754000,28,"","",0 days 00:00:20.650000,0 days 00:00:36.364000,0 days 00:00:20.740000,199.0,193.0,252.0,272.0,hard,15.0
0 days 01:11:34.761000,63,0 days 00:01:17.857000,29,"","",0 days 00:00:20.481000,0 days 00:00:36.568000,0 days 00:00:20.808000,202.0,193.0,250.0,272.0,hard,16.0
0 days 01:12:54.541000,63,0 days 00:01:19.780000,30,"","",0 days 00:00:20.381000,0 days 00:00:36.605000,0 days 00:00:22.794000,203.0,188.0,249.0,271.0,hard,17.0
0 days 01:14:33.241000,63,0 days 00:01:38.700000,31,"",0 days 01:14:06.677000,0 days 00:00:20.744000,0 days 00:00:37.025000,0 days 00:00:40.931000,197.0,188.0,"",270.0,hard,18.0
0 days 01:16:00.437000,63,0 days 00:01:27.196000,32,0 days 01:14:33.781000,"",0 days 00:00:23.936000,0 days 00:00:40.137000,0 days 00:00:23.123000,176.0,160.0,202.0,232.0,medium,14.0
0 days 01:18:12.333000,63,0 days 00:02:11.896000,33,"","",0 days 00:00:27.802000,0 days 00:00:43.299000,0 days 00:01:00.795000,136.0,144.0,9.0,179.0,medium,15.0
0 days 01:19:47.611000,63,"",34,"",0 days 01:19:47.611000,0 days 00:00:27.203000,0 days 00:00:45.374000,"",147.0,97.0,"",201.0,medium,16.0
0 days 00:17:07.883000,77,0 days 00:01:43.912000,1,0 days 00:15:24.880000,"",0 days 00:00:30.938000,0 days 00:00:41.559000,0 days 00:00:31.415000,134.0,173.0,257.0,249.0,hard,1.0
0 days 00:18:47.100000,77,"",2,"",0 days 00:18:47.100000,0 days 00:00:21.692000,0 days 00:00:55.080000,"",168.0,79.0,"",153.0,hard,2.0
