2022-06-18 19:45:05	RISK OF RAIN FOR F1 QUALIFYING SESSION IS 100%
2022-06-18 19:45:08	DRS ENABLED IN ZONE 3
2022-06-18 19:46:24	LOW GRIP CONDITIONS
2022-06-18 19:46:27	DRS DISABLED
2022-06-18 19:49:31	WET TRACK
2022-06-18 19:59:03	DRS DISABLED
2022-06-18 20:00:00	GREEN LIGHT - PIT EXIT OPEN
2022-06-18 20:03:28	CAR 6 (LAT) MISSED THE APEX OF TURN 14
2022-06-18 20:03:38	CAR 77 (BOT) MISSED THE APEX OF TURN 14
2022-06-18 20:03:48	CAR 44 (HAM) MISSED THE APEX OF TURN 14
2022-06-18 20:04:17	CAR 77 (BOT) TIME 1:38.932 DELETED - TRACK LIMITS AT TURN 14 LAP 3 16:03:24
2022-06-18 20:04:33	CAR 44 (HAM) TIME 1:39.260 DELETED - TRACK LIMITS AT TURN 14 LAP 3 16:03:35
2022-06-18 20:04:55	CAR 23 (ALB) OFF TRACK AND CONTINUED AT TURN 10
2022-06-18 20:05:07	CAR 11 (PER) OFF TRACK AND CONTINUED AT TURN 1
2022-06-18 20:05:16	CAR 6 (LAT) MISSED THE APEX OF TURN 14
2022-06-18 20:05:30	CAR 23 (ALB) TIME 1:43.768 DELETED - TRACK LIMITS AT TURN 10 LAP 3 16:04:35
2022-06-18 20:05:51	CAR 20 (MAG) OFF TRACK AND CONTINUED AT TURN 10
2022-06-18 20:06:16	CAR 5 (VET) OFF TRACK AND CONTINUED AT TURN 1
2022-06-18 20:06:34	CAR 11 (PER) TIME 1:39.032 DELETED - TRACK LIMITS AT TURN 2 LAP 4 16:04:54
2022-06-18 20:06:48	CAR 20 (MAG) TIME 1:36.658 DELETED - TRACK LIMITS AT TURN 10 LAP 4 16:05:35
2022-06-18 20:07:30	CAR 47 (MSC) MISSED THE APEX OF TURN 9
2022-06-18 20:07:49	CAR 44 (HAM) OFF TRACK AND CONTINUED AT TURN 2
2022-06-18 20:07:55	CAR 1 (VER) OFF TRACK AND CONTINUED AT TURN 1
2022-06-18 20:07:56	CAR 4 (NOR) TIME 1:38.405 DELETED - TRACK LIMITS AT TURN 2 LAP 5 16:06:06
2022-06-18 20:08:05	CAR 22 (TSU) OFF TRACK AND CONTINUED AT TURN 10
2022-06-18 20:08:56	CAR 5 (VET) OFF TRACK AND CONTINUED AT TURN 10
2022-06-18 20:08:58	CAR 44 (HAM) TIME 1:39.897 DELETED - TRACK LIMITS AT TURN 2 LAP 6 16:07:19
2022-06-18 20:08:58	CAR 1 (VER) TIME 1:40.429 DELETED - TRACK LIMITS AT TURN 2 LAP 6 16:07:23
2022-06-18 20:09:28	CAR 5 (VET) TIME 1:41.824 DELETED - TRACK LIMITS AT TURN 10 LAP 6 16:08:37
2022-06-18 20:10:11	CAR 31 (OCO) MISSED THE APEX OF TURN 9
2022-06-18 20:10:36	CAR 6 (LAT) OFF TRACK AND CONTINUED AT TURN 1
2022-06-18 20:10:54	CAR 4 (NOR) MISSED THE APEX OF TURN 14
2022-06-18 20:11:24	CAR 31 (OCO) OFF TRACK AND CONTINUED AT TURN 3
2022-06-18 20:11:57	CAR 4 (NOR) OFF TRACK AND CONTINUED AT TURN 7
2022-06-18 20:12:55	CAR 4 (NOR) OFF TRACK AND CONTINUED AT TURN 1
2022-06-18 20:13:01	CAR 20 (MAG) OFF TRACK AND CONTINUED AT TURN 1
2022-06-18 20:13:02	CAR 4 (NOR) TIME 1:38.588 DELETED - TRACK LIMITS AT TURN 7 LAP 8 16:11:30
2022-06-18 20:13:32	CAR 14 (ALO) OFF TRACK AND CONTINUED AT TURN 1
2022-06-18 20:13:46	CAR 16 (LEC) OFF TRACK AND CONTINUED AT TURN 1
2022-06-18 20:13:58	CAR 1 (VER) OFF TRACK AND CONTINUED AT TURN 1
2022-06-18 20:14:23	CAR 20 (MAG) TIME 1:41.221 DELETED - TRACK LIMITS AT TURN 2 LAP 9 16:12:45
2022-06-18 20:14:55	CAR 47 (MSC) OFF TRACK AND CONTINUED AT TURN 1
2022-06-18 20:15:07	CAR 14 (ALO) TIME 1:37.659 DELETED - TRACK LIMITS AT TURN 2 LAP 9 16:13:16
2022-06-18 20:15:08	CAR 16 (LEC) TIME 1:41.013 DELETED - TRACK LIMITS AT TURN 2 LAP 9 16:13:33
2022-06-18 20:15:44	CAR 1 (VER) TIME 1:36.728 DELETED - TRACK LIMITS AT TURN 2 LAP 10 16:13:48
2022-06-18 20:15:58	CAR 31 (OCO) OFF TRACK AND CONTINUED AT TURN 10
2022-06-18 20:16:46	CAR 10 (GAS) TIME 1:38.535 DELETED - TRACK LIMITS AT TURN 8 LAP 10 16:15:43
2022-06-18 20:16:56	YELLOW IN TRACK SECTOR 3
2022-06-18 20:17:16	CLEAR IN TRACK SECTOR 3
2022-06-18 20:17:16	TURN 8 INCIDENT INVOLVING CAR 10 (GAS) NOTED - FAILING TO FOLLOW RACE DIRECTORS INSTRUCTIONS
2022-06-18 20:17:33	CAR 63 (RUS) OFF TRACK AND CONTINUED AT TURN 1
2022-06-18 20:17:35	TRACK SURFACE SLIPPERY IN TRACK SECTOR 9
2022-06-18 20:18:00	CHEQUERED FLAG
2022-06-18 20:18:46	TURN 14 INCIDENT INVOLVING CARS 16 (LEC) AND 23 (ALB) AND 55 (SAI) NOTED - DRIVING UNNECESSARILY SLOWLY
2022-06-18 20:18:49	CLEAR IN TRACK SECTOR 9
2022-06-18 20:18:59	FIRST CAR TO TAKE THE FLAG - CAR 10 (GAS)
2022-06-18 20:19:19	CARS 16 (LEC) AND 44 (HAM) MISSED THE APEX OF TURN 9
2022-06-18 20:19:36	FIA STEWARDS: TURN 14 INCIDENT INVOLVING CARS 16 (LEC) AND 23 (ALB) AND 55 (SAI) WILL BE INVESTIGATED AFTER THE SESSION - DRIVING UNNECESSARILY SLOWLY
2022-06-18 20:19:51	FIA STEWARDS: TURN 8 INCIDENT INVOLVING CAR 10 (GAS) WILL BE INVESTIGATED AFTER THE SESSION - FAILING TO FOLLOW RACE DIRECTORS INSTRUCTIONS
2022-06-18 20:20:22	TURN 3 INCIDENT INVOLVING CAR 18 (STR) NOTED - FAILING TO SLOW UNDER YELLOW FLAGS
2022-06-18 20:21:43	FIA STEWARDS: TURN 3 INCIDENT INVOLVING CAR 18 (STR) WILL BE INVESTIGATED AFTER THE SESSION - FAILING TO SLOW UNDER YELLOW FLAGS
2022-06-18 20:24:10	TURN 3 INCIDENT INVOLVING CAR 55 (SAI) NOTED - UNSAFE REJOIN
2022-06-18 20:25:00	GREEN LIGHT - PIT EXIT OPEN
2022-06-18 20:28:49	CAR 24 (ZHO) OFF TRACK AND CONTINUED AT TURN 1
2022-06-18 20:29:02	YELLOW IN TRACK SECTOR 6
2022-06-18 20:29:46	CLEAR IN TRACK SECTOR 6
2022-06-18 20:29:48	CAR 23 (ALB) STOPPED AT TURN 6
2022-06-18 20:29:52	YELLOW IN TRACK SECTOR 3
2022-06-18 20:31:00	RED FLAG
2022-06-18 20:31:00	CLEAR IN TRACK SECTOR 3
2022-06-18 20:35:28	REMAINING SESSION DURATION WILL BE 09:06
2022-06-18 20:38:03	SESSION WILL RESUME AT 16:43
2022-06-18 20:39:33	CORRECTION - REMAINING SESSION DURATION WILL BE 09:00
2022-06-18 20:40:00	FIA STEWARDS: TURN 3 INCIDENT INVOLVING CAR 18 (STR) REVIEWED NO FURTHER INVESTIGATION - FAILING TO SLOW UNDER YELLOW FLAGS
2022-06-18 20:40:06	TRACK CLEAR
2022-06-18 20:40:08	DRS DISABLED
2022-06-18 20:42:07	FIA STEWARDS: TURN 3 INCIDENT INVOLVING CAR 55 (SAI) REVIEWED NO FURTHER INVESTIGATION - UNSAFE REJOIN
2022-06-18 20:43:00	GREEN LIGHT - PIT EXIT OPEN
2022-06-18 20:50:11	CAR 55 (SAI) OFF TRACK AND CONTINUED AT TURN 1
2022-06-18 20:52:00	CHEQUERED FLAG
2022-06-18 20:52:11	FIRST CAR TO TAKE THE FLAG - CAR 14 (ALO)
2022-06-18 20:52:18	CAR 55 (SAI) TIME 1:32.789 DELETED - TRACK LIMITS AT TURN 2 LAP 19 16:49:58
2022-06-18 20:53:44	Q3 WILL START AT 17:00
2022-06-18 21:00:00	GREEN LIGHT - PIT EXIT OPEN
2022-06-18 21:03:48	CAR 3 (RIC) OFF TRACK AND CONTINUED AT TURN 6
2022-06-18 21:04:16	CAR 3 (RIC) TIME 1:31.373 DELETED - TRACK LIMITS AT TURN 6 LAP 24 17:03:12
2022-06-18 21:07:25	CAR 24 (ZHO) MISSED THE APEX OF TURN 9
2022-06-18 21:07:35	TURN 9 INCIDENT INVOLVING CAR 24 (ZHO) NOTED - FAILING TO FOLLOW RACE DIRECTORS INSTRUCTIONS
2022-06-18 21:09:43	YELLOW IN TRACK SECTOR 1
2022-06-18 21:09:52	CLEAR IN TRACK SECTOR 1
2022-06-18 21:09:56	CAR 63 (RUS) OFF TRACK AND CONTINUED AT TURN 2
2022-06-18 21:10:39	FIA STEWARDS: TURN 9 INCIDENT INVOLVING CAR 24 (ZHO) WILL BE INVESTIGATED AFTER THE SESSION - FAILING TO FOLLOW RACE DIRECTORS INSTRUCTIONS
2022-06-18 21:11:33	CAR 14 (ALO) OFF TRACK AND CONTINUED AT TURN 10
2022-06-18 21:11:51	CAR 63 (RUS) TIME 2:05.186 DELETED - TRACK LIMITS AT TURN 2 LAP 30 17:09:46
2022-06-18 21:11:52	CAR 14 (ALO) TIME 1:41.026 DELETED - TRACK LIMITS AT TURN 10 LAP 28 17:11:07
2022-06-18 21:12:00	CHEQUERED FLAG
2022-06-18 21:12:23	FIRST CAR TO TAKE THE FLAG - CAR 44 (HAM)
