Time,AirTemp,Humidity,Pressure,Rainfall,TrackTemp,WindDirection,WindSpeed
0 days 00:00:51.223000,25.1,69.0,922.4,false,53.5,154,2.7
0 days 00:01:51.220000,25.1,69.0,922.5,false,53.5,116,1.5
0 days 00:02:51.222000,25.1,69.0,922.5,false,53.2,202,1.6
0 days 00:03:51.217000,25.0,70.0,922.5,false,53.4,139,1.2
0 days 00:04:51.232000,24.8,69.0,922.5,false,53.4,198,0.8
0 days 00:05:51.220000,24.8,69.0,922.5,false,53.3,141,1.2
0 days 00:06:51.228000,24.7,69.0,922.5,false,53.2,140,1.7
0 days 00:07:51.240000,24.7,69.0,922.4,false,52.4,160,1.7
0 days 00:08:51.238000,24.6,70.0,922.4,false,52.5,180,2.0
0 days 00:09:51.239000,24.7,70.0,922.4,false,52.5,169,1.7
0 days 00:10:51.243000,24.6,70.0,922.5,false,52.6,174,2.5
0 days 00:11:51.235000,24.6,70.0,922.5,false,52.5,142,2.0
0 days 00:12:51.237000,24.4,71.0,922.4,false,51.6,191,1.5
0 days 00:13:51.243000,24.3,70.0,922.5,false,51.6,220,1.6
0 days 00:14:51.320000,24.5,70.0,922.5,false,51.5,249,1.3
0 days 00:15:51.241000,24.4,71.0,922.5,false,51.5,179,1.7
0 days 00:16:51.244000,24.2,71.0,922.5,false,50.5,204,1.5
0 days 00:17:51.240000,24.3,71.0,922.5,false,51.5,183,1.7
0 days 00:18:51.240000,24.3,71.0,922.5,false,51.8,145,2.0
0 days 00:19:51.236000,24.1,72.0,922.5,false,51.1,165,2.0
0 days 00:20:51.255000,24.1,71.0,922.4,false,51.6,149,1.1
0 days 00:21:51.254000,24.1,71.0,922.5,false,51.2,147,2.2
0 days 00:22:51.250000,24.2,72.0,922.5,false,51.9,0,1.1
0 days 00:23:51.254000,24.3,70.0,922.4,false,52.3,191,0.8
0 days 00:24:51.254000,24.5,70.0,922.5,false,53.1,142,1.5
0 days 00:25:51.255000,24.5,69.0,922.4,false,52.7,195,1.5
0 days 00:26:51.254000,24.4,69.0,922.4,false,52.5,113,1.8
0 days 00:27:51.252000,24.5,69.0,922.2,false,52.5,151,0.8
0 days 00:28:51.254000,24.4,69.0,922.2,false,51.7,157,1.6
0 days 00:29:51.255000,24.4,69.0,922.2,false,51.5,152,1.7
0 days 00:30:51.253000,24.4,70.0,922.4,false,51.7,166,1.5
0 days 00:31:51.252000,24.2,70.0,922.5,false,51.7,167,1.2
0 days 00:32:51.276000,24.1,71.0,922.4,false,51.7,166,1.2
0 days 00:33:51.272000,24.0,71.0,922.4,false,51.4,158,1.8
0 days 00:34:51.274000,23.9,71.0,922.2,false,51.2,132,1.7
0 days 00:35:51.268000,24.1,72.0,922.2,false,51.2,163,1.5
0 days 00:36:51.271000,24.0,71.0,922.2,false,51.9,193,1.6
0 days 00:37:51.283000,24.0,71.0,922.2,false,50.3,120,2.0
0 days 00:38:51.270000,24.0,71.0,922.2,false,50.3,188,1.2
0 days 00:39:51.268000,24.0,72.0,922.2,false,49.7,144,1.3
0 days 00:40:51.267000,23.8,73.0,922.2,false,49.7,125,1.3
0 days 00:41:51.272000,23.7,72.0,922.2,false,50.2,150,0.8
0 days 00:42:51.284000,23.6,72.0,922.2,false,50.2,150,0.8
0 days 00:43:51.271000,23.6,72.0,922.4,false,50.0,136,1.5
0 days 00:44:51.268000,23.6,72.0,922.2,false,49.5,154,1.6
0 days 00:45:51.273000,23.5,73.0,922.2,false,49.3,151,2.0
0 days 00:46:51.275000,23.5,74.0,922.2,false,48.6,135,1.8
0 days 00:47:51.268000,23.5,75.0,922.2,false,48.8,164,1.5
0 days 00:48:51.274000,23.6,74.0,922.4,false,50.6,157,1.3
0 days 00:49:51.274000,23.5,74.0,922.4,false,50.6,166,1.6
0 days 00:50:51.267000,23.4,74.0,922.4,false,50.5,185,1.2
0 days 00:51:51.272000,23.5,74.0,922.2,false,50.0,169,1.3
0 days 00:52:51.272000,23.5,75.0,922.2,false,50.4,164,1.6
0 days 00:53:51.270000,23.3,74.0,922.2,false,50.4,200,2.7
0 days 00:54:51.280000,23.2,75.0,922.2,false,50.0,198,2.0
0 days 00:55:51.270000,23.2,75.0,922.2,false,49.0,186,1.8
0 days 00:56:51.269000,23.4,75.0,922.2,false,49.6,159,2.4
0 days 00:57:51.267000,23.6,74.0,922.2,false,49.6,191,1.7
0 days 00:58:51.275000,23.6,74.0,922.2,false,50.1,146,1.3
0 days 00:59:51.288000,23.6,74.0,922.4,false,50.5,127,1.3
0 days 01:00:51.276000,23.7,74.0,922.4,false,50.1,161,1.2
0 days 01:01:51.274000,23.6,74.0,922.2,false,49.5,179,1.7
0 days 01:02:51.278000,23.5,75.0,922.2,false,49.5,160,1.5
0 days 01:03:51.273000,23.6,75.0,922.2,false,49.5,0,1.0
0 days 01:04:51.272000,23.7,74.0,922.2,false,49.5,154,1.0
0 days 01:05:51.270000,23.4,74.0,922.2,false,49.3,160,1.1
0 days 01:06:51.273000,23.3,74.0,922.2,false,49.0,168,1.6
0 days 01:07:51.270000,23.3,74.0,922.2,false,49.0,178,1.1
0 days 01:08:51.271000,23.3,74.0,922.2,false,48.3,203,2.0
0 days 01:09:51.268000,23.3,73.0,922.2,false,48.3,158,2.7
0 days 01:10:51.270000,23.3,74.0,922.2,false,48.2,156,1.5
0 days 01:11:51.273000,23.3,75.0,922.0,false,48.3,151,0.8
0 days 01:12:51.277000,23.2,74.0,922.2,false,48.9,0,1.2
0 days 01:13:51.273000,23.2,75.0,922.0,false,48.3,211,1.1
0 days 01:14:51.271000,23.3,74.0,922.0,false,48.3,171,1.7
0 days 01:15:51.280000,23.4,75.0,922.0,false,47.6,155,1.2
0 days 01:16:51.282000,23.6,74.0,922.0,false,49.1,127,1.0
0 days 01:17:51.279000,23.7,74.0,922.2,false,49.1,129,1.2
0 days 01:18:51.285000,23.7,72.0,922.0,false,49.9,155,1.0
0 days 01:19:51.277000,23.8,72.0,922.0,false,49.9,175,1.2
0 days 01:20:51.277000,23.9,73.0,922.2,false,49.2,42,0.8
0 days 01:21:51.274000,23.8,72.0,922.2,false,48.1,197,1.2
0 days 01:22:51.292000,23.7,72.0,922.2,false,47.9,180,1.3
0 days 01:23:51.293000,23.5,73.0,922.0,false,47.5,192,2.2
0 days 01:24:51.287000,23.5,74.0,922.0,false,46.8,166,1.7
0 days 01:25:51.293000,23.6,75.0,922.0,false,47.7,155,1.3
0 days 01:26:51.296000,23.7,74.0,922.0,false,48.4,182,1.2
0 days 01:27:51.291000,23.7,74.0,922.2,false,47.3,120,1.7
0 days 01:28:51.293000,23.7,75.0,922.2,false,46.3,183,1.1
0 days 01:29:51.290000,23.6,75.0,922.0,false,46.2,142,0.8
0 days 01:30:51.288000,23.5,75.0,922.0,false,46.3,163,1.3
0 days 01:31:51.292000,23.3,75.0,922.2,false,46.4,186,1.6
0 days 01:32:51.286000,23.3,75.0,922.2,false,46.4,152,1.0
0 days 01:33:51.289000,23.2,74.0,922.2,false,46.4,142,2.0
0 days 01:34:51.287000,23.2,76.0,922.0,false,46.1,167,1.7
0 days 01:35:51.293000,23.2,75.0,922.2,false,45.3,162,0.8
0 days 01:36:51.297000,23.1,75.0,922.0,false,45.2,211,2.0
0 days 01:37:51.292000,23.0,75.0,922.0,false,45.2,140,2.9
0 days 01:38:51.293000,22.8,76.0,922.0,false,45.2,123,1.6
0 days 01:39:51.295000,22.8,77.0,922.0,false,44.1,134,1.2
0 days 01:40:51.294000,22.8,77.0,922.2,false,44.1,149,1.2
0 days 01:41:51.289000,22.9,77.0,922.0,false,44.4,156,1.3
0 days 01:42:51.299000,22.9,77.0,922.2,false,43.7,159,1.3
0 days 01:43:51.312000,22.8,77.0,922.0,false,43.3,154,2.0
0 days 01:44:51.296000,22.5,78.0,922.0,false,43.2,203,2.0
0 days 01:45:51.296000,22.4,79.0,922.0,false,42.8,219,1.0
0 days 01:46:51.290000,22.5,78.0,922.0,false,43.2,186,1.3
0 days 01:47:51.291000,22.4,78.0,922.2,false,43.2,183,1.3
0 days 01:48:51.301000,22.5,79.0,922.2,false,42.4,191,1.3
0 days 01:49:51.295000,22.5,79.0,922.0,false,42.4,161,1.2
0 days 01:50:51.295000,22.6,79.0,922.2,false,41.8,155,1.3
0 days 01:51:51.292000,22.6,79.0,922.2,false,41.8,159,0.8
0 days 01:52:51.288000,22.5,80.0,922.0,false,41.9,211,1.5
0 days 01:53:51.296000,22.4,80.0,922.2,false,41.9,129,1.5
0 days 01:54:51.296000,22.4,80.0,922.2,false,41.9,167,1.2
0 days 01:55:51.290000,22.3,80.0,922.2,false,41.9,178,1.2
0 days 01:56:51.294000,22.1,79.0,922.2,false,42.1,168,1.1
0 days 01:57:51.292000,22.1,80.0,922.0,false,42.1,164,1.5
0 days 01:58:51.296000,21.8,80.0,922.0,false,42.6,162,0.5
0 days 01:59:51.296000,21.9,79.0,922.0,false,42.1,142,0.8
0 days 02:00:51.290000,22.0,79.0,922.0,false,42.2,124,1.3
0 days 02:01:51.289000,21.9,79.0,922.0,false,42.2,124,1.3
0 days 02:02:51.299000,21.9,79.0,922.0,false,42.0,188,1.2
0 days 02:03:51.288000,22.0,79.0,922.0,false,40.6,191,1.0
0 days 02:04:51.300000,22.0,80.0,922.0,false,40.6,161,1.7
0 days 02:05:51.300000,21.8,80.0,921.9,false,40.6,196,2.0
0 days 02:06:51.307000,21.8,81.0,921.9,false,40.4,152,1.2
0 days 02:07:51.299000,21.9,82.0,921.9,false,40.4,134,1.2
0 days 02:08:51.291000,21.8,82.0,922.0,false,40.2,141,1.2
0 days 02:09:51.298000,21.7,82.0,922.0,false,40.2,180,1.3
0 days 02:10:51.316000,21.7,82.0,922.0,false,40.2,161,1.6
0 days 02:11:51.331000,21.7,83.0,922.0,false,40.0,133,1.8
0 days 02:12:51.312000,21.8,82.0,922.0,false,40.3,211,1.2
0 days 02:13:51.313000,21.8,82.0,922.0,false,40.3,196,1.3
0 days 02:14:51.315000,21.8,82.0,922.0,false,39.9,181,1.2
0 days 02:15:51.320000,21.7,82.0,922.0,false,39.6,190,1.6
0 days 02:16:51.311000,21.5,82.0,922.0,false,39.2,155,1.8
0 days 02:17:51.307000,21.4,82.0,922.0,false,39.2,187,1.7
0 days 02:18:51.314000,21.4,82.0,921.9,false,39.1,230,2.0
0 days 02:19:51.314000,21.4,83.0,921.9,false,39.1,144,2.0
0 days 02:20:51.325000,21.4,83.0,922.0,false,39.1,145,0.8
0 days 02:21:51.314000,21.4,82.0,922.0,false,39.3,157,1.6
0 days 02:22:51.312000,21.4,82.0,922.0,false,39.1,187,1.0
0 days 02:23:51.315000,21.4,82.0,922.0,false,39.5,135,1.5
0 days 02:24:51.324000,21.5,82.0,922.0,false,38.9,169,1.3
0 days 02:25:51.314000,21.4,83.0,922.0,false,38.9,177,2.2
0 days 02:26:51.319000,21.5,83.0,921.9,false,38.9,197,2.0
0 days 02:27:51.320000,21.4,83.0,922.0,false,39.0,107,1.2
0 days 02:28:51.312000,21.5,83.0,921.9,false,39.0,143,1.3
0 days 02:29:51.309000,21.5,83.0,922.0,false,39.2,176,1.2
0 days 02:30:51.332000,21.5,83.0,921.9,false,39.3,217,0.6
0 days 02:31:51.313000,21.3,83.0,921.9,false,39.3,179,1.0
0 days 02:32:51.320000,21.3,83.0,922.0,false,39.2,217,1.2
0 days 02:33:51.312000,21.4,83.0,922.0,false,39.2,151,0.8
0 days 02:34:51.367000,21.3,83.0,922.0,false,38.7,160,1.6
0 days 02:35:51.319000,21.3,83.0,922.0,false,38.7,211,1.5
0 days 02:36:51.331000,21.2,83.0,922.0,false,38.8,165,1.3
0 days 02:37:51.334000,21.2,83.0,922.0,false,38.8,152,1.7
0 days 02:38:51.313000,21.2,84.0,922.0,false,37.8,173,1.7
0 days 02:39:51.313000,21.2,84.0,922.0,false,37.9,165,1.7
0 days 02:40:51.318000,21.2,84.0,922.0,false,37.7,135,1.2
0 days 02:41:51.312000,21.1,85.0,922.0,false,37.7,113,1.2
0 days 02:42:51.311000,21.2,85.0,922.0,false,37.7,144,0.6
0 days 02:43:51.315000,21.2,84.0,922.0,false,37.8,153,0.8
0 days 02:44:51.323000,21.2,85.0,922.0,false,37.8,155,1.8
0 days 02:45:51.315000,20.9,85.0,922.0,false,37.7,168,0.8
0 days 02:46:51.319000,20.9,85.0,922.0,false,37.7,187,2.0
