Time,DriverNumber,LapTime,LapNumber,PitOutTime,PitInTime,Sector1Time,Sector2Time,Sector3Time,SpeedI1,SpeedI2,SpeedFL,SpeedST,Compound,TyreLife
0 days 00:17:41.252000,1,"",1,0 days 00:15:40.958000,"","",0 days 00:00:47.161000,0 days 00:00:41.861000,173.0,176.0,201.0,255.0,test_unknown,1.0
0 days 00:19:24.788000,1,0 days 00:01:43.536000,2,"","",0 days 00:00:28.302000,0 days 00:00:41.668000,0 days 00:00:33.566000,208.0,178.0,200.0,298.0,test_unknown,2.0
0 days 00:21:05.873000,1,0 days 00:01:41.085000,3,"","",0 days 00:00:27.571000,0 days 00:00:40.493000,0 days 00:00:33.021000,210.0,182.0,199.0,299.0,test_unknown,3.0
0 days 00:22:46.112000,1,0 days 00:01:40.239000,4,"","",0 days 00:00:27.336000,0 days 00:00:40.459000,0 days 00:00:32.444000,212.0,183.0,200.0,299.0,test_unknown,4.0
0 days 00:24:29.281000,1,0 days 00:01:43.169000,5,"",0 days 00:24:28.250000,0 days 00:00:27.242000,0 days 00:00:41.400000,0 days 00:00:34.527000,214.0,180.0,"",289.0,test_unknown,5.0
0 days 00:30:45.978000,1,"",6,0 days 00:28:46.187000,"","",0 days 00:00:46.418000,0 days 00:00:41.482000,173.0,179.0,197.0,256.0,test_unknown,1.0
0 days 00:32:26.621000,1,0 days 00:01:40.643000,7,"","",0 days 00:00:27.563000,0 days 00:00:40.610000,0 days 00:00:32.470000,210.0,185.0,201.0,299.0,test_unknown,2.0
0 days 00:34:06.691000,1,0 days 00:01:40.070000,8,"","",0 days 00:00:27.179000,0 days 00:00:40.496000,0 days 00:00:32.395000,213.0,185.0,202.0,293.0,test_unknown,3.0
0 days 00:35:46.266000,1,0 days 00:01:39.575000,9,"","",0 days 00:00:27.083000,0 days 00:00:40.362000,0 days 00:00:32.130000,210.0,184.0,200.0,297.0,test_unknown,4.0
0 days 00:37:28.892000,1,0 days 00:01:42.626000,10,"",0 days 00:37:27.862000,0 days 00:00:27.526000,0 days 00:00:40.926000,0 days 00:00:34.174000,205.0,182.0,"",297.0,test_unknown,5.0
0 days 00:46:30.907000,1,"",11,0 days 00:44:40.810000,"","",0 days 00:00:42.062000,0 days 00:00:39.553000,190.0,178.0,196.0,296.0,test_unknown,6.0
0 days 00:48:13.697000,1,0 days 00:01:42.790000,12,"","",0 days 00:00:27.972000,0 days 00:00:41.155000,0 days 00:00:33.663000,202.0,179.0,197.0,297.0,test_unknown,7.0
0 days 00:49:56.607000,1,0 days 00:01:42.910000,13,"","",0 days 00:00:27.989000,0 days 00:00:41.365000,0 days 00:00:33.556000,200.0,174.0,197.0,292.0,test_unknown,8.0
0 days 00:51:40.161000,1,0 days 00:01:43.554000,14,"","",0 days 00:00:28.665000,0 days 00:00:41.344000,0 days 00:00:33.545000,206.0,178.0,197.0,295.0,test_unknown,9.0
0 days 00:53:22.867000,1,0 days 00:01:42.706000,15,"","",0 days 00:00:27.917000,0 days 00:00:41.059000,0 days 00:00:33.730000,203.0,178.0,198.0,301.0,test_unknown,10.0
0 days 00:55:05.781000,1,0 days 00:01:42.914000,16,"","",0 days 00:00:27.672000,0 days 00:00:41.701000,0 days 00:00:33.541000,201.0,177.0,196.0,298.0,test_unknown,11.0
0 days 00:56:48.686000,1,0 days 00:01:42.905000,17,"","",0 days 00:00:27.814000,0 days 00:00:41.274000,0 days 00:00:33.817000,202.0,177.0,195.0,299.0,test_unknown,12.0
0 days 00:58:35.355000,1,0 days 00:01:46.669000,18,"",0 days 00:58:34.269000,0 days 00:00:28.601000,0 days 00:00:42.642000,0 days 00:00:35.426000,193.0,174.0,"",263.0,test_unknown,13.0
0 days 01:02:33.814000,1,"",19,0 days 01:00:44.454000,"","",0 days 00:00:41.842000,0 days 00:00:38.615000,192.0,177.0,196.0,292.0,test_unknown,6.0
0 days 01:04:15.860000,1,0 days 00:01:42.046000,20,"","",0 days 00:00:27.904000,0 days 00:00:40.885000,0 days 00:00:33.257000,204.0,178.0,198.0,298.0,test_unknown,7.0
0 days 01:05:57.950000,1,0 days 00:01:42.090000,21,"","",0 days 00:00:27.780000,0 days 00:00:41.009000,0 days 00:00:33.301000,206.0,177.0,197.0,296.0,test_unknown,8.0
0 days 01:07:40.863000,1,0 days 00:01:42.913000,22,"","",0 days 00:00:28.192000,0 days 00:00:41.313000,0 days 00:00:33.408000,"",178.0,198.0,299.0,test_unknown,9.0
0 days 01:09:23.160000,1,0 days 00:01:42.297000,23,"","",0 days 00:00:27.742000,0 days 00:00:41.009000,0 days 00:00:33.546000,205.0,180.0,196.0,299.0,test_unknown,10.0
0 days 01:11:05.256000,1,0 days 00:01:42.096000,24,"","",0 days 00:00:27.715000,0 days 00:00:41.061000,0 days 00:00:33.320000,201.0,179.0,197.0,298.0,test_unknown,11.0
0 days 01:12:47.139000,1,0 days 00:01:41.883000,25,"","",0 days 00:00:27.728000,0 days 00:00:40.937000,0 days 00:00:33.218000,211.0,178.0,196.0,298.0,test_unknown,12.0
0 days 01:14:34.779000,1,0 days 00:01:47.640000,26,"",0 days 01:14:33.718000,0 days 00:00:29.810000,0 days 00:00:43.133000,0 days 00:00:34.697000,192.0,156.0,"",269.0,test_unknown,13.0
0 days 00:20:12.948000,55,"",1,0 days 00:18:23.263000,"","",0 days 00:00:43.612000,0 days 00:00:36.671000,194.0,164.0,205.0,285.0,test_unknown,1.0
0 days 00:21:51.711000,55,0 days 00:01:38.763000,2,"","",0 days 00:00:26.928000,0 days 00:00:40.007000,0 days 00:00:31.828000,220.0,181.0,202.0,290.0,test_unknown,2.0
0 days 00:23:31.673000,55,0 days 00:01:39.962000,3,"","",0 days 00:00:27.136000,0 days 00:00:40.423000,0 days 00:00:32.403000,203.0,184.0,200.0,287.0,test_unknown,3.0
0 days 00:25:11.912000,55,0 days 00:01:40.239000,4,"","",0 days 00:00:27.296000,0 days 00:00:40.485000,0 days 00:00:32.458000,208.0,183.0,201.0,285.0,test_unknown,4.0
0 days 00:26:54.594000,55,0 days 00:01:42.682000,5,"",0 days 00:26:53.542000,0 days 00:00:27.181000,0 days 00:00:40.320000,0 days 00:00:35.181000,210.0,183.0,"",290.0,test_unknown,5.0
0 days 00:36:44.764000,55,"",6,0 days 00:34:54.596000,"","",0 days 00:00:45.065000,0 days 00:00:35.880000,189.0,166.0,204.0,272.0,test_unknown,1.0
0 days 00:38:22.996000,55,0 days 00:01:38.232000,7,"","",0 days 00:00:26.722000,0 days 00:00:39.658000,0 days 00:00:31.852000,221.0,186.0,203.0,291.0,test_unknown,2.0
0 days 00:40:07.194000,55,0 days 00:01:44.198000,8,"","",0 days 00:00:26.988000,0 days 00:00:40.365000,0 days 00:00:36.845000,210.0,182.0,204.0,290.0,test_unknown,3.0
0 days 00:41:47.116000,55,0 days 00:01:39.922000,9,"","",0 days 00:00:27.111000,0 days 00:00:40.050000,0 days 00:00:32.761000,214.0,185.0,201.0,294.0,test_unknown,4.0
0 days 00:43:29.379000,55,0 days 00:01:42.263000,10,"",0 days 00:43:28.301000,0 days 00:00:27.139000,0 days 00:00:40.810000,0 days 00:00:34.314000,"",168.0,"",288.0,test_unknown,5.0
0 days 00:54:34.463000,55,"",11,0 days 00:52:53.053000,"","",0 days 00:00:41.728000,0 days 00:00:33.474000,206.0,179.0,199.0,282.0,test_unknown,6.0
0 days 00:56:16.313000,55,0 days 00:01:41.850000,12,"","",0 days 00:00:27.586000,0 days 00:00:40.942000,0 days 00:00:33.322000,212.0,182.0,197.0,290.0,test_unknown,7.0
0 days 00:57:58.679000,55,0 days 00:01:42.366000,13,"","",0 days 00:00:27.780000,0 days 00:00:41.114000,0 days 00:00:33.472000,207.0,180.0,196.0,290.0,test_unknown,8.0
0 days 00:59:41.593000,55,0 days 00:01:42.914000,14,"","",0 days 00:00:27.951000,0 days 00:00:41.416000,0 days 00:00:33.547000,204.0,180.0,196.0,287.0,test_unknown,9.0
0 days 01:01:24.553000,55,0 days 00:01:42.960000,15,"","",0 days 00:00:27.913000,0 days 00:00:41.331000,0 days 00:00:33.716000,"",179.0,196.0,288.0,test_unknown,10.0
0 days 01:03:07.231000,55,0 days 00:01:42.678000,16,"","",0 days 00:00:27.869000,0 days 00:00:41.343000,0 days 00:00:33.466000,"",178.0,196.0,289.0,test_unknown,11.0
0 days 01:04:50.209000,55,0 days 00:01:42.978000,17,"","",0 days 00:00:28.002000,0 days 00:00:41.417000,0 days 00:00:33.559000,201.0,179.0,195.0,288.0,test_unknown,12.0
0 days 01:06:33.339000,55,0 days 00:01:43.130000,18,"",0 days 01:06:32.248000,0 days 00:00:27.875000,0 days 00:00:41.460000,0 days 00:00:33.795000,205.0,178.0,"",288.0,test_unknown,13.0
0 days 01:13:45.998000,55,"",19,0 days 01:11:58.840000,"","",0 days 00:00:43.538000,0 days 00:00:35.580000,186.0,153.0,197.0,283.0,test_unknown,6.0
0 days 01:15:28.118000,55,0 days 00:01:42.120000,20,"","",0 days 00:00:27.867000,0 days 00:00:40.992000,0 days 00:00:33.261000,205.0,181.0,196.0,292.0,test_unknown,7.0
0 days 01:17:09.976000,55,0 days 00:01:41.858000,21,"","",0 days 00:00:27.725000,0 days 00:00:40.975000,0 days 00:00:33.158000,206.0,181.0,198.0,291.0,test_unknown,8.0
0 days 01:18:51.880000,55,0 days 00:01:41.904000,22,"","",0 days 00:00:27.752000,0 days 00:00:41.175000,0 days 00:00:32.977000,199.0,181.0,197.0,288.0,test_unknown,9.0
0 days 01:20:34.141000,55,0 days 00:01:42.261000,23,"","",0 days 00:00:27.712000,0 days 00:00:41.374000,0 days 00:00:33.175000,192.0,178.0,197.0,286.0,test_unknown,10.0
0 days 01:22:17.230000,55,0 days 00:01:43.089000,24,"","",0 days 00:00:27.806000,0 days 00:00:41.433000,0 days 00:00:33.850000,203.0,180.0,197.0,286.0,test_unknown,11.0
0 days 01:23:59.421000,55,0 days 00:01:42.191000,25,"","",0 days 00:00:27.751000,0 days 00:00:41.240000,0 days 00:00:33.200000,205.0,181.0,196.0,289.0,test_unknown,12.0
0 days 01:25:43.939000,55,0 days 00:01:44.518000,26,"",0 days 01:25:42.877000,0 days 00:00:27.963000,0 days 00:00:41.491000,0 days 00:00:35.064000,201.0,179.0,"",288.0,test_unknown,13.0
0 days 00:23:11.541000,47,"",1,0 days 00:21:11.193000,"","",0 days 00:00:49.009000,0 days 00:00:38.158000,174.0,172.0,203.0,137.0,test_unknown,1.0
0 days 00:24:52.482000,47,0 days 00:01:40.941000,2,"","",0 days 00:00:27.575000,0 days 00:00:40.873000,0 days 00:00:32.493000,212.0,184.0,201.0,284.0,test_unknown,2.0
0 days 00:26:34.093000,47,0 days 00:01:41.611000,3,"","",0 days 00:00:27.641000,0 days 00:00:40.896000,0 days 00:00:33.074000,209.0,177.0,202.0,288.0,test_unknown,3.0
0 days 00:28:15.868000,47,0 days 00:01:41.775000,4,"","",0 days 00:00:27.699000,0 days 00:00:40.710000,0 days 00:00:33.366000,206.0,183.0,200.0,288.0,test_unknown,4.0
0 days 00:30:04.980000,47,0 days 00:01:49.112000,5,"",0 days 00:30:03.939000,0 days 00:00:29.037000,0 days 00:00:43.845000,0 days 00:00:36.230000,183.0,174.0,"",276.0,test_unknown,5.0
0 days 00:38:01.689000,47,"",6,0 days 00:36:02.842000,"","",0 days 00:00:47.422000,0 days 00:00:41.252000,177.0,168.0,202.0,240.0,test_unknown,1.0
0 days 00:39:41.196000,47,0 days 00:01:39.507000,7,"","",0 days 00:00:27.186000,0 days 00:00:40.045000,0 days 00:00:32.276000,216.0,183.0,203.0,288.0,test_unknown,2.0
0 days 00:41:21.381000,47,0 days 00:01:40.185000,8,"","",0 days 00:00:27.116000,0 days 00:00:40.544000,0 days 00:00:32.525000,213.0,181.0,204.0,287.0,test_unknown,3.0
0 days 00:43:01.776000,47,0 days 00:01:40.395000,9,"","",0 days 00:00:27.322000,0 days 00:00:40.708000,0 days 00:00:32.365000,215.0,184.0,201.0,289.0,test_unknown,4.0
0 days 00:44:53.832000,47,0 days 00:01:52.056000,10,"",0 days 00:44:52.824000,0 days 00:00:29.518000,0 days 00:00:46.534000,0 days 00:00:36.004000,191.0,174.0,"",257.0,test_unknown,5.0
0 days 01:02:52.169000,47,"",11,0 days 01:01:07.972000,"","",0 days 00:00:42.859000,0 days 00:00:34.198000,189.0,172.0,193.0,277.0,test_unknown,1.0
0 days 01:04:37.080000,47,0 days 00:01:44.911000,12,"","",0 days 00:00:28.603000,0 days 00:00:42.156000,0 days 00:00:34.152000,196.0,177.0,194.0,280.0,test_unknown,2.0
0 days 01:06:21.649000,47,0 days 00:01:44.569000,13,"","",0 days 00:00:28.317000,0 days 00:00:42.256000,0 days 00:00:33.996000,201.0,173.0,193.0,283.0,test_unknown,3.0
0 days 01:08:05.913000,47,0 days 00:01:44.264000,14,"","",0 days 00:00:28.260000,0 days 00:00:42.048000,0 days 00:00:33.956000,197.0,172.0,192.0,285.0,test_unknown,4.0
0 days 01:09:50.344000,47,0 days 00:01:44.431000,15,"","",0 days 00:00:28.265000,0 days 00:00:42.165000,0 days 00:00:34.001000,198.0,175.0,194.0,281.0,test_unknown,5.0
0 days 01:11:34.985000,47,0 days 00:01:44.641000,16,"","",0 days 00:00:28.303000,0 days 00:00:42.148000,0 days 00:00:34.190000,196.0,174.0,194.0,281.0,test_unknown,6.0
0 days 01:13:19.633000,47,0 days 00:01:44.648000,17,"","",0 days 00:00:28.167000,0 days 00:00:42.044000,0 days 00:00:34.437000,197.0,175.0,192.0,283.0,test_unknown,7.0
0 days 01:15:19.593000,47,0 days 00:01:59.960000,18,"",0 days 01:15:18.522000,0 days 00:00:30.934000,0 days 00:00:48.974000,0 days 00:00:40.052000,181.0,77.0,"",148.0,test_unknown,8.0
0 days 01:22:00.331000,47,"",19,0 days 01:20:13.946000,"","",0 days 00:00:42.605000,0 days 00:00:36.831000,199.0,175.0,196.0,274.0,test_unknown,6.0
0 days 01:23:44.019000,47,0 days 00:01:43.688000,20,"","",0 days 00:00:28.230000,0 days 00:00:41.713000,0 days 00:00:33.745000,205.0,175.0,194.0,278.0,test_unknown,7.0
0 days 01:25:27.177000,47,0 days 00:01:43.158000,21,"","",0 days 00:00:28.039000,0 days 00:00:41.653000,0 days 00:00:33.466000,210.0,178.0,196.0,280.0,test_unknown,8.0
0 days 01:27:10.762000,47,0 days 00:01:43.585000,22,"","",0 days 00:00:28.112000,0 days 00:00:41.730000,0 days 00:00:33.743000,204.0,174.0,194.0,278.0,test_unknown,9.0
0 days 01:28:54.522000,47,0 days 00:01:43.760000,23,"","",0 days 00:00:28.204000,0 days 00:00:41.885000,0 days 00:00:33.671000,198.0,176.0,192.0,278.0,test_unknown,10.0
0 days 01:30:39.473000,47,0 days 00:01:44.951000,24,"","",0 days 00:00:28.071000,0 days 00:00:42.843000,0 days 00:00:34.037000,202.0,170.0,193.0,280.0,test_unknown,11.0
0 days 01:32:24.308000,47,0 days 00:01:44.835000,25,"","",0 days 00:00:28.300000,0 days 00:00:42.175000,0 days 00:00:34.360000,200.0,174.0,193.0,279.0,test_unknown,12.0
0 days 01:34:22.821000,47,0 days 00:01:58.513000,26,"",0 days 01:34:21.732000,0 days 00:00:32.756000,0 days 00:00:46.900000,0 days 00:00:38.857000,166.0,162.0,"",272.0,test_unknown,13.0
0 days 00:18:15.611000,44,"",1,0 days 00:16:11.881000,"","",0 days 00:00:46.459000,0 days 00:00:45.206000,172.0,171.0,196.0,254.0,test_unknown,1.0
0 days 00:19:57.041000,44,0 days 00:01:41.430000,2,"","",0 days 00:00:28.048000,0 days 00:00:40.951000,0 days 00:00:32.431000,217.0,184.0,201.0,290.0,test_unknown,2.0
0 days 00:21:36.877000,44,0 days 00:01:39.836000,3,"","",0 days 00:00:27.145000,0 days 00:00:40.437000,0 days 00:00:32.254000,223.0,184.0,201.0,286.0,test_unknown,3.0
0 days 00:23:16.575000,44,0 days 00:01:39.698000,4,"","",0 days 00:00:27.139000,0 days 00:00:40.286000,0 days 00:00:32.273000,222.0,185.0,201.0,289.0,test_unknown,4.0
0 days 00:25:07.419000,44,0 days 00:01:50.844000,5,"",0 days 00:25:06.343000,0 days 00:00:28.450000,0 days 00:00:44.538000,0 days 00:00:37.856000,195.0,179.0,"",282.0,test_unknown,5.0
0 days 00:36:39.373000,44,"",6,0 days 00:34:48.290000,"","",0 days 00:00:45.383000,0 days 00:00:34.492000,175.0,179.0,203.0,284.0,test_unknown,1.0
0 days 00:38:21.541000,44,0 days 00:01:42.168000,7,"","",0 days 00:00:27.706000,0 days 00:00:41.198000,0 days 00:00:33.264000,218.0,180.0,204.0,291.0,test_unknown,2.0
0 days 00:40:01.593000,44,0 days 00:01:40.052000,8,"","",0 days 00:00:27.130000,0 days 00:00:40.488000,0 days 00:00:32.434000,219.0,182.0,201.0,286.0,test_unknown,3.0
0 days 00:41:41.333000,44,0 days 00:01:39.740000,9,"","",0 days 00:00:27.100000,0 days 00:00:40.228000,0 days 00:00:32.412000,224.0,184.0,201.0,288.0,test_unknown,4.0
0 days 00:43:27.374000,44,0 days 00:01:46.041000,10,"",0 days 00:43:26.273000,0 days 00:00:29.178000,0 days 00:00:42.262000,0 days 00:00:34.601000,202.0,178.0,"",283.0,test_unknown,5.0
0 days 00:52:36.497000,44,"",11,0 days 00:50:47.161000,"","",0 days 00:00:42.364000,0 days 00:00:39.297000,193.0,175.0,198.0,291.0,test_unknown,6.0
0 days 00:54:18.754000,44,0 days 00:01:42.257000,12,"","",0 days 00:00:27.832000,0 days 00:00:41.323000,0 days 00:00:33.102000,207.0,180.0,198.0,281.0,test_unknown,7.0
0 days 00:56:01.107000,44,0 days 00:01:42.353000,13,"","",0 days 00:00:27.680000,0 days 00:00:41.475000,0 days 00:00:33.198000,212.0,179.0,197.0,284.0,test_unknown,8.0
0 days 00:57:45.112000,44,0 days 00:01:44.005000,14,"","",0 days 00:00:27.748000,0 days 00:00:41.366000,0 days 00:00:34.891000,211.0,178.0,193.0,287.0,test_unknown,9.0
0 days 00:59:29.578000,44,0 days 00:01:44.466000,15,"","",0 days 00:00:28.152000,0 days 00:00:42.584000,0 days 00:00:33.730000,206.0,165.0,198.0,292.0,test_unknown,10.0
0 days 01:01:11.979000,44,0 days 00:01:42.401000,16,"","",0 days 00:00:27.714000,0 days 00:00:41.382000,0 days 00:00:33.305000,213.0,175.0,197.0,286.0,test_unknown,11.0
0 days 01:02:54.128000,44,0 days 00:01:42.149000,17,"","",0 days 00:00:27.583000,0 days 00:00:41.199000,0 days 00:00:33.367000,212.0,180.0,196.0,290.0,test_unknown,12.0
0 days 01:04:41.537000,44,0 days 00:01:47.409000,18,"",0 days 01:04:40.438000,0 days 00:00:29.506000,0 days 00:00:43.057000,0 days 00:00:34.846000,190.0,173.0,"",278.0,test_unknown,13.0
0 days 01:12:13.047000,44,"",19,0 days 01:10:28.304000,"","",0 days 00:00:42.850000,0 days 00:00:33.875000,193.0,180.0,199.0,291.0,test_unknown,6.0
0 days 01:13:56.443000,44,0 days 00:01:43.396000,20,"","",0 days 00:00:28.032000,0 days 00:00:41.483000,0 days 00:00:33.881000,212.0,178.0,196.0,286.0,test_unknown,7.0
0 days 01:15:39.891000,44,0 days 00:01:43.448000,21,"","",0 days 00:00:27.656000,0 days 00:00:41.457000,0 days 00:00:34.335000,211.0,181.0,199.0,287.0,test_unknown,8.0
0 days 01:17:22.496000,44,0 days 00:01:42.605000,22,"","",0 days 00:00:27.740000,0 days 00:00:41.395000,0 days 00:00:33.470000,207.0,182.0,194.0,289.0,test_unknown,9.0
0 days 01:19:05.414000,44,0 days 00:01:42.918000,23,"","",0 days 00:00:27.599000,0 days 00:00:41.532000,0 days 00:00:33.787000,210.0,180.0,196.0,288.0,test_unknown,10.0
0 days 01:20:48.336000,44,0 days 00:01:42.922000,24,"","",0 days 00:00:27.912000,0 days 00:00:41.562000,0 days 00:00:33.448000,209.0,181.0,198.0,289.0,test_unknown,11.0
0 days 01:22:31.109000,44,0 days 00:01:42.773000,25,"","",0 days 00:00:27.731000,0 days 00:00:41.655000,0 days 00:00:33.387000,212.0,181.0,198.0,283.0,test_unknown,12.0
0 days 01:24:20.055000,44,0 days 00:01:48.946000,26,"",0 days 01:24:18.898000,0 days 00:00:30.882000,0 days 00:00:43.240000,0 days 00:00:34.824000,183.0,174.0,"",273.0,test_unknown,13.0
0 days 00:17:20.513000,31,"",1,0 days 00:15:11.786000,"","",0 days 00:00:48.273000,0 days 00:00:46.506000,145.0,165.0,197.0,281.0,test_unknown,1.0
0 days 00:19:03.456000,31,0 days 00:01:42.943000,2,"","",0 days 00:00:27.840000,0 days 00:00:41.462000,0 days 00:00:33.641000,215.0,175.0,199.0,283.0,test_unknown,2.0
0 days 00:20:45.612000,31,0 days 00:01:42.156000,3,"","",0 days 00:00:27.721000,0 days 00:00:41.167000,0 days 00:00:33.268000,210.0,173.0,201.0,282.0,test_unknown,3.0
0 days 00:22:27.237000,31,0 days 00:01:41.625000,4,"","",0 days 00:00:27.587000,0 days 00:00:40.844000,0 days 00:00:33.194000,216.0,176.0,200.0,283.0,test_unknown,4.0
0 days 00:24:13.806000,31,0 days 00:01:46.569000,5,"",0 days 00:24:12.742000,0 days 00:00:27.701000,0 days 00:00:41.480000,0 days 00:00:37.388000,210.0,172.0,"",286.0,test_unknown,5.0
0 days 00:31:56.755000,31,"",6,0 days 00:30:03.224000,"","",0 days 00:00:45.895000,0 days 00:00:35.577000,171.0,167.0,200.0,266.0,test_unknown,1.0
0 days 00:33:38.355000,31,0 days 00:01:41.600000,7,"","",0 days 00:00:27.730000,0 days 00:00:40.828000,0 days 00:00:33.042000,208.0,178.0,199.0,283.0,test_unknown,2.0
0 days 00:35:19.805000,31,0 days 00:01:41.450000,8,"","",0 days 00:00:27.479000,0 days 00:00:40.910000,0 days 00:00:33.061000,216.0,176.0,200.0,285.0,test_unknown,3.0
0 days 00:37:01.115000,31,0 days 00:01:41.310000,9,"","",0 days 00:00:27.431000,0 days 00:00:40.772000,0 days 00:00:33.107000,214.0,177.0,201.0,286.0,test_unknown,4.0
0 days 00:38:44.218000,31,0 days 00:01:43.103000,10,"",0 days 00:38:43.139000,0 days 00:00:27.624000,0 days 00:00:41.328000,0 days 00:00:34.151000,211.0,177.0,"",286.0,test_unknown,5.0
0 days 00:46:34.593000,31,"",11,0 days 00:44:50.100000,"","",0 days 00:00:42.600000,0 days 00:00:34.798000,195.0,171.0,197.0,281.0,test_unknown,6.0
0 days 00:48:18.486000,31,0 days 00:01:43.893000,12,"","",0 days 00:00:28.155000,0 days 00:00:41.821000,0 days 00:00:33.917000,206.0,172.0,197.0,284.0,test_unknown,7.0
0 days 00:50:02.729000,31,0 days 00:01:44.243000,13,"","",0 days 00:00:28.231000,0 days 00:00:42.072000,0 days 00:00:33.940000,205.0,174.0,196.0,285.0,test_unknown,8.0
0 days 00:51:47.139000,31,0 days 00:01:44.410000,14,"","",0 days 00:00:28.097000,0 days 00:00:42.232000,0 days 00:00:34.081000,206.0,173.0,195.0,285.0,test_unknown,9.0
0 days 00:53:31.468000,31,0 days 00:01:44.329000,15,"","",0 days 00:00:28.325000,0 days 00:00:42.016000,0 days 00:00:33.988000,201.0,175.0,196.0,284.0,test_unknown,10.0
0 days 00:55:15.952000,31,0 days 00:01:44.484000,16,"","",0 days 00:00:28.250000,0 days 00:00:42.107000,0 days 00:00:34.127000,"",175.0,196.0,284.0,test_unknown,11.0
0 days 00:57:00.834000,31,0 days 00:01:44.882000,17,"","",0 days 00:00:28.276000,0 days 00:00:42.481000,0 days 00:00:34.125000,204.0,175.0,196.0,286.0,test_unknown,12.0
0 days 00:58:47.426000,31,0 days 00:01:46.592000,18,"",0 days 00:58:46.298000,0 days 00:00:28.299000,0 days 00:00:42.252000,0 days 00:00:36.041000,"",175.0,"",286.0,test_unknown,13.0
0 days 01:03:53.627000,31,"",19,0 days 01:02:09.682000,"","",0 days 00:00:42.537000,0 days 00:00:34.808000,193.0,172.0,197.0,283.0,test_unknown,6.0
0 days 01:05:37.725000,31,0 days 00:01:44.098000,20,"","",0 days 00:00:28.075000,0 days 00:00:41.899000,0 days 00:00:34.124000,205.0,175.0,198.0,286.0,test_unknown,7.0
0 days 01:07:21.699000,31,0 days 00:01:43.974000,21,"","",0 days 00:00:28.092000,0 days 00:00:41.861000,0 days 00:00:34.021000,211.0,174.0,196.0,286.0,test_unknown,8.0
0 days 01:09:05.947000,31,0 days 00:01:44.248000,22,"","",0 days 00:00:28.216000,0 days 00:00:41.908000,0 days 00:00:34.124000,203.0,175.0,196.0,286.0,test_unknown,9.0
0 days 01:10:49.943000,31,0 days 00:01:43.996000,23,"","",0 days 00:00:28.155000,0 days 00:00:41.872000,0 days 00:00:33.969000,207.0,175.0,195.0,286.0,test_unknown,10.0
0 days 01:12:33.965000,31,0 days 00:01:44.022000,24,"","",0 days 00:00:28.099000,0 days 00:00:41.843000,0 days 00:00:34.080000,204.0,175.0,197.0,286.0,test_unknown,11.0
0 days 01:14:18.348000,31,0 days 00:01:44.383000,25,"","",0 days 00:00:28.135000,0 days 00:00:42.112000,0 days 00:00:34.136000,202.0,173.0,196.0,285.0,test_unknown,12.0
0 days 01:16:03.675000,31,0 days 00:01:45.327000,26,"",0 days 01:16:02.596000,0 days 00:00:28.289000,0 days 00:00:42.211000,0 days 00:00:34.827000,201.0,174.0,"",286.0,test_unknown,13.0
0 days 00:17:34.901000,24,"",1,0 days 00:15:29.446000,"","",0 days 00:00:48.729000,0 days 00:00:44.124000,164.0,153.0,198.0,238.0,test_unknown,1.0
0 days 00:19:17.884000,24,0 days 00:01:42.983000,2,"","",0 days 00:00:28.159000,0 days 00:00:41.504000,0 days 00:00:33.320000,215.0,185.0,199.0,288.0,test_unknown,2.0
0 days 00:21:00.183000,24,0 days 00:01:42.299000,3,"","",0 days 00:00:27.817000,0 days 00:00:41.326000,0 days 00:00:33.156000,209.0,181.0,199.0,291.0,test_unknown,3.0
0 days 00:22:41.671000,24,0 days 00:01:41.488000,4,"","",0 days 00:00:27.529000,0 days 00:00:41.034000,0 days 00:00:32.925000,213.0,185.0,201.0,293.0,test_unknown,4.0
0 days 00:24:36.086000,24,0 days 00:01:54.415000,5,"",0 days 00:24:35.040000,0 days 00:00:30.158000,0 days 00:00:47.047000,0 days 00:00:37.210000,188.0,145.0,"",270.0,test_unknown,5.0
0 days 00:34:01.221000,24,"",6,0 days 00:32:07.622000,"","",0 days 00:00:46.595000,0 days 00:00:35.475000,178.0,159.0,202.0,253.0,test_unknown,1.0
0 days 00:35:42.527000,24,0 days 00:01:41.306000,7,"","",0 days 00:00:27.722000,0 days 00:00:40.906000,0 days 00:00:32.678000,211.0,184.0,201.0,287.0,test_unknown,2.0
0 days 00:37:23.191000,24,0 days 00:01:40.664000,8,"","",0 days 00:00:27.346000,0 days 00:00:40.510000,0 days 00:00:32.808000,220.0,184.0,203.0,288.0,test_unknown,3.0
0 days 00:39:06.044000,24,0 days 00:01:42.853000,9,"","",0 days 00:00:28.454000,0 days 00:00:41.041000,0 days 00:00:33.358000,208.0,179.0,203.0,288.0,test_unknown,4.0
0 days 00:40:56.253000,24,0 days 00:01:50.209000,10,"",0 days 00:40:55.157000,0 days 00:00:30.082000,0 days 00:00:44.322000,0 days 00:00:35.805000,195.0,159.0,"",278.0,test_unknown,5.0
0 days 00:51:20.238000,24,"",11,0 days 00:49:30.437000,"","",0 days 00:00:43.353000,0 days 00:00:38.175000,196.0,161.0,197.0,282.0,test_unknown,6.0
0 days 00:53:04.129000,24,0 days 00:01:43.891000,12,"","",0 days 00:00:28.368000,0 days 00:00:41.921000,0 days 00:00:33.602000,208.0,176.0,197.0,293.0,test_unknown,7.0
0 days 00:54:48.817000,24,0 days 00:01:44.688000,13,"","",0 days 00:00:28.167000,0 days 00:00:41.841000,0 days 00:00:34.680000,202.0,174.0,200.0,295.0,test_unknown,8.0
0 days 00:56:32.757000,24,0 days 00:01:43.940000,14,"","",0 days 00:00:28.569000,0 days 00:00:41.648000,0 days 00:00:33.723000,192.0,175.0,196.0,303.0,test_unknown,9.0
0 days 00:58:16.767000,24,0 days 00:01:44.010000,15,"","",0 days 00:00:28.365000,0 days 00:00:41.974000,0 days 00:00:33.671000,204.0,177.0,196.0,285.0,test_unknown,10.0
0 days 01:00:00.124000,24,0 days 00:01:43.357000,16,"","",0 days 00:00:28.009000,0 days 00:00:41.781000,0 days 00:00:33.567000,208.0,178.0,194.0,288.0,test_unknown,11.0
0 days 01:01:46.167000,24,0 days 00:01:46.043000,17,"","",0 days 00:00:28.646000,0 days 00:00:42.439000,0 days 00:00:34.958000,192.0,176.0,193.0,287.0,test_unknown,12.0
0 days 01:03:32.385000,24,0 days 00:01:46.218000,18,"",0 days 01:03:31.280000,0 days 00:00:28.696000,0 days 00:00:42.499000,0 days 00:00:35.023000,201.0,174.0,"",291.0,test_unknown,13.0
0 days 01:18:45.341000,24,"",19,0 days 01:16:55.056000,"","",0 days 00:00:44.354000,0 days 00:00:35.816000,190.0,171.0,197.0,279.0,test_unknown,6.0
0 days 01:20:28.957000,24,0 days 00:01:43.616000,20,"","",0 days 00:00:28.424000,0 days 00:00:41.579000,0 days 00:00:33.613000,208.0,177.0,196.0,292.0,test_unknown,7.0
0 days 01:22:13.291000,24,0 days 00:01:44.334000,21,"","",0 days 00:00:28.292000,0 days 00:00:42.030000,0 days 00:00:34.012000,209.0,179.0,197.0,292.0,test_unknown,8.0
0 days 01:23:57.015000,24,0 days 00:01:43.724000,22,"","",0 days 00:00:28.247000,0 days 00:00:41.896000,0 days 00:00:33.581000,210.0,179.0,195.0,284.0,test_unknown,9.0
0 days 01:25:40.302000,24,0 days 00:01:43.287000,23,"","",0 days 00:00:28.014000,0 days 00:00:41.731000,0 days 00:00:33.542000,209.0,179.0,197.0,284.0,test_unknown,10.0
0 days 01:27:23.666000,24,0 days 00:01:43.364000,24,"","",0 days 00:00:28.084000,0 days 00:00:41.735000,0 days 00:00:33.545000,207.0,180.0,197.0,287.0,test_unknown,11.0
0 days 01:29:06.920000,24,0 days 00:01:43.254000,25,"","",0 days 00:00:27.956000,0 days 00:00:41.722000,0 days 00:00:33.576000,212.0,180.0,191.0,287.0,test_unknown,12.0
0 days 01:30:56.264000,24,0 days 00:01:49.344000,26,"",0 days 01:30:55.135000,0 days 00:00:29.219000,0 days 00:00:44.049000,0 days 00:00:36.076000,197.0,171.0,"",275.0,test_unknown,13.0
0 days 00:17:13.851000,23,"",1,0 days 00:15:14.057000,"","",0 days 00:00:45.616000,0 days 00:00:42.485000,172.0,166.0,202.0,285.0,test_unknown,1.0
0 days 00:18:58.379000,23,0 days 00:01:44.528000,2,"","",0 days 00:00:28.228000,0 days 00:00:41.740000,0 days 00:00:34.560000,203.0,180.0,198.0,306.0,test_unknown,2.0
0 days 00:20:41.305000,23,0 days 00:01:42.926000,3,"","",0 days 00:00:27.956000,0 days 00:00:41.135000,0 days 00:00:33.835000,"",184.0,201.0,299.0,test_unknown,3.0
0 days 00:22:23.392000,23,0 days 00:01:42.087000,4,"","",0 days 00:00:27.647000,0 days 00:00:40.927000,0 days 00:00:33.513000,202.0,181.0,202.0,299.0,test_unknown,4.0
0 days 00:24:13.037000,23,0 days 00:01:49.645000,5,"",0 days 00:24:11.988000,0 days 00:00:28.221000,0 days 00:00:44.087000,0 days 00:00:37.337000,"",167.0,"",287.0,test_unknown,5.0
0 days 00:28:56.448000,23,"",6,0 days 00:27:07.412000,"","",0 days 00:00:43.925000,0 days 00:00:36.091000,186.0,168.0,204.0,299.0,test_unknown,1.0
0 days 00:30:38.835000,23,0 days 00:01:42.387000,7,"","",0 days 00:00:27.966000,0 days 00:00:40.833000,0 days 00:00:33.588000,207.0,184.0,202.0,306.0,test_unknown,2.0
0 days 00:32:20.919000,23,0 days 00:01:42.084000,8,"","",0 days 00:00:27.623000,0 days 00:00:41.104000,0 days 00:00:33.357000,202.0,182.0,202.0,298.0,test_unknown,3.0
0 days 00:34:02.772000,23,0 days 00:01:41.853000,9,"","",0 days 00:00:27.427000,0 days 00:00:41.011000,0 days 00:00:33.415000,203.0,182.0,201.0,298.0,test_unknown,4.0
0 days 00:35:57.894000,23,0 days 00:01:55.122000,10,"",0 days 00:35:56.806000,0 days 00:00:28.608000,0 days 00:00:46.722000,0 days 00:00:39.792000,193.0,172.0,"",294.0,test_unknown,5.0
0 days 00:44:56.655000,23,"",11,0 days 00:43:11.810000,"","",0 days 00:00:42.695000,0 days 00:00:34.889000,189.0,172.0,195.0,302.0,test_unknown,6.0
0 days 00:46:41.495000,23,0 days 00:01:44.840000,12,"","",0 days 00:00:28.600000,0 days 00:00:41.822000,0 days 00:00:34.418000,199.0,177.0,197.0,297.0,test_unknown,7.0
0 days 00:48:25.725000,23,0 days 00:01:44.230000,13,"","",0 days 00:00:28.207000,0 days 00:00:41.609000,0 days 00:00:34.414000,"",179.0,195.0,301.0,test_unknown,8.0
0 days 00:50:10.455000,23,0 days 00:01:44.730000,14,"","",0 days 00:00:28.328000,0 days 00:00:41.801000,0 days 00:00:34.601000,200.0,179.0,196.0,303.0,test_unknown,9.0
0 days 00:51:55.217000,23,0 days 00:01:44.762000,15,"","",0 days 00:00:28.434000,0 days 00:00:41.710000,0 days 00:00:34.618000,198.0,179.0,197.0,305.0,test_unknown,10.0
0 days 00:53:39.895000,23,0 days 00:01:44.678000,16,"","",0 days 00:00:28.435000,0 days 00:00:41.881000,0 days 00:00:34.362000,195.0,178.0,196.0,302.0,test_unknown,11.0
0 days 00:55:24.832000,23,0 days 00:01:44.937000,17,"","",0 days 00:00:28.364000,0 days 00:00:41.903000,0 days 00:00:34.670000,194.0,178.0,196.0,303.0,test_unknown,12.0
0 days 00:57:11.206000,23,0 days 00:01:46.374000,18,"",0 days 00:57:10.109000,0 days 00:00:28.887000,0 days 00:00:42.446000,0 days 00:00:35.041000,"",177.0,"",303.0,test_unknown,13.0
0 days 01:02:51.346000,23,"",19,0 days 01:01:04.450000,"","",0 days 00:00:43.398000,0 days 00:00:35.731000,192.0,167.0,199.0,304.0,test_unknown,6.0
0 days 01:04:36.415000,23,0 days 00:01:45.069000,20,"","",0 days 00:00:28.523000,0 days 00:00:42.025000,0 days 00:00:34.521000,"",174.0,197.0,297.0,test_unknown,7.0
0 days 01:06:20.973000,23,0 days 00:01:44.558000,21,"","",0 days 00:00:28.294000,0 days 00:00:41.857000,0 days 00:00:34.407000,198.0,176.0,197.0,294.0,test_unknown,8.0
0 days 01:08:05.295000,23,0 days 00:01:44.322000,22,"","",0 days 00:00:28.230000,0 days 00:00:41.690000,0 days 00:00:34.402000,199.0,175.0,197.0,295.0,test_unknown,9.0
0 days 01:09:49.627000,23,0 days 00:01:44.332000,23,"","",0 days 00:00:28.142000,0 days 00:00:41.729000,0 days 00:00:34.461000,197.0,179.0,197.0,296.0,test_unknown,10.0
0 days 01:11:33.946000,23,0 days 00:01:44.319000,24,"","",0 days 00:00:28.221000,0 days 00:00:41.742000,0 days 00:00:34.356000,196.0,179.0,197.0,296.0,test_unknown,11.0
0 days 01:13:18.230000,23,0 days 00:01:44.284000,25,"","",0 days 00:00:28.201000,0 days 00:00:41.678000,0 days 00:00:34.405000,197.0,177.0,196.0,297.0,test_unknown,12.0
0 days 01:15:03.934000,23,0 days 00:01:45.704000,26,"",0 days 01:15:02.837000,0 days 00:00:28.164000,0 days 00:00:41.832000,0 days 00:00:35.708000,198.0,175.0,"",294.0,test_unknown,13.0
0 days 00:17:28.691000,22,"",1,0 days 00:15:27.151000,"","",0 days 00:00:44.405000,0 days 00:00:46.441000,174.0,172.0,199.0,290.0,test_unknown,1.0
0 days 00:19:12.041000,22,0 days 00:01:43.350000,2,"","",0 days 00:00:28.329000,0 days 00:00:41.276000,0 days 00:00:33.745000,210.0,176.0,198.0,291.0,test_unknown,2.0
0 days 00:20:53.475000,22,0 days 00:01:41.434000,3,"","",0 days 00:00:27.647000,0 days 00:00:40.573000,0 days 00:00:33.214000,209.0,181.0,200.0,291.0,test_unknown,3.0
0 days 00:22:36.065000,22,0 days 00:01:42.590000,4,"","",0 days 00:00:27.967000,0 days 00:00:41.245000,0 days 00:00:33.378000,200.0,181.0,198.0,292.0,test_unknown,4.0
0 days 00:24:28.012000,22,0 days 00:01:51.947000,5,"",0 days 00:24:26.968000,0 days 00:00:31.874000,0 days 00:00:43.630000,0 days 00:00:36.443000,169.0,141.0,"",275.0,test_unknown,5.0
0 days 00:32:55.797000,22,"",6,0 days 00:31:08.426000,"","",0 days 00:00:43.269000,0 days 00:00:34.748000,180.0,165.0,203.0,290.0,test_unknown,1.0
0 days 00:34:36.105000,22,0 days 00:01:40.308000,7,"","",0 days 00:00:27.465000,0 days 00:00:40.248000,0 days 00:00:32.595000,217.0,180.0,201.0,292.0,test_unknown,2.0
0 days 00:36:16.283000,22,0 days 00:01:40.178000,8,"","",0 days 00:00:27.306000,0 days 00:00:40.369000,0 days 00:00:32.503000,"",181.0,200.0,289.0,test_unknown,3.0
0 days 00:37:56.891000,22,0 days 00:01:40.608000,9,"","",0 days 00:00:27.345000,0 days 00:00:40.349000,0 days 00:00:32.914000,215.0,180.0,200.0,290.0,test_unknown,4.0
0 days 00:39:48.290000,22,0 days 00:01:51.399000,10,"",0 days 00:39:47.230000,0 days 00:00:27.700000,0 days 00:00:42.381000,0 days 00:00:41.318000,211.0,139.0,"",279.0,test_unknown,5.0
0 days 00:48:43.910000,22,"",11,0 days 00:46:57.207000,"","",0 days 00:00:42.075000,0 days 00:00:36.190000,196.0,172.0,196.0,291.0,test_unknown,6.0
0 days 00:50:28.722000,22,0 days 00:01:44.812000,12,"","",0 days 00:00:29.071000,0 days 00:00:41.799000,0 days 00:00:33.942000,204.0,174.0,195.0,292.0,test_unknown,7.0
0 days 00:52:12.582000,22,0 days 00:01:43.860000,13,"","",0 days 00:00:28.375000,0 days 00:00:41.603000,0 days 00:00:33.882000,207.0,177.0,195.0,288.0,test_unknown,8.0
0 days 00:53:56.990000,22,0 days 00:01:44.408000,14,"","",0 days 00:00:28.387000,0 days 00:00:41.997000,0 days 00:00:34.024000,205.0,177.0,194.0,287.0,test_unknown,9.0
0 days 00:55:41.230000,22,0 days 00:01:44.240000,15,"","",0 days 00:00:28.371000,0 days 00:00:41.919000,0 days 00:00:33.950000,203.0,176.0,195.0,293.0,test_unknown,10.0
0 days 00:57:27.010000,22,0 days 00:01:45.780000,16,"","",0 days 00:00:28.520000,0 days 00:00:42.511000,0 days 00:00:34.749000,200.0,175.0,192.0,293.0,test_unknown,11.0
0 days 00:59:12.086000,22,0 days 00:01:45.076000,17,"","",0 days 00:00:28.624000,0 days 00:00:42.100000,0 days 00:00:34.352000,202.0,175.0,193.0,293.0,test_unknown,12.0
0 days 01:00:59.054000,22,0 days 00:01:46.968000,18,"",0 days 01:00:57.931000,0 days 00:00:29.021000,0 days 00:00:42.727000,0 days 00:00:35.220000,190.0,176.0,"",294.0,test_unknown,13.0
0 days 01:08:38.199000,22,"",19,0 days 01:06:53.845000,"","",0 days 00:00:42.437000,0 days 00:00:34.295000,195.0,174.0,197.0,294.0,test_unknown,6.0
0 days 01:10:21.535000,22,0 days 00:01:43.336000,20,"","",0 days 00:00:27.987000,0 days 00:00:41.619000,0 days 00:00:33.730000,209.0,174.0,196.0,291.0,test_unknown,7.0
0 days 01:12:05.275000,22,0 days 00:01:43.740000,21,"","",0 days 00:00:28.331000,0 days 00:00:41.694000,0 days 00:00:33.715000,204.0,173.0,196.0,290.0,test_unknown,8.0
0 days 01:13:49.610000,22,0 days 00:01:44.335000,22,"","",0 days 00:00:28.299000,0 days 00:00:41.992000,0 days 00:00:34.044000,206.0,177.0,195.0,293.0,test_unknown,9.0
0 days 01:15:34.037000,22,0 days 00:01:44.427000,23,"","",0 days 00:00:28.304000,0 days 00:00:41.788000,0 days 00:00:34.335000,205.0,176.0,195.0,292.0,test_unknown,10.0
0 days 01:17:18.480000,22,0 days 00:01:44.443000,24,"","",0 days 00:00:28.438000,0 days 00:00:41.866000,0 days 00:00:34.139000,203.0,176.0,195.0,294.0,test_unknown,11.0
0 days 01:19:02.830000,22,0 days 00:01:44.350000,25,"","",0 days 00:00:28.233000,0 days 00:00:41.871000,0 days 00:00:34.246000,205.0,175.0,195.0,293.0,test_unknown,12.0
0 days 01:20:51.419000,22,0 days 00:01:48.589000,26,"",0 days 01:20:50.330000,0 days 00:00:28.419000,0 days 00:00:42.363000,0 days 00:00:37.807000,"",178.0,"",292.0,test_unknown,13.0
0 days 00:22:35.264000,20,"",1,0 days 00:20:30.888000,"","",0 days 00:00:49.904000,0 days 00:00:43.150000,179.0,153.0,200.0,249.0,test_unknown,1.0
0 days 00:24:17.210000,20,0 days 00:01:41.946000,2,"","",0 days 00:00:27.751000,0 days 00:00:41.282000,0 days 00:00:32.913000,218.0,180.0,203.0,285.0,test_unknown,2.0
0 days 00:25:58.667000,20,0 days 00:01:41.457000,3,"","",0 days 00:00:27.461000,0 days 00:00:41.103000,0 days 00:00:32.893000,211.0,182.0,202.0,286.0,test_unknown,3.0
0 days 00:27:39.496000,20,0 days 00:01:40.829000,4,"","",0 days 00:00:27.453000,0 days 00:00:40.727000,0 days 00:00:32.649000,220.0,182.0,201.0,287.0,test_unknown,4.0
0 days 00:29:41.646000,20,0 days 00:02:02.150000,5,"",0 days 00:29:40.601000,0 days 00:00:32.832000,0 days 00:00:52.050000,0 days 00:00:37.268000,162.0,162.0,"",160.0,test_unknown,5.0
0 days 00:42:44.461000,20,"",6,0 days 00:40:36.957000,"","",0 days 00:00:55.454000,0 days 00:00:39.915000,162.0,166.0,202.0,173.0,test_unknown,1.0
0 days 00:44:24.545000,20,0 days 00:01:40.084000,7,"","",0 days 00:00:27.383000,0 days 00:00:40.521000,0 days 00:00:32.180000,216.0,184.0,202.0,286.0,test_unknown,2.0
0 days 00:46:11.993000,20,0 days 00:01:47.448000,8,"",0 days 00:46:10.977000,0 days 00:00:27.416000,0 days 00:00:40.473000,0 days 00:00:39.559000,217.0,181.0,"",287.0,test_unknown,3.0
0 days 01:07:59.973000,20,"",9,0 days 01:05:58.038000,"","",0 days 00:00:45.288000,0 days 00:00:44.261000,172.0,172.0,193.0,272.0,test_unknown,6.0
0 days 01:09:43.216000,20,0 days 00:01:43.243000,10,"","",0 days 00:00:28.171000,0 days 00:00:41.461000,0 days 00:00:33.611000,205.0,180.0,195.0,284.0,test_unknown,7.0
0 days 01:11:27.118000,20,0 days 00:01:43.902000,11,"","",0 days 00:00:28.154000,0 days 00:00:41.955000,0 days 00:00:33.793000,200.0,172.0,195.0,281.0,test_unknown,8.0
0 days 01:13:10.855000,20,0 days 00:01:43.737000,12,"","",0 days 00:00:28.281000,0 days 00:00:41.661000,0 days 00:00:33.795000,203.0,175.0,194.0,281.0,test_unknown,9.0
0 days 01:14:54.878000,20,0 days 00:01:44.023000,13,"","",0 days 00:00:28.271000,0 days 00:00:41.803000,0 days 00:00:33.949000,202.0,170.0,191.0,281.0,test_unknown,10.0
0 days 01:16:39.116000,20,0 days 00:01:44.238000,14,"","",0 days 00:00:28.401000,0 days 00:00:41.863000,0 days 00:00:33.974000,197.0,173.0,193.0,281.0,test_unknown,11.0
0 days 01:18:23.722000,20,0 days 00:01:44.606000,15,"","",0 days 00:00:28.430000,0 days 00:00:42.094000,0 days 00:00:34.082000,202.0,171.0,193.0,279.0,test_unknown,12.0
0 days 01:20:25.651000,20,0 days 00:02:01.929000,16,"",0 days 01:20:24.524000,0 days 00:00:34.039000,0 days 00:00:49.984000,0 days 00:00:37.906000,170.0,149.0,"",199.0,test_unknown,13.0
0 days 01:31:02.393000,20,"",17,0 days 01:29:12.703000,"","",0 days 00:00:44.314000,0 days 00:00:37.349000,176.0,168.0,196.0,270.0,test_unknown,4.0
0 days 01:32:45.650000,20,0 days 00:01:43.257000,18,"","",0 days 00:00:28.210000,0 days 00:00:41.223000,0 days 00:00:33.824000,205.0,178.0,193.0,284.0,test_unknown,5.0
0 days 01:34:29.541000,20,0 days 00:01:43.891000,19,"","",0 days 00:00:28.353000,0 days 00:00:41.652000,0 days 00:00:33.886000,198.0,174.0,193.0,280.0,test_unknown,6.0
0 days 01:36:13.783000,20,0 days 00:01:44.242000,20,"","",0 days 00:00:28.385000,0 days 00:00:41.717000,0 days 00:00:34.140000,193.0,176.0,194.0,280.0,test_unknown,7.0
0 days 01:37:58.091000,20,0 days 00:01:44.308000,21,"","",0 days 00:00:28.372000,0 days 00:00:41.893000,0 days 00:00:34.043000,194.0,177.0,193.0,280.0,test_unknown,8.0
0 days 01:39:42.076000,20,0 days 00:01:43.985000,22,"","",0 days 00:00:28.293000,0 days 00:00:41.908000,0 days 00:00:33.784000,201.0,173.0,193.0,281.0,test_unknown,9.0
0 days 01:41:25.919000,20,0 days 00:01:43.843000,23,"","",0 days 00:00:28.136000,0 days 00:00:41.853000,0 days 00:00:33.854000,205.0,174.0,192.0,281.0,test_unknown,10.0
0 days 01:43:26.320000,20,0 days 00:02:00.401000,24,"",0 days 01:43:25.222000,0 days 00:00:30.758000,0 days 00:00:50.383000,0 days 00:00:39.260000,159.0,163.0,"",199.0,test_unknown,11.0
0 days 00:37:22.855000,18,"",1,0 days 00:35:34.684000,"","",0 days 00:00:45.057000,0 days 00:00:35.110000,181.0,145.0,204.0,272.0,test_unknown,1.0
0 days 00:39:04.749000,18,0 days 00:01:41.894000,2,"","",0 days 00:00:27.887000,0 days 00:00:40.933000,0 days 00:00:33.074000,205.0,181.0,203.0,283.0,test_unknown,2.0
0 days 00:40:46.003000,18,0 days 00:01:41.254000,3,"","",0 days 00:00:27.730000,0 days 00:00:40.763000,0 days 00:00:32.761000,199.0,179.0,202.0,280.0,test_unknown,3.0
0 days 00:42:27.951000,18,0 days 00:01:41.948000,4,"","",0 days 00:00:27.800000,0 days 00:00:41.028000,0 days 00:00:33.120000,204.0,181.0,200.0,283.0,test_unknown,4.0
0 days 00:44:13.360000,18,0 days 00:01:45.409000,5,"",0 days 00:44:12.283000,0 days 00:00:28.104000,0 days 00:00:41.862000,0 days 00:00:35.443000,197.0,175.0,"",269.0,test_unknown,5.0
0 days 00:51:14.190000,18,"",6,0 days 00:49:25.370000,"","",0 days 00:00:44.762000,0 days 00:00:34.962000,175.0,176.0,201.0,272.0,test_unknown,1.0
0 days 00:52:56.276000,18,0 days 00:01:42.086000,7,"","",0 days 00:00:27.955000,0 days 00:00:41.163000,0 days 00:00:32.968000,202.0,181.0,202.0,277.0,test_unknown,2.0
0 days 00:54:37.492000,18,0 days 00:01:41.216000,8,"","",0 days 00:00:27.687000,0 days 00:00:40.866000,0 days 00:00:32.663000,200.0,181.0,201.0,277.0,test_unknown,3.0
0 days 00:56:18.298000,18,0 days 00:01:40.806000,9,"","",0 days 00:00:27.437000,0 days 00:00:40.678000,0 days 00:00:32.691000,207.0,180.0,203.0,280.0,test_unknown,4.0
0 days 00:58:04.142000,18,0 days 00:01:45.844000,10,"",0 days 00:58:03.035000,0 days 00:00:27.547000,0 days 00:00:41.907000,0 days 00:00:36.390000,205.0,172.0,"",262.0,test_unknown,5.0
0 days 01:06:09.125000,18,"",11,0 days 01:04:19.225000,"","",0 days 00:00:43.636000,0 days 00:00:35.156000,173.0,178.0,198.0,287.0,test_unknown,6.0
0 days 01:07:52.591000,18,0 days 00:01:43.466000,12,"","",0 days 00:00:27.967000,0 days 00:00:41.629000,0 days 00:00:33.870000,201.0,172.0,198.0,279.0,test_unknown,7.0
0 days 01:09:36.025000,18,0 days 00:01:43.434000,13,"","",0 days 00:00:28.146000,0 days 00:00:41.466000,0 days 00:00:33.822000,199.0,176.0,198.0,279.0,test_unknown,8.0
0 days 01:11:19.326000,18,0 days 00:01:43.301000,14,"","",0 days 00:00:28.159000,0 days 00:00:41.477000,0 days 00:00:33.665000,197.0,177.0,198.0,280.0,test_unknown,9.0
0 days 01:13:02.560000,18,0 days 00:01:43.234000,15,"","",0 days 00:00:28.108000,0 days 00:00:41.509000,0 days 00:00:33.617000,196.0,176.0,197.0,279.0,test_unknown,10.0
0 days 01:14:46.059000,18,0 days 00:01:43.499000,16,"","",0 days 00:00:28.003000,0 days 00:00:41.766000,0 days 00:00:33.730000,"",173.0,197.0,279.0,test_unknown,11.0
0 days 01:16:29.878000,18,0 days 00:01:43.819000,17,"","",0 days 00:00:28.240000,0 days 00:00:41.737000,0 days 00:00:33.842000,"",178.0,198.0,279.0,test_unknown,12.0
0 days 01:18:18.163000,18,0 days 00:01:48.285000,18,"",0 days 01:18:17.070000,0 days 00:00:28.159000,0 days 00:00:43.114000,0 days 00:00:37.012000,197.0,160.0,"",247.0,test_unknown,13.0
0 days 01:24:57.538000,18,"",19,0 days 01:23:09.417000,"","",0 days 00:00:42.826000,0 days 00:00:34.443000,181.0,177.0,199.0,281.0,test_unknown,6.0
0 days 01:26:40.717000,18,0 days 00:01:43.179000,20,"","",0 days 00:00:28.159000,0 days 00:00:41.518000,0 days 00:00:33.502000,193.0,176.0,198.0,277.0,test_unknown,7.0
0 days 01:28:23.900000,18,0 days 00:01:43.183000,21,"","",0 days 00:00:28.026000,0 days 00:00:41.604000,0 days 00:00:33.553000,194.0,176.0,200.0,280.0,test_unknown,8.0
0 days 01:30:07.034000,18,0 days 00:01:43.134000,22,"","",0 days 00:00:27.981000,0 days 00:00:41.441000,0 days 00:00:33.712000,198.0,178.0,199.0,278.0,test_unknown,9.0
0 days 01:31:50.310000,18,0 days 00:01:43.276000,23,"","",0 days 00:00:28.051000,0 days 00:00:41.588000,0 days 00:00:33.637000,196.0,176.0,197.0,279.0,test_unknown,10.0
0 days 01:33:33.522000,18,0 days 00:01:43.212000,24,"","",0 days 00:00:28.024000,0 days 00:00:41.478000,0 days 00:00:33.710000,"",176.0,198.0,278.0,test_unknown,11.0
0 days 01:35:16.783000,18,0 days 00:01:43.261000,25,"","",0 days 00:00:28.063000,0 days 00:00:41.457000,0 days 00:00:33.741000,192.0,178.0,197.0,279.0,test_unknown,12.0
0 days 01:37:08.608000,18,0 days 00:01:51.825000,26,"",0 days 01:37:07.498000,0 days 00:00:27.934000,0 days 00:00:43.197000,0 days 00:00:40.694000,199.0,148.0,"",251.0,test_unknown,13.0
0 days 00:18:03.876000,16,"",1,0 days 00:16:05.689000,"","",0 days 00:00:46.369000,0 days 00:00:40.977000,182.0,140.0,206.0,269.0,soft,8.0
0 days 00:19:42.732000,16,0 days 00:01:38.856000,2,"","",0 days 00:00:27.043000,0 days 00:00:39.637000,0 days 00:00:32.176000,217.0,185.0,203.0,316.0,soft,9.0
0 days 00:22:10.280000,16,0 days 00:02:27.548000,3,"","",0 days 00:00:43.060000,0 days 00:01:04.639000,0 days 00:00:39.849000,158.0,135.0,203.0,200.0,soft,10.0
0 days 00:23:47.894000,16,0 days 00:01:37.614000,4,"","",0 days 00:00:26.474000,0 days 00:00:39.343000,0 days 00:00:31.797000,223.0,187.0,204.0,314.0,soft,11.0
0 days 00:25:40.818000,16,0 days 00:01:52.924000,5,"",0 days 00:25:39.818000,0 days 00:00:29.534000,0 days 00:00:44.425000,0 days 00:00:38.965000,186.0,150.0,"",268.0,soft,12.0
0 days 00:27:56.501000,16,0 days 00:02:15.683000,6,0 days 00:26:05.289000,"",0 days 00:00:55.236000,0 days 00:00:43.936000,0 days 00:00:36.511000,182.0,166.0,209.0,291.0,medium,1.0
0 days 00:29:33.311000,16,0 days 00:01:36.810000,7,"","",0 days 00:00:26.180000,0 days 00:00:39.105000,0 days 00:00:31.525000,219.0,188.0,205.0,318.0,medium,2.0
0 days 00:31:30.184000,16,0 days 00:01:56.873000,8,"",0 days 00:31:29.138000,0 days 00:00:32.144000,0 days 00:00:46.129000,0 days 00:00:38.600000,166.0,153.0,"",271.0,medium,3.0
0 days 00:39:02.611000,16,"",9,0 days 00:37:20.913000,"","",0 days 00:00:41.411000,0 days 00:00:33.449000,195.0,177.0,199.0,285.0,medium,4.0
0 days 00:40:44.504000,16,0 days 00:01:41.893000,10,"","",0 days 00:00:27.749000,0 days 00:00:40.864000,0 days 00:00:33.280000,203.0,177.0,195.0,293.0,medium,5.0
0 days 00:42:26.764000,16,0 days 00:01:42.260000,11,"","",0 days 00:00:27.859000,0 days 00:00:41.172000,0 days 00:00:33.229000,"",176.0,197.0,288.0,medium,6.0
0 days 00:44:08.861000,16,0 days 00:01:42.097000,12,"","",0 days 00:00:27.713000,0 days 00:00:41.021000,0 days 00:00:33.363000,202.0,177.0,195.0,286.0,medium,7.0
0 days 00:45:50.519000,16,0 days 00:01:41.658000,13,"","",0 days 00:00:27.627000,0 days 00:00:41.158000,0 days 00:00:32.873000,205.0,177.0,198.0,288.0,medium,8.0
0 days 00:47:32.060000,16,0 days 00:01:41.541000,14,"","",0 days 00:00:27.410000,0 days 00:00:41.352000,0 days 00:00:32.779000,207.0,178.0,198.0,288.0,medium,9.0
0 days 00:49:15.869000,16,0 days 00:01:43.809000,15,"",0 days 00:49:14.785000,0 days 00:00:27.981000,0 days 00:00:41.478000,0 days 00:00:34.350000,203.0,174.0,"",288.0,medium,10.0
0 days 00:59:55.737000,16,"",16,0 days 00:57:54.258000,"","",0 days 00:00:46.929000,0 days 00:00:44.614000,179.0,157.0,202.0,274.0,test_unknown,1.0
0 days 01:01:34.125000,16,0 days 00:01:38.388000,17,"","",0 days 00:00:26.796000,0 days 00:00:39.734000,0 days 00:00:31.858000,221.0,185.0,203.0,291.0,test_unknown,2.0
0 days 01:03:12.670000,16,0 days 00:01:38.545000,18,"","",0 days 00:00:26.675000,0 days 00:00:39.859000,0 days 00:00:32.011000,216.0,182.0,201.0,288.0,test_unknown,3.0
0 days 01:04:51.484000,16,0 days 00:01:38.814000,19,"","",0 days 00:00:26.764000,0 days 00:00:39.896000,0 days 00:00:32.154000,212.0,183.0,200.0,288.0,test_unknown,4.0
0 days 01:06:37.670000,16,0 days 00:01:46.186000,20,"",0 days 01:06:36.609000,0 days 00:00:28.465000,0 days 00:00:42.392000,0 days 00:00:35.329000,194.0,167.0,"",287.0,test_unknown,5.0
0 days 01:13:30.559000,16,"",21,0 days 01:11:38.163000,"","",0 days 00:00:42.491000,0 days 00:00:39.078000,187.0,173.0,205.0,277.0,test_unknown,1.0
0 days 01:15:08.235000,16,0 days 00:01:37.676000,22,"","",0 days 00:00:26.592000,0 days 00:00:39.552000,0 days 00:00:31.532000,223.0,184.0,204.0,292.0,test_unknown,2.0
0 days 01:16:47.729000,16,0 days 00:01:39.494000,23,"","",0 days 00:00:26.745000,0 days 00:00:40.418000,0 days 00:00:32.331000,214.0,182.0,197.0,289.0,test_unknown,3.0
0 days 01:18:26.962000,16,0 days 00:01:39.233000,24,"","",0 days 00:00:26.911000,0 days 00:00:40.204000,0 days 00:00:32.118000,"",181.0,199.0,292.0,test_unknown,4.0
0 days 01:20:06.904000,16,0 days 00:01:39.942000,25,"",0 days 01:20:05.780000,0 days 00:00:26.868000,0 days 00:00:40.349000,0 days 00:00:32.725000,216.0,181.0,"",289.0,test_unknown,5.0
0 days 01:27:19.026000,16,"",26,0 days 01:25:37.743000,"","",0 days 00:00:41.480000,0 days 00:00:33.456000,200.0,174.0,197.0,285.0,test_unknown,6.0
0 days 01:28:59.794000,16,0 days 00:01:40.768000,27,"","",0 days 00:00:27.514000,0 days 00:00:40.641000,0 days 00:00:32.613000,211.0,180.0,196.0,291.0,test_unknown,7.0
0 days 01:30:41.701000,16,0 days 00:01:41.907000,28,"","",0 days 00:00:27.572000,0 days 00:00:41.183000,0 days 00:00:33.152000,204.0,175.0,195.0,289.0,test_unknown,8.0
0 days 01:32:24.668000,16,0 days 00:01:42.967000,29,"","",0 days 00:00:27.685000,0 days 00:00:41.294000,0 days 00:00:33.988000,199.0,178.0,199.0,291.0,test_unknown,9.0
0 days 01:34:06.797000,16,0 days 00:01:42.129000,30,"","",0 days 00:00:27.509000,0 days 00:00:41.281000,0 days 00:00:33.339000,203.0,173.0,195.0,288.0,test_unknown,10.0
0 days 01:35:48.756000,16,0 days 00:01:41.959000,31,"","",0 days 00:00:27.677000,0 days 00:00:41.252000,0 days 00:00:33.030000,197.0,179.0,196.0,288.0,test_unknown,11.0
0 days 01:37:30.704000,16,0 days 00:01:41.948000,32,"","",0 days 00:00:27.525000,0 days 00:00:41.338000,0 days 00:00:33.085000,205.0,179.0,194.0,287.0,test_unknown,12.0
0 days 01:39:13.338000,16,0 days 00:01:42.634000,33,"",0 days 01:39:12.255000,0 days 00:00:27.564000,0 days 00:00:41.364000,0 days 00:00:33.706000,208.0,179.0,"",288.0,test_unknown,13.0
0 days 01:42:56.844000,16,"",34,0 days 01:41:17.232000,"","",0 days 00:00:41.250000,0 days 00:00:32.959000,203.0,177.0,199.0,285.0,test_unknown,6.0
0 days 01:44:37.957000,16,0 days 00:01:41.113000,35,"","",0 days 00:00:27.478000,0 days 00:00:40.719000,0 days 00:00:32.916000,206.0,181.0,196.0,289.0,test_unknown,7.0
0 days 01:46:19.413000,16,0 days 00:01:41.456000,36,"","",0 days 00:00:27.623000,0 days 00:00:40.889000,0 days 00:00:32.944000,202.0,179.0,197.0,288.0,test_unknown,8.0
0 days 01:48:01.397000,16,0 days 00:01:41.984000,37,"",0 days 01:48:00.316000,0 days 00:00:27.653000,0 days 00:00:41.019000,0 days 00:00:33.312000,205.0,178.0,"",288.0,test_unknown,9.0
0 days 00:17:55.407000,14,"",1,0 days 00:15:48.904000,"","",0 days 00:00:48.418000,0 days 00:00:43.904000,161.0,166.0,194.0,262.0,test_unknown,1.0
0 days 00:19:39.770000,14,0 days 00:01:44.363000,2,"","",0 days 00:00:28.545000,0 days 00:00:41.840000,0 days 00:00:33.978000,206.0,175.0,201.0,281.0,test_unknown,2.0
0 days 00:21:22.425000,14,0 days 00:01:42.655000,3,"","",0 days 00:00:27.733000,0 days 00:00:41.421000,0 days 00:00:33.501000,"",173.0,201.0,282.0,test_unknown,3.0
0 days 00:23:04.788000,14,0 days 00:01:42.363000,4,"","",0 days 00:00:27.616000,0 days 00:00:41.539000,0 days 00:00:33.208000,"",173.0,200.0,285.0,test_unknown,4.0
0 days 00:24:55.989000,14,0 days 00:01:51.201000,5,"",0 days 00:24:54.892000,0 days 00:00:29.103000,0 days 00:00:44.141000,0 days 00:00:37.957000,192.0,166.0,"",283.0,test_unknown,5.0
0 days 00:31:33.776000,14,"",6,0 days 00:29:39.374000,"","",0 days 00:00:47.544000,0 days 00:00:36.347000,185.0,167.0,199.0,240.0,test_unknown,1.0
0 days 00:33:16.673000,14,0 days 00:01:42.897000,7,"","",0 days 00:00:28.156000,0 days 00:00:41.314000,0 days 00:00:33.427000,209.0,177.0,203.0,282.0,test_unknown,2.0
0 days 00:34:58.007000,14,0 days 00:01:41.334000,8,"","",0 days 00:00:27.535000,0 days 00:00:40.942000,0 days 00:00:32.857000,208.0,178.0,201.0,283.0,test_unknown,3.0
0 days 00:36:39.801000,14,0 days 00:01:41.794000,9,"","",0 days 00:00:27.305000,0 days 00:00:40.832000,0 days 00:00:33.657000,213.0,176.0,198.0,287.0,test_unknown,4.0
0 days 00:38:32.122000,14,0 days 00:01:52.321000,10,"",0 days 00:38:31.058000,0 days 00:00:28.373000,0 days 00:00:46.395000,0 days 00:00:37.553000,198.0,156.0,"",217.0,test_unknown,5.0
0 days 00:46:23.497000,14,"",11,0 days 00:44:39.408000,"","",0 days 00:00:42.496000,0 days 00:00:34.458000,197.0,172.0,195.0,297.0,test_unknown,6.0
0 days 00:48:08.387000,14,0 days 00:01:44.890000,12,"","",0 days 00:00:28.584000,0 days 00:00:42.103000,0 days 00:00:34.203000,203.0,171.0,197.0,284.0,test_unknown,7.0
0 days 00:49:53.044000,14,0 days 00:01:44.657000,13,"","",0 days 00:00:28.485000,0 days 00:00:42.083000,0 days 00:00:34.089000,197.0,175.0,196.0,284.0,test_unknown,8.0
0 days 00:51:37.712000,14,0 days 00:01:44.668000,14,"","",0 days 00:00:28.534000,0 days 00:00:42.112000,0 days 00:00:34.022000,"",173.0,196.0,284.0,test_unknown,9.0
0 days 00:53:22.123000,14,0 days 00:01:44.411000,15,"","",0 days 00:00:28.316000,0 days 00:00:42.067000,0 days 00:00:34.028000,203.0,175.0,196.0,285.0,test_unknown,10.0
0 days 00:55:08.493000,14,0 days 00:01:46.370000,16,"","",0 days 00:00:29.631000,0 days 00:00:42.485000,0 days 00:00:34.254000,194.0,172.0,195.0,285.0,test_unknown,11.0
0 days 00:56:53.098000,14,0 days 00:01:44.605000,17,"","",0 days 00:00:28.292000,0 days 00:00:42.063000,0 days 00:00:34.250000,198.0,177.0,196.0,287.0,test_unknown,12.0
0 days 00:58:41.196000,14,0 days 00:01:48.098000,18,"",0 days 00:58:40.097000,0 days 00:00:28.523000,0 days 00:00:42.268000,0 days 00:00:37.307000,200.0,175.0,"",288.0,test_unknown,13.0
0 days 01:05:25.169000,14,"",19,0 days 01:03:40.685000,"","",0 days 00:00:42.358000,0 days 00:00:35.050000,195.0,171.0,195.0,282.0,test_unknown,6.0
0 days 01:07:10.230000,14,0 days 00:01:45.061000,20,"","",0 days 00:00:28.778000,0 days 00:00:42.089000,0 days 00:00:34.194000,202.0,175.0,195.0,283.0,test_unknown,7.0
0 days 01:08:54.847000,14,0 days 00:01:44.617000,21,"","",0 days 00:00:28.372000,0 days 00:00:41.929000,0 days 00:00:34.316000,195.0,179.0,196.0,288.0,test_unknown,8.0
0 days 01:10:39.057000,14,0 days 00:01:44.210000,22,"","",0 days 00:00:28.312000,0 days 00:00:41.889000,0 days 00:00:34.009000,202.0,176.0,197.0,286.0,test_unknown,9.0
0 days 01:12:23.060000,14,0 days 00:01:44.003000,23,"","",0 days 00:00:28.222000,0 days 00:00:41.905000,0 days 00:00:33.876000,205.0,175.0,197.0,287.0,test_unknown,10.0
0 days 01:14:07.092000,14,0 days 00:01:44.032000,24,"","",0 days 00:00:28.148000,0 days 00:00:41.799000,0 days 00:00:34.085000,204.0,175.0,197.0,287.0,test_unknown,11.0
0 days 01:15:51.409000,14,0 days 00:01:44.317000,25,"","",0 days 00:00:28.099000,0 days 00:00:41.910000,0 days 00:00:34.308000,199.0,175.0,195.0,290.0,test_unknown,12.0
0 days 01:17:38.333000,14,0 days 00:01:46.924000,26,"",0 days 01:17:37.255000,0 days 00:00:28.394000,0 days 00:00:42.249000,0 days 00:00:36.281000,198.0,174.0,"",288.0,test_unknown,13.0
0 days 00:18:10.133000,11,"",1,0 days 00:16:08.916000,"","",0 days 00:00:47.830000,0 days 00:00:40.589000,152.0,172.0,195.0,291.0,test_unknown,1.0
0 days 00:19:52.766000,11,0 days 00:01:42.633000,2,"","",0 days 00:00:28.555000,0 days 00:00:41.174000,0 days 00:00:32.904000,207.0,175.0,200.0,296.0,test_unknown,2.0
0 days 00:21:33.009000,11,0 days 00:01:40.243000,3,"","",0 days 00:00:27.353000,0 days 00:00:40.306000,0 days 00:00:32.584000,209.0,180.0,200.0,297.0,test_unknown,3.0
0 days 00:23:13.047000,11,0 days 00:01:40.038000,4,"","",0 days 00:00:27.236000,0 days 00:00:40.298000,0 days 00:00:32.504000,210.0,181.0,201.0,296.0,test_unknown,4.0
0 days 00:25:06.800000,11,0 days 00:01:53.753000,5,"",0 days 00:25:05.652000,0 days 00:00:29.147000,0 days 00:00:43.135000,0 days 00:00:41.471000,198.0,145.0,"",274.0,test_unknown,5.0
0 days 00:32:39.563000,11,"",6,0 days 00:30:43.560000,"","",0 days 00:00:44.572000,0 days 00:00:37.712000,157.0,175.0,197.0,279.0,test_unknown,1.0
0 days 00:34:20.778000,11,0 days 00:01:41.215000,7,"","",0 days 00:00:28.303000,0 days 00:00:40.367000,0 days 00:00:32.545000,203.0,177.0,201.0,296.0,test_unknown,2.0
0 days 00:36:00.686000,11,0 days 00:01:39.908000,8,"","",0 days 00:00:27.251000,0 days 00:00:40.395000,0 days 00:00:32.262000,204.0,181.0,204.0,298.0,test_unknown,3.0
0 days 00:37:40.538000,11,0 days 00:01:39.852000,9,"","",0 days 00:00:27.313000,0 days 00:00:40.288000,0 days 00:00:32.251000,206.0,181.0,201.0,299.0,test_unknown,4.0
0 days 00:39:24.727000,11,0 days 00:01:44.189000,10,"",0 days 00:39:23.601000,0 days 00:00:27.270000,0 days 00:00:41.510000,0 days 00:00:35.409000,"",171.0,"",263.0,test_unknown,5.0
0 days 00:48:36.070000,11,"",11,0 days 00:46:52.003000,"","",0 days 00:00:42.202000,0 days 00:00:33.956000,191.0,177.0,195.0,294.0,test_unknown,6.0
0 days 00:50:19.289000,11,0 days 00:01:43.219000,12,"","",0 days 00:00:28.315000,0 days 00:00:41.457000,0 days 00:00:33.447000,205.0,176.0,195.0,294.0,test_unknown,7.0
0 days 00:52:02.655000,11,0 days 00:01:43.366000,13,"","",0 days 00:00:28.080000,0 days 00:00:41.642000,0 days 00:00:33.644000,193.0,179.0,194.0,296.0,test_unknown,8.0
0 days 00:53:45.522000,11,0 days 00:01:42.867000,14,"","",0 days 00:00:27.923000,0 days 00:00:41.630000,0 days 00:00:33.314000,200.0,177.0,196.0,294.0,test_unknown,9.0
0 days 00:55:28.654000,11,0 days 00:01:43.132000,15,"","",0 days 00:00:27.979000,0 days 00:00:41.499000,0 days 00:00:33.654000,203.0,179.0,196.0,283.0,test_unknown,10.0
0 days 00:57:11.964000,11,0 days 00:01:43.310000,16,"","",0 days 00:00:28.076000,0 days 00:00:41.606000,0 days 00:00:33.628000,202.0,178.0,195.0,282.0,test_unknown,11.0
0 days 00:58:54.790000,11,0 days 00:01:42.826000,17,"","",0 days 00:00:27.889000,0 days 00:00:41.379000,0 days 00:00:33.558000,204.0,178.0,194.0,288.0,test_unknown,12.0
0 days 01:00:38.901000,11,0 days 00:01:44.111000,18,"",0 days 01:00:37.796000,0 days 00:00:27.884000,0 days 00:00:42.081000,0 days 00:00:34.146000,206.0,173.0,"",283.0,test_unknown,13.0
0 days 01:08:52.991000,11,"",19,0 days 01:07:10.869000,"","",0 days 00:00:41.827000,0 days 00:00:33.462000,187.0,177.0,197.0,294.0,test_unknown,6.0
0 days 01:10:35.342000,11,0 days 00:01:42.351000,20,"","",0 days 00:00:27.854000,0 days 00:00:41.241000,0 days 00:00:33.256000,204.0,175.0,198.0,292.0,test_unknown,7.0
0 days 01:12:17.819000,11,0 days 00:01:42.477000,21,"","",0 days 00:00:27.780000,0 days 00:00:41.237000,0 days 00:00:33.460000,205.0,177.0,196.0,295.0,test_unknown,8.0
0 days 01:14:00.517000,11,0 days 00:01:42.698000,22,"","",0 days 00:00:27.769000,0 days 00:00:41.501000,0 days 00:00:33.428000,"",175.0,196.0,293.0,test_unknown,9.0
0 days 01:15:43.013000,11,0 days 00:01:42.496000,23,"","",0 days 00:00:27.761000,0 days 00:00:41.262000,0 days 00:00:33.473000,204.0,177.0,195.0,286.0,test_unknown,10.0
0 days 01:17:25.896000,11,0 days 00:01:42.883000,24,"","",0 days 00:00:27.910000,0 days 00:00:41.431000,0 days 00:00:33.542000,197.0,178.0,195.0,296.0,test_unknown,11.0
0 days 01:19:08.422000,11,0 days 00:01:42.526000,25,"","",0 days 00:00:27.855000,0 days 00:00:41.277000,0 days 00:00:33.394000,201.0,178.0,197.0,293.0,test_unknown,12.0
0 days 01:20:55.118000,11,0 days 00:01:46.696000,26,"",0 days 01:20:54.041000,0 days 00:00:27.903000,0 days 00:00:42.224000,0 days 00:00:36.569000,202.0,164.0,"",275.0,test_unknown,13.0
0 days 00:18:22.184000,10,"",1,0 days 00:16:23.380000,"","",0 days 00:00:45.909000,0 days 00:00:43.477000,180.0,156.0,199.0,267.0,test_unknown,1.0
0 days 00:20:03.026000,10,0 days 00:01:40.842000,2,"","",0 days 00:00:27.615000,0 days 00:00:40.505000,0 days 00:00:32.722000,211.0,181.0,198.0,292.0,test_unknown,2.0
0 days 00:21:43.531000,10,0 days 00:01:40.505000,3,"","",0 days 00:00:27.325000,0 days 00:00:40.552000,0 days 00:00:32.628000,"",178.0,200.0,294.0,test_unknown,3.0
0 days 00:23:24.573000,10,0 days 00:01:41.042000,4,"","",0 days 00:00:27.137000,0 days 00:00:41.084000,0 days 00:00:32.821000,212.0,180.0,198.0,293.0,test_unknown,4.0
0 days 00:25:16.986000,10,0 days 00:01:52.413000,5,"",0 days 00:25:15.973000,0 days 00:00:27.942000,0 days 00:00:42.846000,0 days 00:00:41.625000,197.0,147.0,"",279.0,test_unknown,5.0
0 days 00:33:25.211000,10,"",6,0 days 00:31:30.045000,"","",0 days 00:00:49.154000,0 days 00:00:36.358000,175.0,158.0,192.0,285.0,test_unknown,1.0
0 days 00:35:05.051000,10,0 days 00:01:39.840000,7,"","",0 days 00:00:27.268000,0 days 00:00:40.286000,0 days 00:00:32.286000,211.0,176.0,201.0,293.0,test_unknown,2.0
0 days 00:36:45.223000,10,0 days 00:01:40.172000,8,"","",0 days 00:00:27.098000,0 days 00:00:40.231000,0 days 00:00:32.843000,"",179.0,201.0,295.0,test_unknown,3.0
0 days 00:38:26.672000,10,0 days 00:01:41.449000,9,"","",0 days 00:00:27.306000,0 days 00:00:40.635000,0 days 00:00:33.508000,204.0,180.0,199.0,296.0,test_unknown,4.0
0 days 00:40:13.261000,10,0 days 00:01:46.589000,10,"",0 days 00:40:12.206000,0 days 00:00:28.142000,0 days 00:00:42.034000,0 days 00:00:36.413000,192.0,178.0,"",296.0,test_unknown,5.0
0 days 00:50:08.145000,10,"",11,0 days 00:48:17.587000,"","",0 days 00:00:46.984000,0 days 00:00:35.717000,193.0,147.0,196.0,275.0,test_unknown,1.0
0 days 00:51:51.370000,10,0 days 00:01:43.225000,12,"","",0 days 00:00:28.222000,0 days 00:00:41.374000,0 days 00:00:33.629000,198.0,173.0,194.0,292.0,test_unknown,2.0
0 days 00:53:34.869000,10,0 days 00:01:43.499000,13,"","",0 days 00:00:28.339000,0 days 00:00:41.593000,0 days 00:00:33.567000,"",173.0,195.0,292.0,test_unknown,3.0
0 days 00:55:18.884000,10,0 days 00:01:44.015000,14,"","",0 days 00:00:28.149000,0 days 00:00:41.892000,0 days 00:00:33.974000,"",174.0,193.0,292.0,test_unknown,4.0
0 days 00:57:03.172000,10,0 days 00:01:44.288000,15,"","",0 days 00:00:28.435000,0 days 00:00:41.984000,0 days 00:00:33.869000,193.0,170.0,193.0,293.0,test_unknown,5.0
0 days 00:58:47.762000,10,0 days 00:01:44.590000,16,"","",0 days 00:00:28.452000,0 days 00:00:41.948000,0 days 00:00:34.190000,195.0,173.0,194.0,293.0,test_unknown,6.0
0 days 01:00:32.117000,10,0 days 00:01:44.355000,17,"","",0 days 00:00:28.356000,0 days 00:00:42.027000,0 days 00:00:33.972000,197.0,171.0,194.0,293.0,test_unknown,7.0
0 days 01:02:19.600000,10,0 days 00:01:47.483000,18,"",0 days 01:02:18.509000,0 days 00:00:28.531000,0 days 00:00:42.154000,0 days 00:00:36.798000,"",173.0,"",294.0,test_unknown,8.0
0 days 01:07:48.093000,10,"",19,0 days 01:06:00.301000,"","",0 days 00:00:43.181000,0 days 00:00:35.725000,185.0,171.0,196.0,287.0,test_unknown,6.0
0 days 01:09:30.869000,10,0 days 00:01:42.776000,20,"","",0 days 00:00:28.181000,0 days 00:00:41.208000,0 days 00:00:33.387000,201.0,174.0,196.0,293.0,test_unknown,7.0
0 days 01:11:13.776000,10,0 days 00:01:42.907000,21,"","",0 days 00:00:28.044000,0 days 00:00:41.401000,0 days 00:00:33.462000,203.0,172.0,193.0,293.0,test_unknown,8.0
0 days 01:12:56.801000,10,0 days 00:01:43.025000,22,"","",0 days 00:00:28.066000,0 days 00:00:41.416000,0 days 00:00:33.543000,201.0,174.0,194.0,293.0,test_unknown,9.0
0 days 01:14:40.474000,10,0 days 00:01:43.673000,23,"","",0 days 00:00:28.260000,0 days 00:00:41.548000,0 days 00:00:33.865000,195.0,174.0,194.0,294.0,test_unknown,10.0
0 days 01:16:24.539000,10,0 days 00:01:44.065000,24,"","",0 days 00:00:28.392000,0 days 00:00:41.508000,0 days 00:00:34.165000,199.0,177.0,193.0,294.0,test_unknown,11.0
0 days 01:18:08.008000,10,0 days 00:01:43.469000,25,"","",0 days 00:00:28.126000,0 days 00:00:41.645000,0 days 00:00:33.698000,198.0,176.0,194.0,293.0,test_unknown,12.0
0 days 01:19:53.954000,10,0 days 00:01:45.946000,26,"",0 days 01:19:52.858000,0 days 00:00:28.402000,0 days 00:00:42.529000,0 days 00:00:35.015000,197.0,174.0,"",286.0,test_unknown,13.0
0 days 00:17:47.356000,6,"",1,0 days 00:15:42.938000,"","",0 days 00:00:48.945000,0 days 00:00:41.238000,147.0,161.0,195.0,264.0,test_unknown,1.0
0 days 00:19:35.412000,6,0 days 00:01:48.056000,2,"","",0 days 00:00:29.410000,0 days 00:00:42.889000,0 days 00:00:35.757000,194.0,173.0,198.0,298.0,test_unknown,2.0
0 days 00:21:20.107000,6,0 days 00:01:44.695000,3,"","",0 days 00:00:28.582000,0 days 00:00:42.206000,0 days 00:00:33.907000,192.0,180.0,203.0,289.0,test_unknown,3.0
0 days 00:23:03.697000,6,0 days 00:01:43.590000,4,"","",0 days 00:00:28.367000,0 days 00:00:41.725000,0 days 00:00:33.498000,202.0,182.0,201.0,290.0,test_unknown,4.0
0 days 00:25:05.068000,6,0 days 00:02:01.371000,5,"",0 days 00:25:04.015000,0 days 00:00:32.098000,0 days 00:00:48.581000,0 days 00:00:40.692000,173.0,168.0,"",277.0,test_unknown,5.0
0 days 00:35:24.681000,6,"",6,0 days 00:33:23.706000,"","",0 days 00:00:48.559000,0 days 00:00:37.561000,157.0,101.0,199.0,285.0,test_unknown,1.0
0 days 00:37:07.681000,6,0 days 00:01:43,7,"","",0 days 00:00:28.232000,0 days 00:00:41.194000,0 days 00:00:33.574000,198.0,180.0,203.0,297.0,test_unknown,2.0
0 days 00:38:49.998000,6,0 days 00:01:42.317000,8,"","",0 days 00:00:27.673000,0 days 00:00:40.983000,0 days 00:00:33.661000,205.0,183.0,200.0,291.0,test_unknown,3.0
0 days 00:40:32.527000,6,0 days 00:01:42.529000,9,"","",0 days 00:00:27.956000,0 days 00:00:41.078000,0 days 00:00:33.495000,199.0,181.0,201.0,292.0,test_unknown,4.0
0 days 00:42:43.443000,6,0 days 00:02:10.916000,10,"",0 days 00:42:42.265000,0 days 00:00:34.516000,0 days 00:00:54.120000,0 days 00:00:42.280000,149.0,165.0,"",154.0,test_unknown,5.0
0 days 00:53:01.547000,6,"",11,0 days 00:51:00.159000,"","",0 days 00:00:49.014000,0 days 00:00:41.634000,172.0,169.0,191.0,258.0,test_unknown,6.0
0 days 00:54:48.362000,6,0 days 00:01:46.815000,12,"","",0 days 00:00:29.086000,0 days 00:00:42.850000,0 days 00:00:34.879000,189.0,175.0,198.0,289.0,test_unknown,7.0
0 days 00:56:34.628000,6,0 days 00:01:46.266000,13,"","",0 days 00:00:28.544000,0 days 00:00:42.703000,0 days 00:00:35.019000,194.0,177.0,195.0,293.0,test_unknown,8.0
0 days 00:58:20,6,0 days 00:01:45.372000,14,"","",0 days 00:00:28.582000,0 days 00:00:42.191000,0 days 00:00:34.599000,196.0,177.0,197.0,295.0,test_unknown,9.0
0 days 01:00:04.991000,6,0 days 00:01:44.991000,15,"","",0 days 00:00:28.389000,0 days 00:00:41.956000,0 days 00:00:34.646000,195.0,177.0,193.0,295.0,test_unknown,10.0
0 days 01:01:50.106000,6,0 days 00:01:45.115000,16,"","",0 days 00:00:28.516000,0 days 00:00:42.043000,0 days 00:00:34.556000,199.0,178.0,198.0,295.0,test_unknown,11.0
0 days 01:03:35.672000,6,0 days 00:01:45.566000,17,"","",0 days 00:00:28.585000,0 days 00:00:42.266000,0 days 00:00:34.715000,196.0,179.0,195.0,296.0,test_unknown,12.0
0 days 01:05:39.493000,6,0 days 00:02:03.821000,18,"",0 days 01:05:38.389000,0 days 00:00:36.325000,0 days 00:00:47.521000,0 days 00:00:39.975000,147.0,144.0,"",285.0,test_unknown,13.0
0 days 01:12:20.775000,6,"",19,0 days 01:10:22.854000,"","",0 days 00:00:48.312000,0 days 00:00:38.268000,179.0,175.0,198.0,254.0,test_unknown,6.0
0 days 01:14:05.737000,6,0 days 00:01:44.962000,20,"","",0 days 00:00:28.563000,0 days 00:00:42.009000,0 days 00:00:34.390000,201.0,177.0,197.0,289.0,test_unknown,7.0
0 days 01:15:50.894000,6,0 days 00:01:45.157000,21,"","",0 days 00:00:28.440000,0 days 00:00:42.282000,0 days 00:00:34.435000,195.0,174.0,197.0,287.0,test_unknown,8.0
0 days 01:17:35.905000,6,0 days 00:01:45.011000,22,"","",0 days 00:00:28.321000,0 days 00:00:42.311000,0 days 00:00:34.379000,197.0,174.0,197.0,287.0,test_unknown,9.0
0 days 01:19:21.006000,6,0 days 00:01:45.101000,23,"","",0 days 00:00:28.365000,0 days 00:00:42.199000,0 days 00:00:34.537000,199.0,177.0,196.0,288.0,test_unknown,10.0
0 days 01:21:06.282000,6,0 days 00:01:45.276000,24,"","",0 days 00:00:28.501000,0 days 00:00:42.332000,0 days 00:00:34.443000,193.0,177.0,198.0,287.0,test_unknown,11.0
0 days 01:22:51.500000,6,0 days 00:01:45.218000,25,"","",0 days 00:00:28.500000,0 days 00:00:42.469000,0 days 00:00:34.249000,195.0,175.0,195.0,286.0,test_unknown,12.0
0 days 01:25:04.541000,6,0 days 00:02:13.041000,26,"",0 days 01:25:03.370000,0 days 00:00:36.401000,0 days 00:00:51.628000,0 days 00:00:45.012000,162.0,142.0,"",203.0,test_unknown,13.0
0 days 00:17:07.416000,5,"",1,0 days 00:15:08.520000,"","",0 days 00:00:48.283000,0 days 00:00:38.851000,158.0,173.0,198.0,272.0,test_unknown,1.0
0 days 00:18:54.182000,5,0 days 00:01:46.766000,2,"","",0 days 00:00:29.337000,0 days 00:00:43.027000,0 days 00:00:34.402000,197.0,178.0,196.0,285.0,test_unknown,2.0
0 days 00:20:38.522000,5,0 days 00:01:44.340000,3,"","",0 days 00:00:28.591000,0 days 00:00:41.896000,0 days 00:00:33.853000,202.0,177.0,200.0,274.0,test_unknown,3.0
0 days 00:22:21.125000,5,0 days 00:01:42.603000,4,"","",0 days 00:00:27.977000,0 days 00:00:41.236000,0 days 00:00:33.390000,209.0,179.0,200.0,279.0,test_unknown,4.0
0 days 00:24:11.028000,5,0 days 00:01:49.903000,5,"",0 days 00:24:10.009000,0 days 00:00:28.149000,0 days 00:00:44.210000,0 days 00:00:37.544000,205.0,148.0,"",201.0,test_unknown,5.0
0 days 00:30:59.135000,5,"",6,0 days 00:29:10.275000,"","",0 days 00:00:44.850000,0 days 00:00:35.203000,173.0,176.0,203.0,274.0,test_unknown,1.0
0 days 00:32:42.240000,5,0 days 00:01:43.105000,7,"","",0 days 00:00:28.235000,0 days 00:00:41.381000,0 days 00:00:33.489000,203.0,179.0,202.0,279.0,test_unknown,2.0
0 days 00:34:24.571000,5,0 days 00:01:42.331000,8,"","",0 days 00:00:28.004000,0 days 00:00:41.112000,0 days 00:00:33.215000,"",178.0,201.0,278.0,test_unknown,3.0
0 days 00:36:06.428000,5,0 days 00:01:41.857000,9,"","",0 days 00:00:27.753000,0 days 00:00:41.016000,0 days 00:00:33.088000,"",181.0,202.0,282.0,test_unknown,4.0
0 days 00:37:56.611000,5,0 days 00:01:50.183000,10,"",0 days 00:37:55.581000,0 days 00:00:27.834000,0 days 00:00:43.494000,0 days 00:00:38.855000,202.0,145.0,"",220.0,test_unknown,5.0
0 days 00:45:30.081000,5,"",11,0 days 00:43:43.290000,"","",0 days 00:00:43.996000,0 days 00:00:35.429000,182.0,174.0,197.0,271.0,test_unknown,6.0
0 days 00:47:14.383000,5,0 days 00:01:44.302000,12,"","",0 days 00:00:28.502000,0 days 00:00:41.862000,0 days 00:00:33.938000,200.0,177.0,197.0,281.0,test_unknown,7.0
0 days 00:48:59.022000,5,0 days 00:01:44.639000,13,"","",0 days 00:00:28.463000,0 days 00:00:42.057000,0 days 00:00:34.119000,199.0,174.0,195.0,278.0,test_unknown,8.0
0 days 00:50:43.598000,5,0 days 00:01:44.576000,14,"","",0 days 00:00:28.650000,0 days 00:00:41.855000,0 days 00:00:34.071000,195.0,175.0,197.0,278.0,test_unknown,9.0
0 days 00:52:27.944000,5,0 days 00:01:44.346000,15,"","",0 days 00:00:28.415000,0 days 00:00:42.011000,0 days 00:00:33.920000,199.0,177.0,196.0,278.0,test_unknown,10.0
0 days 00:54:12.419000,5,0 days 00:01:44.475000,16,"","",0 days 00:00:28.465000,0 days 00:00:42.086000,0 days 00:00:33.924000,197.0,175.0,196.0,274.0,test_unknown,11.0
0 days 00:55:56.833000,5,0 days 00:01:44.414000,17,"","",0 days 00:00:28.537000,0 days 00:00:42.027000,0 days 00:00:33.850000,199.0,174.0,196.0,276.0,test_unknown,12.0
0 days 00:57:46.627000,5,0 days 00:01:49.794000,18,"",0 days 00:57:45.521000,0 days 00:00:28.455000,0 days 00:00:44.763000,0 days 00:00:36.576000,203.0,81.0,"",248.0,test_unknown,13.0
0 days 01:05:45.138000,5,"",19,0 days 01:03:52.351000,"","",0 days 00:00:46.299000,0 days 00:00:39.160000,188.0,173.0,200.0,273.0,test_unknown,6.0
0 days 01:07:28.787000,5,0 days 00:01:43.649000,20,"","",0 days 00:00:28.458000,0 days 00:00:41.498000,0 days 00:00:33.693000,206.0,175.0,197.0,281.0,test_unknown,7.0
0 days 01:09:12.301000,5,0 days 00:01:43.514000,21,"","",0 days 00:00:28.303000,0 days 00:00:41.546000,0 days 00:00:33.665000,203.0,176.0,197.0,281.0,test_unknown,8.0
0 days 01:10:55.820000,5,0 days 00:01:43.519000,22,"","",0 days 00:00:28.127000,0 days 00:00:41.651000,0 days 00:00:33.741000,"",174.0,197.0,282.0,test_unknown,9.0
0 days 01:12:39.844000,5,0 days 00:01:44.024000,23,"","",0 days 00:00:28.441000,0 days 00:00:41.725000,0 days 00:00:33.858000,199.0,176.0,196.0,280.0,test_unknown,10.0
0 days 01:14:23.864000,5,0 days 00:01:44.020000,24,"","",0 days 00:00:28.351000,0 days 00:00:41.710000,0 days 00:00:33.959000,200.0,174.0,195.0,277.0,test_unknown,11.0
0 days 01:16:07.635000,5,0 days 00:01:43.771000,25,"","",0 days 00:00:28.278000,0 days 00:00:41.634000,0 days 00:00:33.859000,202.0,177.0,197.0,279.0,test_unknown,12.0
0 days 01:17:57.411000,5,0 days 00:01:49.776000,26,"",0 days 01:17:56.333000,0 days 00:00:28.315000,0 days 00:00:42.834000,0 days 00:00:38.627000,200.0,167.0,"",266.0,test_unknown,13.0
0 days 00:18:49.385000,4,"",1,0 days 00:16:52.126000,"","",0 days 00:00:44.806000,0 days 00:00:40.695000,173.0,176.0,198.0,275.0,test_unknown,1.0
0 days 00:20:31.019000,4,0 days 00:01:41.634000,2,"","",0 days 00:00:27.668000,0 days 00:00:41.103000,0 days 00:00:32.863000,214.0,183.0,202.0,283.0,test_unknown,2.0
0 days 00:22:12.041000,4,0 days 00:01:41.022000,3,"","",0 days 00:00:27.394000,0 days 00:00:41.023000,0 days 00:00:32.605000,219.0,185.0,202.0,278.0,test_unknown,3.0
0 days 00:23:53.475000,4,0 days 00:01:41.434000,4,"","",0 days 00:00:27.346000,0 days 00:00:41.315000,0 days 00:00:32.773000,220.0,182.0,200.0,280.0,test_unknown,4.0
0 days 00:25:44.822000,4,0 days 00:01:51.347000,5,"",0 days 00:25:43.757000,0 days 00:00:29.919000,0 days 00:00:44.478000,0 days 00:00:36.950000,172.0,161.0,"",271.0,test_unknown,5.0
0 days 00:32:34.265000,4,"",6,0 days 00:30:45.598000,"","",0 days 00:00:43.311000,0 days 00:00:33.766000,183.0,180.0,206.0,275.0,test_unknown,1.0
0 days 00:34:13.812000,4,0 days 00:01:39.547000,7,"","",0 days 00:00:27.143000,0 days 00:00:40.355000,0 days 00:00:32.049000,220.0,186.0,203.0,279.0,test_unknown,2.0
0 days 00:35:53.749000,4,0 days 00:01:39.937000,8,"","",0 days 00:00:27.266000,0 days 00:00:40.531000,0 days 00:00:32.140000,219.0,184.0,204.0,282.0,test_unknown,3.0
0 days 00:37:33.589000,4,0 days 00:01:39.840000,9,"","",0 days 00:00:27.125000,0 days 00:00:40.501000,0 days 00:00:32.214000,221.0,185.0,201.0,282.0,test_unknown,4.0
0 days 00:39:22.295000,4,0 days 00:01:48.706000,10,"",0 days 00:39:21.253000,0 days 00:00:31.293000,0 days 00:00:42.777000,0 days 00:00:34.636000,171.0,184.0,"",280.0,test_unknown,5.0
0 days 00:47:57.007000,4,"",11,0 days 00:46:12.385000,"","",0 days 00:00:43.286000,0 days 00:00:34.313000,181.0,179.0,200.0,276.0,test_unknown,6.0
0 days 00:49:40.063000,4,0 days 00:01:43.056000,12,"","",0 days 00:00:28.091000,0 days 00:00:41.709000,0 days 00:00:33.256000,208.0,180.0,196.0,280.0,test_unknown,7.0
0 days 00:51:23.431000,4,0 days 00:01:43.368000,13,"","",0 days 00:00:28.059000,0 days 00:00:41.682000,0 days 00:00:33.627000,209.0,180.0,197.0,279.0,test_unknown,8.0
0 days 00:53:07.926000,4,0 days 00:01:44.495000,14,"","",0 days 00:00:28.548000,0 days 00:00:42.315000,0 days 00:00:33.632000,180.0,180.0,196.0,280.0,test_unknown,9.0
0 days 00:54:54.143000,4,0 days 00:01:46.217000,15,"","",0 days 00:00:28.200000,0 days 00:00:42.124000,0 days 00:00:35.893000,206.0,177.0,197.0,279.0,test_unknown,10.0
0 days 00:56:38.376000,4,0 days 00:01:44.233000,16,"","",0 days 00:00:28.215000,0 days 00:00:42.241000,0 days 00:00:33.777000,204.0,180.0,196.0,279.0,test_unknown,11.0
0 days 00:58:22.729000,4,0 days 00:01:44.353000,17,"","",0 days 00:00:28.233000,0 days 00:00:42.070000,0 days 00:00:34.050000,207.0,179.0,195.0,280.0,test_unknown,12.0
0 days 01:00:15.140000,4,0 days 00:01:52.411000,18,"",0 days 01:00:14.028000,0 days 00:00:32.445000,0 days 00:00:43.762000,0 days 00:00:36.204000,183.0,161.0,"",279.0,test_unknown,13.0
0 days 01:07:35.713000,4,"",19,0 days 01:05:47.913000,"","",0 days 00:00:43.890000,0 days 00:00:35.077000,173.0,173.0,199.0,275.0,test_unknown,6.0
0 days 01:09:18.101000,4,0 days 00:01:42.388000,20,"","",0 days 00:00:27.798000,0 days 00:00:41.363000,0 days 00:00:33.227000,208.0,177.0,200.0,280.0,test_unknown,7.0
0 days 01:11:00.728000,4,0 days 00:01:42.627000,21,"","",0 days 00:00:27.840000,0 days 00:00:41.481000,0 days 00:00:33.306000,"",180.0,197.0,282.0,test_unknown,8.0
0 days 01:12:43.500000,4,0 days 00:01:42.772000,22,"","",0 days 00:00:27.883000,0 days 00:00:41.516000,0 days 00:00:33.373000,207.0,181.0,197.0,282.0,test_unknown,9.0
0 days 01:14:26.733000,4,0 days 00:01:43.233000,23,"","",0 days 00:00:27.916000,0 days 00:00:41.810000,0 days 00:00:33.507000,208.0,180.0,197.0,282.0,test_unknown,10.0
0 days 01:16:10.171000,4,0 days 00:01:43.438000,24,"","",0 days 00:00:28.027000,0 days 00:00:41.820000,0 days 00:00:33.591000,207.0,179.0,195.0,282.0,test_unknown,11.0
0 days 01:17:54.751000,4,0 days 00:01:44.580000,25,"","",0 days 00:00:28.024000,0 days 00:00:42.608000,0 days 00:00:33.948000,208.0,182.0,195.0,282.0,test_unknown,12.0
0 days 01:19:45.286000,4,0 days 00:01:50.535000,26,"",0 days 01:19:44.172000,0 days 00:00:29.835000,0 days 00:00:44.735000,0 days 00:00:35.965000,179.0,170.0,"",246.0,test_unknown,13.0
0 days 00:17:03.671000,3,"",1,0 days 00:15:07.771000,"","",0 days 00:00:48.427000,0 days 00:00:37.550000,170.0,148.0,207.0,295.0,medium,1.0
0 days 00:18:44.145000,3,0 days 00:01:40.474000,2,"","",0 days 00:00:26.875000,0 days 00:00:40.515000,0 days 00:00:33.084000,221.0,183.0,203.0,312.0,medium,2.0
0 days 00:21:12.668000,3,0 days 00:02:28.523000,3,"","",0 days 00:00:35.933000,0 days 00:01:04.096000,0 days 00:00:48.494000,169.0,131.0,207.0,117.0,medium,3.0
0 days 00:22:52.631000,3,0 days 00:01:39.963000,4,"","",0 days 00:00:26.862000,0 days 00:00:40.663000,0 days 00:00:32.438000,216.0,186.0,202.0,311.0,medium,4.0
0 days 00:25:18.314000,3,0 days 00:02:25.683000,5,"","",0 days 00:00:36.093000,0 days 00:01:03.491000,0 days 00:00:46.099000,164.0,144.0,204.0,153.0,medium,5.0
0 days 00:26:57.474000,3,0 days 00:01:39.160000,6,"","",0 days 00:00:26.749000,0 days 00:00:40.148000,0 days 00:00:32.263000,212.0,185.0,205.0,312.0,medium,6.0
0 days 00:28:39.137000,3,0 days 00:01:41.663000,7,"","",0 days 00:00:27.136000,0 days 00:00:41.441000,0 days 00:00:33.086000,218.0,180.0,203.0,283.0,medium,7.0
0 days 00:30:20.062000,3,0 days 00:01:40.925000,8,"","",0 days 00:00:27.244000,0 days 00:00:40.926000,0 days 00:00:32.755000,217.0,186.0,202.0,290.0,medium,8.0
0 days 00:32:01.019000,3,0 days 00:01:40.957000,9,"","",0 days 00:00:27.239000,0 days 00:00:41.060000,0 days 00:00:32.658000,210.0,184.0,202.0,291.0,medium,9.0
0 days 00:33:49.374000,3,0 days 00:01:48.355000,10,"",0 days 00:33:48.362000,0 days 00:00:27.215000,0 days 00:00:44.370000,0 days 00:00:36.770000,211.0,157.0,"",264.0,medium,10.0
0 days 00:36:29.165000,3,"",11,0 days 00:34:14.337000,"",0 days 00:01:06.554000,0 days 00:00:52.454000,0 days 00:00:40.790000,171.0,144.0,208.0,238.0,soft,1.0
0 days 00:38:06.792000,3,0 days 00:01:37.627000,12,"","",0 days 00:00:26.627000,0 days 00:00:39.215000,0 days 00:00:31.785000,220.0,188.0,205.0,313.0,soft,2.0
0 days 00:40:14.389000,3,0 days 00:02:07.597000,13,"","",0 days 00:00:35.765000,0 days 00:00:51.427000,0 days 00:00:40.405000,164.0,149.0,209.0,244.0,soft,3.0
0 days 00:41:57.812000,3,0 days 00:01:43.423000,14,"",0 days 00:41:56.767000,0 days 00:00:26.352000,0 days 00:00:41.410000,0 days 00:00:35.661000,221.0,169.0,"",288.0,soft,4.0
0 days 00:52:10.339000,3,"",15,0 days 00:50:07.104000,"","",0 days 00:00:50.278000,0 days 00:00:45.341000,191.0,164.0,198.0,274.0,test_unknown,1.0
0 days 00:53:50.535000,3,0 days 00:01:40.196000,16,"","",0 days 00:00:27.419000,0 days 00:00:40.542000,0 days 00:00:32.235000,213.0,185.0,203.0,286.0,test_unknown,2.0
0 days 00:55:31.238000,3,0 days 00:01:40.703000,17,"","",0 days 00:00:27.292000,0 days 00:00:40.755000,0 days 00:00:32.656000,219.0,178.0,202.0,282.0,test_unknown,3.0
0 days 00:57:12.319000,3,0 days 00:01:41.081000,18,"","",0 days 00:00:27.208000,0 days 00:00:40.830000,0 days 00:00:33.043000,215.0,179.0,202.0,287.0,test_unknown,4.0
0 days 00:59:05.715000,3,0 days 00:01:53.396000,19,"",0 days 00:59:04.610000,0 days 00:00:30.244000,0 days 00:00:44.081000,0 days 00:00:39.071000,184.0,164.0,"",275.0,test_unknown,5.0
0 days 01:03:21.563000,3,"",20,0 days 01:01:20.198000,"","",0 days 00:00:49.070000,0 days 00:00:37.123000,180.0,151.0,206.0,274.0,test_unknown,1.0
0 days 01:05:00.803000,3,0 days 00:01:39.240000,21,"","",0 days 00:00:26.995000,0 days 00:00:40.276000,0 days 00:00:31.969000,220.0,183.0,204.0,285.0,test_unknown,2.0
0 days 01:06:40.604000,3,0 days 00:01:39.801000,22,"","",0 days 00:00:26.983000,0 days 00:00:40.518000,0 days 00:00:32.300000,219.0,181.0,203.0,289.0,test_unknown,3.0
0 days 01:08:20.906000,3,0 days 00:01:40.302000,23,"","",0 days 00:00:27.113000,0 days 00:00:40.496000,0 days 00:00:32.693000,218.0,181.0,203.0,287.0,test_unknown,4.0
0 days 01:10:09.398000,3,0 days 00:01:48.492000,24,"",0 days 01:10:08.321000,0 days 00:00:29.053000,0 days 00:00:43.744000,0 days 00:00:35.695000,189.0,158.0,"",269.0,test_unknown,5.0
0 days 01:16:36.155000,3,"",25,0 days 01:14:52.946000,"","",0 days 00:00:42.094000,0 days 00:00:34.237000,200.0,180.0,199.0,288.0,test_unknown,6.0
0 days 01:18:19.436000,3,0 days 00:01:43.281000,26,"","",0 days 00:00:28.037000,0 days 00:00:41.694000,0 days 00:00:33.550000,204.0,178.0,198.0,284.0,test_unknown,7.0
0 days 01:20:02.983000,3,0 days 00:01:43.547000,27,"","",0 days 00:00:28.252000,0 days 00:00:41.830000,0 days 00:00:33.465000,199.0,177.0,197.0,284.0,test_unknown,8.0
0 days 01:21:46.262000,3,0 days 00:01:43.279000,28,"","",0 days 00:00:28.070000,0 days 00:00:41.786000,0 days 00:00:33.423000,202.0,175.0,198.0,283.0,test_unknown,9.0
0 days 01:23:29.562000,3,0 days 00:01:43.300000,29,"","",0 days 00:00:27.805000,0 days 00:00:41.667000,0 days 00:00:33.828000,206.0,178.0,197.0,285.0,test_unknown,10.0
0 days 01:25:12.623000,3,0 days 00:01:43.061000,30,"","",0 days 00:00:27.860000,0 days 00:00:41.606000,0 days 00:00:33.595000,"",177.0,196.0,285.0,test_unknown,11.0
0 days 01:26:55.988000,3,0 days 00:01:43.365000,31,"","",0 days 00:00:27.936000,0 days 00:00:41.658000,0 days 00:00:33.771000,197.0,178.0,196.0,287.0,test_unknown,12.0
0 days 01:28:41.589000,3,0 days 00:01:45.601000,32,"",0 days 01:28:40.489000,0 days 00:00:28.084000,0 days 00:00:41.899000,0 days 00:00:35.618000,201.0,167.0,"",286.0,test_unknown,13.0
0 days 01:33:40.652000,3,"",33,0 days 01:31:56.975000,"","",0 days 00:00:42.830000,0 days 00:00:34.365000,198.0,169.0,200.0,288.0,test_unknown,6.0
0 days 01:35:22.968000,3,0 days 00:01:42.316000,34,"","",0 days 00:00:27.790000,0 days 00:00:41.264000,0 days 00:00:33.262000,209.0,175.0,198.0,284.0,test_unknown,7.0
0 days 01:37:04.993000,3,0 days 00:01:42.025000,35,"","",0 days 00:00:27.712000,0 days 00:00:41.110000,0 days 00:00:33.203000,207.0,178.0,198.0,287.0,test_unknown,8.0
0 days 01:38:47.663000,3,0 days 00:01:42.670000,36,"","",0 days 00:00:27.875000,0 days 00:00:41.464000,0 days 00:00:33.331000,208.0,177.0,197.0,286.0,test_unknown,9.0
0 days 01:40:30.338000,3,0 days 00:01:42.675000,37,"","","",0 days 00:00:41.409000,0 days 00:00:33.391000,"",178.0,197.0,286.0,test_unknown,10.0
0 days 01:42:13.147000,3,0 days 00:01:42.809000,38,"","",0 days 00:00:27.870000,0 days 00:00:41.481000,0 days 00:00:33.458000,206.0,177.0,196.0,287.0,test_unknown,11.0
0 days 01:43:56.063000,3,0 days 00:01:42.916000,39,"","",0 days 00:00:27.831000,0 days 00:00:41.487000,0 days 00:00:33.598000,"",180.0,195.0,287.0,test_unknown,12.0
0 days 01:45:45.065000,3,0 days 00:01:49.002000,40,"",0 days 01:45:43.942000,0 days 00:00:28.116000,0 days 00:00:43.637000,0 days 00:00:37.249000,199.0,143.0,"",260.0,test_unknown,13.0
0 days 00:20:17.551000,63,"",1,0 days 00:18:27.871000,"","",0 days 00:00:43.255000,0 days 00:00:37.790000,189.0,180.0,204.0,287.0,test_unknown,1.0
0 days 00:21:59.013000,63,0 days 00:01:41.462000,2,"","",0 days 00:00:27.660000,0 days 00:00:40.992000,0 days 00:00:32.810000,213.0,182.0,201.0,278.0,test_unknown,2.0
0 days 00:23:39.587000,63,0 days 00:01:40.574000,3,"","",0 days 00:00:27.456000,0 days 00:00:40.677000,0 days 00:00:32.441000,210.0,185.0,202.0,286.0,test_unknown,3.0
0 days 00:25:20.149000,63,0 days 00:01:40.562000,4,"","",0 days 00:00:27.244000,0 days 00:00:40.665000,0 days 00:00:32.653000,218.0,184.0,202.0,285.0,test_unknown,4.0
0 days 00:27:12.153000,63,0 days 00:01:52.004000,5,"",0 days 00:27:11.082000,0 days 00:00:31.641000,0 days 00:00:45.382000,0 days 00:00:34.981000,174.0,169.0,"",276.0,test_unknown,5.0
0 days 00:36:53.188000,63,"",6,0 days 00:35:03.012000,"","",0 days 00:00:44.129000,0 days 00:00:33.618000,182.0,184.0,202.0,284.0,test_unknown,1.0
0 days 00:38:34.782000,63,0 days 00:01:41.594000,7,"","",0 days 00:00:27.540000,0 days 00:00:41.213000,0 days 00:00:32.841000,211.0,180.0,203.0,281.0,test_unknown,2.0
0 days 00:40:18.335000,63,0 days 00:01:43.553000,8,"","",0 days 00:00:27.335000,0 days 00:00:40.983000,0 days 00:00:35.235000,216.0,181.0,203.0,288.0,test_unknown,3.0
0 days 00:41:59.215000,63,0 days 00:01:40.880000,9,"","",0 days 00:00:27.256000,0 days 00:00:40.909000,0 days 00:00:32.715000,215.0,183.0,202.0,286.0,test_unknown,4.0
0 days 00:43:46.414000,63,0 days 00:01:47.199000,10,"",0 days 00:43:45.334000,0 days 00:00:27.561000,0 days 00:00:43.714000,0 days 00:00:35.924000,207.0,160.0,"",276.0,test_unknown,5.0
0 days 00:54:57.611000,63,"",11,0 days 00:53:15.352000,"","",0 days 00:00:42.249000,0 days 00:00:33.925000,198.0,180.0,197.0,285.0,test_unknown,6.0
0 days 00:56:41.299000,63,0 days 00:01:43.688000,12,"","",0 days 00:00:28.097000,0 days 00:00:41.902000,0 days 00:00:33.689000,202.0,180.0,196.0,280.0,test_unknown,7.0
0 days 00:58:24.436000,63,0 days 00:01:43.137000,13,"","",0 days 00:00:27.982000,0 days 00:00:41.541000,0 days 00:00:33.614000,"",179.0,197.0,284.0,test_unknown,8.0
0 days 01:00:07.376000,63,0 days 00:01:42.940000,14,"","",0 days 00:00:28.061000,0 days 00:00:41.346000,0 days 00:00:33.533000,204.0,181.0,196.0,287.0,test_unknown,9.0
0 days 01:01:50.726000,63,0 days 00:01:43.350000,15,"","",0 days 00:00:28.070000,0 days 00:00:41.558000,0 days 00:00:33.722000,203.0,180.0,196.0,289.0,test_unknown,10.0
0 days 01:03:40.006000,63,0 days 00:01:49.280000,16,"","",0 days 00:00:28.301000,0 days 00:00:42.501000,0 days 00:00:38.478000,200.0,154.0,196.0,291.0,test_unknown,11.0
0 days 01:05:29.107000,63,0 days 00:01:49.101000,17,"","",0 days 00:00:28.112000,0 days 00:00:42.694000,0 days 00:00:38.295000,199.0,178.0,197.0,291.0,test_unknown,12.0
0 days 01:07:11.578000,63,0 days 00:01:42.471000,18,"",0 days 01:07:10.458000,0 days 00:00:27.707000,0 days 00:00:41.316000,0 days 00:00:33.448000,205.0,181.0,"",285.0,test_unknown,13.0
0 days 01:19:30.978000,63,"",19,0 days 01:17:48.743000,"","",0 days 00:00:42.054000,0 days 00:00:33.682000,203.0,178.0,197.0,276.0,test_unknown,6.0
0 days 01:21:13.962000,63,0 days 00:01:42.984000,20,"","",0 days 00:00:28.105000,0 days 00:00:41.562000,0 days 00:00:33.317000,208.0,178.0,198.0,279.0,test_unknown,7.0
0 days 01:22:56.456000,63,0 days 00:01:42.494000,21,"","",0 days 00:00:27.912000,0 days 00:00:41.455000,0 days 00:00:33.127000,203.0,181.0,198.0,283.0,test_unknown,8.0
0 days 01:24:39.223000,63,0 days 00:01:42.767000,22,"","",0 days 00:00:27.873000,0 days 00:00:41.433000,0 days 00:00:33.461000,208.0,180.0,196.0,282.0,test_unknown,9.0
0 days 01:26:21.655000,63,0 days 00:01:42.432000,23,"","",0 days 00:00:27.868000,0 days 00:00:41.347000,0 days 00:00:33.217000,205.0,179.0,197.0,286.0,test_unknown,10.0
0 days 01:28:04.136000,63,0 days 00:01:42.481000,24,"","",0 days 00:00:27.802000,0 days 00:00:41.369000,0 days 00:00:33.310000,"",180.0,197.0,285.0,test_unknown,11.0
0 days 01:29:46.486000,63,0 days 00:01:42.350000,25,"","",0 days 00:00:27.798000,0 days 00:00:41.371000,0 days 00:00:33.181000,203.0,181.0,196.0,283.0,test_unknown,12.0
0 days 01:31:49.676000,63,0 days 00:02:03.190000,26,"",0 days 01:31:48.568000,0 days 00:00:35.217000,0 days 00:00:47.127000,0 days 00:00:40.846000,180.0,126.0,"",184.0,test_unknown,13.0
0 days 00:16:52.693000,77,"",1,0 days 00:15:02.737000,"","",0 days 00:00:44.528000,0 days 00:00:36.509000,188.0,149.0,202.0,287.0,medium,1.0
0 days 00:18:33.348000,77,0 days 00:01:40.655000,2,"","",0 days 00:00:27.447000,0 days 00:00:40.226000,0 days 00:00:32.982000,214.0,185.0,203.0,316.0,medium,2.0
0 days 00:20:52.204000,77,0 days 00:02:18.856000,3,"","",0 days 00:00:36.198000,0 days 00:00:54.053000,0 days 00:00:48.605000,151.0,69.0,201.0,278.0,medium,3.0
0 days 00:22:31.841000,77,0 days 00:01:39.637000,4,"","",0 days 00:00:26.983000,0 days 00:00:40.031000,0 days 00:00:32.623000,221.0,185.0,203.0,315.0,medium,4.0
0 days 00:24:45.798000,77,0 days 00:02:13.957000,5,"","",0 days 00:00:37.386000,0 days 00:00:55.192000,0 days 00:00:41.379000,159.0,136.0,205.0,245.0,medium,5.0
0 days 00:26:24.797000,77,0 days 00:01:38.999000,6,"","",0 days 00:00:26.678000,0 days 00:00:40.027000,0 days 00:00:32.294000,220.0,188.0,204.0,316.0,medium,6.0
0 days 00:28:12.244000,77,0 days 00:01:47.447000,7,"",0 days 00:28:11.212000,0 days 00:00:29.798000,0 days 00:00:42.452000,0 days 00:00:35.197000,206.0,175.0,"",290.0,medium,7.0
0 days 00:36:36.615000,77,"",8,0 days 00:34:39.810000,"","",0 days 00:00:44.934000,0 days 00:00:39.787000,159.0,168.0,208.0,293.0,soft,1.0
0 days 00:38:14.271000,77,0 days 00:01:37.656000,9,"","",0 days 00:00:26.344000,0 days 00:00:39.300000,0 days 00:00:32.012000,225.0,190.0,207.0,318.0,soft,2.0
0 days 00:40:27.142000,77,0 days 00:02:12.871000,10,"","",0 days 00:00:32.588000,0 days 00:00:57.984000,0 days 00:00:42.299000,206.0,140.0,148.0,150.0,soft,3.0
0 days 00:42:37.920000,77,0 days 00:02:10.778000,11,"","",0 days 00:00:35.558000,0 days 00:00:55.756000,0 days 00:00:39.464000,146.0,128.0,210.0,263.0,soft,4.0
0 days 00:44:15.445000,77,0 days 00:01:37.525000,12,"","",0 days 00:00:26.565000,0 days 00:00:39.143000,0 days 00:00:31.817000,214.0,191.0,206.0,316.0,soft,5.0
0 days 00:46:03.699000,77,0 days 00:01:48.254000,13,"",0 days 00:46:02.616000,0 days 00:00:30.482000,0 days 00:00:43.501000,0 days 00:00:34.271000,198.0,175.0,"",288.0,soft,6.0
0 days 00:57:20.843000,77,"",14,0 days 00:55:34.682000,"","",0 days 00:00:43.830000,0 days 00:00:33.861000,196.0,176.0,205.0,272.0,test_unknown,1.0
0 days 00:59:01.454000,77,0 days 00:01:40.611000,15,"","",0 days 00:00:27.363000,0 days 00:00:40.340000,0 days 00:00:32.908000,217.0,186.0,204.0,286.0,test_unknown,2.0
0 days 01:00:42.036000,77,0 days 00:01:40.582000,16,"","",0 days 00:00:27.294000,0 days 00:00:40.585000,0 days 00:00:32.703000,"",185.0,203.0,286.0,test_unknown,3.0
0 days 01:02:22.469000,77,0 days 00:01:40.433000,17,"","",0 days 00:00:27.230000,0 days 00:00:40.393000,0 days 00:00:32.810000,215.0,186.0,203.0,287.0,test_unknown,4.0
0 days 01:04:02.853000,77,0 days 00:01:40.384000,18,"",0 days 01:04:01.764000,0 days 00:00:27.313000,0 days 00:00:40.495000,0 days 00:00:32.576000,"",187.0,"",285.0,test_unknown,5.0
0 days 01:08:31.500000,77,"",19,0 days 01:06:44.425000,"","",0 days 00:00:43.992000,0 days 00:00:35.279000,193.0,164.0,206.0,273.0,test_unknown,1.0
0 days 01:10:11.342000,77,0 days 00:01:39.842000,20,"","",0 days 00:00:27.132000,0 days 00:00:40.194000,0 days 00:00:32.516000,220.0,187.0,203.0,287.0,test_unknown,2.0
0 days 01:11:51.550000,77,0 days 00:01:40.208000,21,"","",0 days 00:00:27.105000,0 days 00:00:40.471000,0 days 00:00:32.632000,218.0,185.0,202.0,286.0,test_unknown,3.0
0 days 01:13:32.089000,77,0 days 00:01:40.539000,22,"","",0 days 00:00:27.149000,0 days 00:00:40.597000,0 days 00:00:32.793000,217.0,185.0,202.0,287.0,test_unknown,4.0
0 days 01:15:13.824000,77,0 days 00:01:41.735000,23,"",0 days 01:15:12.726000,0 days 00:00:27.301000,0 days 00:00:40.824000,0 days 00:00:33.610000,212.0,186.0,"",288.0,test_unknown,5.0
0 days 01:21:55.112000,77,"",24,0 days 01:19:59.661000,"","",0 days 00:00:47.409000,0 days 00:00:39.185000,197.0,170.0,200.0,271.0,test_unknown,6.0
0 days 01:23:37.931000,77,0 days 00:01:42.819000,25,"","",0 days 00:00:27.949000,0 days 00:00:41.676000,0 days 00:00:33.194000,209.0,182.0,198.0,286.0,test_unknown,7.0
0 days 01:25:20.858000,77,0 days 00:01:42.927000,26,"","",0 days 00:00:27.907000,0 days 00:00:41.547000,0 days 00:00:33.473000,207.0,184.0,198.0,285.0,test_unknown,8.0
0 days 01:27:03.727000,77,0 days 00:01:42.869000,27,"","",0 days 00:00:27.938000,0 days 00:00:41.431000,0 days 00:00:33.500000,"",182.0,197.0,285.0,test_unknown,9.0
0 days 01:28:46.712000,77,0 days 00:01:42.985000,28,"","",0 days 00:00:27.830000,0 days 00:00:41.531000,0 days 00:00:33.624000,206.0,182.0,198.0,285.0,test_unknown,10.0
0 days 01:30:29.943000,77,0 days 00:01:43.231000,29,"","",0 days 00:00:28.026000,0 days 00:00:41.554000,0 days 00:00:33.651000,207.0,182.0,199.0,286.0,test_unknown,11.0
0 days 01:32:13.474000,77,0 days 00:01:43.531000,30,"","",0 days 00:00:28.115000,0 days 00:00:41.852000,0 days 00:00:33.564000,205.0,181.0,198.0,286.0,test_unknown,12.0
0 days 01:33:57.564000,77,0 days 00:01:44.090000,31,"",0 days 01:33:56.443000,0 days 00:00:27.967000,0 days 00:00:41.953000,0 days 00:00:34.170000,206.0,182.0,"",286.0,test_unknown,13.0
0 days 01:38:20.462000,77,"",32,0 days 01:36:31.356000,"","",0 days 00:00:44.767000,0 days 00:00:35.773000,182.0,170.0,199.0,272.0,test_unknown,6.0
0 days 01:40:03.105000,77,0 days 00:01:42.643000,33,"","",0 days 00:00:27.872000,0 days 00:00:41.277000,0 days 00:00:33.494000,213.0,183.0,196.0,288.0,test_unknown,7.0
0 days 01:41:46.166000,77,0 days 00:01:43.061000,34,"","",0 days 00:00:27.919000,0 days 00:00:41.608000,0 days 00:00:33.534000,206.0,183.0,197.0,285.0,test_unknown,8.0
0 days 01:43:29.179000,77,0 days 00:01:43.013000,35,"","",0 days 00:00:28.057000,0 days 00:00:41.621000,0 days 00:00:33.335000,208.0,183.0,196.0,284.0,test_unknown,9.0
0 days 01:45:12.630000,77,0 days 00:01:43.451000,36,"","",0 days 00:00:28.149000,0 days 00:00:41.687000,0 days 00:00:33.615000,205.0,183.0,197.0,285.0,test_unknown,10.0
0 days 01:47:04.721000,77,0 days 00:01:52.091000,37,"",0 days 01:47:03.612000,0 days 00:00:28.361000,0 days 00:00:41.937000,0 days 00:00:41.793000,203.0,179.0,"",285.0,test_unknown,11.0
