2022-09-09 14:45:08	RISK OF RAIN FOR F1 SECOND PRACTICE SESSION IS 0%
2022-09-09 14:46:12	PINK HEAD PADDING MATERIAL MUST BE USED
2022-09-09 15:00:00	GREEN LIGHT - PIT EXIT OPEN
2022-09-09 15:28:06	YELLOW IN TRACK SECTOR 8
2022-09-09 15:28:49	RED FLAG
2022-09-09 15:28:49	CLEAR IN TRACK SECTOR 8
2022-09-09 15:34:02	SESSION WILL RESUME AT 17:35
2022-09-09 15:34:05	TRACK CLEAR
2022-09-09 15:34:07	DRS ENABLED
2022-09-09 15:35:00	GREEN LIGHT - PIT EXIT OPEN
2022-09-09 15:52:53	YELLOW IN TRACK SECTOR 9
2022-09-09 15:52:54	DRS DISABLED IN ZONE 1
2022-09-09 15:52:55	DRS ENABLED IN ZONE 1
2022-09-09 15:52:55	CLEAR IN TRACK SECTOR 9
2022-09-09 15:56:35	TURN 5 INCIDENT INVOLVING CAR 22 (TSU) NOTED - FAILING TO SLOW UNDER YELLOW FLAGS
2022-09-09 15:57:25	YELLOW IN TRACK SECTOR 9
2022-09-09 15:57:26	DRS DISABLED IN ZONE 1
2022-09-09 15:57:30	DRS ENABLED IN ZONE 1
2022-09-09 15:57:30	CLEAR IN TRACK SECTOR 9
2022-09-09 16:00:00	CHEQUERED FLAG
2022-09-09 16:00:20	FIRST CAR TO TAKE THE FLAG - CAR 10 (GAS)
2022-09-09 16:01:30	FIA STEWARDS: TURN 5 INCIDENT INVOLVING CAR 22 (TSU) UNDER INVESTIGATION - FAILING TO SLOW UNDER YELLOW FLAGS
2022-09-09 16:15:09	RISK OF RAIN FOR F2 QUALIFYING SESSION IS 0%
2022-09-09 16:15:09	RISK OF RAIN FOR F2 QUALIFYING SESSION IS 0%
