2022-05-07 19:45:08	RISK OF RAIN FOR F1 QUALIFYING SESSION IS 20%
2022-05-07 19:49:33	BLUE HEAD PADDING MATERIAL MUST BE USED
2022-05-07 20:00:00	GREEN LIGHT - PIT EXIT OPEN
2022-05-07 20:04:05	CAR 77 (BOT) MISSED THE APEX OF TURN 15
2022-05-07 20:05:09	CAR 10 (GAS) TIME 1:33.831 DELETED - TRACK LIMITS AT TURN 15 LAP 3 16:03:19
2022-05-07 20:11:26	CAR 44 (HAM) MISSED THE APEX OF TURN 15
2022-05-07 20:11:50	CAR 44 (HAM) TIME 1:39.347 DELETED - TRACK LIMITS AT TURN 15 LAP 6 16:11:07
2022-05-07 20:18:00	CHEQUERED FLAG
2022-05-07 20:18:21	CAR 44 (HAM) TIME 1:39.347 DELETED - TRACK LIMITS AT TURN 15 LAP 6 16:11:07
2022-05-07 20:18:39	FIRST CAR TO TAKE THE FLAG - CAR 10 (GAS)
2022-05-07 20:25:00	GREEN LIGHT - PIT EXIT OPEN
2022-05-07 20:40:00	CHEQUERED FLAG
2022-05-07 20:40:13	FIRST CAR TO TAKE THE FLAG - CAR 11 (PER)
2022-05-07 20:42:33	TURN 11 - 16 INCIDENT INVOLVING CARS 55 (SAI) AND 14 (ALO) NOTED - IMPEDING
2022-05-07 20:48:00	GREEN LIGHT - PIT EXIT OPEN
2022-05-07 20:48:01	FIA STEWARDS: TURN 11 - 16 INCIDENT INVOLVING CARS 55 (SAI) AND 14 (ALO) REVIEWED NO FURTHER INVESTIGATION - IMPEDING
2022-05-07 21:00:00	CHEQUERED FLAG
2022-05-07 21:00:34	FIRST CAR TO TAKE THE FLAG - CAR 18 (STR)
2022-05-07 21:02:38	CAR 1 (VER) TIME 2:03.565 DELETED - TRACK LIMITS AT TURN 5 LAP 17 16:59:54
