2022-06-12 10:01:17	DRS DISABLED IN ZONE 2
2022-06-12 10:01:18	DRS DISABLED IN ZONE 1
2022-06-12 10:03:01	PINK HEAD PADDING MATERIAL MUST BE USED
2022-06-12 10:03:57	DRS ENABLED IN ZONE 1
2022-06-12 10:12:48	DRS ENABLED IN ZONE 2
2022-06-12 10:20:00	GREEN LIGHT - PIT EXIT OPEN
2022-06-12 10:21:41	DOUBLE YELLOW IN TRACK SECTOR 2
2022-06-12 10:21:42	DRS DISABLED IN ZONE 2
2022-06-12 10:22:08	DRS ENABLED IN ZONE 2
2022-06-12 10:22:08	CLEAR IN TRACK SECTOR 2
2022-06-12 10:30:00	PIT EXIT CLOSED
2022-06-12 10:45:18	RISK OF RAIN FOR F1 RACE IS 0%
2022-06-12 10:52:37	DOUBLE YELLOW IN TRACK SECTOR 16
2022-06-12 10:52:44	CLEAR IN TRACK SECTOR 16
2022-06-12 10:52:47	DOUBLE YELLOW IN TRACK SECTOR 16
2022-06-12 10:53:08	CLEAR IN TRACK SECTOR 16
2022-06-12 10:53:15	DOUBLE YELLOW IN TRACK SECTOR 16
2022-06-12 10:53:25	CLEAR IN TRACK SECTOR 16
2022-06-12 10:57:10	DRS DISABLED
2022-06-12 11:01:22	STARTING GRID INCIDENT INVOLVING CAR 6 (LAT) NOTED 
2022-06-12 11:03:56	GREEN LIGHT - PIT EXIT OPEN
2022-06-12 11:04:16	FIA STEWARDS: STARTING GRID INCIDENT INVOLVING CAR 6 (LAT) UNDER INVESTIGATION 
2022-06-12 11:06:59	FIA STEWARDS: 10 SECOND STOP/GO PENALTY FOR CAR 6 (LAT) - STARTING GRID INFRINGEMENT
2022-06-12 11:08:12	DRS ENABLED
2022-06-12 11:19:10	YELLOW IN TRACK SECTOR 6
2022-06-12 11:19:41	CAR 55 (SAI) STOPPED AT TURN 4
2022-06-12 11:20:09	VIRTUAL SAFETY CAR DEPLOYED
2022-06-12 11:22:06	VIRTUAL SAFETY CAR ENDING
2022-06-12 11:22:20	TRACK CLEAR
2022-06-12 11:22:20	CLEAR IN TRACK SECTOR 6
2022-06-12 11:22:29	DRS ENABLED
2022-06-12 11:27:26	YELLOW IN TRACK SECTOR 5
2022-06-12 11:27:27	DRS DISABLED IN ZONE 1
2022-06-12 11:27:29	DOUBLE YELLOW IN TRACK SECTOR 5
2022-06-12 11:27:32	DRS ENABLED IN ZONE 1
2022-06-12 11:27:32	CLEAR IN TRACK SECTOR 5
2022-06-12 11:27:38	CAR 5 (VET) OFF TRACK AND CONTINUED AT TURN 3
2022-06-12 11:42:35	TRACK SURFACE SLIPPERY IN TRACK SECTOR 19
2022-06-12 11:42:37	TRACK SURFACE SLIPPERY IN TRACK SECTOR 20
2022-06-12 11:42:56	WAVED BLUE FLAG FOR CAR 6 (LAT) TIMED AT 15:42:56
2022-06-12 11:45:50	WAVED BLUE FLAG FOR CAR 6 (LAT) TIMED AT 15:45:50
2022-06-12 11:46:41	CLEAR IN TRACK SECTOR 19
2022-06-12 11:46:41	CLEAR IN TRACK SECTOR 20
2022-06-12 11:53:43	WAVED BLUE FLAG FOR CAR 47 (MSC) TIMED AT 15:53:43
2022-06-12 11:55:05	WAVED BLUE FLAG FOR CAR 6 (LAT) TIMED AT 15:55:04
2022-06-12 11:58:43	WAVED BLUE FLAG FOR CAR 47 (MSC) TIMED AT 15:58:43
2022-06-12 12:03:46	YELLOW IN TRACK SECTOR 15
2022-06-12 12:04:12	CAR 20 (MAG) STOPPED AT TURN 15
2022-06-12 12:04:22	VIRTUAL SAFETY CAR DEPLOYED
2022-06-12 12:08:28	VIRTUAL SAFETY CAR ENDING
2022-06-12 12:08:41	TRACK CLEAR
2022-06-12 12:08:41	CLEAR IN TRACK SECTOR 15
2022-06-12 12:08:46	DRS ENABLED
2022-06-12 12:08:51	WAVED BLUE FLAG FOR CAR 6 (LAT) TIMED AT 16:08:50
2022-06-12 12:13:35	WAVED BLUE FLAG FOR CAR 47 (MSC) TIMED AT 16:13:35
2022-06-12 12:13:54	BLACK AND ORANGE FLAG FOR CAR 22 (TSU)
2022-06-12 12:19:25	WAVED BLUE FLAG FOR CAR 18 (STR) TIMED AT 16:19:25
2022-06-12 12:22:04	WAVED BLUE FLAG FOR CAR 6 (LAT) TIMED AT 16:22:03
2022-06-12 12:23:46	WAVED BLUE FLAG FOR CAR 22 (TSU) TIMED AT 16:23:45
2022-06-12 12:24:23	INCIDENT INVOLVING CAR 6 (LAT) NOTED - IGNORING BLUE FLAGS
2022-06-12 12:25:08	FIA STEWARDS: INCIDENT INVOLVING CAR 6 (LAT) UNDER INVESTIGATION - IGNORING BLUE FLAGS
2022-06-12 12:25:53	FIA STEWARDS: 5 SECOND TIME PENALTY FOR CAR 6 (LAT) - IGNORING BLUE FLAGS
2022-06-12 12:28:01	WAVED BLUE FLAG FOR CAR 6 (LAT) TIMED AT 16:28:01
2022-06-12 12:29:33	WAVED BLUE FLAG FOR CAR 23 (ALB) TIMED AT 16:29:32
2022-06-12 12:30:10	WAVED BLUE FLAG FOR CAR 18 (STR) TIMED AT 16:30:10
2022-06-12 12:31:53	WAVED BLUE FLAG FOR CAR 77 (BOT) TIMED AT 16:31:52
2022-06-12 12:32:01	WAVED BLUE FLAG FOR CAR 6 (LAT) TIMED AT 16:32:00
2022-06-12 12:32:50	WAVED BLUE FLAG FOR CAR 6 (LAT) TIMED AT 16:32:49
2022-06-12 12:37:25	WAVED BLUE FLAG FOR CAR 47 (MSC) TIMED AT 16:37:25
2022-06-12 12:37:32	WAVED BLUE FLAG FOR CAR 31 (OCO) TIMED AT 16:37:32
2022-06-12 12:38:06	CHEQUERED FLAG
2022-06-12 12:39:29	YELLOW IN TRACK SECTOR 2
2022-06-12 12:39:30	DRS DISABLED IN ZONE 2
2022-06-12 12:41:07	DOUBLE YELLOW IN TRACK SECTOR 2
2022-06-12 12:43:03	YELLOW IN TRACK SECTOR 2
2022-06-12 12:43:50	CLEAR IN TRACK SECTOR 2
2022-06-12 12:43:50	DRS ENABLED IN ZONE 2
2022-06-12 12:44:56	DOUBLE YELLOW IN TRACK SECTOR 15
2022-06-12 12:48:50	CLEAR IN TRACK SECTOR 15
