Time,DriverNumber,LapTime,LapNumber,PitOutTime,PitInTime,Sector1Time,Sector2Time,Sector3Time,SpeedI1,SpeedI2,SpeedFL,SpeedST,Compound,TyreLife
0 days 00:18:27.962000,1,"",1,0 days 00:16:22.754000,"","",0 days 00:00:40.061000,0 days 00:00:50.642000,200.0,171.0,276.0,147.0,soft,1.0
0 days 00:20:04.061000,1,0 days 00:01:36.099000,2,"","",0 days 00:00:33.258000,0 days 00:00:36.295000,0 days 00:00:26.546000,206.0,176.0,277.0,315.0,soft,2.0
0 days 00:21:47.444000,1,0 days 00:01:43.383000,3,"","",0 days 00:00:36.708000,0 days 00:00:39.106000,0 days 00:00:27.569000,191.0,180.0,280.0,279.0,soft,3.0
0 days 00:23:20.893000,1,0 days 00:01:33.449000,4,"","",0 days 00:00:31.897000,0 days 00:00:35.663000,0 days 00:00:25.889000,209.0,183.0,282.0,292.0,soft,4.0
0 days 00:25:15.969000,1,0 days 00:01:55.076000,5,"",0 days 00:25:13.967000,0 days 00:00:37.401000,0 days 00:00:43.895000,0 days 00:00:33.780000,193.0,164.0,"",289.0,soft,5.0
0 days 00:34:02.392000,1,"",6,0 days 00:32:25.161000,"","",0 days 00:00:37.783000,0 days 00:00:27.529000,206.0,178.0,281.0,287.0,soft,6.0
0 days 00:35:35.585000,1,0 days 00:01:33.193000,7,"","",0 days 00:00:31.227000,0 days 00:00:36.078000,0 days 00:00:25.888000,213.0,182.0,279.0,332.0,soft,7.0
0 days 00:37:28.385000,1,0 days 00:01:52.800000,8,"","",0 days 00:00:37.576000,0 days 00:00:47.476000,0 days 00:00:27.748000,170.0,167.0,280.0,276.0,soft,8.0
0 days 00:39:10.696000,1,0 days 00:01:42.311000,9,"",0 days 00:39:08.631000,0 days 00:00:30.994000,0 days 00:00:37.735000,0 days 00:00:33.582000,215.0,170.0,"",249.0,soft,9.0
0 days 01:02:26.984000,1,"",10,0 days 01:00:49.925000,"","",0 days 00:00:37.651000,0 days 00:00:27.063000,205.0,179.0,283.0,286.0,soft,1.0
0 days 01:03:58.334000,1,0 days 00:01:31.350000,11,"","",0 days 00:00:30.590000,0 days 00:00:35.158000,0 days 00:00:25.602000,218.0,186.0,282.0,331.0,soft,2.0
0 days 01:05:51.907000,1,0 days 00:01:53.573000,12,"","",0 days 00:00:36.829000,0 days 00:00:48.850000,0 days 00:00:27.894000,159.0,161.0,282.0,287.0,soft,3.0
0 days 01:07:23.184000,1,0 days 00:01:31.277000,13,"","",0 days 00:00:30.343000,0 days 00:00:35.406000,0 days 00:00:25.528000,215.0,185.0,280.0,335.0,soft,4.0
0 days 01:09:23.562000,1,0 days 00:02:00.378000,14,"",0 days 01:09:19.208000,0 days 00:00:40.213000,0 days 00:00:40.436000,0 days 00:00:39.729000,177.0,167.0,"",257.0,soft,5.0
0 days 00:18:06.189000,55,"",1,0 days 00:16:00.246000,"","",0 days 00:00:43.606000,0 days 00:00:46.272000,168.0,84.0,269.0,152.0,medium,1.0
0 days 00:19:43.518000,55,0 days 00:01:37.329000,2,"","",0 days 00:00:33.357000,0 days 00:00:37.104000,0 days 00:00:26.868000,211.0,179.0,272.0,300.0,medium,2.0
0 days 00:21:24.657000,55,0 days 00:01:41.139000,3,"","",0 days 00:00:32.863000,0 days 00:00:37.165000,0 days 00:00:31.111000,212.0,181.0,270.0,174.0,medium,3.0
0 days 00:23:11.099000,55,0 days 00:01:46.442000,4,"","",0 days 00:00:35.020000,0 days 00:00:44.238000,0 days 00:00:27.184000,185.0,161.0,276.0,302.0,medium,4.0
0 days 00:24:45.337000,55,0 days 00:01:34.238000,5,"","",0 days 00:00:31.559000,0 days 00:00:36.173000,0 days 00:00:26.506000,212.0,181.0,276.0,316.0,medium,5.0
0 days 00:27:05.771000,55,0 days 00:02:20.434000,6,"","",0 days 00:00:42.228000,0 days 00:00:50.705000,0 days 00:00:47.501000,151.0,151.0,273.0,80.0,medium,6.0
0 days 00:28:38.934000,55,0 days 00:01:33.163000,7,"","",0 days 00:00:31.069000,0 days 00:00:36.035000,0 days 00:00:26.059000,216.0,184.0,277.0,323.0,medium,7.0
0 days 00:30:56.352000,55,0 days 00:02:17.418000,8,"",0 days 00:30:54.397000,0 days 00:00:45.572000,0 days 00:00:56.428000,0 days 00:00:35.418000,118.0,125.0,"",239.0,medium,8.0
0 days 00:33:02.377000,55,0 days 00:02:06.025000,9,0 days 00:31:15.631000,"",0 days 00:00:54.494000,0 days 00:00:42.648000,0 days 00:00:28.883000,175.0,148.0,276.0,233.0,medium,9.0
0 days 00:34:44.996000,55,0 days 00:01:42.619000,10,"","",0 days 00:00:30.633000,0 days 00:00:41.016000,0 days 00:00:30.970000,215.0,133.0,274.0,205.0,medium,10.0
0 days 00:36:49.312000,55,0 days 00:02:04.316000,11,"","",0 days 00:00:34,0 days 00:00:54.030000,0 days 00:00:36.286000,116.0,94.0,274.0,245.0,medium,11.0
0 days 00:38:21.991000,55,0 days 00:01:32.679000,12,"","",0 days 00:00:30.658000,0 days 00:00:35.985000,0 days 00:00:26.036000,215.0,184.0,273.0,321.0,medium,12.0
0 days 00:40:40.697000,55,0 days 00:02:18.706000,13,"","",0 days 00:00:45.688000,0 days 00:01:02.553000,0 days 00:00:30.465000,125.0,101.0,274.0,265.0,medium,13.0
0 days 00:42:13.140000,55,0 days 00:01:32.443000,14,"","",0 days 00:00:30.583000,0 days 00:00:35.740000,0 days 00:00:26.120000,216.0,185.0,276.0,318.0,medium,14.0
0 days 00:43:52.929000,55,0 days 00:01:39.789000,15,"",0 days 00:43:50.934000,0 days 00:00:30.742000,0 days 00:00:37.312000,0 days 00:00:31.735000,214.0,179.0,"",297.0,medium,15.0
0 days 01:00:57.901000,55,"",16,0 days 00:59:02.393000,"","",0 days 00:00:44.267000,0 days 00:00:29.309000,149.0,146.0,280.0,268.0,soft,1.0
0 days 01:03:57.395000,55,"",17,"",0 days 01:03:54.579000,0 days 00:00:41.742000,0 days 00:01:15.990000,0 days 00:01:01.844000,124.0,105.0,"",119.0,soft,2.0
0 days 01:06:22.124000,55,0 days 00:02:24.729000,18,0 days 01:04:27.086000,"",0 days 00:01:06.135000,0 days 00:00:40.230000,0 days 00:00:38.364000,189.0,134.0,278.0,130.0,medium,16.0
0 days 01:08:00.280000,55,0 days 00:01:38.156000,19,"","",0 days 00:00:31,0 days 00:00:35.838000,0 days 00:00:31.318000,197.0,185.0,279.0,148.0,medium,17.0
0 days 01:09:32.394000,55,0 days 00:01:32.114000,20,"","",0 days 00:00:30.663000,0 days 00:00:35.572000,0 days 00:00:25.879000,214.0,185.0,280.0,324.0,medium,18.0
0 days 01:12:05.258000,55,"",21,"","",0 days 00:00:46.869000,0 days 00:01:06.630000,0 days 00:00:39.367000,120.0,71.0,279.0,249.0,medium,19.0
0 days 01:14:04.154000,55,0 days 00:01:58.896000,22,"","",0 days 00:00:30.470000,0 days 00:00:41.759000,0 days 00:00:46.667000,215.0,71.0,279.0,189.0,medium,20.0
0 days 01:15:35.682000,55,0 days 00:01:31.528000,23,"","",0 days 00:00:30.341000,0 days 00:00:35.539000,0 days 00:00:25.648000,216.0,187.0,277.0,325.0,medium,21.0
0 days 01:17:27.837000,55,0 days 00:01:52.155000,24,"","",0 days 00:00:33.034000,0 days 00:00:39.095000,0 days 00:00:40.026000,187.0,159.0,68.0,118.0,medium,22.0
0 days 01:20:08.915000,55,"",25,"",0 days 01:20:06.860000,0 days 00:01:16.253000,0 days 00:00:43.175000,0 days 00:00:41.605000,152.0,161.0,"",190.0,medium,23.0
0 days 00:20:22.197000,47,"",1,0 days 00:18:10.732000,0 days 00:20:20.105000,"",0 days 00:00:49.758000,0 days 00:00:37.388000,149.0,177.0,"",224.0,medium,1.0
0 days 00:23:38.556000,47,"",2,0 days 00:21:12.785000,0 days 00:23:36.504000,0 days 00:01:39.441000,0 days 00:00:52.096000,0 days 00:00:44.809000,136.0,180.0,"",115.0,medium,2.0
0 days 00:34:49.842000,47,"",3,0 days 00:32:49.071000,"","",0 days 00:00:46.967000,0 days 00:00:35.222000,185.0,153.0,269.0,134.0,medium,3.0
0 days 00:36:30.379000,47,0 days 00:01:40.537000,4,"","",0 days 00:00:35.253000,0 days 00:00:38.170000,0 days 00:00:27.114000,201.0,179.0,273.0,314.0,medium,4.0
0 days 00:38:09.108000,47,0 days 00:01:38.729000,5,"","",0 days 00:00:33.715000,0 days 00:00:38.328000,0 days 00:00:26.686000,204.0,179.0,270.0,307.0,medium,5.0
0 days 00:40:11.033000,47,0 days 00:02:01.925000,6,"","",0 days 00:00:42.533000,0 days 00:00:47.458000,0 days 00:00:31.934000,123.0,153.0,272.0,172.0,medium,6.0
0 days 00:41:49.500000,47,0 days 00:01:38.467000,7,"","",0 days 00:00:34.114000,0 days 00:00:37.539000,0 days 00:00:26.814000,203.0,181.0,274.0,316.0,medium,7.0
0 days 00:43:26.013000,47,0 days 00:01:36.513000,8,"","",0 days 00:00:32.600000,0 days 00:00:37.272000,0 days 00:00:26.641000,208.0,183.0,275.0,309.0,medium,8.0
0 days 00:45:03.369000,47,0 days 00:01:37.356000,9,"","",0 days 00:00:32.577000,0 days 00:00:37.665000,0 days 00:00:27.114000,"",179.0,275.0,309.0,medium,9.0
0 days 00:47:04.789000,47,0 days 00:02:01.420000,10,"","",0 days 00:00:42.538000,0 days 00:00:47.256000,0 days 00:00:31.626000,162.0,148.0,276.0,174.0,medium,10.0
0 days 00:48:40.315000,47,0 days 00:01:35.526000,11,"","",0 days 00:00:31.706000,0 days 00:00:36.763000,0 days 00:00:27.057000,210.0,183.0,270.0,297.0,medium,11.0
0 days 01:04:42.006000,47,"",12,"",0 days 00:50:41.717000,0 days 00:00:37.004000,0 days 00:00:39.826000,"",197.0,149.0,"","",medium,12.0
0 days 01:06:36.142000,47,"",13,0 days 01:04:42.006000,"","",0 days 00:00:41.707000,0 days 00:00:29.574000,159.0,113.0,274.0,212.0,soft,1.0
0 days 01:08:11.087000,47,0 days 00:01:34.945000,14,"","",0 days 00:00:31.483000,0 days 00:00:36.745000,0 days 00:00:26.717000,214.0,184.0,274.0,293.0,soft,2.0
0 days 01:10:12.886000,47,0 days 00:02:01.799000,15,"","",0 days 00:00:46.406000,0 days 00:00:45.505000,0 days 00:00:29.888000,152.0,152.0,273.0,223.0,soft,3.0
0 days 01:11:47.865000,47,0 days 00:01:34.979000,16,"","",0 days 00:00:31.770000,0 days 00:00:36.692000,0 days 00:00:26.517000,213.0,181.0,274.0,297.0,soft,4.0
0 days 01:13:47.802000,47,0 days 00:01:59.937000,17,"","",0 days 00:00:42.338000,0 days 00:00:49.086000,0 days 00:00:28.513000,158.0,158.0,270.0,258.0,soft,5.0
0 days 01:15:23.245000,47,0 days 00:01:35.443000,18,"","",0 days 00:00:31.762000,0 days 00:00:36.634000,0 days 00:00:27.047000,213.0,183.0,271.0,296.0,soft,6.0
0 days 01:17:19.634000,47,0 days 00:01:56.389000,19,"","",0 days 00:00:37.999000,0 days 00:00:41.292000,0 days 00:00:37.098000,196.0,149.0,67.0,266.0,soft,7.0
0 days 01:19:25.392000,47,0 days 00:02:05.758000,20,"",0 days 01:19:23.270000,0 days 00:00:55.663000,0 days 00:00:37.211000,0 days 00:00:32.884000,205.0,185.0,"",296.0,soft,8.0
0 days 00:18:21.438000,44,"",1,0 days 00:16:18.802000,"","",0 days 00:00:40.251000,0 days 00:00:45.121000,200.0,173.0,272.0,48.0,soft,1.0
0 days 00:20:00.169000,44,0 days 00:01:38.731000,2,"","",0 days 00:00:34.360000,0 days 00:00:37.283000,0 days 00:00:27.088000,212.0,183.0,273.0,303.0,soft,2.0
0 days 00:21:36.946000,44,0 days 00:01:36.777000,3,"","",0 days 00:00:33.323000,0 days 00:00:36.922000,0 days 00:00:26.532000,210.0,185.0,273.0,295.0,soft,3.0
0 days 00:23:13.111000,44,0 days 00:01:36.165000,4,"","",0 days 00:00:32.327000,0 days 00:00:37.318000,0 days 00:00:26.520000,212.0,186.0,276.0,295.0,soft,4.0
0 days 00:24:49.076000,44,0 days 00:01:35.965000,5,"","",0 days 00:00:32.593000,0 days 00:00:36.804000,0 days 00:00:26.568000,"",183.0,274.0,292.0,soft,5.0
0 days 00:27:29.475000,44,"",6,"","",0 days 00:00:57.381000,0 days 00:01:10.376000,0 days 00:00:32.643000,82.0,150.0,275.0,121.0,soft,6.0
0 days 00:29:04.090000,44,0 days 00:01:34.615000,7,"","",0 days 00:00:32.048000,0 days 00:00:36.530000,0 days 00:00:26.037000,213.0,184.0,273.0,325.0,soft,7.0
0 days 00:31:35.788000,44,"",8,"","",0 days 00:01:01.733000,0 days 00:01:01.322000,0 days 00:00:28.646000,85.0,126.0,280.0,235.0,soft,8.0
0 days 00:33:09.344000,44,0 days 00:01:33.556000,9,"","",0 days 00:00:31.462000,0 days 00:00:36.119000,0 days 00:00:25.975000,214.0,185.0,277.0,323.0,soft,9.0
0 days 00:35:13.584000,44,0 days 00:02:04.240000,10,"",0 days 00:35:11.412000,0 days 00:00:39.245000,0 days 00:00:46.673000,0 days 00:00:38.322000,160.0,156.0,"",267.0,soft,10.0
0 days 00:45:46.048000,44,"",11,0 days 00:43:47.047000,"","",0 days 00:00:45.710000,0 days 00:00:28.009000,170.0,174.0,279.0,248.0,soft,1.0
0 days 00:47:57.552000,44,0 days 00:02:11.504000,12,"","",0 days 00:00:51.282000,0 days 00:00:51.766000,0 days 00:00:28.456000,100.0,169.0,279.0,256.0,soft,2.0
0 days 00:49:30.016000,44,0 days 00:01:32.464000,13,"","",0 days 00:00:31.050000,0 days 00:00:35.682000,0 days 00:00:25.732000,219.0,187.0,276.0,327.0,soft,3.0
0 days 01:02:31.967000,44,"",14,"",0 days 00:51:53.827000,"","","","","","","",soft,4.0
0 days 01:04:23.876000,44,"",15,0 days 01:02:31.967000,"","",0 days 00:00:42.282000,0 days 00:00:28.206000,158.0,171.0,278.0,253.0,soft,5.0
0 days 01:05:56.051000,44,0 days 00:01:32.175000,16,"","",0 days 00:00:30.999000,0 days 00:00:35.503000,0 days 00:00:25.673000,219.0,187.0,278.0,324.0,soft,6.0
0 days 01:08:33.084000,44,"",17,"",0 days 01:08:31.018000,0 days 00:00:57.731000,0 days 00:00:58.136000,0 days 00:00:41.139000,106.0,97.0,"",203.0,soft,7.0
0 days 01:11:09.354000,44,"",18,0 days 01:08:55.621000,"",0 days 00:01:12.835000,0 days 00:00:54.653000,0 days 00:00:28.817000,121.0,165.0,279.0,233.0,soft,8.0
0 days 01:12:52.693000,44,0 days 00:01:43.339000,19,"","",0 days 00:00:30.688000,0 days 00:00:37.724000,0 days 00:00:34.927000,216.0,98.0,278.0,236.0,soft,9.0
0 days 01:14:24.649000,44,0 days 00:01:31.956000,20,"","",0 days 00:00:30.528000,0 days 00:00:35.573000,0 days 00:00:25.855000,"",185.0,278.0,325.0,soft,10.0
0 days 01:16:21.123000,44,0 days 00:01:56.474000,21,"","",0 days 00:00:45.052000,0 days 00:00:41.260000,0 days 00:00:30.162000,205.0,180.0,265.0,121.0,soft,11.0
0 days 01:18:42.986000,44,0 days 00:02:21.863000,22,"","",0 days 00:00:45.683000,0 days 00:00:51.428000,0 days 00:00:44.752000,133.0,164.0,40.0,176.0,soft,12.0
0 days 01:21:05.544000,44,0 days 00:02:22.558000,23,"",0 days 01:21:03.499000,0 days 00:01:05.827000,0 days 00:00:41.559000,0 days 00:00:35.172000,216.0,173.0,"",247.0,soft,13.0
0 days 00:17:40.306000,31,"",1,0 days 00:15:31.007000,"","",0 days 00:00:41.021000,0 days 00:00:47.705000,184.0,156.0,274.0,50.0,medium,1.0
0 days 00:19:18.981000,31,0 days 00:01:38.675000,2,"","",0 days 00:00:34.250000,0 days 00:00:37.252000,0 days 00:00:27.173000,205.0,177.0,276.0,267.0,medium,2.0
0 days 00:20:56.700000,31,0 days 00:01:37.719000,3,"","",0 days 00:00:33.277000,0 days 00:00:37.557000,0 days 00:00:26.885000,203.0,178.0,276.0,301.0,medium,3.0
0 days 00:22:33.090000,31,0 days 00:01:36.390000,4,"","",0 days 00:00:32.533000,0 days 00:00:37.049000,0 days 00:00:26.808000,209.0,179.0,275.0,308.0,medium,4.0
0 days 00:24:22.743000,31,0 days 00:01:49.653000,5,"","",0 days 00:00:39.152000,0 days 00:00:42.662000,0 days 00:00:27.839000,190.0,169.0,277.0,297.0,medium,5.0
0 days 00:25:58.305000,31,0 days 00:01:35.562000,6,"","",0 days 00:00:32.292000,0 days 00:00:36.391000,0 days 00:00:26.879000,211.0,182.0,276.0,285.0,medium,6.0
0 days 00:28:03.335000,31,0 days 00:02:05.030000,7,"","",0 days 00:00:44.298000,0 days 00:00:51.959000,0 days 00:00:28.773000,177.0,137.0,277.0,290.0,medium,7.0
0 days 00:29:38.154000,31,0 days 00:01:34.819000,8,"","",0 days 00:00:32.013000,0 days 00:00:36.419000,0 days 00:00:26.387000,205.0,177.0,278.0,328.0,medium,8.0
0 days 00:31:55.759000,31,0 days 00:02:17.605000,9,"","",0 days 00:00:47.864000,0 days 00:00:48.290000,0 days 00:00:41.451000,151.0,135.0,278.0,71.0,medium,9.0
0 days 00:33:31.319000,31,0 days 00:01:35.560000,10,"","",0 days 00:00:32.184000,0 days 00:00:36.835000,0 days 00:00:26.541000,210.0,179.0,277.0,322.0,medium,10.0
0 days 00:35:47.375000,31,0 days 00:02:16.056000,11,"",0 days 00:35:45.375000,0 days 00:00:49.271000,0 days 00:00:51.638000,0 days 00:00:35.147000,168.0,156.0,"",239.0,medium,11.0
0 days 00:38:19.013000,31,"",12,0 days 00:36:17.213000,"",0 days 00:01:08.778000,0 days 00:00:49.680000,0 days 00:00:33.187000,167.0,157.0,277.0,221.0,soft,1.0
0 days 00:39:53.174000,31,0 days 00:01:34.161000,13,"","",0 days 00:00:31.723000,0 days 00:00:36.139000,0 days 00:00:26.299000,211.0,184.0,276.0,323.0,soft,2.0
0 days 00:42:06.255000,31,0 days 00:02:13.081000,14,"","",0 days 00:00:47.604000,0 days 00:00:53.061000,0 days 00:00:32.416000,132.0,142.0,278.0,217.0,soft,3.0
0 days 00:43:40.575000,31,0 days 00:01:34.320000,15,"","",0 days 00:00:31.489000,0 days 00:00:36.576000,0 days 00:00:26.255000,211.0,180.0,276.0,325.0,soft,4.0
0 days 00:45:57.669000,31,0 days 00:02:17.094000,16,"","",0 days 00:00:45.139000,0 days 00:00:59.843000,0 days 00:00:32.112000,130.0,131.0,279.0,230.0,soft,5.0
0 days 00:47:31.086000,31,0 days 00:01:33.417000,17,"","",0 days 00:00:31.425000,0 days 00:00:35.883000,0 days 00:00:26.109000,210.0,184.0,278.0,322.0,soft,6.0
0 days 00:49:26.425000,31,0 days 00:01:55.339000,18,"",0 days 00:49:24.453000,0 days 00:00:36.136000,0 days 00:00:40.199000,0 days 00:00:39.004000,193.0,166.0,"",176.0,soft,7.0
0 days 01:05:41.776000,31,"",19,0 days 01:04:03.069000,"","",0 days 00:00:37.150000,0 days 00:00:27.321000,197.0,178.0,270.0,293.0,soft,8.0
0 days 01:07:18.268000,31,0 days 00:01:36.492000,20,"","",0 days 00:00:32.712000,0 days 00:00:36.819000,0 days 00:00:26.961000,203.0,181.0,268.0,293.0,soft,9.0
0 days 01:08:55.178000,31,0 days 00:01:36.910000,21,"","",0 days 00:00:32.798000,0 days 00:00:37.183000,0 days 00:00:26.929000,205.0,179.0,268.0,291.0,soft,10.0
0 days 01:10:31.745000,31,0 days 00:01:36.567000,22,"","",0 days 00:00:32.546000,0 days 00:00:37.063000,0 days 00:00:26.958000,208.0,179.0,268.0,291.0,soft,11.0
0 days 01:12:08.331000,31,0 days 00:01:36.586000,23,"","",0 days 00:00:32.528000,0 days 00:00:37.006000,0 days 00:00:27.052000,207.0,180.0,269.0,295.0,soft,12.0
0 days 01:13:49.846000,31,0 days 00:01:41.515000,24,"","",0 days 00:00:34.336000,0 days 00:00:39.151000,0 days 00:00:28.028000,204.0,178.0,270.0,290.0,soft,13.0
0 days 01:15:26.412000,31,0 days 00:01:36.566000,25,"","",0 days 00:00:32.660000,0 days 00:00:37.031000,0 days 00:00:26.875000,206.0,180.0,269.0,293.0,soft,14.0
0 days 01:17:46.513000,31,0 days 00:02:20.101000,26,"","",0 days 00:00:43.758000,0 days 00:00:47.341000,0 days 00:00:49.002000,169.0,167.0,48.0,158.0,soft,15.0
0 days 01:20:03.621000,31,0 days 00:02:17.108000,27,"",0 days 01:20:01.563000,0 days 00:01:01.624000,0 days 00:00:40.379000,0 days 00:00:35.105000,208.0,174.0,"",211.0,soft,16.0
0 days 00:17:34.411000,24,"",1,0 days 00:15:24.376000,"","",0 days 00:00:44.037000,0 days 00:00:46.987000,184.0,131.0,266.0,68.0,medium,1.0
0 days 00:19:40.993000,24,0 days 00:02:06.582000,2,"","",0 days 00:00:46.259000,0 days 00:00:41.700000,0 days 00:00:38.623000,175.0,120.0,273.0,123.0,medium,2.0
0 days 00:21:21.107000,24,0 days 00:01:40.114000,3,"","",0 days 00:00:34.157000,0 days 00:00:37.835000,0 days 00:00:28.122000,212.0,182.0,273.0,240.0,medium,3.0
0 days 00:23:20.005000,24,0 days 00:01:58.898000,4,"","",0 days 00:00:39.713000,0 days 00:00:43.939000,0 days 00:00:35.246000,176.0,142.0,272.0,195.0,medium,4.0
0 days 00:24:58.650000,24,0 days 00:01:38.645000,5,"","",0 days 00:00:33.073000,0 days 00:00:37.668000,0 days 00:00:27.904000,212.0,181.0,275.0,270.0,medium,5.0
0 days 00:26:35.133000,24,0 days 00:01:36.483000,6,"","",0 days 00:00:32.787000,0 days 00:00:36.760000,0 days 00:00:26.936000,"",182.0,276.0,303.0,medium,6.0
0 days 00:28:35.455000,24,0 days 00:02:00.322000,7,"","",0 days 00:00:40.119000,0 days 00:00:50.570000,0 days 00:00:29.633000,178.0,138.0,271.0,208.0,medium,7.0
0 days 00:30:10.995000,24,0 days 00:01:35.540000,8,"","",0 days 00:00:32.283000,0 days 00:00:36.551000,0 days 00:00:26.706000,212.0,184.0,276.0,304.0,medium,8.0
0 days 00:31:46.789000,24,0 days 00:01:35.794000,9,"","",0 days 00:00:32.407000,0 days 00:00:36.538000,0 days 00:00:26.849000,"",182.0,276.0,300.0,medium,9.0
0 days 00:33:46.145000,24,0 days 00:01:59.356000,10,"",0 days 00:33:44.154000,0 days 00:00:38.196000,0 days 00:00:42.605000,0 days 00:00:38.555000,180.0,152.0,"",184.0,medium,10.0
0 days 00:48:12.817000,24,"",11,0 days 00:46:25.755000,"","",0 days 00:00:41.250000,0 days 00:00:29.558000,186.0,156.0,271.0,230.0,soft,1.0
0 days 00:59:26.885000,24,"",12,"",0 days 00:52:22.590000,0 days 00:00:36.805000,0 days 00:00:44.098000,"",185.0,142.0,"",269.0,soft,2.0
0 days 01:01:32.748000,24,"",13,0 days 00:59:26.885000,"","",0 days 00:00:46.366000,0 days 00:00:41.179000,172.0,149.0,274.0,165.0,soft,2.0
0 days 01:03:06.809000,24,0 days 00:01:34.061000,14,"","",0 days 00:00:31.495000,0 days 00:00:35.818000,0 days 00:00:26.748000,214.0,186.0,269.0,308.0,soft,3.0
0 days 01:05:18.448000,24,0 days 00:02:11.639000,15,"","",0 days 00:00:44.869000,0 days 00:00:47.516000,0 days 00:00:39.254000,166.0,84.0,274.0,103.0,soft,4.0
0 days 01:06:51.843000,24,0 days 00:01:33.395000,16,"","",0 days 00:00:31.368000,0 days 00:00:35.593000,0 days 00:00:26.434000,213.0,186.0,267.0,321.0,soft,5.0
0 days 01:08:51.985000,24,0 days 00:02:00.142000,17,"","",0 days 00:00:43.602000,0 days 00:00:45.658000,0 days 00:00:30.882000,179.0,120.0,281.0,244.0,soft,6.0
0 days 01:10:39.243000,24,0 days 00:01:47.258000,18,"","",0 days 00:00:31.037000,0 days 00:00:39.677000,0 days 00:00:36.544000,220.0,139.0,250.0,159.0,soft,7.0
0 days 01:12:39.847000,24,0 days 00:02:00.604000,19,"","",0 days 00:00:41.933000,0 days 00:00:47.681000,0 days 00:00:30.990000,187.0,132.0,282.0,207.0,soft,8.0
0 days 01:14:12.867000,24,0 days 00:01:33.020000,20,"","",0 days 00:00:31.057000,0 days 00:00:35.723000,0 days 00:00:26.240000,217.0,189.0,279.0,292.0,soft,9.0
0 days 01:16:16.212000,24,0 days 00:02:03.345000,21,"","",0 days 00:00:46.448000,0 days 00:00:40.864000,0 days 00:00:36.033000,183.0,126.0,255.0,204.0,soft,10.0
0 days 01:18:30.556000,24,0 days 00:02:14.344000,22,"","",0 days 00:00:43.242000,0 days 00:00:43.277000,0 days 00:00:47.825000,176.0,146.0,48.0,205.0,soft,11.0
0 days 01:21:15.140000,24,"",23,"",0 days 01:21:13.094000,0 days 00:01:13.120000,0 days 00:00:45.932000,0 days 00:00:45.470000,171.0,155.0,"",102.0,soft,12.0
0 days 00:18:15.204000,23,"",1,0 days 00:16:15.384000,"","",0 days 00:00:41.947000,0 days 00:00:40.544000,190.0,166.0,273.0,120.0,medium,1.0
0 days 00:19:54.529000,23,0 days 00:01:39.325000,2,"","",0 days 00:00:35.535000,0 days 00:00:37.296000,0 days 00:00:26.494000,207.0,180.0,276.0,324.0,medium,2.0
0 days 00:21:31.492000,23,0 days 00:01:36.963000,3,"","",0 days 00:00:33.097000,0 days 00:00:37.514000,0 days 00:00:26.352000,210.0,180.0,277.0,322.0,medium,3.0
0 days 00:23:49.419000,23,0 days 00:02:17.927000,4,"","",0 days 00:00:43.344000,0 days 00:00:50.351000,0 days 00:00:44.232000,175.0,167.0,279.0,76.0,medium,4.0
0 days 00:25:25.499000,23,0 days 00:01:36.080000,5,"","",0 days 00:00:32.535000,0 days 00:00:36.935000,0 days 00:00:26.610000,213.0,178.0,278.0,325.0,medium,5.0
0 days 00:27:34.005000,23,0 days 00:02:08.506000,6,"","",0 days 00:00:42.587000,0 days 00:00:49.181000,0 days 00:00:36.738000,173.0,163.0,279.0,281.0,medium,6.0
0 days 00:29:08.500000,23,0 days 00:01:34.495000,7,"","",0 days 00:00:32.323000,0 days 00:00:36.117000,0 days 00:00:26.055000,210.0,185.0,279.0,330.0,medium,7.0
0 days 00:31:24.991000,23,0 days 00:02:16.491000,8,"",0 days 00:31:22.986000,0 days 00:00:51.284000,0 days 00:00:46.686000,0 days 00:00:38.521000,188.0,149.0,"",113.0,medium,8.0
0 days 00:46:17.159000,23,"",9,0 days 00:44:20.503000,"","",0 days 00:00:42.279000,0 days 00:00:34.482000,182.0,153.0,280.0,90.0,soft,1.0
0 days 00:48:08.551000,23,0 days 00:01:51.392000,10,"",0 days 00:48:06.695000,0 days 00:00:31.327000,0 days 00:00:37.489000,0 days 00:00:42.576000,217.0,160.0,"",211.0,soft,2.0
0 days 00:59:06.838000,23,"",11,0 days 00:48:41.762000,0 days 00:50:54.767000,0 days 00:01:20.949000,"","",152.0,"","","",soft,3.0
0 days 01:01:01.954000,23,"",12,0 days 00:59:06.838000,"","",0 days 00:00:42.900000,0 days 00:00:30.417000,193.0,146.0,280.0,298.0,soft,3.0
0 days 01:03:05.383000,23,0 days 00:02:03.429000,13,"","",0 days 00:00:38.274000,0 days 00:00:49.576000,0 days 00:00:35.579000,161.0,127.0,281.0,194.0,soft,4.0
0 days 01:04:37.237000,23,0 days 00:01:31.854000,14,"","",0 days 00:00:31.067000,0 days 00:00:35.181000,0 days 00:00:25.606000,217.0,188.0,281.0,331.0,soft,5.0
0 days 01:06:28.835000,23,0 days 00:01:51.598000,15,"",0 days 01:06:26.839000,0 days 00:00:39.238000,0 days 00:00:38.813000,0 days 00:00:33.547000,196.0,173.0,"",249.0,soft,6.0
0 days 01:12:30.411000,23,"",16,0 days 01:10:52.769000,"","",0 days 00:00:37.651000,0 days 00:00:26.825000,208.0,179.0,273.0,308.0,medium,9.0
0 days 01:14:06.667000,23,0 days 00:01:36.256000,17,"","",0 days 00:00:32.645000,0 days 00:00:36.794000,0 days 00:00:26.817000,212.0,182.0,276.0,294.0,medium,10.0
0 days 01:15:42.246000,23,0 days 00:01:35.579000,18,"","",0 days 00:00:32.475000,0 days 00:00:36.541000,0 days 00:00:26.563000,211.0,182.0,275.0,301.0,medium,11.0
0 days 01:17:49.447000,23,0 days 00:02:07.201000,19,"","",0 days 00:00:32.252000,0 days 00:00:46.477000,0 days 00:00:48.472000,212.0,153.0,59.0,186.0,medium,12.0
0 days 01:20:05.901000,23,0 days 00:02:16.454000,20,"",0 days 01:20:03.870000,0 days 00:00:57.929000,0 days 00:00:42.989000,0 days 00:00:35.536000,207.0,160.0,"",198.0,medium,13.0
0 days 00:17:50.864000,22,"",1,0 days 00:15:41.962000,"","",0 days 00:00:41.284000,0 days 00:00:50.704000,195.0,166.0,273.0,52.0,medium,1.0
0 days 00:19:29.224000,22,0 days 00:01:38.360000,2,"","",0 days 00:00:33.860000,0 days 00:00:37.808000,0 days 00:00:26.692000,206.0,182.0,276.0,324.0,medium,2.0
0 days 00:21:04.587000,22,0 days 00:01:35.363000,3,"","",0 days 00:00:32.667000,0 days 00:00:36.558000,0 days 00:00:26.138000,209.0,183.0,277.0,330.0,medium,3.0
0 days 00:23:23.592000,22,0 days 00:02:19.005000,4,"","",0 days 00:00:54.542000,0 days 00:00:50.119000,0 days 00:00:34.344000,136.0,158.0,280.0,92.0,medium,4.0
0 days 00:25:01.044000,22,0 days 00:01:37.452000,5,"","",0 days 00:00:32.472000,0 days 00:00:36.154000,0 days 00:00:28.826000,209.0,182.0,252.0,324.0,medium,5.0
0 days 00:27:01.513000,22,0 days 00:02:00.469000,6,"","",0 days 00:00:45.358000,0 days 00:00:46.187000,0 days 00:00:28.924000,143.0,164.0,279.0,240.0,medium,6.0
0 days 00:28:36.186000,22,0 days 00:01:34.673000,7,"","",0 days 00:00:32.285000,0 days 00:00:36.249000,0 days 00:00:26.139000,208.0,183.0,279.0,329.0,medium,7.0
0 days 00:30:33.682000,22,0 days 00:01:57.496000,8,"","",0 days 00:00:43.390000,0 days 00:00:44.003000,0 days 00:00:30.103000,178.0,152.0,279.0,209.0,medium,8.0
0 days 00:32:21.955000,22,0 days 00:01:48.273000,9,"",0 days 00:32:19.956000,0 days 00:00:31.851000,0 days 00:00:39.056000,0 days 00:00:37.366000,212.0,173.0,"",218.0,medium,9.0
0 days 00:42:25.694000,22,"",10,0 days 00:40:34.039000,"","",0 days 00:00:39.699000,0 days 00:00:29.020000,196.0,169.0,278.0,289.0,soft,1.0
0 days 00:44:02.377000,22,0 days 00:01:36.683000,11,"","",0 days 00:00:31.867000,0 days 00:00:37.292000,0 days 00:00:27.524000,211.0,169.0,268.0,327.0,soft,2.0
0 days 00:46:03.290000,22,0 days 00:02:00.913000,12,"","",0 days 00:00:47.379000,0 days 00:00:42.438000,0 days 00:00:31.096000,160.0,164.0,280.0,168.0,soft,3.0
0 days 00:47:53.818000,22,0 days 00:01:50.528000,13,"","",0 days 00:00:35.300000,0 days 00:00:45.418000,0 days 00:00:29.810000,183.0,130.0,279.0,288.0,soft,4.0
0 days 00:49:27.861000,22,0 days 00:01:34.043000,14,"","",0 days 00:00:31.596000,0 days 00:00:35.995000,0 days 00:00:26.452000,213.0,184.0,279.0,326.0,soft,5.0
0 days 00:59:23.273000,22,"",15,"",0 days 00:51:41.966000,"","","","","","","",soft,6.0
0 days 01:01:09.974000,22,"",16,0 days 00:59:23.273000,"","",0 days 00:00:38.622000,0 days 00:00:29.711000,177.0,177.0,268.0,255.0,medium,10.0
0 days 01:02:54.253000,22,0 days 00:01:44.279000,17,"","",0 days 00:00:35.305000,0 days 00:00:40.869000,0 days 00:00:28.105000,206.0,176.0,272.0,304.0,medium,11.0
0 days 01:04:32.603000,22,0 days 00:01:38.350000,18,"","",0 days 00:00:33.662000,0 days 00:00:37.525000,0 days 00:00:27.163000,"",179.0,271.0,302.0,medium,12.0
0 days 01:06:12.236000,22,0 days 00:01:39.633000,19,"","",0 days 00:00:33.252000,0 days 00:00:38.303000,0 days 00:00:28.078000,204.0,169.0,272.0,300.0,medium,13.0
0 days 01:07:50.086000,22,0 days 00:01:37.850000,20,"","",0 days 00:00:33.640000,0 days 00:00:37.198000,0 days 00:00:27.012000,207.0,180.0,272.0,303.0,medium,14.0
0 days 01:09:27.577000,22,0 days 00:01:37.491000,21,"","",0 days 00:00:33.175000,0 days 00:00:37.077000,0 days 00:00:27.239000,208.0,180.0,271.0,303.0,medium,15.0
0 days 01:11:05.164000,22,0 days 00:01:37.587000,22,"","",0 days 00:00:33.160000,0 days 00:00:37.386000,0 days 00:00:27.041000,209.0,178.0,272.0,303.0,medium,16.0
0 days 01:12:42.381000,22,0 days 00:01:37.217000,23,"","",0 days 00:00:33.203000,0 days 00:00:37.280000,0 days 00:00:26.734000,210.0,180.0,274.0,303.0,medium,17.0
0 days 01:14:19.803000,22,0 days 00:01:37.422000,24,"","",0 days 00:00:33.341000,0 days 00:00:37.057000,0 days 00:00:27.024000,209.0,180.0,276.0,273.0,medium,18.0
0 days 01:15:59.318000,22,0 days 00:01:39.515000,25,"","",0 days 00:00:35.089000,0 days 00:00:37.247000,0 days 00:00:27.179000,207.0,182.0,272.0,283.0,medium,19.0
0 days 01:18:05.626000,22,0 days 00:02:06.308000,26,"","",0 days 00:00:45.637000,0 days 00:00:42.588000,0 days 00:00:38.083000,196.0,167.0,84.0,237.0,medium,20.0
0 days 01:20:27.316000,22,0 days 00:02:21.690000,27,"",0 days 01:20:25.303000,0 days 00:00:55.981000,0 days 00:00:37.214000,0 days 00:00:48.495000,209.0,180.0,"",98.0,medium,21.0
0 days 00:18:21.827000,20,"",1,0 days 00:16:26.294000,0 days 00:18:19.733000,"",0 days 00:00:42.595000,0 days 00:00:38.440000,190.0,167.0,"",134.0,hard,1.0
0 days 00:20:51.597000,20,0 days 00:02:29.770000,2,0 days 00:18:54.410000,0 days 00:20:49.468000,0 days 00:01:05.856000,0 days 00:00:49.203000,0 days 00:00:34.711000,205.0,175.0,"",293.0,hard,2.0
0 days 00:33:34.142000,20,"",3,0 days 00:31:49.233000,"","",0 days 00:00:42.630000,0 days 00:00:29.126000,205.0,99.0,274.0,309.0,hard,3.0
0 days 00:35:22.316000,20,0 days 00:01:48.174000,4,"","",0 days 00:00:36.752000,0 days 00:00:39.507000,0 days 00:00:31.915000,204.0,179.0,273.0,209.0,hard,4.0
0 days 00:36:58.862000,20,0 days 00:01:36.546000,5,"","",0 days 00:00:33.029000,0 days 00:00:36.953000,0 days 00:00:26.564000,210.0,183.0,274.0,313.0,hard,5.0
0 days 00:38:34.781000,20,0 days 00:01:35.919000,6,"","",0 days 00:00:32.539000,0 days 00:00:36.870000,0 days 00:00:26.510000,"",182.0,274.0,310.0,hard,6.0
0 days 00:40:16.918000,20,0 days 00:01:42.137000,7,"","",0 days 00:00:37.958000,0 days 00:00:37.338000,0 days 00:00:26.841000,208.0,179.0,274.0,308.0,hard,7.0
0 days 00:41:52.163000,20,0 days 00:01:35.245000,8,"","",0 days 00:00:31.925000,0 days 00:00:36.842000,0 days 00:00:26.478000,211.0,182.0,275.0,312.0,hard,8.0
0 days 00:43:27.536000,20,0 days 00:01:35.373000,9,"","",0 days 00:00:32.029000,0 days 00:00:36.726000,0 days 00:00:26.618000,207.0,182.0,275.0,313.0,hard,9.0
0 days 00:45:15.520000,20,0 days 00:01:47.984000,10,"","",0 days 00:00:37.551000,0 days 00:00:39.386000,0 days 00:00:31.047000,193.0,179.0,276.0,149.0,hard,10.0
0 days 00:46:53.198000,20,0 days 00:01:37.678000,11,"","",0 days 00:00:34.529000,0 days 00:00:36.602000,0 days 00:00:26.547000,209.0,180.0,277.0,311.0,hard,11.0
0 days 00:48:27.706000,20,0 days 00:01:34.508000,12,"","",0 days 00:00:31.505000,0 days 00:00:36.352000,0 days 00:00:26.651000,212.0,183.0,273.0,307.0,hard,12.0
0 days 01:06:58.057000,20,"",13,"",0 days 00:50:27.429000,0 days 00:00:34.376000,0 days 00:00:43.577000,"",200.0,117.0,"","",hard,13.0
0 days 01:08:42.232000,20,"",14,0 days 01:06:58.057000,"","",0 days 00:00:39.071000,0 days 00:00:26.862000,203.0,180.0,275.0,301.0,soft,1.0
0 days 01:10:27.357000,20,0 days 00:01:45.125000,15,"","",0 days 00:00:35.583000,0 days 00:00:39.045000,0 days 00:00:30.497000,"",182.0,278.0,179.0,soft,2.0
0 days 01:12:00.051000,20,0 days 00:01:32.694000,16,"","",0 days 00:00:30.741000,0 days 00:00:36.070000,0 days 00:00:25.883000,216.0,184.0,279.0,321.0,soft,3.0
0 days 01:13:56.423000,20,0 days 00:01:56.372000,17,"","",0 days 00:00:39.834000,0 days 00:00:43.957000,0 days 00:00:32.581000,190.0,167.0,278.0,159.0,soft,4.0
0 days 01:15:28.982000,20,0 days 00:01:32.559000,18,"","",0 days 00:00:31.065000,0 days 00:00:35.806000,0 days 00:00:25.688000,215.0,185.0,281.0,323.0,soft,5.0
0 days 01:17:26.071000,20,0 days 00:01:57.089000,19,"","",0 days 00:00:37.454000,0 days 00:00:40.698000,0 days 00:00:38.937000,205.0,171.0,65.0,179.0,soft,6.0
0 days 01:20:02.331000,20,"",20,"",0 days 01:20:00.215000,0 days 00:01:15.137000,0 days 00:00:37.293000,0 days 00:00:43.790000,213.0,169.0,"",139.0,soft,7.0
0 days 00:17:03.805000,18,"",1,0 days 00:15:03.859000,"","",0 days 00:00:44.386000,0 days 00:00:33.501000,159.0,168.0,273.0,253.0,soft,1.0
0 days 00:18:43.318000,18,0 days 00:01:39.513000,2,"","",0 days 00:00:34.692000,0 days 00:00:37.939000,0 days 00:00:26.882000,207.0,179.0,276.0,305.0,soft,2.0
0 days 00:21:17.430000,18,"",3,"","",0 days 00:00:55.942000,0 days 00:01:02.547000,0 days 00:00:35.609000,106.0,150.0,278.0,80.0,soft,3.0
0 days 00:23:31.478000,18,0 days 00:02:14.048000,4,"","",0 days 00:00:41.335000,0 days 00:00:53.820000,0 days 00:00:38.893000,131.0,137.0,279.0,122.0,soft,4.0
0 days 00:25:06.784000,18,0 days 00:01:35.306000,5,"","",0 days 00:00:32.554000,0 days 00:00:36.456000,0 days 00:00:26.296000,211.0,182.0,279.0,326.0,soft,5.0
0 days 00:27:29.812000,18,0 days 00:02:23.028000,6,"","",0 days 00:00:51.220000,0 days 00:00:54.940000,0 days 00:00:36.868000,126.0,110.0,163.0,191.0,soft,6.0
0 days 00:29:42.389000,18,0 days 00:02:12.577000,7,"","",0 days 00:00:53.623000,0 days 00:00:47.456000,0 days 00:00:31.498000,128.0,128.0,279.0,247.0,soft,7.0
0 days 00:31:17.027000,18,0 days 00:01:34.638000,8,"","",0 days 00:00:32.235000,0 days 00:00:36.434000,0 days 00:00:25.969000,208.0,181.0,281.0,325.0,soft,8.0
0 days 00:33:37.980000,18,0 days 00:02:20.953000,9,"","",0 days 00:00:51.420000,0 days 00:00:53.756000,0 days 00:00:35.777000,111.0,132.0,277.0,211.0,soft,9.0
0 days 00:35:58.215000,18,0 days 00:02:20.235000,10,"","",0 days 00:00:39.773000,0 days 00:01:03.184000,0 days 00:00:37.278000,74.0,99.0,277.0,239.0,soft,10.0
0 days 00:37:45.964000,18,0 days 00:01:47.749000,11,"",0 days 00:37:43.946000,0 days 00:00:32.715000,0 days 00:00:36.598000,0 days 00:00:38.436000,208.0,182.0,"",232.0,soft,11.0
0 days 00:48:05.856000,18,"",12,0 days 00:46:02.170000,"","",0 days 00:00:46.122000,0 days 00:00:31.001000,110.0,124.0,278.0,180.0,soft,1.0
0 days 00:59:43.968000,18,"",13,"",0 days 00:50:39.445000,0 days 00:00:49.040000,0 days 00:00:59.848000,"",117.0,111.0,"","",soft,2.0
0 days 01:01:43.411000,18,"",14,0 days 00:59:43.968000,"","",0 days 00:00:45.706000,0 days 00:00:32.514000,152.0,132.0,278.0,232.0,soft,3.0
0 days 01:03:46.370000,18,0 days 00:02:02.959000,15,"","",0 days 00:00:31.780000,0 days 00:00:43.646000,0 days 00:00:47.533000,211.0,67.0,136.0,171.0,soft,4.0
0 days 01:06:16.757000,18,"",16,"","",0 days 00:00:54.787000,0 days 00:01:01.888000,0 days 00:00:33.758000,104.0,155.0,276.0,138.0,soft,5.0
0 days 01:07:50.333000,18,0 days 00:01:33.576000,17,"","",0 days 00:00:31.526000,0 days 00:00:35.860000,0 days 00:00:26.190000,214.0,185.0,280.0,328.0,soft,6.0
0 days 01:10:20.047000,18,0 days 00:02:29.714000,18,"","",0 days 00:00:54.578000,0 days 00:00:53.984000,0 days 00:00:41.152000,133.0,96.0,159.0,233.0,soft,7.0
0 days 01:12:36.544000,18,0 days 00:02:16.497000,19,"","",0 days 00:00:54.442000,0 days 00:00:48.871000,0 days 00:00:33.184000,115.0,165.0,277.0,144.0,soft,8.0
0 days 01:14:15.060000,18,0 days 00:01:38.516000,20,"","",0 days 00:00:31.330000,0 days 00:00:36.940000,0 days 00:00:30.246000,214.0,176.0,262.0,253.0,soft,9.0
0 days 01:16:04.091000,18,0 days 00:01:49.031000,21,"","",0 days 00:00:41.393000,0 days 00:00:40.099000,0 days 00:00:27.539000,192.0,164.0,271.0,297.0,soft,10.0
0 days 01:18:14.415000,18,0 days 00:02:10.324000,22,"","",0 days 00:00:44.268000,0 days 00:00:41.893000,0 days 00:00:44.163000,149.0,141.0,65.0,158.0,soft,11.0
0 days 01:20:42.799000,18,0 days 00:02:28.384000,23,"",0 days 01:20:40.798000,0 days 00:01:09.523000,0 days 00:00:41.197000,0 days 00:00:37.664000,188.0,150.0,"",195.0,soft,12.0
0 days 00:18:01.273000,16,"",1,0 days 00:15:49.435000,"","",0 days 00:00:43.812000,0 days 00:00:49.061000,184.0,146.0,261.0,70.0,medium,1.0
0 days 00:19:38.193000,16,0 days 00:01:36.920000,2,"","",0 days 00:00:32.852000,0 days 00:00:37.167000,0 days 00:00:26.901000,213.0,181.0,270.0,301.0,medium,2.0
0 days 00:21:13.039000,16,0 days 00:01:34.846000,3,"","",0 days 00:00:31.897000,0 days 00:00:36.314000,0 days 00:00:26.635000,"",184.0,273.0,292.0,medium,3.0
0 days 00:23:43.377000,16,"",4,"","",0 days 00:00:53.787000,0 days 00:00:56.046000,0 days 00:00:40.472000,135.0,92.0,275.0,119.0,medium,4.0
0 days 00:25:16.817000,16,0 days 00:01:33.440000,5,"","",0 days 00:00:31.483000,0 days 00:00:35.647000,0 days 00:00:26.310000,213.0,181.0,274.0,317.0,medium,5.0
0 days 00:27:04.699000,16,0 days 00:01:47.882000,6,"",0 days 00:27:02.645000,0 days 00:00:31.842000,0 days 00:00:37.783000,0 days 00:00:38.257000,205.0,149.0,"",174.0,medium,6.0
0 days 00:29:35.787000,16,"",7,0 days 00:27:27.418000,"",0 days 00:01:08.769000,0 days 00:00:54.672000,0 days 00:00:27.642000,133.0,166.0,278.0,283.0,medium,7.0
0 days 00:31:08.736000,16,0 days 00:01:32.949000,8,"","",0 days 00:00:31.067000,0 days 00:00:35.841000,0 days 00:00:26.041000,212.0,183.0,280.0,318.0,medium,8.0
0 days 00:32:42.785000,16,0 days 00:01:34.049000,9,"","",0 days 00:00:31.363000,0 days 00:00:36.198000,0 days 00:00:26.488000,211.0,183.0,271.0,304.0,medium,9.0
0 days 00:35:17.963000,16,"",10,"","",0 days 00:00:53.254000,0 days 00:00:59.443000,0 days 00:00:42.482000,138.0,117.0,272.0,212.0,medium,10.0
0 days 00:36:51.103000,16,0 days 00:01:33.140000,11,"","",0 days 00:00:30.936000,0 days 00:00:36.042000,0 days 00:00:26.162000,214.0,185.0,275.0,319.0,medium,11.0
0 days 00:39:15.974000,16,0 days 00:02:24.871000,12,"","",0 days 00:00:51.270000,0 days 00:00:59.032000,0 days 00:00:34.569000,131.0,137.0,273.0,149.0,medium,12.0
0 days 00:40:48.529000,16,0 days 00:01:32.555000,13,"","",0 days 00:00:30.799000,0 days 00:00:35.696000,0 days 00:00:26.060000,210.0,184.0,265.0,320.0,medium,13.0
0 days 00:43:20.538000,16,"",14,"","",0 days 00:00:51.956000,0 days 00:01:03.986000,0 days 00:00:36.026000,112.0,115.0,273.0,220.0,medium,14.0
0 days 00:44:53.196000,16,0 days 00:01:32.658000,15,"","",0 days 00:00:30.620000,0 days 00:00:35.980000,0 days 00:00:26.058000,215.0,184.0,275.0,316.0,medium,15.0
0 days 00:46:43.993000,16,0 days 00:01:50.797000,16,"",0 days 00:46:41.947000,0 days 00:00:40.401000,0 days 00:00:37.489000,0 days 00:00:32.907000,205.0,181.0,"",309.0,medium,16.0
0 days 01:01:59.113000,16,"",17,0 days 00:59:48.636000,"","",0 days 00:00:48.192000,0 days 00:00:37.590000,146.0,156.0,278.0,99.0,soft,1.0
0 days 01:04:06.525000,16,0 days 00:02:07.412000,18,"","",0 days 00:00:30.412000,0 days 00:00:51.288000,0 days 00:00:45.712000,206.0,131.0,277.0,120.0,soft,2.0
0 days 01:06:11.146000,16,0 days 00:02:04.621000,19,"","",0 days 00:00:32.853000,0 days 00:01:02.540000,0 days 00:00:29.228000,117.0,146.0,277.0,276.0,soft,3.0
0 days 01:08:07.408000,16,0 days 00:01:56.262000,20,"","",0 days 00:00:30.275000,0 days 00:00:39.373000,0 days 00:00:46.614000,218.0,124.0,157.0,153.0,soft,4.0
0 days 01:10:23.810000,16,0 days 00:02:16.402000,21,"","",0 days 00:00:52.775000,0 days 00:00:55.029000,0 days 00:00:28.598000,122.0,159.0,277.0,295.0,soft,5.0
0 days 01:11:54.908000,16,0 days 00:01:31.098000,22,"","",0 days 00:00:30.189000,0 days 00:00:35.222000,0 days 00:00:25.687000,217.0,184.0,279.0,321.0,soft,6.0
0 days 01:14:41.254000,16,"",23,"","",0 days 00:00:54.096000,0 days 00:01:05.022000,0 days 00:00:47.179000,99.0,76.0,274.0,144.0,soft,7.0
0 days 01:16:12.686000,16,0 days 00:01:31.432000,24,"","",0 days 00:00:30.321000,0 days 00:00:35.091000,0 days 00:00:26.020000,214.0,186.0,262.0,324.0,soft,8.0
0 days 01:18:27.835000,16,0 days 00:02:15.149000,25,"","",0 days 00:00:41.966000,0 days 00:00:46.914000,0 days 00:00:46.269000,146.0,147.0,54.0,198.0,soft,9.0
0 days 01:21:01.180000,16,"",26,"",0 days 01:20:59.127000,0 days 00:01:11.933000,0 days 00:00:45.407000,0 days 00:00:36.024000,168.0,145.0,"",219.0,soft,10.0
0 days 00:18:10.269000,14,"",1,0 days 00:16:12.461000,"","",0 days 00:00:40.835000,0 days 00:00:39.175000,188.0,164.0,271.0,159.0,medium,1.0
0 days 00:19:49.561000,14,0 days 00:01:39.292000,2,"","",0 days 00:00:34.973000,0 days 00:00:37.276000,0 days 00:00:27.043000,211.0,180.0,274.0,295.0,medium,2.0
0 days 00:21:25.479000,14,0 days 00:01:35.918000,3,"","",0 days 00:00:32.338000,0 days 00:00:36.636000,0 days 00:00:26.944000,209.0,181.0,271.0,303.0,medium,3.0
0 days 00:23:17.717000,14,0 days 00:01:52.238000,4,"","",0 days 00:00:38.081000,0 days 00:00:41.250000,0 days 00:00:32.907000,149.0,175.0,271.0,269.0,medium,4.0
0 days 00:24:56.243000,14,0 days 00:01:38.526000,5,"","",0 days 00:00:32.403000,0 days 00:00:37.852000,0 days 00:00:28.271000,210.0,172.0,274.0,243.0,medium,5.0
0 days 00:26:31.354000,14,0 days 00:01:35.111000,6,"","",0 days 00:00:32.030000,0 days 00:00:36.470000,0 days 00:00:26.611000,202.0,179.0,275.0,307.0,medium,6.0
0 days 00:28:17.356000,14,0 days 00:01:46.002000,7,"","",0 days 00:00:31.938000,0 days 00:00:38.305000,0 days 00:00:35.759000,208.0,145.0,271.0,176.0,medium,7.0
0 days 00:29:52.118000,14,0 days 00:01:34.762000,8,"","",0 days 00:00:32.072000,0 days 00:00:36.432000,0 days 00:00:26.258000,207.0,182.0,278.0,317.0,medium,8.0
0 days 00:31:43.395000,14,0 days 00:01:51.277000,9,"","",0 days 00:00:32.113000,0 days 00:00:40.256000,0 days 00:00:38.908000,209.0,141.0,273.0,161.0,medium,9.0
0 days 00:33:28.655000,14,0 days 00:01:45.260000,10,"","",0 days 00:00:31.661000,0 days 00:00:37.050000,0 days 00:00:36.549000,210.0,175.0,275.0,111.0,medium,10.0
0 days 00:35:30.478000,14,0 days 00:02:01.823000,11,"","",0 days 00:00:33.865000,0 days 00:00:44.178000,0 days 00:00:43.780000,190.0,122.0,275.0,133.0,medium,11.0
0 days 00:37:05.351000,14,0 days 00:01:34.873000,12,"","",0 days 00:00:31.414000,0 days 00:00:37.059000,0 days 00:00:26.400000,207.0,180.0,275.0,326.0,medium,12.0
0 days 00:38:52.159000,14,0 days 00:01:46.808000,13,"",0 days 00:38:50.109000,0 days 00:00:32.727000,0 days 00:00:37.856000,0 days 00:00:36.225000,206.0,175.0,"",281.0,medium,13.0
0 days 00:41:08.203000,14,0 days 00:02:16.044000,14,0 days 00:39:11.848000,"",0 days 00:01:01.509000,0 days 00:00:43.310000,0 days 00:00:31.225000,170.0,157.0,276.0,244.0,soft,1.0
0 days 00:42:41.392000,14,0 days 00:01:33.189000,15,"","",0 days 00:00:30.896000,0 days 00:00:36.022000,0 days 00:00:26.271000,214.0,182.0,276.0,323.0,soft,2.0
0 days 00:44:59.131000,14,0 days 00:02:17.739000,16,"","",0 days 00:00:43.718000,0 days 00:00:59.360000,0 days 00:00:34.661000,120.0,132.0,275.0,240.0,soft,3.0
0 days 00:46:48.984000,14,0 days 00:01:49.853000,17,"","",0 days 00:00:32.896000,0 days 00:00:46.265000,0 days 00:00:30.692000,169.0,88.0,277.0,294.0,soft,4.0
0 days 00:48:21.868000,14,0 days 00:01:32.884000,18,"","",0 days 00:00:30.831000,0 days 00:00:35.830000,0 days 00:00:26.223000,212.0,182.0,276.0,324.0,soft,5.0
0 days 00:59:56.146000,14,"",19,"",0 days 00:50:20.175000,0 days 00:00:38.725000,0 days 00:00:40.918000,"",187.0,169.0,"",243.0,soft,6.0
0 days 01:01:52.398000,14,"",20,0 days 00:59:56.146000,"","",0 days 00:00:38.133000,0 days 00:00:40.561000,200.0,175.0,267.0,145.0,soft,7.0
0 days 01:03:29.043000,14,0 days 00:01:36.645000,21,"","",0 days 00:00:32.523000,0 days 00:00:37.139000,0 days 00:00:26.983000,207.0,179.0,269.0,290.0,soft,8.0
0 days 01:05:05.522000,14,0 days 00:01:36.479000,22,"","",0 days 00:00:32.421000,0 days 00:00:37,0 days 00:00:27.058000,204.0,179.0,267.0,292.0,soft,9.0
0 days 01:06:42.121000,14,0 days 00:01:36.599000,23,"","",0 days 00:00:32.435000,0 days 00:00:37.076000,0 days 00:00:27.088000,201.0,179.0,269.0,293.0,soft,10.0
0 days 01:08:18.901000,14,0 days 00:01:36.780000,24,"","",0 days 00:00:32.606000,0 days 00:00:37.137000,0 days 00:00:27.037000,204.0,179.0,269.0,290.0,soft,11.0
0 days 01:09:55.698000,14,0 days 00:01:36.797000,25,"","",0 days 00:00:32.525000,0 days 00:00:37.253000,0 days 00:00:27.019000,202.0,178.0,269.0,289.0,soft,12.0
0 days 01:11:32.449000,14,0 days 00:01:36.751000,26,"","",0 days 00:00:32.328000,0 days 00:00:37.313000,0 days 00:00:27.110000,200.0,178.0,270.0,291.0,soft,13.0
0 days 01:13:08.863000,14,0 days 00:01:36.414000,27,"","",0 days 00:00:32.262000,0 days 00:00:37.088000,0 days 00:00:27.064000,206.0,177.0,269.0,294.0,soft,14.0
0 days 01:14:45.479000,14,0 days 00:01:36.616000,28,"","",0 days 00:00:32.505000,0 days 00:00:37.179000,0 days 00:00:26.932000,201.0,179.0,270.0,292.0,soft,15.0
0 days 01:16:22.704000,14,0 days 00:01:37.225000,29,"","",0 days 00:00:32.847000,0 days 00:00:37.388000,0 days 00:00:26.990000,"",178.0,270.0,296.0,soft,16.0
0 days 01:18:23.131000,14,0 days 00:02:00.427000,30,"","",0 days 00:00:37.952000,0 days 00:00:42.530000,0 days 00:00:39.945000,186.0,165.0,72.0,224.0,soft,17.0
0 days 01:20:51.963000,14,0 days 00:02:28.832000,31,"",0 days 01:20:49.928000,0 days 00:01:09.871000,0 days 00:00:40.619000,0 days 00:00:38.342000,201.0,117.0,"",212.0,soft,18.0
0 days 00:18:34.126000,11,"",1,0 days 00:16:33.959000,"","",0 days 00:00:40.620000,0 days 00:00:46.881000,202.0,160.0,276.0,60.0,soft,1.0
0 days 00:20:12.724000,11,0 days 00:01:38.598000,2,"","",0 days 00:00:35.493000,0 days 00:00:36.923000,0 days 00:00:26.182000,203.0,179.0,276.0,291.0,soft,2.0
0 days 00:22:10.786000,11,0 days 00:01:58.062000,3,"","",0 days 00:00:37.118000,0 days 00:00:45.588000,0 days 00:00:35.356000,183.0,86.0,279.0,121.0,soft,3.0
0 days 00:23:45.405000,11,0 days 00:01:34.619000,4,"","",0 days 00:00:32.199000,0 days 00:00:36.232000,0 days 00:00:26.188000,208.0,183.0,280.0,329.0,soft,4.0
0 days 00:26:03.301000,11,0 days 00:02:17.896000,5,"","",0 days 00:00:41.601000,0 days 00:00:50.749000,0 days 00:00:45.546000,178.0,130.0,276.0,155.0,soft,5.0
0 days 00:27:37.761000,11,0 days 00:01:34.460000,6,"","",0 days 00:00:32.679000,0 days 00:00:35.651000,0 days 00:00:26.130000,211.0,182.0,281.0,330.0,soft,6.0
0 days 00:29:50.685000,11,0 days 00:02:12.924000,7,"","",0 days 00:00:47.542000,0 days 00:00:52.634000,0 days 00:00:32.748000,117.0,116.0,281.0,285.0,soft,7.0
0 days 00:31:24.471000,11,0 days 00:01:33.786000,8,"","",0 days 00:00:31.323000,0 days 00:00:36.569000,0 days 00:00:25.894000,211.0,180.0,281.0,332.0,soft,8.0
0 days 00:33:47.341000,11,0 days 00:02:22.870000,9,"","",0 days 00:00:46.444000,0 days 00:00:53.522000,0 days 00:00:42.904000,159.0,97.0,280.0,119.0,soft,9.0
0 days 00:35:20.100000,11,0 days 00:01:32.759000,10,"","",0 days 00:00:30.930000,0 days 00:00:35.950000,0 days 00:00:25.879000,212.0,185.0,281.0,329.0,soft,10.0
0 days 00:37:15.994000,11,0 days 00:01:55.894000,11,"",0 days 00:37:13.669000,0 days 00:00:37.421000,0 days 00:00:43.373000,0 days 00:00:35.100000,194.0,170.0,"",274.0,soft,11.0
0 days 01:02:06.724000,11,"",12,0 days 01:00:22.735000,"","",0 days 00:00:39.005000,0 days 00:00:33.940000,206.0,171.0,283.0,125.0,soft,1.0
0 days 01:03:51.024000,11,0 days 00:01:44.300000,13,"","",0 days 00:00:30.966000,0 days 00:00:40.867000,0 days 00:00:32.467000,201.0,145.0,250.0,186.0,soft,2.0
0 days 01:05:40.483000,11,0 days 00:01:49.459000,14,"","",0 days 00:00:38.976000,0 days 00:00:41.976000,0 days 00:00:28.507000,173.0,158.0,281.0,281.0,soft,3.0
0 days 01:07:12.665000,11,0 days 00:01:32.182000,15,"","",0 days 00:00:30.951000,0 days 00:00:35.471000,0 days 00:00:25.760000,210.0,187.0,281.0,332.0,soft,4.0
0 days 01:09:05.413000,11,0 days 00:01:52.748000,16,"",0 days 01:09:03.414000,0 days 00:00:37.620000,0 days 00:00:41.377000,0 days 00:00:33.751000,170.0,165.0,"",265.0,soft,5.0
0 days 01:11:27.242000,11,0 days 00:02:21.829000,17,0 days 01:09:24.650000,"",0 days 00:00:56.985000,0 days 00:00:45.071000,0 days 00:00:39.773000,168.0,121.0,281.0,240.0,soft,6.0
0 days 01:12:58.543000,11,0 days 00:01:31.301000,18,"","",0 days 00:00:30.454000,0 days 00:00:35.300000,0 days 00:00:25.547000,214.0,186.0,282.0,335.0,soft,7.0
0 days 01:14:58.833000,11,0 days 00:02:00.290000,19,"","",0 days 00:00:41.589000,0 days 00:00:49.864000,0 days 00:00:28.837000,166.0,140.0,282.0,242.0,soft,8.0
0 days 01:16:30.528000,11,0 days 00:01:31.695000,20,"","",0 days 00:00:30.740000,0 days 00:00:35.309000,0 days 00:00:25.646000,213.0,184.0,281.0,336.0,soft,9.0
0 days 01:18:37.393000,11,0 days 00:02:06.865000,21,"","",0 days 00:00:35.886000,0 days 00:00:41.332000,0 days 00:00:49.647000,194.0,174.0,44.0,210.0,soft,10.0
0 days 01:21:07.107000,11,0 days 00:02:29.714000,22,"",0 days 01:21:05.113000,0 days 00:01:08.650000,0 days 00:00:45.519000,0 days 00:00:35.545000,172.0,162.0,"",194.0,soft,11.0
0 days 00:17:08.990000,10,"",1,0 days 00:15:13.077000,"","",0 days 00:00:44.748000,0 days 00:00:33.998000,190.0,154.0,272.0,211.0,medium,1.0
0 days 00:18:50.487000,10,0 days 00:01:41.497000,2,"","",0 days 00:00:36.147000,0 days 00:00:38.042000,0 days 00:00:27.308000,202.0,174.0,274.0,318.0,medium,2.0
0 days 00:20:27.704000,10,0 days 00:01:37.217000,3,"","",0 days 00:00:33.612000,0 days 00:00:37.367000,0 days 00:00:26.238000,207.0,180.0,275.0,328.0,medium,3.0
0 days 00:22:02.939000,10,0 days 00:01:35.235000,4,"","",0 days 00:00:32.511000,0 days 00:00:36.722000,0 days 00:00:26.002000,211.0,184.0,276.0,328.0,medium,4.0
0 days 00:24:01.684000,10,0 days 00:01:58.745000,5,"","",0 days 00:00:43.010000,0 days 00:00:46.821000,0 days 00:00:28.914000,167.0,152.0,282.0,285.0,medium,5.0
0 days 00:25:35.948000,10,0 days 00:01:34.264000,6,"","",0 days 00:00:31.958000,0 days 00:00:35.943000,0 days 00:00:26.363000,209.0,181.0,277.0,327.0,medium,6.0
0 days 00:27:45.143000,10,0 days 00:02:09.195000,7,"","",0 days 00:00:46.394000,0 days 00:00:48.286000,0 days 00:00:34.515000,152.0,145.0,279.0,159.0,medium,7.0
0 days 00:29:18.847000,10,0 days 00:01:33.704000,8,"","",0 days 00:00:31.778000,0 days 00:00:35.917000,0 days 00:00:26.009000,213.0,184.0,280.0,331.0,medium,8.0
0 days 00:31:18.873000,10,0 days 00:02:00.026000,9,"",0 days 00:31:16.747000,0 days 00:00:39.560000,0 days 00:00:42.381000,0 days 00:00:38.085000,193.0,144.0,"",275.0,medium,9.0
0 days 00:38:55.816000,10,"",10,0 days 00:37:08.938000,"","",0 days 00:00:40.212000,0 days 00:00:30.882000,182.0,164.0,278.0,266.0,medium,10.0
0 days 00:40:29.785000,10,0 days 00:01:33.969000,11,"","",0 days 00:00:31.744000,0 days 00:00:36.219000,0 days 00:00:26.006000,213.0,178.0,277.0,329.0,medium,11.0
0 days 00:42:31.593000,10,0 days 00:02:01.808000,12,"","",0 days 00:00:45.509000,0 days 00:00:46.020000,0 days 00:00:30.279000,155.0,148.0,277.0,283.0,medium,12.0
0 days 00:44:17.080000,10,0 days 00:01:45.487000,13,"","",0 days 00:00:31.681000,0 days 00:00:44.243000,0 days 00:00:29.563000,214.0,151.0,278.0,287.0,medium,13.0
0 days 00:46:10.318000,10,0 days 00:01:53.238000,14,"","",0 days 00:00:41.833000,0 days 00:00:41.903000,0 days 00:00:29.502000,167.0,162.0,281.0,280.0,medium,14.0
0 days 00:47:44.327000,10,0 days 00:01:34.009000,15,"","",0 days 00:00:31.810000,0 days 00:00:36.229000,0 days 00:00:25.970000,212.0,185.0,279.0,327.0,medium,15.0
0 days 00:49:45.812000,10,0 days 00:02:01.485000,16,"",0 days 00:49:43.740000,0 days 00:00:39.045000,0 days 00:00:48.228000,0 days 00:00:34.212000,135.0,164.0,"",282.0,medium,16.0
0 days 01:01:06.738000,10,"",17,0 days 00:59:14.640000,"","",0 days 00:00:39.790000,0 days 00:00:33.648000,192.0,168.0,281.0,117.0,soft,1.0
0 days 01:03:02.430000,10,0 days 00:01:55.692000,18,"","",0 days 00:00:33.041000,0 days 00:00:45.950000,0 days 00:00:36.701000,157.0,132.0,282.0,204.0,soft,2.0
0 days 01:04:34.931000,10,0 days 00:01:32.501000,19,"","",0 days 00:00:31.149000,0 days 00:00:35.525000,0 days 00:00:25.827000,216.0,184.0,280.0,330.0,soft,3.0
0 days 01:06:49.870000,10,0 days 00:02:14.939000,20,"","",0 days 00:00:51.969000,0 days 00:00:54.496000,0 days 00:00:28.474000,140.0,149.0,280.0,288.0,soft,4.0
0 days 01:08:21.845000,10,0 days 00:01:31.975000,21,"","",0 days 00:00:30.816000,0 days 00:00:35.496000,0 days 00:00:25.663000,215.0,185.0,281.0,333.0,soft,5.0
0 days 01:10:35.906000,10,0 days 00:02:14.061000,22,"","",0 days 00:00:49.744000,0 days 00:00:47.677000,0 days 00:00:36.640000,157.0,158.0,280.0,191.0,soft,6.0
0 days 01:12:08.442000,10,0 days 00:01:32.536000,23,"","",0 days 00:00:30.865000,0 days 00:00:35.539000,0 days 00:00:26.132000,215.0,185.0,281.0,330.0,soft,7.0
0 days 01:14:34.102000,10,0 days 00:02:25.660000,24,"","",0 days 00:00:47.562000,0 days 00:00:53.741000,0 days 00:00:44.357000,150.0,121.0,281.0,230.0,soft,8.0
0 days 01:16:05.600000,10,0 days 00:01:31.498000,25,"","",0 days 00:00:30.707000,0 days 00:00:35.252000,0 days 00:00:25.539000,218.0,186.0,282.0,333.0,soft,9.0
0 days 01:18:01.074000,10,0 days 00:01:55.474000,26,"","",0 days 00:00:40.487000,0 days 00:00:39.312000,0 days 00:00:35.675000,195.0,165.0,49.0,283.0,soft,10.0
0 days 01:20:14.933000,10,0 days 00:02:13.859000,27,"",0 days 01:20:12.938000,0 days 00:00:55.709000,0 days 00:00:36.080000,0 days 00:00:42.070000,214.0,180.0,"",203.0,soft,11.0
0 days 00:17:19.457000,6,"",1,0 days 00:15:01.993000,"","",0 days 00:00:50.459000,0 days 00:00:42.290000,179.0,166.0,262.0,84.0,medium,1.0
0 days 00:19:07.724000,6,0 days 00:01:48.267000,2,"","",0 days 00:00:37.920000,0 days 00:00:40.466000,0 days 00:00:29.881000,208.0,142.0,270.0,228.0,medium,2.0
0 days 00:20:47.975000,6,0 days 00:01:40.251000,3,"","",0 days 00:00:34.736000,0 days 00:00:38.492000,0 days 00:00:27.023000,210.0,178.0,275.0,315.0,medium,3.0
0 days 00:23:00.319000,6,0 days 00:02:12.344000,4,"","",0 days 00:00:48.104000,0 days 00:00:46.239000,0 days 00:00:38.001000,184.0,153.0,275.0,64.0,medium,4.0
0 days 00:24:38.858000,6,0 days 00:01:38.539000,5,"","",0 days 00:00:33.585000,0 days 00:00:37.892000,0 days 00:00:27.062000,211.0,180.0,277.0,317.0,medium,5.0
0 days 00:26:51.174000,6,0 days 00:02:12.316000,6,"","",0 days 00:00:45.711000,0 days 00:00:46.875000,0 days 00:00:39.730000,188.0,152.0,277.0,101.0,medium,6.0
0 days 00:28:29.114000,6,0 days 00:01:37.940000,7,"","",0 days 00:00:32.695000,0 days 00:00:38.641000,0 days 00:00:26.604000,212.0,182.0,277.0,320.0,medium,7.0
0 days 00:30:26.945000,6,0 days 00:01:57.831000,8,"","",0 days 00:00:44.475000,0 days 00:00:43.685000,0 days 00:00:29.671000,182.0,162.0,276.0,246.0,medium,8.0
0 days 00:32:10.636000,6,0 days 00:01:43.691000,9,"",0 days 00:32:08.669000,0 days 00:00:32.748000,0 days 00:00:37.453000,0 days 00:00:33.490000,212.0,184.0,"",318.0,medium,9.0
0 days 00:41:20.309000,6,"",10,0 days 00:39:26.461000,"","",0 days 00:00:41.772000,0 days 00:00:32.589000,196.0,163.0,276.0,245.0,soft,1.0
0 days 00:42:55.946000,6,0 days 00:01:35.637000,11,"","",0 days 00:00:32.309000,0 days 00:00:37.109000,0 days 00:00:26.219000,214.0,182.0,276.0,320.0,soft,2.0
0 days 00:45:09.667000,6,0 days 00:02:13.721000,12,"","",0 days 00:00:49.363000,0 days 00:00:46.692000,0 days 00:00:37.666000,178.0,145.0,277.0,88.0,soft,3.0
0 days 00:46:45.387000,6,0 days 00:01:35.720000,13,"","",0 days 00:00:32.530000,0 days 00:00:36.827000,0 days 00:00:26.363000,210.0,185.0,277.0,314.0,soft,4.0
0 days 00:48:51.818000,6,0 days 00:02:06.431000,14,"","",0 days 00:00:47.225000,0 days 00:00:48.518000,0 days 00:00:30.688000,176.0,162.0,276.0,129.0,soft,5.0
0 days 00:59:10.614000,6,"",15,"",0 days 00:50:46.874000,0 days 00:00:32.182000,0 days 00:00:37.540000,"",212.0,179.0,"","",soft,6.0
0 days 01:01:09.251000,6,"",16,0 days 00:59:10.614000,"","",0 days 00:00:43.357000,0 days 00:00:36.468000,186.0,155.0,268.0,95.0,medium,10.0
0 days 01:02:48.735000,6,0 days 00:01:39.484000,17,"","",0 days 00:00:34.004000,0 days 00:00:38.065000,0 days 00:00:27.415000,209.0,174.0,272.0,290.0,medium,11.0
0 days 01:04:26.991000,6,0 days 00:01:38.256000,18,"","",0 days 00:00:33.296000,0 days 00:00:37.898000,0 days 00:00:27.062000,208.0,179.0,273.0,293.0,medium,12.0
0 days 01:06:05.935000,6,0 days 00:01:38.944000,19,"","",0 days 00:00:33.877000,0 days 00:00:38.093000,0 days 00:00:26.974000,206.0,180.0,272.0,297.0,medium,13.0
0 days 01:07:44.654000,6,0 days 00:01:38.719000,20,"","",0 days 00:00:33.884000,0 days 00:00:37.790000,0 days 00:00:27.045000,208.0,182.0,272.0,296.0,medium,14.0
0 days 01:09:23.341000,6,0 days 00:01:38.687000,21,"","",0 days 00:00:34.089000,0 days 00:00:37.636000,0 days 00:00:26.962000,206.0,179.0,273.0,297.0,medium,15.0
0 days 01:11:02.355000,6,0 days 00:01:39.014000,22,"","",0 days 00:00:33.776000,0 days 00:00:38.017000,0 days 00:00:27.221000,197.0,178.0,272.0,296.0,medium,16.0
0 days 01:12:40.904000,6,0 days 00:01:38.549000,23,"","",0 days 00:00:33.574000,0 days 00:00:37.627000,0 days 00:00:27.348000,208.0,179.0,275.0,298.0,medium,17.0
0 days 01:14:19.019000,6,0 days 00:01:38.115000,24,"","",0 days 00:00:33.620000,0 days 00:00:37.473000,0 days 00:00:27.022000,206.0,179.0,275.0,301.0,medium,18.0
0 days 01:15:58.654000,6,0 days 00:01:39.635000,25,"","",0 days 00:00:35.189000,0 days 00:00:37.384000,0 days 00:00:27.062000,209.0,181.0,274.0,303.0,medium,19.0
0 days 01:18:12.077000,6,0 days 00:02:13.423000,26,"","",0 days 00:00:40.901000,0 days 00:00:45.677000,0 days 00:00:46.845000,175.0,145.0,60.0,180.0,medium,20.0
0 days 01:20:40.485000,6,0 days 00:02:28.408000,27,"",0 days 01:20:38.452000,0 days 00:01:07.930000,0 days 00:00:43.357000,0 days 00:00:37.121000,194.0,167.0,"",233.0,medium,21.0
0 days 00:17:15.044000,5,"",1,0 days 00:15:08.124000,"","",0 days 00:00:44.697000,0 days 00:00:40.748000,169.0,146.0,269.0,103.0,soft,1.0
0 days 00:18:56.961000,5,0 days 00:01:41.917000,2,"","",0 days 00:00:35.748000,0 days 00:00:38.534000,0 days 00:00:27.635000,206.0,174.0,274.0,273.0,soft,2.0
0 days 00:21:10.770000,5,0 days 00:02:13.809000,3,"","",0 days 00:00:44.550000,0 days 00:00:55.761000,0 days 00:00:33.498000,156.0,125.0,275.0,250.0,soft,3.0
0 days 00:23:28.082000,5,0 days 00:02:17.312000,4,"","",0 days 00:00:52.501000,0 days 00:00:47.730000,0 days 00:00:37.081000,139.0,130.0,279.0,133.0,soft,4.0
0 days 00:25:04.750000,5,0 days 00:01:36.668000,5,"","",0 days 00:00:33.276000,0 days 00:00:36.639000,0 days 00:00:26.753000,212.0,181.0,279.0,316.0,soft,5.0
0 days 00:27:18.570000,5,0 days 00:02:13.820000,6,"","",0 days 00:00:48.065000,0 days 00:00:51.999000,0 days 00:00:33.756000,157.0,127.0,278.0,189.0,soft,6.0
0 days 00:28:53.985000,5,0 days 00:01:35.415000,7,"","",0 days 00:00:32.562000,0 days 00:00:36.470000,0 days 00:00:26.383000,211.0,180.0,278.0,322.0,soft,7.0
0 days 00:31:05.932000,5,0 days 00:02:11.947000,8,"","",0 days 00:00:48.591000,0 days 00:00:53.304000,0 days 00:00:30.052000,134.0,152.0,279.0,232.0,soft,8.0
0 days 00:32:58.471000,5,0 days 00:01:52.539000,9,"","",0 days 00:00:35.751000,0 days 00:00:46.071000,0 days 00:00:30.717000,158.0,139.0,280.0,213.0,soft,9.0
0 days 00:34:33.107000,5,0 days 00:01:34.636000,10,"","",0 days 00:00:32.069000,0 days 00:00:36.328000,0 days 00:00:26.239000,213.0,182.0,279.0,321.0,soft,10.0
0 days 00:36:41.977000,5,0 days 00:02:08.870000,11,"","",0 days 00:00:46.157000,0 days 00:00:49.402000,0 days 00:00:33.311000,133.0,129.0,278.0,235.0,soft,11.0
0 days 00:38:31.783000,5,0 days 00:01:49.806000,12,"",0 days 00:38:29.792000,0 days 00:00:33.282000,0 days 00:00:39.191000,0 days 00:00:37.333000,177.0,158.0,"",269.0,soft,12.0
0 days 00:59:19.295000,5,"",13,0 days 00:48:31.734000,0 days 00:50:50.353000,"",0 days 00:00:48.047000,"",162.0,84.0,"","",soft,1.0
0 days 01:01:25.772000,5,"",14,0 days 00:59:19.295000,"","",0 days 00:00:45.291000,0 days 00:00:39.076000,156.0,135.0,280.0,126.0,soft,1.0
0 days 01:03:36.336000,5,0 days 00:02:10.564000,15,"","",0 days 00:00:51.166000,0 days 00:00:45.120000,0 days 00:00:34.278000,180.0,85.0,280.0,196.0,soft,2.0
0 days 01:05:14.136000,5,0 days 00:01:37.800000,16,"","",0 days 00:00:31.824000,0 days 00:00:35.638000,0 days 00:00:30.338000,214.0,184.0,237.0,324.0,soft,3.0
0 days 01:07:27.045000,5,0 days 00:02:12.909000,17,"","",0 days 00:00:44.452000,0 days 00:00:52.027000,0 days 00:00:36.430000,153.0,118.0,280.0,208.0,soft,4.0
0 days 01:09:00.612000,5,0 days 00:01:33.567000,18,"","",0 days 00:00:31.656000,0 days 00:00:35.849000,0 days 00:00:26.062000,214.0,187.0,279.0,325.0,soft,5.0
0 days 01:11:22.348000,5,0 days 00:02:21.736000,19,"","",0 days 00:00:47.389000,0 days 00:00:57.530000,0 days 00:00:36.817000,147.0,110.0,279.0,159.0,soft,6.0
0 days 01:12:55.372000,5,0 days 00:01:33.024000,20,"","",0 days 00:00:31.379000,0 days 00:00:35.761000,0 days 00:00:25.884000,216.0,186.0,280.0,324.0,soft,7.0
0 days 01:14:53.278000,5,0 days 00:01:57.906000,21,"","",0 days 00:00:39.745000,0 days 00:00:40.221000,0 days 00:00:37.940000,174.0,147.0,280.0,133.0,soft,8.0
0 days 01:16:26.692000,5,0 days 00:01:33.414000,22,"","",0 days 00:00:31.598000,0 days 00:00:35.949000,0 days 00:00:25.867000,213.0,184.0,279.0,326.0,soft,9.0
0 days 01:18:32.906000,5,0 days 00:02:06.214000,23,"","",0 days 00:00:37.917000,0 days 00:00:41.061000,0 days 00:00:47.236000,208.0,174.0,47.0,207.0,soft,10.0
0 days 01:21:10.392000,5,"",24,"",0 days 01:21:08.358000,0 days 00:01:06.304000,0 days 00:00:49.996000,0 days 00:00:41.133000,165.0,144.0,"",138.0,soft,11.0
0 days 00:17:25.131000,4,"",1,0 days 00:15:19.272000,"","",0 days 00:00:43.775000,0 days 00:00:44.980000,195.0,151.0,270.0,65.0,medium,1.0
0 days 00:19:05.043000,4,0 days 00:01:39.912000,2,"","",0 days 00:00:33.210000,0 days 00:00:39.438000,0 days 00:00:27.264000,211.0,175.0,272.0,295.0,medium,2.0
0 days 00:20:41.788000,4,0 days 00:01:36.745000,3,"","",0 days 00:00:32.767000,0 days 00:00:37.207000,0 days 00:00:26.771000,206.0,183.0,271.0,307.0,medium,3.0
0 days 00:22:50.087000,4,0 days 00:02:08.299000,4,"","",0 days 00:00:45.441000,0 days 00:00:51.363000,0 days 00:00:31.495000,185.0,123.0,272.0,181.0,medium,4.0
0 days 00:24:24.723000,4,0 days 00:01:34.636000,5,"","",0 days 00:00:31.965000,0 days 00:00:36.449000,0 days 00:00:26.222000,212.0,186.0,279.0,321.0,medium,5.0
0 days 00:26:40.692000,4,0 days 00:02:15.969000,6,"","",0 days 00:00:47.556000,0 days 00:00:51.125000,0 days 00:00:37.288000,130.0,114.0,277.0,227.0,medium,6.0
0 days 00:28:31.983000,4,0 days 00:01:51.291000,7,"",0 days 00:28:30.011000,0 days 00:00:32.920000,0 days 00:00:43.517000,0 days 00:00:34.854000,212.0,150.0,"",281.0,medium,7.0
0 days 00:37:43.649000,4,"",8,0 days 00:35:52.515000,"","",0 days 00:00:46.447000,0 days 00:00:28.193000,147.0,165.0,274.0,294.0,medium,8.0
0 days 00:39:26.092000,4,0 days 00:01:42.443000,9,"",0 days 00:39:24.061000,0 days 00:00:31.954000,0 days 00:00:36.969000,0 days 00:00:33.520000,212.0,186.0,"",250.0,medium,9.0
0 days 00:41:57.513000,4,"",10,0 days 00:39:53.904000,"",0 days 00:01:10.485000,0 days 00:00:44.784000,0 days 00:00:36.226000,153.0,109.0,277.0,159.0,soft,1.0
0 days 00:43:30.128000,4,0 days 00:01:32.615000,11,"","",0 days 00:00:30.631000,0 days 00:00:36.020000,0 days 00:00:25.964000,216.0,186.0,276.0,323.0,soft,2.0
0 days 00:45:38.949000,4,0 days 00:02:08.821000,12,"","",0 days 00:00:42.373000,0 days 00:00:53.750000,0 days 00:00:32.698000,132.0,134.0,277.0,171.0,soft,3.0
0 days 00:47:12.081000,4,0 days 00:01:33.132000,13,"","",0 days 00:00:31.240000,0 days 00:00:35.874000,0 days 00:00:26.018000,216.0,184.0,277.0,317.0,soft,4.0
0 days 00:48:58.122000,4,0 days 00:01:46.041000,14,"",0 days 00:48:56.157000,0 days 00:00:34.559000,0 days 00:00:37.405000,0 days 00:00:34.077000,204.0,184.0,"",223.0,soft,5.0
0 days 01:01:32.949000,4,"",15,0 days 00:59:38.538000,0 days 01:01:30.894000,"",0 days 00:00:47.920000,0 days 00:00:32.567000,204.0,126.0,"",263.0,medium,10.0
0 days 01:03:26.034000,4,0 days 00:01:53.085000,16,0 days 01:01:50.518000,"",0 days 00:00:47.967000,0 days 00:00:37.901000,0 days 00:00:27.217000,212.0,183.0,258.0,282.0,soft,6.0
0 days 01:05:02.740000,4,0 days 00:01:36.706000,17,"","",0 days 00:00:32.566000,0 days 00:00:37.095000,0 days 00:00:27.045000,211.0,182.0,268.0,287.0,soft,7.0
0 days 01:06:38.585000,4,0 days 00:01:35.845000,18,"","",0 days 00:00:32.176000,0 days 00:00:36.714000,0 days 00:00:26.955000,"",183.0,270.0,293.0,soft,8.0
0 days 01:08:15.535000,4,0 days 00:01:36.950000,19,"","",0 days 00:00:32.517000,0 days 00:00:37.315000,0 days 00:00:27.118000,210.0,182.0,270.0,288.0,soft,9.0
0 days 01:09:51.724000,4,0 days 00:01:36.189000,20,"","",0 days 00:00:32.444000,0 days 00:00:36.878000,0 days 00:00:26.867000,211.0,181.0,268.0,291.0,soft,10.0
0 days 01:11:29.255000,4,0 days 00:01:37.531000,21,"","",0 days 00:00:32.173000,0 days 00:00:38.130000,0 days 00:00:27.228000,206.0,180.0,270.0,287.0,soft,11.0
0 days 01:13:06.269000,4,0 days 00:01:37.014000,22,"","",0 days 00:00:32.208000,0 days 00:00:37.635000,0 days 00:00:27.171000,209.0,175.0,269.0,291.0,soft,12.0
0 days 01:14:43.554000,4,0 days 00:01:37.285000,23,"","",0 days 00:00:32.187000,0 days 00:00:37.673000,0 days 00:00:27.425000,"",179.0,264.0,281.0,soft,13.0
0 days 01:16:20.101000,4,0 days 00:01:36.547000,24,"","",0 days 00:00:32.223000,0 days 00:00:37.054000,0 days 00:00:27.270000,208.0,179.0,269.0,293.0,soft,14.0
0 days 01:18:32.981000,4,0 days 00:02:12.880000,25,"","",0 days 00:00:41.153000,0 days 00:00:43.114000,0 days 00:00:48.613000,198.0,170.0,48.0,191.0,soft,15.0
0 days 01:21:03.147000,4,"",26,"",0 days 01:21:01.115000,0 days 00:01:07.679000,0 days 00:00:45.429000,0 days 00:00:37.084000,173.0,146.0,"",156.0,soft,16.0
0 days 00:18:12.716000,3,"",1,0 days 00:16:10.760000,"","",0 days 00:00:40.817000,0 days 00:00:45.419000,194.0,158.0,270.0,96.0,medium,1.0
0 days 00:19:51.538000,3,0 days 00:01:38.822000,2,"","",0 days 00:00:34.987000,0 days 00:00:37.069000,0 days 00:00:26.766000,212.0,184.0,275.0,317.0,medium,2.0
0 days 00:21:28.627000,3,0 days 00:01:37.089000,3,"","",0 days 00:00:33.079000,0 days 00:00:37.234000,0 days 00:00:26.776000,200.0,182.0,275.0,310.0,medium,3.0
0 days 00:23:35.658000,3,0 days 00:02:07.031000,4,"","",0 days 00:00:36.170000,0 days 00:00:48.402000,0 days 00:00:42.459000,162.0,164.0,276.0,83.0,medium,4.0
0 days 00:25:11.710000,3,0 days 00:01:36.052000,5,"","",0 days 00:00:32.386000,0 days 00:00:36.813000,0 days 00:00:26.853000,210.0,184.0,275.0,313.0,medium,5.0
0 days 00:26:47.098000,3,0 days 00:01:35.388000,6,"","",0 days 00:00:31.991000,0 days 00:00:36.854000,0 days 00:00:26.543000,"",186.0,276.0,305.0,medium,6.0
0 days 00:28:21.844000,3,0 days 00:01:34.746000,7,"","",0 days 00:00:31.777000,0 days 00:00:36.475000,0 days 00:00:26.494000,212.0,185.0,275.0,305.0,medium,7.0
0 days 00:30:12.344000,3,0 days 00:01:50.500000,8,"",0 days 00:30:10.368000,0 days 00:00:35.341000,0 days 00:00:40.011000,0 days 00:00:35.148000,207.0,159.0,"",248.0,medium,8.0
0 days 00:49:51.147000,3,"",9,0 days 00:47:46.831000,"","",0 days 00:00:46.592000,0 days 00:00:30.923000,157.0,141.0,275.0,130.0,soft,1.0
0 days 00:59:05.352000,3,"",10,"",0 days 00:52:18.926000,"","","","","","","",soft,2.0
0 days 01:01:19.351000,3,"",11,0 days 00:59:05.352000,"","",0 days 00:00:51,0 days 00:00:39.949000,155.0,152.0,276.0,81.0,soft,2.0
0 days 01:02:52.998000,3,0 days 00:01:33.647000,12,"","",0 days 00:00:30.916000,0 days 00:00:36.284000,0 days 00:00:26.447000,217.0,185.0,277.0,314.0,soft,3.0
0 days 01:05:00.406000,3,0 days 00:02:07.408000,13,"","",0 days 00:00:41.829000,0 days 00:00:53.038000,0 days 00:00:32.541000,142.0,82.0,276.0,228.0,soft,4.0
0 days 01:06:32.998000,3,0 days 00:01:32.592000,14,"","",0 days 00:00:30.690000,0 days 00:00:35.664000,0 days 00:00:26.238000,217.0,186.0,276.0,317.0,soft,5.0
0 days 01:08:26.104000,3,0 days 00:01:53.106000,15,"",0 days 01:08:24.116000,0 days 00:00:39.768000,0 days 00:00:40.973000,0 days 00:00:32.365000,198.0,165.0,"",289.0,soft,6.0
0 days 01:10:30.140000,3,0 days 00:02:04.036000,16,0 days 01:08:43.851000,"",0 days 00:00:52.242000,0 days 00:00:41.078000,0 days 00:00:30.716000,202.0,179.0,272.0,220.0,medium,9.0
0 days 01:12:06.454000,3,0 days 00:01:36.314000,17,"","",0 days 00:00:31.554000,0 days 00:00:37.617000,0 days 00:00:27.143000,215.0,168.0,274.0,294.0,medium,10.0
0 days 01:13:42.485000,3,0 days 00:01:36.031000,18,"","",0 days 00:00:31.985000,0 days 00:00:37.128000,0 days 00:00:26.918000,211.0,183.0,273.0,293.0,medium,11.0
0 days 01:15:18.919000,3,0 days 00:01:36.434000,19,"","",0 days 00:00:32.330000,0 days 00:00:37.480000,0 days 00:00:26.624000,191.0,185.0,273.0,295.0,medium,12.0
0 days 01:17:06.792000,3,0 days 00:01:47.873000,20,"","",0 days 00:00:31.544000,0 days 00:00:40.752000,0 days 00:00:35.577000,212.0,158.0,60.0,224.0,medium,13.0
0 days 01:19:19.466000,3,0 days 00:02:12.674000,21,"",0 days 01:19:17.466000,0 days 00:00:54.833000,0 days 00:00:43.048000,0 days 00:00:34.793000,169.0,145.0,"",251.0,medium,14.0
0 days 00:17:44.141000,63,"",1,0 days 00:15:34.106000,"","",0 days 00:00:42.577000,0 days 00:00:48.054000,193.0,158.0,272.0,71.0,soft,1.0
0 days 00:19:23.868000,63,0 days 00:01:39.727000,2,"","",0 days 00:00:34.728000,0 days 00:00:37.742000,0 days 00:00:27.257000,209.0,179.0,273.0,277.0,soft,2.0
0 days 00:21:01.180000,63,0 days 00:01:37.312000,3,"","",0 days 00:00:33.100000,0 days 00:00:37.310000,0 days 00:00:26.902000,210.0,182.0,273.0,299.0,soft,3.0
0 days 00:22:38.272000,63,0 days 00:01:37.092000,4,"","",0 days 00:00:33.192000,0 days 00:00:37.083000,0 days 00:00:26.817000,208.0,182.0,274.0,298.0,soft,4.0
0 days 00:24:14.198000,63,0 days 00:01:35.926000,5,"","",0 days 00:00:32.444000,0 days 00:00:36.642000,0 days 00:00:26.840000,211.0,182.0,274.0,296.0,soft,5.0
0 days 00:25:49.882000,63,0 days 00:01:35.684000,6,"","",0 days 00:00:32.263000,0 days 00:00:36.597000,0 days 00:00:26.824000,"",181.0,272.0,301.0,soft,6.0
0 days 00:27:52.311000,63,0 days 00:02:02.429000,7,"","",0 days 00:00:42.965000,0 days 00:00:45.435000,0 days 00:00:34.029000,164.0,129.0,277.0,171.0,soft,7.0
0 days 00:29:26.300000,63,0 days 00:01:33.989000,8,"","",0 days 00:00:31.845000,0 days 00:00:35.999000,0 days 00:00:26.145000,212.0,186.0,279.0,326.0,soft,8.0
0 days 00:31:30.134000,63,0 days 00:02:03.834000,9,"","",0 days 00:00:43.483000,0 days 00:00:46.926000,0 days 00:00:33.425000,148.0,134.0,280.0,208.0,soft,9.0
0 days 00:33:03.084000,63,0 days 00:01:32.950000,10,"","",0 days 00:00:31.094000,0 days 00:00:35.639000,0 days 00:00:26.217000,215.0,185.0,282.0,317.0,soft,10.0
0 days 00:35:02.594000,63,0 days 00:01:59.510000,11,"",0 days 00:35:00.494000,0 days 00:00:40.523000,0 days 00:00:43.305000,0 days 00:00:35.682000,160.0,158.0,"",246.0,soft,11.0
0 days 00:59:34.799000,63,"",12,0 days 00:48:23.298000,0 days 00:50:16.423000,"",0 days 00:00:41.429000,"",187.0,156.0,"",234.0,soft,1.0
0 days 01:01:37.985000,63,"",13,0 days 00:59:34.799000,"","",0 days 00:00:45.400000,0 days 00:00:41.780000,185.0,125.0,280.0,77.0,soft,1.0
0 days 01:03:21.701000,63,0 days 00:01:43.716000,14,"","",0 days 00:00:31.299000,0 days 00:00:44.258000,0 days 00:00:28.159000,186.0,149.0,280.0,256.0,soft,2.0
0 days 01:04:53.592000,63,0 days 00:01:31.891000,15,"","",0 days 00:00:30.722000,0 days 00:00:35.322000,0 days 00:00:25.847000,215.0,186.0,279.0,323.0,soft,3.0
0 days 01:06:59.050000,63,0 days 00:02:05.458000,16,"","",0 days 00:00:43.461000,0 days 00:00:46.950000,0 days 00:00:35.047000,165.0,125.0,280.0,181.0,soft,4.0
0 days 01:08:30.424000,63,0 days 00:01:31.374000,17,"","",0 days 00:00:30.433000,0 days 00:00:35.218000,0 days 00:00:25.723000,212.0,185.0,280.0,326.0,soft,5.0
0 days 01:10:45.283000,63,0 days 00:02:14.859000,18,"","",0 days 00:00:45.441000,0 days 00:00:47.911000,0 days 00:00:41.507000,150.0,121.0,278.0,168.0,soft,6.0
0 days 01:12:16.452000,63,0 days 00:01:31.169000,19,"","",0 days 00:00:30.434000,0 days 00:00:35.133000,0 days 00:00:25.602000,215.0,188.0,278.0,325.0,soft,7.0
0 days 01:14:17.199000,63,0 days 00:02:00.747000,20,"","",0 days 00:00:42.919000,0 days 00:00:46.239000,0 days 00:00:31.589000,168.0,160.0,278.0,149.0,soft,8.0
0 days 01:15:49.181000,63,0 days 00:01:31.982000,21,"","",0 days 00:00:31.005000,0 days 00:00:35.249000,0 days 00:00:25.728000,216.0,186.0,279.0,325.0,soft,9.0
0 days 01:17:55.343000,63,0 days 00:02:06.162000,22,"","",0 days 00:00:39.326000,0 days 00:00:39.541000,0 days 00:00:47.295000,187.0,156.0,55.0,126.0,soft,10.0
0 days 01:20:11.899000,63,0 days 00:02:16.556000,23,"",0 days 01:20:09.843000,0 days 00:00:59.552000,0 days 00:00:36.208000,0 days 00:00:40.796000,215.0,178.0,"",151.0,soft,11.0
0 days 00:17:29.397000,77,"",1,0 days 00:15:21.102000,"","",0 days 00:00:44.152000,0 days 00:00:47.661000,198.0,126.0,269.0,53.0,medium,1.0
0 days 00:19:08.914000,77,0 days 00:01:39.517000,2,"","",0 days 00:00:35.265000,0 days 00:00:37.439000,0 days 00:00:26.813000,210.0,182.0,276.0,313.0,medium,2.0
0 days 00:20:53.264000,77,0 days 00:01:44.350000,3,"","",0 days 00:00:34.061000,0 days 00:00:38.850000,0 days 00:00:31.439000,"",177.0,269.0,220.0,medium,3.0
0 days 00:22:28.670000,77,0 days 00:01:35.406000,4,"","",0 days 00:00:32.341000,0 days 00:00:36.478000,0 days 00:00:26.587000,212.0,182.0,275.0,312.0,medium,4.0
0 days 00:24:04.074000,77,0 days 00:01:35.404000,5,"","",0 days 00:00:32.346000,0 days 00:00:36.442000,0 days 00:00:26.616000,210.0,182.0,274.0,306.0,medium,5.0
0 days 00:25:56.093000,77,0 days 00:01:52.019000,6,"","",0 days 00:00:38.750000,0 days 00:00:45.541000,0 days 00:00:27.728000,171.0,161.0,275.0,298.0,medium,6.0
0 days 00:27:30.494000,77,0 days 00:01:34.401000,7,"","",0 days 00:00:31.641000,0 days 00:00:36.520000,0 days 00:00:26.240000,213.0,186.0,277.0,317.0,medium,7.0
0 days 00:29:17.193000,77,0 days 00:01:46.699000,8,"","",0 days 00:00:34.521000,0 days 00:00:43.285000,0 days 00:00:28.893000,165.0,151.0,275.0,214.0,medium,8.0
0 days 00:31:10.258000,77,0 days 00:01:53.065000,9,"","",0 days 00:00:35.758000,0 days 00:00:44.003000,0 days 00:00:33.304000,197.0,150.0,277.0,181.0,medium,9.0
0 days 00:32:44.031000,77,0 days 00:01:33.773000,10,"","",0 days 00:00:31.479000,0 days 00:00:36.107000,0 days 00:00:26.187000,211.0,186.0,278.0,322.0,medium,10.0
0 days 00:34:42.746000,77,0 days 00:01:58.715000,11,"",0 days 00:34:40.757000,0 days 00:00:37.808000,0 days 00:00:38.975000,0 days 00:00:41.932000,209.0,150.0,"",234.0,medium,11.0
0 days 00:49:06.326000,77,"",12,0 days 00:47:10.993000,"","",0 days 00:00:40.402000,0 days 00:00:29.272000,164.0,173.0,273.0,264.0,soft,1.0
0 days 00:50:02.216000,77,"",13,"","","","","","","","","",soft,2.0
