Time,DriverNumber,LapTime,LapNumber,PitOutTime,PitInTime,Sector1Time,Sector2Time,Sector3Time,SpeedI1,SpeedI2,SpeedFL,SpeedST,Compound,TyreLife
0 days 00:26:09.791000,1,"",1,0 days 00:24:38.241000,"","",0 days 00:00:30.741000,0 days 00:00:30.385000,300.0,288.0,304.0,261.0,medium,1.0
0 days 00:27:40.687000,1,0 days 00:01:30.896000,2,"","",0 days 00:00:27.276000,0 days 00:00:27.792000,0 days 00:00:35.828000,314.0,333.0,241.0,337.0,medium,2.0
0 days 00:29:50.785000,1,0 days 00:02:10.098000,3,"","",0 days 00:00:52.578000,0 days 00:00:44.815000,0 days 00:00:32.705000,173.0,293.0,303.0,149.0,medium,3.0
0 days 00:31:12.657000,1,0 days 00:01:21.872000,4,"","",0 days 00:00:27.236000,0 days 00:00:27.543000,0 days 00:00:27.093000,313.0,332.0,305.0,337.0,medium,4.0
0 days 00:32:53.456000,1,0 days 00:01:40.799000,5,"",0 days 00:32:49.634000,0 days 00:00:31.643000,0 days 00:00:35.332000,0 days 00:00:33.824000,289.0,295.0,"",215.0,medium,5.0
0 days 00:43:17.819000,1,"",6,0 days 00:41:37.007000,"","",0 days 00:00:30.619000,0 days 00:00:28.929000,294.0,302.0,296.0,216.0,medium,6.0
0 days 00:44:44.022000,1,0 days 00:01:26.203000,7,"","",0 days 00:00:28.379000,0 days 00:00:29.276000,0 days 00:00:28.548000,298.0,304.0,297.0,308.0,medium,7.0
0 days 00:46:09.569000,1,0 days 00:01:25.547000,8,"","",0 days 00:00:28.127000,0 days 00:00:29.145000,0 days 00:00:28.275000,300.0,304.0,298.0,309.0,medium,8.0
0 days 00:47:35.609000,1,0 days 00:01:26.040000,9,"","",0 days 00:00:28.129000,0 days 00:00:29.450000,0 days 00:00:28.461000,302.0,298.0,296.0,312.0,medium,9.0
0 days 00:49:01.409000,1,0 days 00:01:25.800000,10,"","",0 days 00:00:28.139000,0 days 00:00:29.308000,0 days 00:00:28.353000,305.0,297.0,296.0,318.0,medium,10.0
0 days 00:50:27.287000,1,0 days 00:01:25.878000,11,"","",0 days 00:00:28.202000,0 days 00:00:29.231000,0 days 00:00:28.445000,300.0,303.0,296.0,308.0,medium,11.0
0 days 00:52:01.922000,1,0 days 00:01:34.635000,12,"",0 days 00:51:58.126000,0 days 00:00:29.532000,0 days 00:00:30.508000,0 days 00:00:34.595000,285.0,287.0,"",303.0,medium,12.0
0 days 01:02:34.645000,1,"",13,0 days 01:00:45.904000,"","",0 days 00:00:33.469000,0 days 00:00:42.950000,293.0,291.0,307.0,246.0,soft,1.0
0 days 01:03:55.897000,1,0 days 00:01:21.252000,14,"","",0 days 00:00:27.070000,0 days 00:00:27.249000,0 days 00:00:26.933000,316.0,335.0,305.0,341.0,soft,2.0
0 days 01:06:28.840000,1,"",15,"","",0 days 00:00:50.529000,0 days 00:00:55.051000,0 days 00:00:47.416000,145.0,161.0,183.0,140.0,soft,3.0
0 days 01:08:31.208000,1,0 days 00:02:02.368000,16,"","",0 days 00:00:47.105000,0 days 00:00:39.624000,0 days 00:00:35.639000,176.0,294.0,305.0,159.0,soft,4.0
0 days 01:09:52.671000,1,0 days 00:01:21.463000,17,"","",0 days 00:00:27.144000,0 days 00:00:27.334000,0 days 00:00:26.985000,313.0,335.0,303.0,338.0,soft,5.0
0 days 01:12:15.891000,1,0 days 00:02:23.220000,18,"",0 days 01:12:12.051000,0 days 00:00:43.281000,0 days 00:00:47.167000,0 days 00:00:52.772000,183.0,185.0,"",223.0,soft,6.0
0 days 01:14:21.691000,1,0 days 00:02:05.800000,19,0 days 01:12:33.047000,0 days 01:14:17.871000,0 days 00:00:59.302000,0 days 00:00:30.901000,0 days 00:00:35.597000,266.0,293.0,"",247.0,soft,7.0
0 days 00:30:20.598000,55,"",1,0 days 00:28:41.728000,"","",0 days 00:00:34.729000,0 days 00:00:30.880000,285.0,304.0,303.0,251.0,medium,1.0
0 days 00:32:21.337000,55,0 days 00:02:00.739000,2,"","",0 days 00:00:27.487000,0 days 00:00:50.500000,0 days 00:00:42.752000,315.0,178.0,303.0,333.0,medium,2.0
0 days 00:33:43.990000,55,0 days 00:01:22.653000,3,"","",0 days 00:00:27.385000,0 days 00:00:27.930000,0 days 00:00:27.338000,318.0,329.0,305.0,"",medium,3.0
0 days 00:36:07.165000,55,0 days 00:02:23.175000,4,"",0 days 00:36:03.355000,0 days 00:00:53.818000,0 days 00:00:52.252000,0 days 00:00:37.105000,138.0,283.0,"",147.0,medium,4.0
0 days 00:45:18.201000,55,"",5,0 days 00:43:28.282000,"","",0 days 00:00:32.572000,0 days 00:00:30.373000,293.0,305.0,301.0,252.0,medium,5.0
0 days 00:46:42.097000,55,0 days 00:01:23.896000,6,"","",0 days 00:00:27.312000,0 days 00:00:27.925000,0 days 00:00:28.659000,316.0,330.0,303.0,334.0,medium,6.0
0 days 00:48:13.759000,55,0 days 00:01:31.662000,7,"",0 days 00:48:10.079000,0 days 00:00:27.421000,0 days 00:00:28.433000,0 days 00:00:35.808000,319.0,303.0,"",327.0,medium,7.0
0 days 00:57:56.234000,55,"",8,0 days 00:56:01.711000,"","",0 days 00:00:36.833000,0 days 00:00:44.863000,245.0,302.0,305.0,232.0,soft,1.0
0 days 00:59:18.131000,55,0 days 00:01:21.897000,9,"","",0 days 00:00:27.186000,0 days 00:00:27.607000,0 days 00:00:27.104000,318.0,332.0,309.0,335.0,soft,2.0
0 days 01:02:18.006000,55,"",10,"","",0 days 00:00:54.577000,0 days 00:01:11.080000,0 days 00:00:54.185000,91.0,114.0,302.0,129.0,soft,3.0
0 days 01:03:45.129000,55,0 days 00:01:27.123000,11,"",0 days 01:03:41.191000,0 days 00:00:27.353000,0 days 00:00:27.664000,0 days 00:00:32.106000,315.0,328.0,"",332.0,soft,4.0
0 days 01:11:58.271000,55,"",12,0 days 01:10:11.893000,"","",0 days 00:00:30.264000,0 days 00:00:32.444000,295.0,305.0,301.0,265.0,soft,5.0
0 days 01:13:24.585000,55,0 days 00:01:26.314000,13,"","",0 days 00:00:28.236000,0 days 00:00:29.317000,0 days 00:00:28.761000,300.0,302.0,303.0,313.0,soft,6.0
0 days 01:14:50.542000,55,0 days 00:01:25.957000,14,"","",0 days 00:00:28.105000,0 days 00:00:29.243000,0 days 00:00:28.609000,301.0,304.0,303.0,312.0,soft,7.0
0 days 01:16:16.695000,55,0 days 00:01:26.153000,15,"","",0 days 00:00:28.144000,0 days 00:00:29.302000,0 days 00:00:28.707000,304.0,317.0,305.0,315.0,soft,8.0
0 days 01:18:15.399000,55,0 days 00:01:58.704000,16,"","",0 days 00:00:28.137000,0 days 00:00:40.181000,0 days 00:00:50.386000,"",170.0,117.0,323.0,soft,9.0
0 days 01:20:25.510000,55,0 days 00:02:10.111000,17,"",0 days 01:20:21.663000,0 days 00:01:04.877000,0 days 00:00:29.860000,0 days 00:00:35.374000,300.0,298.0,"",282.0,soft,10.0
0 days 01:07:41.732000,47,"",1,0 days 01:05:58.791000,"","",0 days 00:00:34.127000,0 days 00:00:31.979000,274.0,281.0,300.0,235.0,soft,1.0
0 days 01:09:05.626000,47,0 days 00:01:23.894000,2,"","",0 days 00:00:27.992000,0 days 00:00:28.054000,0 days 00:00:27.848000,310.0,326.0,301.0,331.0,soft,2.0
0 days 01:11:13.647000,47,0 days 00:02:08.021000,3,"","",0 days 00:00:38.162000,0 days 00:00:53.881000,0 days 00:00:35.978000,192.0,158.0,299.0,235.0,soft,3.0
0 days 01:12:37.039000,47,0 days 00:01:23.392000,4,"","",0 days 00:00:27.659000,0 days 00:00:27.976000,0 days 00:00:27.757000,311.0,325.0,302.0,333.0,soft,4.0
0 days 01:14:46.052000,47,0 days 00:02:09.013000,5,"","",0 days 00:00:41.963000,0 days 00:00:44.927000,0 days 00:00:42.123000,154.0,176.0,296.0,264.0,soft,5.0
0 days 01:16:13.908000,47,0 days 00:01:27.856000,6,"","",0 days 00:00:28.082000,0 days 00:00:31.340000,0 days 00:00:28.434000,309.0,329.0,301.0,331.0,soft,6.0
0 days 01:17:51.138000,47,0 days 00:01:37.230000,7,"","",0 days 00:00:30.193000,0 days 00:00:30.818000,0 days 00:00:36.219000,284.0,286.0,119.0,291.0,soft,7.0
0 days 01:19:55.900000,47,0 days 00:02:04.762000,8,"",0 days 01:19:52.083000,0 days 00:00:59.097000,0 days 00:00:29.631000,0 days 00:00:36.034000,314.0,312.0,"",293.0,soft,8.0
0 days 00:40:38.042000,45,"",1,0 days 00:39:03.542000,"","",0 days 00:00:32.396000,0 days 00:00:30.909000,299.0,294.0,303.0,225.0,medium,1.0
0 days 00:42:03.409000,45,0 days 00:01:25.367000,2,"","",0 days 00:00:27.742000,0 days 00:00:29.038000,0 days 00:00:28.587000,307.0,321.0,304.0,337.0,medium,2.0
0 days 00:44:02.805000,45,0 days 00:01:59.396000,3,"","",0 days 00:00:43.885000,0 days 00:00:39.897000,0 days 00:00:35.614000,163.0,303.0,303.0,198.0,medium,3.0
0 days 00:45:41.400000,45,0 days 00:01:38.595000,4,"","",0 days 00:00:27.495000,0 days 00:00:37.752000,0 days 00:00:33.348000,307.0,279.0,302.0,337.0,medium,4.0
0 days 00:47:06.341000,45,0 days 00:01:24.941000,5,"","",0 days 00:00:27.472000,0 days 00:00:28.927000,0 days 00:00:28.542000,309.0,321.0,303.0,338.0,medium,5.0
0 days 00:48:57.154000,45,0 days 00:01:50.813000,6,"","",0 days 00:00:37.643000,0 days 00:00:41.151000,0 days 00:00:32.019000,194.0,208.0,302.0,299.0,medium,6.0
0 days 00:50:21.944000,45,0 days 00:01:24.790000,7,"","",0 days 00:00:27.527000,0 days 00:00:28.897000,0 days 00:00:28.366000,315.0,328.0,302.0,335.0,medium,7.0
0 days 00:52:12.576000,45,0 days 00:01:50.632000,8,"","",0 days 00:00:39,0 days 00:00:38.516000,0 days 00:00:33.116000,198.0,292.0,302.0,277.0,medium,8.0
0 days 00:53:37.284000,45,0 days 00:01:24.708000,9,"","",0 days 00:00:27.579000,0 days 00:00:28.898000,0 days 00:00:28.231000,311.0,327.0,303.0,334.0,medium,9.0
0 days 00:55:15.450000,45,0 days 00:01:38.166000,10,"",0 days 00:55:11.650000,0 days 00:00:29.543000,0 days 00:00:32.722000,0 days 00:00:35.901000,293.0,309.0,"",289.0,medium,10.0
0 days 00:57:24.835000,45,0 days 00:02:09.385000,11,0 days 00:55:37.207000,0 days 00:57:20.976000,0 days 00:01:03.037000,0 days 00:00:30.680000,0 days 00:00:35.668000,308.0,317.0,"",254.0,medium,11.0
0 days 01:04:15.484000,45,"",12,0 days 01:02:40.860000,"","",0 days 00:00:31.232000,0 days 00:00:33.762000,301.0,299.0,310.0,256.0,soft,1.0
0 days 01:05:38.353000,45,0 days 00:01:22.869000,13,"","",0 days 00:00:27.088000,0 days 00:00:28.164000,0 days 00:00:27.617000,317.0,332.0,309.0,341.0,soft,2.0
0 days 01:07:23.865000,45,0 days 00:01:45.512000,14,"","",0 days 00:00:32.855000,0 days 00:00:36.913000,0 days 00:00:35.744000,281.0,262.0,296.0,250.0,soft,3.0
0 days 01:08:47.235000,45,0 days 00:01:23.370000,15,"","",0 days 00:00:27.108000,0 days 00:00:28.372000,0 days 00:00:27.890000,320.0,335.0,308.0,341.0,soft,4.0
0 days 01:10:41.026000,45,0 days 00:01:53.791000,16,"","",0 days 00:00:36.731000,0 days 00:00:43.929000,0 days 00:00:33.131000,263.0,223.0,305.0,287.0,soft,5.0
0 days 01:12:04.743000,45,0 days 00:01:23.717000,17,"","",0 days 00:00:27.243000,0 days 00:00:28.431000,0 days 00:00:28.043000,318.0,333.0,301.0,340.0,soft,6.0
0 days 01:13:40.478000,45,0 days 00:01:35.735000,18,"",0 days 01:13:36.687000,0 days 00:00:29.340000,0 days 00:00:30.026000,0 days 00:00:36.369000,296.0,309.0,"",327.0,soft,7.0
0 days 01:15:41.746000,45,0 days 00:02:01.268000,19,0 days 01:13:59.813000,"",0 days 00:01:00.400000,0 days 00:00:30.498000,0 days 00:00:30.370000,312.0,326.0,302.0,232.0,soft,8.0
0 days 01:17:35.430000,45,0 days 00:01:53.684000,20,"","",0 days 00:00:31.435000,0 days 00:00:31.696000,0 days 00:00:50.553000,286.0,280.0,46.0,311.0,soft,9.0
0 days 01:19:55.041000,45,0 days 00:02:19.611000,21,"",0 days 01:19:51.222000,0 days 00:01:10.163000,0 days 00:00:33.307000,0 days 00:00:36.141000,298.0,266.0,"",276.0,soft,10.0
0 days 00:28:14.438000,44,"",1,0 days 00:26:27.414000,"","",0 days 00:00:30.568000,0 days 00:00:28.861000,293.0,302.0,301.0,240.0,medium,1.0
0 days 00:29:39.835000,44,0 days 00:01:25.397000,2,"","",0 days 00:00:28.307000,0 days 00:00:28.993000,0 days 00:00:28.097000,298.0,297.0,302.0,318.0,medium,2.0
0 days 00:31:04.677000,44,0 days 00:01:24.842000,3,"","",0 days 00:00:27.970000,0 days 00:00:28.878000,0 days 00:00:27.994000,"",297.0,303.0,320.0,medium,3.0
0 days 00:32:29.132000,44,0 days 00:01:24.455000,4,"","",0 days 00:00:27.870000,0 days 00:00:28.690000,0 days 00:00:27.895000,302.0,298.0,305.0,321.0,medium,4.0
0 days 00:33:53.697000,44,0 days 00:01:24.565000,5,"","",0 days 00:00:27.794000,0 days 00:00:28.787000,0 days 00:00:27.984000,308.0,304.0,307.0,308.0,medium,5.0
0 days 00:35:19.018000,44,0 days 00:01:25.321000,6,"","",0 days 00:00:28.008000,0 days 00:00:29.013000,0 days 00:00:28.300000,307.0,306.0,305.0,320.0,medium,6.0
0 days 00:36:43.693000,44,0 days 00:01:24.675000,7,"","",0 days 00:00:27.899000,0 days 00:00:28.860000,0 days 00:00:27.916000,305.0,303.0,303.0,311.0,medium,7.0
0 days 00:38:56.323000,44,0 days 00:02:12.630000,8,"",0 days 00:38:52.508000,0 days 00:00:40.026000,0 days 00:00:44.965000,0 days 00:00:47.639000,185.0,193.0,"",218.0,medium,8.0
0 days 00:41:14.431000,44,0 days 00:02:18.108000,9,0 days 00:39:21.771000,"",0 days 00:01:04.787000,0 days 00:00:38.167000,0 days 00:00:35.154000,282.0,304.0,303.0,202.0,medium,9.0
0 days 00:42:37.771000,44,0 days 00:01:23.340000,10,"","",0 days 00:00:27.475000,0 days 00:00:28.224000,0 days 00:00:27.641000,315.0,328.0,301.0,334.0,medium,10.0
0 days 00:44:54.171000,44,0 days 00:02:16.400000,11,"","",0 days 00:00:47.364000,0 days 00:00:53.428000,0 days 00:00:35.608000,132.0,247.0,305.0,208.0,medium,11.0
0 days 00:46:26.577000,44,0 days 00:01:32.406000,12,"",0 days 00:46:22.761000,0 days 00:00:28.109000,0 days 00:00:29.975000,0 days 00:00:34.322000,297.0,312.0,"",338.0,medium,12.0
0 days 00:57:59.330000,44,"",13,0 days 00:56:10.969000,"","",0 days 00:00:31.590000,0 days 00:00:44.925000,304.0,291.0,311.0,229.0,soft,1.0
0 days 01:00:00.136000,44,0 days 00:02:00.806000,14,"","",0 days 00:00:36.174000,0 days 00:00:53.348000,0 days 00:00:31.284000,232.0,173.0,308.0,267.0,soft,2.0
0 days 01:01:22.703000,44,0 days 00:01:22.567000,15,"","",0 days 00:00:27.318000,0 days 00:00:27.865000,0 days 00:00:27.384000,315.0,326.0,307.0,331.0,soft,3.0
0 days 01:03:30.079000,44,0 days 00:02:07.376000,16,"",0 days 01:03:26.200000,0 days 00:00:37.987000,0 days 00:00:44.001000,0 days 00:00:45.388000,191.0,179.0,"",213.0,soft,4.0
0 days 01:07:44.687000,44,"",17,0 days 01:06:03.117000,"","",0 days 00:00:34.377000,0 days 00:00:32.385000,287.0,306.0,305.0,218.0,soft,5.0
0 days 01:09:07.699000,44,0 days 00:01:23.012000,18,"","",0 days 00:00:27.445000,0 days 00:00:28.105000,0 days 00:00:27.462000,313.0,327.0,305.0,334.0,soft,6.0
0 days 01:10:38.956000,44,0 days 00:01:31.257000,19,"",0 days 01:10:35.068000,0 days 00:00:30.063000,0 days 00:00:28.857000,0 days 00:00:32.337000,307.0,306.0,"",232.0,soft,7.0
0 days 01:16:37.679000,44,"",20,0 days 01:14:48.232000,"","",0 days 00:00:30.674000,0 days 00:00:29.575000,289.0,299.0,286.0,251.0,soft,8.0
0 days 01:18:19.569000,44,0 days 00:01:41.890000,21,"","",0 days 00:00:29.474000,0 days 00:00:35.872000,0 days 00:00:36.544000,234.0,228.0,119.0,315.0,soft,9.0
0 days 01:20:37.627000,44,0 days 00:02:18.058000,22,"",0 days 01:20:33.714000,0 days 00:01:13.261000,0 days 00:00:30.920000,0 days 00:00:33.877000,289.0,299.0,"",274.0,soft,10.0
0 days 00:38:13.787000,31,"",1,0 days 00:36:09.787000,"","",0 days 00:00:34.471000,0 days 00:00:39.981000,281.0,263.0,301.0,245.0,medium,1.0
0 days 00:39:37.992000,31,0 days 00:01:24.205000,2,"","",0 days 00:00:27.587000,0 days 00:00:28.564000,0 days 00:00:28.054000,308.0,324.0,303.0,335.0,medium,2.0
0 days 00:41:26.643000,31,0 days 00:01:48.651000,3,"","",0 days 00:00:40.641000,0 days 00:00:35.116000,0 days 00:00:32.894000,249.0,306.0,304.0,163.0,medium,3.0
0 days 00:42:50.170000,31,0 days 00:01:23.527000,4,"","",0 days 00:00:27.450000,0 days 00:00:28.309000,0 days 00:00:27.768000,311.0,328.0,306.0,336.0,medium,4.0
0 days 00:44:57.783000,31,0 days 00:02:07.613000,5,"","",0 days 00:00:40.365000,0 days 00:00:49.392000,0 days 00:00:37.856000,158.0,206.0,303.0,203.0,medium,5.0
0 days 00:46:21.309000,31,0 days 00:01:23.526000,6,"","",0 days 00:00:27.402000,0 days 00:00:28.296000,0 days 00:00:27.828000,311.0,331.0,302.0,337.0,medium,6.0
0 days 00:47:46.903000,31,0 days 00:01:25.594000,7,"","",0 days 00:00:27.981000,0 days 00:00:29.120000,0 days 00:00:28.493000,300.0,303.0,301.0,314.0,medium,7.0
0 days 00:49:17.676000,31,0 days 00:01:30.773000,8,"",0 days 00:49:13.862000,0 days 00:00:28.296000,0 days 00:00:29.055000,0 days 00:00:33.422000,297.0,299.0,"",306.0,medium,8.0
0 days 01:02:28.035000,31,"",9,0 days 01:00:37.132000,"","",0 days 00:00:33.637000,0 days 00:00:42.486000,282.0,292.0,306.0,178.0,soft,1.0
0 days 01:03:50.541000,31,0 days 00:01:22.506000,10,"","",0 days 00:00:27.196000,0 days 00:00:27.847000,0 days 00:00:27.463000,317.0,332.0,307.0,337.0,soft,2.0
0 days 01:05:45.541000,31,0 days 00:01:55,11,"","",0 days 00:00:37.292000,0 days 00:00:45.601000,0 days 00:00:32.107000,223.0,221.0,307.0,192.0,soft,3.0
0 days 01:07:08.693000,31,0 days 00:01:23.152000,12,"","",0 days 00:00:27.327000,0 days 00:00:28.136000,0 days 00:00:27.689000,310.0,323.0,305.0,334.0,soft,4.0
0 days 01:08:53.466000,31,0 days 00:01:44.773000,13,"",0 days 01:08:49.653000,0 days 00:00:30.790000,0 days 00:00:33.824000,0 days 00:00:40.159000,270.0,251.0,"",297.0,soft,5.0
0 days 01:13:59.483000,31,"",14,0 days 01:12:24.136000,"","",0 days 00:00:31.811000,0 days 00:00:32.557000,292.0,307.0,305.0,249.0,soft,6.0
0 days 01:15:22.666000,31,0 days 00:01:23.183000,15,"","",0 days 00:00:27.316000,0 days 00:00:28.068000,0 days 00:00:27.799000,310.0,328.0,303.0,337.0,soft,7.0
0 days 01:17:19.228000,31,0 days 00:01:56.562000,16,"","",0 days 00:00:34.018000,0 days 00:00:38.156000,0 days 00:00:44.388000,206.0,241.0,70.0,281.0,soft,8.0
0 days 01:19:29.384000,31,0 days 00:02:10.156000,17,"",0 days 01:19:25.499000,0 days 00:01:04.349000,0 days 00:00:31.334000,0 days 00:00:34.473000,291.0,307.0,"",271.0,soft,9.0
0 days 00:38:38.864000,24,"",1,0 days 00:36:46.188000,"","",0 days 00:00:36.152000,0 days 00:00:43.246000,293.0,93.0,299.0,216.0,soft,1.0
0 days 00:40:02.713000,24,0 days 00:01:23.849000,2,"","",0 days 00:00:27.645000,0 days 00:00:28.330000,0 days 00:00:27.874000,315.0,327.0,304.0,333.0,soft,2.0
0 days 00:42:13.738000,24,0 days 00:02:11.025000,3,"","",0 days 00:00:43.759000,0 days 00:00:40.112000,0 days 00:00:47.154000,141.0,289.0,298.0,167.0,soft,3.0
0 days 00:43:37.414000,24,0 days 00:01:23.676000,4,"","",0 days 00:00:27.613000,0 days 00:00:28.220000,0 days 00:00:27.843000,314.0,328.0,304.0,334.0,soft,4.0
0 days 00:45:28.308000,24,0 days 00:01:50.894000,5,"",0 days 00:45:24.509000,0 days 00:00:38.320000,0 days 00:00:35.836000,0 days 00:00:36.738000,158.0,299.0,"",256.0,soft,5.0
0 days 00:59:03.153000,24,"",6,0 days 00:57:23.918000,"","",0 days 00:00:35.453000,0 days 00:00:34.161000,302.0,187.0,307.0,262.0,soft,1.0
0 days 01:00:25.810000,24,0 days 00:01:22.657000,7,"","",0 days 00:00:27.129000,0 days 00:00:27.974000,0 days 00:00:27.554000,320.0,333.0,308.0,338.0,soft,2.0
0 days 01:02:23.573000,24,0 days 00:01:57.763000,8,"","",0 days 00:00:36.505000,0 days 00:00:38.676000,0 days 00:00:42.582000,232.0,284.0,303.0,190.0,soft,3.0
0 days 01:03:47.078000,24,0 days 00:01:23.505000,9,"","",0 days 00:00:27.339000,0 days 00:00:28.385000,0 days 00:00:27.781000,319.0,332.0,307.0,337.0,soft,4.0
0 days 01:05:39.951000,24,0 days 00:01:52.873000,10,"",0 days 01:05:35.573000,0 days 00:00:34.647000,0 days 00:00:34.562000,0 days 00:00:43.664000,248.0,216.0,"",191.0,soft,5.0
0 days 01:07:50.727000,24,0 days 00:02:10.776000,11,0 days 01:05:56.260000,0 days 01:07:46.910000,0 days 00:01:01.726000,0 days 00:00:32.729000,0 days 00:00:36.321000,294.0,309.0,"",271.0,soft,6.0
0 days 01:15:44.958000,24,"",12,0 days 01:14:15.054000,"","",0 days 00:00:30.320000,0 days 00:00:29.481000,295.0,311.0,299.0,255.0,soft,7.0
0 days 01:17:48.456000,24,0 days 00:02:03.498000,13,"","",0 days 00:00:32.551000,0 days 00:00:32.455000,0 days 00:00:58.492000,293.0,294.0,52.0,236.0,soft,8.0
0 days 01:19:59.319000,24,0 days 00:02:10.863000,14,"",0 days 01:19:55.411000,0 days 00:00:59.431000,0 days 00:00:33.097000,0 days 00:00:38.335000,313.0,287.0,"",291.0,soft,9.0
0 days 00:17:01.522000,22,"",1,0 days 00:15:17.792000,0 days 00:16:57.662000,"",0 days 00:00:34.586000,0 days 00:00:36.997000,293.0,293.0,"",247.0,hard,1.0
0 days 00:21:58.770000,22,"",2,0 days 00:20:26.212000,"","",0 days 00:00:31.133000,0 days 00:00:30.160000,293.0,289.0,302.0,250.0,hard,1.0
0 days 00:23:23.995000,22,0 days 00:01:25.225000,3,"","",0 days 00:00:27.949000,0 days 00:00:28.983000,0 days 00:00:28.293000,311.0,325.0,302.0,335.0,hard,2.0
0 days 00:24:48.888000,22,0 days 00:01:24.893000,4,"","",0 days 00:00:27.888000,0 days 00:00:28.752000,0 days 00:00:28.253000,309.0,319.0,301.0,328.0,hard,3.0
0 days 00:26:36.324000,22,0 days 00:01:47.436000,5,"","",0 days 00:00:35.979000,0 days 00:00:39.986000,0 days 00:00:31.471000,246.0,296.0,302.0,297.0,hard,4.0
0 days 00:28:00.603000,22,0 days 00:01:24.279000,6,"","",0 days 00:00:27.763000,0 days 00:00:28.594000,0 days 00:00:27.922000,311.0,326.0,301.0,335.0,hard,5.0
0 days 00:29:57.986000,22,0 days 00:01:57.383000,7,"","",0 days 00:00:38.700000,0 days 00:00:44.282000,0 days 00:00:34.401000,159.0,290.0,305.0,257.0,hard,6.0
0 days 00:31:21.519000,22,0 days 00:01:23.533000,8,"","",0 days 00:00:27.504000,0 days 00:00:28.290000,0 days 00:00:27.739000,314.0,332.0,305.0,338.0,hard,7.0
0 days 00:33:10.954000,22,0 days 00:01:49.435000,9,"",0 days 00:33:07.144000,0 days 00:00:33.232000,0 days 00:00:39.968000,0 days 00:00:36.235000,140.0,299.0,"",256.0,hard,8.0
0 days 00:44:49.371000,22,"",10,0 days 00:42:36.586000,"","",0 days 00:00:54.986000,0 days 00:00:35.957000,190.0,157.0,299.0,195.0,hard,9.0
0 days 00:46:26.690000,22,0 days 00:01:37.319000,11,"","",0 days 00:00:28.615000,0 days 00:00:39.431000,0 days 00:00:29.273000,301.0,314.0,297.0,337.0,hard,10.0
0 days 00:47:53.726000,22,0 days 00:01:27.036000,12,"","",0 days 00:00:28.403000,0 days 00:00:29.636000,0 days 00:00:28.997000,308.0,308.0,297.0,318.0,hard,11.0
0 days 00:49:20.278000,22,0 days 00:01:26.552000,13,"","",0 days 00:00:28.407000,0 days 00:00:29.407000,0 days 00:00:28.738000,307.0,307.0,297.0,315.0,hard,12.0
0 days 00:50:47.055000,22,0 days 00:01:26.777000,14,"","",0 days 00:00:28.436000,0 days 00:00:29.471000,0 days 00:00:28.870000,306.0,305.0,297.0,313.0,hard,13.0
0 days 00:52:13.576000,22,0 days 00:01:26.521000,15,"","",0 days 00:00:28.254000,0 days 00:00:29.524000,0 days 00:00:28.743000,308.0,309.0,299.0,"",hard,14.0
0 days 00:53:40.274000,22,0 days 00:01:26.698000,16,"","",0 days 00:00:28.242000,0 days 00:00:29.715000,0 days 00:00:28.741000,"",311.0,300.0,323.0,hard,15.0
0 days 00:55:06.959000,22,0 days 00:01:26.685000,17,"","",0 days 00:00:28.335000,0 days 00:00:29.666000,0 days 00:00:28.684000,"",306.0,300.0,311.0,hard,16.0
0 days 00:56:33.148000,22,0 days 00:01:26.189000,18,"","",0 days 00:00:28.220000,0 days 00:00:29.332000,0 days 00:00:28.637000,306.0,306.0,301.0,308.0,hard,17.0
0 days 00:58:04.677000,22,0 days 00:01:31.529000,19,"",0 days 00:58:00.756000,0 days 00:00:28.228000,0 days 00:00:29.399000,0 days 00:00:33.902000,307.0,312.0,"","",hard,18.0
0 days 01:06:32.907000,22,"",20,0 days 01:04:47.716000,"","",0 days 00:00:35.118000,0 days 00:00:35.598000,299.0,302.0,306.0,229.0,soft,1.0
0 days 01:07:56.054000,22,0 days 00:01:23.147000,21,"","",0 days 00:00:27.474000,0 days 00:00:28.072000,0 days 00:00:27.601000,313.0,330.0,303.0,338.0,soft,2.0
0 days 01:10:01.578000,22,0 days 00:02:05.524000,22,"","",0 days 00:00:39.222000,0 days 00:00:43.131000,0 days 00:00:43.171000,181.0,278.0,200.0,195.0,soft,3.0
0 days 01:12:00.789000,22,0 days 00:01:59.211000,23,"","",0 days 00:00:41.188000,0 days 00:00:40.971000,0 days 00:00:37.052000,278.0,193.0,306.0,208.0,soft,4.0
0 days 01:13:49.860000,22,0 days 00:01:49.071000,24,"","",0 days 00:00:27.266000,0 days 00:00:45.199000,0 days 00:00:36.606000,318.0,258.0,307.0,343.0,soft,5.0
0 days 01:15:12.290000,22,0 days 00:01:22.430000,25,"","",0 days 00:00:27.228000,0 days 00:00:27.793000,0 days 00:00:27.409000,315.0,332.0,305.0,342.0,soft,6.0
0 days 01:17:14.857000,22,0 days 00:02:02.567000,26,"","",0 days 00:00:39.004000,0 days 00:00:37.742000,0 days 00:00:45.821000,274.0,286.0,92.0,166.0,soft,7.0
0 days 01:19:23.377000,22,0 days 00:02:08.520000,27,"",0 days 01:19:19.603000,0 days 00:01:00.185000,0 days 00:00:32.587000,0 days 00:00:35.748000,315.0,308.0,"",286.0,soft,8.0
0 days 00:32:07.905000,20,"",1,0 days 00:30:29.091000,"","",0 days 00:00:34.017000,0 days 00:00:31.388000,277.0,278.0,298.0,230.0,hard,1.0
0 days 00:33:35.901000,20,0 days 00:01:27.996000,2,"","",0 days 00:00:28.409000,0 days 00:00:30.275000,0 days 00:00:29.312000,302.0,301.0,297.0,306.0,hard,2.0
0 days 00:35:03.445000,20,0 days 00:01:27.544000,3,"","",0 days 00:00:28.520000,0 days 00:00:29.892000,0 days 00:00:29.132000,299.0,301.0,294.0,303.0,hard,3.0
0 days 00:36:34.046000,20,0 days 00:01:30.601000,4,"","",0 days 00:00:29.391000,0 days 00:00:32.087000,0 days 00:00:29.123000,300.0,304.0,295.0,260.0,hard,4.0
0 days 00:38:01.751000,20,0 days 00:01:27.705000,5,"","",0 days 00:00:28.583000,0 days 00:00:30.091000,0 days 00:00:29.031000,"",300.0,295.0,305.0,hard,5.0
0 days 00:39:29.712000,20,0 days 00:01:27.961000,6,"","",0 days 00:00:28.685000,0 days 00:00:30.181000,0 days 00:00:29.095000,298.0,298.0,295.0,302.0,hard,6.0
0 days 00:40:58.068000,20,0 days 00:01:28.356000,7,"","",0 days 00:00:28.889000,0 days 00:00:30.415000,0 days 00:00:29.052000,300.0,300.0,295.0,"",hard,7.0
0 days 00:42:25.938000,20,0 days 00:01:27.870000,8,"","",0 days 00:00:28.546000,0 days 00:00:30.221000,0 days 00:00:29.103000,"",301.0,295.0,305.0,hard,8.0
0 days 00:43:58.779000,20,0 days 00:01:32.841000,9,"",0 days 00:43:54.720000,0 days 00:00:28.817000,0 days 00:00:30.425000,0 days 00:00:33.599000,297.0,300.0,"",303.0,hard,9.0
0 days 00:46:17.388000,20,0 days 00:02:18.609000,10,0 days 00:44:15.487000,0 days 00:46:13.578000,0 days 00:01:04.660000,0 days 00:00:33.050000,0 days 00:00:40.899000,299.0,203.0,"",264.0,hard,10.0
0 days 01:09:19.291000,20,"",11,0 days 01:07:44.154000,"","",0 days 00:00:32.091000,0 days 00:00:29.989000,285.0,287.0,301.0,210.0,soft,1.0
0 days 01:11:31.179000,20,0 days 00:02:11.888000,12,"","",0 days 00:00:27.441000,0 days 00:00:51.451000,0 days 00:00:52.996000,312.0,118.0,301.0,333.0,soft,2.0
0 days 01:12:54.619000,20,0 days 00:01:23.440000,13,"","",0 days 00:00:27.430000,0 days 00:00:28.362000,0 days 00:00:27.648000,313.0,328.0,303.0,336.0,soft,3.0
0 days 01:14:48.698000,20,0 days 00:01:54.079000,14,"","",0 days 00:00:39.613000,0 days 00:00:41.065000,0 days 00:00:33.401000,192.0,279.0,301.0,255.0,soft,4.0
0 days 01:16:11.901000,20,0 days 00:01:23.203000,15,"","",0 days 00:00:27.420000,0 days 00:00:28.200000,0 days 00:00:27.583000,314.0,327.0,302.0,338.0,soft,5.0
0 days 01:17:50.362000,20,0 days 00:01:38.461000,16,"","",0 days 00:00:31.226000,0 days 00:00:31.469000,0 days 00:00:35.766000,284.0,280.0,120.0,302.0,soft,6.0
0 days 01:20:20.649000,20,"",17,"",0 days 01:20:16.760000,0 days 00:01:00.326000,0 days 00:00:47.704000,0 days 00:00:42.194000,316.0,189.0,"",296.0,soft,7.0
0 days 00:16:48.202000,18,"",1,0 days 00:15:12.189000,0 days 00:16:44.299000,"",0 days 00:00:31.045000,0 days 00:00:34.642000,298.0,294.0,"",251.0,hard,1.0
0 days 00:18:42.100000,18,0 days 00:01:53.898000,2,0 days 00:17:08.516000,0 days 00:18:38.270000,0 days 00:00:48.619000,0 days 00:00:29.921000,0 days 00:00:35.358000,298.0,295.0,"",276.0,medium,1.0
0 days 00:34:18.019000,18,"",3,0 days 00:32:38.110000,"","",0 days 00:00:34.821000,0 days 00:00:35.020000,296.0,299.0,300.0,256.0,soft,1.0
0 days 00:35:42.384000,18,0 days 00:01:24.365000,4,"","",0 days 00:00:27.901000,0 days 00:00:28.347000,0 days 00:00:28.117000,310.0,322.0,300.0,328.0,soft,2.0
0 days 00:38:09.763000,18,0 days 00:02:27.379000,5,"","",0 days 00:00:50.249000,0 days 00:00:56.370000,0 days 00:00:40.760000,136.0,136.0,303.0,159.0,soft,3.0
0 days 00:39:33.502000,18,0 days 00:01:23.739000,6,"","",0 days 00:00:27.626000,0 days 00:00:28.200000,0 days 00:00:27.913000,306.0,317.0,306.0,331.0,soft,4.0
0 days 00:41:59.209000,18,0 days 00:02:25.707000,7,"","",0 days 00:00:50.651000,0 days 00:01:01.026000,0 days 00:00:34.030000,136.0,222.0,299.0,161.0,soft,5.0
0 days 00:43:23.449000,18,0 days 00:01:24.240000,8,"","",0 days 00:00:27.792000,0 days 00:00:28.388000,0 days 00:00:28.060000,301.0,317.0,301.0,329.0,soft,6.0
0 days 00:45:05.787000,18,0 days 00:01:42.338000,9,"",0 days 00:45:01.951000,0 days 00:00:36.618000,0 days 00:00:30.402000,0 days 00:00:35.318000,291.0,314.0,"",152.0,soft,7.0
0 days 00:46:58.388000,18,0 days 00:01:52.601000,10,0 days 00:45:24.509000,0 days 00:46:54.572000,0 days 00:00:47.733000,0 days 00:00:30.807000,0 days 00:00:34.061000,310.0,300.0,"",257.0,soft,8.0
0 days 01:10:01.505000,18,"",11,0 days 01:08:19.514000,"","",0 days 00:00:30.253000,0 days 00:00:41.496000,294.0,300.0,299.0,251.0,soft,1.0
0 days 01:11:25.573000,18,0 days 00:01:24.068000,12,"","",0 days 00:00:27.807000,0 days 00:00:28.330000,0 days 00:00:27.931000,309.0,322.0,300.0,328.0,soft,2.0
0 days 01:13:45.836000,18,0 days 00:02:20.263000,13,"","",0 days 00:00:38.838000,0 days 00:01:03.974000,0 days 00:00:37.451000,230.0,232.0,304.0,121.0,soft,3.0
0 days 01:15:09.603000,18,0 days 00:01:23.767000,14,"","",0 days 00:00:27.677000,0 days 00:00:28.260000,0 days 00:00:27.830000,303.0,318.0,304.0,331.0,soft,4.0
0 days 01:17:15.274000,18,0 days 00:02:05.671000,15,"","",0 days 00:00:43.021000,0 days 00:00:39.753000,0 days 00:00:42.897000,256.0,308.0,97.0,140.0,soft,5.0
0 days 01:19:21.735000,18,"",16,"",0 days 01:19:21.735000,0 days 00:01:02.957000,0 days 00:00:30.934000,"",291.0,287.0,"",249.0,soft,6.0
0 days 00:31:22.480000,16,"",1,0 days 00:29:32.645000,"","",0 days 00:00:36.572000,0 days 00:00:32.851000,288.0,295.0,306.0,153.0,medium,1.0
0 days 00:32:44.950000,16,0 days 00:01:22.470000,2,"","",0 days 00:00:27.310000,0 days 00:00:27.849000,0 days 00:00:27.311000,318.0,328.0,307.0,336.0,medium,2.0
0 days 00:35:03.905000,16,0 days 00:02:18.955000,3,"","",0 days 00:00:50.840000,0 days 00:00:50.403000,0 days 00:00:37.712000,119.0,185.0,305.0,210.0,medium,3.0
0 days 00:36:25.849000,16,0 days 00:01:21.944000,4,"","",0 days 00:00:27.226000,0 days 00:00:27.528000,0 days 00:00:27.190000,317.0,330.0,306.0,336.0,medium,4.0
0 days 00:38:02.276000,16,0 days 00:01:36.427000,5,"",0 days 00:37:58.479000,0 days 00:00:31.096000,0 days 00:00:30.819000,0 days 00:00:34.512000,288.0,303.0,"",292.0,medium,5.0
0 days 00:58:16.239000,16,"",6,0 days 00:56:40.539000,"","",0 days 00:00:32.935000,0 days 00:00:30.966000,295.0,292.0,306.0,245.0,soft,1.0
0 days 01:00:19.116000,16,0 days 00:02:02.877000,7,"",0 days 01:00:15.212000,0 days 00:00:27.182000,0 days 00:00:47.331000,0 days 00:00:48.364000,318.0,131.0,"",335.0,soft,2.0
0 days 01:02:50.246000,16,"",8,0 days 01:00:35.931000,"",0 days 00:01:18.133000,0 days 00:00:36.103000,0 days 00:00:36.949000,226.0,279.0,303.0,182.0,soft,3.0
0 days 01:04:11.851000,16,0 days 00:01:21.605000,9,"","",0 days 00:00:27.169000,0 days 00:00:27.409000,0 days 00:00:27.027000,321.0,331.0,309.0,335.0,soft,4.0
0 days 01:06:35.977000,16,0 days 00:02:24.126000,10,"","",0 days 00:00:45.656000,0 days 00:00:54.279000,0 days 00:00:44.191000,137.0,160.0,306.0,180.0,soft,5.0
0 days 01:07:57.576000,16,0 days 00:01:21.599000,11,"","",0 days 00:00:27.077000,0 days 00:00:27.526000,0 days 00:00:26.996000,319.0,335.0,305.0,337.0,soft,6.0
0 days 01:09:46.207000,16,0 days 00:01:48.631000,12,"",0 days 01:09:42.394000,0 days 00:00:34.374000,0 days 00:00:34.613000,0 days 00:00:39.644000,214.0,214.0,"",234.0,soft,7.0
0 days 01:16:02.485000,16,"",13,0 days 01:14:23.534000,"","",0 days 00:00:29.033000,0 days 00:00:28.818000,313.0,300.0,300.0,272.0,soft,8.0
0 days 01:18:00.506000,16,0 days 00:01:58.021000,14,"","",0 days 00:00:28.373000,0 days 00:00:30.146000,0 days 00:00:59.502000,297.0,213.0,79.0,303.0,soft,9.0
0 days 01:20:23.186000,16,0 days 00:02:22.680000,15,"",0 days 01:20:19.324000,0 days 00:01:00.344000,0 days 00:00:38.988000,0 days 00:00:43.348000,"",200.0,"",295.0,soft,10.0
0 days 00:32:04.344000,14,"",1,0 days 00:30:03.986000,"","",0 days 00:00:36.148000,0 days 00:00:31.171000,276.0,238.0,305.0,226.0,medium,1.0
0 days 00:33:27.540000,14,0 days 00:01:23.196000,2,"","",0 days 00:00:27.403000,0 days 00:00:28.195000,0 days 00:00:27.598000,310.0,324.0,304.0,333.0,medium,2.0
0 days 00:35:24.439000,14,0 days 00:01:56.899000,3,"","",0 days 00:00:36.638000,0 days 00:00:39.766000,0 days 00:00:40.495000,219.0,237.0,304.0,221.0,medium,3.0
0 days 00:37:01.545000,14,0 days 00:01:37.106000,4,"","",0 days 00:00:27.368000,0 days 00:00:37.524000,0 days 00:00:32.214000,310.0,270.0,303.0,336.0,medium,4.0
0 days 00:38:26.761000,14,0 days 00:01:25.216000,5,"","",0 days 00:00:27.285000,0 days 00:00:28.223000,0 days 00:00:29.708000,314.0,328.0,270.0,"",medium,5.0
0 days 00:40:19.171000,14,0 days 00:01:52.410000,6,"","",0 days 00:00:35.443000,0 days 00:00:41.435000,0 days 00:00:35.532000,256.0,157.0,301.0,249.0,medium,6.0
0 days 00:41:42.624000,14,0 days 00:01:23.453000,7,"","",0 days 00:00:27.521000,0 days 00:00:28.212000,0 days 00:00:27.720000,308.0,324.0,301.0,333.0,medium,7.0
0 days 00:43:30.579000,14,0 days 00:01:47.955000,8,"",0 days 00:43:26.767000,0 days 00:00:32.911000,0 days 00:00:33.646000,0 days 00:00:41.398000,260.0,282.0,"",275.0,medium,8.0
0 days 00:57:49.959000,14,"",9,0 days 00:56:07.831000,"","",0 days 00:00:34.958000,0 days 00:00:35.901000,292.0,297.0,307.0,261.0,soft,1.0
0 days 00:59:12.265000,14,0 days 00:01:22.306000,10,"","",0 days 00:00:27.201000,0 days 00:00:27.917000,0 days 00:00:27.188000,314.0,330.0,306.0,333.0,soft,2.0
0 days 01:01:04.515000,14,0 days 00:01:52.250000,11,"",0 days 01:01:00.700000,0 days 00:00:35.487000,0 days 00:00:37.291000,0 days 00:00:39.472000,262.0,290.0,"",179.0,soft,3.0
0 days 01:10:44.322000,14,"",12,0 days 01:08:59.924000,"","",0 days 00:00:37.444000,0 days 00:00:33.674000,288.0,307.0,305.0,240.0,soft,4.0
0 days 01:12:06.817000,14,0 days 00:01:22.495000,13,"","",0 days 00:00:27.287000,0 days 00:00:27.762000,0 days 00:00:27.446000,315.0,334.0,306.0,338.0,soft,5.0
0 days 01:13:56.079000,14,0 days 00:01:49.262000,14,"","",0 days 00:00:35.513000,0 days 00:00:37.921000,0 days 00:00:35.828000,257.0,247.0,304.0,244.0,soft,6.0
0 days 01:15:25.027000,14,0 days 00:01:28.948000,15,"","",0 days 00:00:27.294000,0 days 00:00:28.794000,0 days 00:00:32.860000,310.0,283.0,287.0,337.0,soft,7.0
0 days 01:17:21.109000,14,0 days 00:01:56.082000,16,"","",0 days 00:00:33.690000,0 days 00:00:36.652000,0 days 00:00:45.740000,293.0,225.0,69.0,183.0,soft,8.0
0 days 01:19:46.456000,14,0 days 00:02:25.347000,17,"",0 days 01:19:42.369000,0 days 00:01:08.035000,0 days 00:00:31.294000,0 days 00:00:46.018000,263.0,250.0,"",270.0,soft,9.0
0 days 00:17:12.731000,11,"",1,0 days 00:15:41.673000,"","",0 days 00:00:30.270000,0 days 00:00:29.426000,290.0,290.0,302.0,227.0,medium,1.0
0 days 00:18:36.179000,11,0 days 00:01:23.448000,2,"","",0 days 00:00:27.746000,0 days 00:00:27.853000,0 days 00:00:27.849000,313.0,330.0,302.0,334.0,medium,2.0
0 days 00:20:43.999000,11,0 days 00:02:07.820000,3,"","",0 days 00:00:42.084000,0 days 00:00:50.565000,0 days 00:00:35.171000,176.0,196.0,303.0,166.0,medium,3.0
0 days 00:22:06.610000,11,0 days 00:01:22.611000,4,"","",0 days 00:00:27.510000,0 days 00:00:27.705000,0 days 00:00:27.396000,312.0,327.0,305.0,337.0,medium,4.0
0 days 00:24:07.935000,11,0 days 00:02:01.325000,5,"","",0 days 00:00:43.646000,0 days 00:00:43.150000,0 days 00:00:34.529000,175.0,208.0,304.0,172.0,medium,5.0
0 days 00:25:30.083000,11,0 days 00:01:22.148000,6,"","",0 days 00:00:27.339000,0 days 00:00:27.562000,0 days 00:00:27.247000,311.0,329.0,303.0,337.0,medium,6.0
0 days 00:27:16.547000,11,0 days 00:01:46.464000,7,"",0 days 00:27:12.622000,0 days 00:00:33.178000,0 days 00:00:32.400000,0 days 00:00:40.886000,285.0,287.0,"",210.0,medium,7.0
0 days 00:37:21.928000,11,"",8,0 days 00:35:40.817000,"","",0 days 00:00:30.229000,0 days 00:00:29.176000,300.0,310.0,294.0,261.0,medium,8.0
0 days 00:38:47.871000,11,0 days 00:01:25.943000,9,"","",0 days 00:00:28.021000,0 days 00:00:29.373000,0 days 00:00:28.549000,299.0,301.0,297.0,334.0,medium,9.0
0 days 00:40:14.227000,11,0 days 00:01:26.356000,10,"","",0 days 00:00:28.312000,0 days 00:00:29.429000,0 days 00:00:28.615000,296.0,302.0,297.0,305.0,medium,10.0
0 days 00:41:40.613000,11,0 days 00:01:26.386000,11,"","",0 days 00:00:28.461000,0 days 00:00:29.385000,0 days 00:00:28.540000,298.0,302.0,297.0,"",medium,11.0
0 days 00:43:06.870000,11,0 days 00:01:26.257000,12,"","",0 days 00:00:28.428000,0 days 00:00:29.289000,0 days 00:00:28.540000,299.0,302.0,296.0,307.0,medium,12.0
0 days 00:44:33.354000,11,0 days 00:01:26.484000,13,"","",0 days 00:00:28.360000,0 days 00:00:29.508000,0 days 00:00:28.616000,"",302.0,296.0,306.0,medium,13.0
0 days 00:45:59.471000,11,0 days 00:01:26.117000,14,"","",0 days 00:00:28.359000,0 days 00:00:29.375000,0 days 00:00:28.383000,298.0,301.0,297.0,"",medium,14.0
0 days 00:47:25.628000,11,0 days 00:01:26.157000,15,"","",0 days 00:00:28.385000,0 days 00:00:29.311000,0 days 00:00:28.461000,"",301.0,296.0,"",medium,15.0
0 days 00:48:55.712000,11,0 days 00:01:30.084000,16,"",0 days 00:48:51.843000,0 days 00:00:28.322000,0 days 00:00:29.381000,0 days 00:00:32.381000,299.0,301.0,"",305.0,medium,16.0
0 days 01:04:18.063000,11,"",17,0 days 01:02:42.342000,"","",0 days 00:00:31.333000,0 days 00:00:29.954000,241.0,297.0,307.0,232.0,soft,1.0
0 days 01:05:39.911000,11,0 days 00:01:21.848000,18,"","",0 days 00:00:27.316000,0 days 00:00:27.543000,0 days 00:00:26.989000,315.0,334.0,309.0,344.0,soft,2.0
0 days 01:07:42.168000,11,0 days 00:02:02.257000,19,"",0 days 01:07:38.220000,0 days 00:00:38.269000,0 days 00:00:44.604000,0 days 00:00:39.384000,228.0,199.0,"",194.0,soft,3.0
0 days 01:10:05.207000,11,0 days 00:02:23.039000,20,0 days 01:08:05.880000,"",0 days 00:01:01.749000,0 days 00:00:41.719000,0 days 00:00:39.571000,211.0,154.0,303.0,177.0,soft,4.0
0 days 01:11:42.480000,11,0 days 00:01:37.273000,21,"","",0 days 00:00:27.260000,0 days 00:00:36.569000,0 days 00:00:33.444000,314.0,276.0,276.0,341.0,soft,5.0
0 days 01:13:35.295000,11,0 days 00:01:52.815000,22,"","",0 days 00:00:32.371000,0 days 00:00:42.743000,0 days 00:00:37.701000,215.0,300.0,302.0,298.0,soft,6.0
0 days 01:14:57.328000,11,0 days 00:01:22.033000,23,"","",0 days 00:00:27.317000,0 days 00:00:27.587000,0 days 00:00:27.129000,313.0,333.0,304.0,338.0,soft,7.0
0 days 01:16:40.772000,11,0 days 00:01:43.444000,24,"","",0 days 00:00:37.040000,0 days 00:00:36.016000,0 days 00:00:30.388000,174.0,290.0,279.0,188.0,soft,8.0
0 days 01:18:34.019000,11,0 days 00:01:53.247000,25,"","",0 days 00:00:31.836000,0 days 00:00:36.941000,0 days 00:00:44.470000,272.0,277.0,86.0,246.0,soft,9.0
0 days 01:20:49.529000,11,0 days 00:02:15.510000,26,"",0 days 01:20:45.652000,0 days 00:01:07.964000,0 days 00:00:31.493000,0 days 00:00:36.053000,302.0,288.0,"",247.0,soft,10.0
0 days 00:18:26.265000,10,"",1,0 days 00:16:38.170000,0 days 00:18:22.378000,"",0 days 00:00:38.066000,0 days 00:00:37.626000,301.0,306.0,"",233.0,hard,1.0
0 days 00:34:10.812000,10,"",2,0 days 00:32:36.581000,"","",0 days 00:00:32.523000,0 days 00:00:30.839000,295.0,294.0,301.0,247.0,medium,1.0
0 days 00:35:34.806000,10,0 days 00:01:23.994000,3,"","",0 days 00:00:27.648000,0 days 00:00:28.368000,0 days 00:00:27.978000,312.0,327.0,300.0,333.0,medium,2.0
0 days 00:37:38.729000,10,0 days 00:02:03.923000,4,"","",0 days 00:00:38.787000,0 days 00:00:49.454000,0 days 00:00:35.682000,231.0,272.0,301.0,298.0,medium,3.0
0 days 00:39:02.370000,10,0 days 00:01:23.641000,5,"","",0 days 00:00:27.592000,0 days 00:00:28.265000,0 days 00:00:27.784000,314.0,327.0,302.0,335.0,medium,4.0
0 days 00:41:16.905000,10,0 days 00:02:14.535000,6,"","",0 days 00:00:46.737000,0 days 00:00:51.509000,0 days 00:00:36.289000,171.0,273.0,305.0,295.0,medium,5.0
0 days 00:42:40.220000,10,0 days 00:01:23.315000,7,"","",0 days 00:00:27.373000,0 days 00:00:28.154000,0 days 00:00:27.788000,317.0,334.0,304.0,343.0,medium,6.0
0 days 00:44:50.865000,10,0 days 00:02:10.645000,8,"","",0 days 00:00:48.225000,0 days 00:00:46.237000,0 days 00:00:36.183000,174.0,153.0,301.0,290.0,medium,7.0
0 days 00:46:14.738000,10,0 days 00:01:23.873000,9,"","",0 days 00:00:27.551000,0 days 00:00:28.343000,0 days 00:00:27.979000,318.0,328.0,300.0,342.0,medium,8.0
0 days 00:47:46.423000,10,0 days 00:01:31.685000,10,"",0 days 00:47:42.626000,0 days 00:00:28.893000,0 days 00:00:29.979000,0 days 00:00:32.813000,294.0,315.0,"",305.0,medium,9.0
0 days 00:58:03.490000,10,"",11,0 days 00:56:21.815000,"","",0 days 00:00:32.531000,0 days 00:00:37.091000,305.0,308.0,305.0,244.0,soft,1.0
0 days 00:59:26.330000,10,0 days 00:01:22.840000,12,"","",0 days 00:00:27.406000,0 days 00:00:27.912000,0 days 00:00:27.522000,313.0,328.0,302.0,338.0,soft,2.0
0 days 01:01:50.008000,10,0 days 00:02:23.678000,13,"","",0 days 00:00:46.489000,0 days 00:00:52.300000,0 days 00:00:44.889000,121.0,233.0,209.0,282.0,soft,3.0
0 days 01:03:30.463000,10,0 days 00:01:40.455000,14,"","",0 days 00:00:36.058000,0 days 00:00:33.715000,0 days 00:00:30.682000,252.0,301.0,305.0,298.0,soft,4.0
0 days 01:04:53.218000,10,0 days 00:01:22.755000,15,"","",0 days 00:00:27.241000,0 days 00:00:27.872000,0 days 00:00:27.642000,314.0,329.0,304.0,338.0,soft,5.0
0 days 01:07:20.734000,10,0 days 00:02:27.516000,16,"","",0 days 00:01:01.155000,0 days 00:00:52.143000,0 days 00:00:34.218000,105.0,285.0,303.0,264.0,soft,6.0
0 days 01:08:43.960000,10,0 days 00:01:23.226000,17,"","",0 days 00:00:27.431000,0 days 00:00:28.135000,0 days 00:00:27.660000,310.0,327.0,301.0,335.0,soft,7.0
0 days 01:10:18.553000,10,0 days 00:01:34.593000,18,"",0 days 01:10:14.771000,0 days 00:00:29.818000,0 days 00:00:30.597000,0 days 00:00:34.178000,286.0,291.0,"",305.0,soft,8.0
0 days 01:15:27.323000,10,"",19,0 days 01:13:31.989000,"","",0 days 00:00:36.108000,0 days 00:00:33.256000,311.0,159.0,296.0,198.0,soft,9.0
0 days 01:17:24.411000,10,0 days 00:01:57.088000,20,"","",0 days 00:00:33.107000,0 days 00:00:35.892000,0 days 00:00:48.089000,309.0,232.0,63.0,216.0,soft,10.0
0 days 01:19:51.369000,10,0 days 00:02:26.958000,21,"",0 days 01:19:47.490000,0 days 00:01:04.255000,0 days 00:00:47.584000,0 days 00:00:35.119000,251.0,307.0,"",288.0,soft,11.0
0 days 00:37:46.774000,6,"",1,0 days 00:36:07.237000,"","",0 days 00:00:34.634000,0 days 00:00:32.077000,305.0,293.0,303.0,260.0,soft,1.0
0 days 00:39:11.260000,6,0 days 00:01:24.486000,2,"","",0 days 00:00:27.785000,0 days 00:00:28.584000,0 days 00:00:28.117000,317.0,330.0,305.0,338.0,soft,2.0
0 days 00:41:11.593000,6,0 days 00:02:00.333000,3,"","",0 days 00:00:37.976000,0 days 00:00:48.051000,0 days 00:00:34.306000,283.0,274.0,304.0,289.0,soft,3.0
0 days 00:42:35.145000,6,0 days 00:01:23.552000,4,"","",0 days 00:00:27.454000,0 days 00:00:28.276000,0 days 00:00:27.822000,317.0,330.0,304.0,338.0,soft,4.0
0 days 00:44:45.674000,6,0 days 00:02:10.529000,5,"","",0 days 00:00:42.270000,0 days 00:00:52.612000,0 days 00:00:35.647000,226.0,120.0,305.0,280.0,soft,5.0
0 days 00:46:34.251000,6,0 days 00:01:48.577000,6,"","",0 days 00:00:27.402000,0 days 00:00:38.707000,0 days 00:00:42.468000,319.0,125.0,304.0,341.0,soft,6.0
0 days 00:47:58.219000,6,0 days 00:01:23.968000,7,"","",0 days 00:00:27.492000,0 days 00:00:28.281000,0 days 00:00:28.195000,317.0,332.0,299.0,337.0,soft,7.0
0 days 00:50:02.487000,6,0 days 00:02:04.268000,8,"",0 days 00:49:58.680000,0 days 00:00:40.590000,0 days 00:00:42.589000,0 days 00:00:41.089000,209.0,236.0,"",200.0,soft,8.0
0 days 00:52:02.937000,6,0 days 00:02:00.450000,9,0 days 00:50:17.830000,0 days 00:51:59.151000,0 days 00:00:56.908000,0 days 00:00:29.859000,0 days 00:00:33.683000,296.0,316.0,"",269.0,soft,9.0
0 days 00:58:18.409000,6,"",10,0 days 00:56:43.463000,"","",0 days 00:00:32.382000,0 days 00:00:30.965000,307.0,306.0,312.0,270.0,soft,1.0
0 days 00:59:41.195000,6,0 days 00:01:22.786000,11,"","",0 days 00:00:27.120000,0 days 00:00:28.032000,0 days 00:00:27.634000,321.0,333.0,310.0,345.0,soft,2.0
0 days 01:01:49.941000,6,0 days 00:02:08.746000,12,"","",0 days 00:00:43.930000,0 days 00:00:48.348000,0 days 00:00:36.468000,254.0,292.0,310.0,307.0,soft,3.0
0 days 01:03:12.717000,6,0 days 00:01:22.776000,13,"","",0 days 00:00:27.259000,0 days 00:00:27.919000,0 days 00:00:27.598000,318.0,334.0,309.0,340.0,soft,4.0
0 days 01:05:15.941000,6,0 days 00:02:03.224000,14,"","",0 days 00:00:35.686000,0 days 00:00:48.282000,0 days 00:00:39.256000,189.0,290.0,311.0,222.0,soft,5.0
0 days 01:06:38.954000,6,0 days 00:01:23.013000,15,"","",0 days 00:00:27.397000,0 days 00:00:27.961000,0 days 00:00:27.655000,318.0,333.0,312.0,341.0,soft,6.0
0 days 01:08:28.973000,6,0 days 00:01:50.019000,16,"",0 days 01:08:25.193000,0 days 00:00:35.894000,0 days 00:00:35.201000,0 days 00:00:38.924000,212.0,305.0,"",321.0,soft,7.0
0 days 01:16:30.886000,6,"",17,0 days 01:14:30.359000,"","",0 days 00:00:34.730000,0 days 00:00:32.683000,275.0,313.0,285.0,87.0,soft,10.0
0 days 01:18:29.760000,6,0 days 00:01:58.874000,18,"","",0 days 00:00:37.306000,0 days 00:00:36.799000,0 days 00:00:44.769000,239.0,236.0,99.0,168.0,soft,11.0
0 days 01:20:46.970000,6,0 days 00:02:17.210000,19,"",0 days 01:20:43.080000,0 days 00:01:08.757000,0 days 00:00:32.483000,0 days 00:00:35.970000,297.0,301.0,"",286.0,soft,12.0
0 days 00:16:56.354000,5,"",1,0 days 00:15:19.771000,0 days 00:16:52.473000,"",0 days 00:00:31.556000,0 days 00:00:35.206000,298.0,294.0,"",243.0,hard,1.0
0 days 00:18:51.181000,5,0 days 00:01:54.827000,2,0 days 00:17:17.964000,0 days 00:18:47.322000,0 days 00:00:49.941000,0 days 00:00:30.870000,0 days 00:00:34.016000,300.0,296.0,"",278.0,medium,1.0
0 days 00:33:52.751000,5,"",3,0 days 00:32:13.782000,"","",0 days 00:00:33.265000,0 days 00:00:35.769000,294.0,213.0,302.0,247.0,soft,1.0
0 days 00:35:17.050000,5,0 days 00:01:24.299000,4,"","",0 days 00:00:27.776000,0 days 00:00:28.287000,0 days 00:00:28.236000,310.0,322.0,301.0,329.0,soft,2.0
0 days 00:37:26.791000,5,0 days 00:02:09.741000,5,"","",0 days 00:00:39.951000,0 days 00:00:49.852000,0 days 00:00:39.938000,189.0,145.0,303.0,203.0,soft,3.0
0 days 00:38:50.703000,5,0 days 00:01:23.912000,6,"","",0 days 00:00:27.611000,0 days 00:00:28.287000,0 days 00:00:28.014000,303.0,315.0,304.0,332.0,soft,4.0
0 days 00:40:58.660000,5,0 days 00:02:07.957000,7,"","",0 days 00:00:39.247000,0 days 00:00:44.412000,0 days 00:00:44.298000,189.0,227.0,206.0,175.0,soft,5.0
0 days 00:42:45.761000,5,0 days 00:01:47.101000,8,"","",0 days 00:00:35.322000,0 days 00:00:40.596000,0 days 00:00:31.183000,250.0,287.0,300.0,251.0,soft,6.0
0 days 00:44:09.616000,5,0 days 00:01:23.855000,9,"","",0 days 00:00:27.660000,0 days 00:00:28.134000,0 days 00:00:28.061000,309.0,322.0,297.0,330.0,soft,7.0
0 days 00:45:48.326000,5,0 days 00:01:38.710000,10,"",0 days 00:45:44.514000,0 days 00:00:29.556000,0 days 00:00:33.460000,0 days 00:00:35.694000,290.0,312.0,"",296.0,soft,8.0
0 days 00:47:45.437000,5,0 days 00:01:57.111000,11,0 days 00:46:09.139000,0 days 00:47:41.624000,0 days 00:00:50.800000,0 days 00:00:30.960000,0 days 00:00:35.351000,300.0,310.0,"",187.0,soft,9.0
0 days 01:04:40.321000,5,"",12,0 days 01:03:04.600000,"","",0 days 00:00:30.554000,0 days 00:00:35.700000,299.0,220.0,306.0,254.0,soft,1.0
0 days 01:06:04.156000,5,0 days 00:01:23.835000,13,"","",0 days 00:00:27.446000,0 days 00:00:28.276000,0 days 00:00:28.113000,314.0,326.0,307.0,333.0,soft,2.0
0 days 01:08:07.611000,5,0 days 00:02:03.455000,14,"",0 days 01:08:03.769000,0 days 00:00:35.694000,0 days 00:00:42.518000,0 days 00:00:45.243000,229.0,121.0,"",197.0,soft,3.0
0 days 01:10:12.668000,5,0 days 00:02:05.057000,15,0 days 01:08:30.117000,"",0 days 00:00:56.206000,0 days 00:00:35.543000,0 days 00:00:33.308000,258.0,278.0,306.0,181.0,soft,4.0
0 days 01:11:55.955000,5,0 days 00:01:43.287000,16,"","",0 days 00:00:33.560000,0 days 00:00:37.184000,0 days 00:00:32.543000,205.0,240.0,306.0,336.0,soft,5.0
0 days 01:13:19.059000,5,0 days 00:01:23.104000,17,"","",0 days 00:00:27.331000,0 days 00:00:28,0 days 00:00:27.773000,316.0,329.0,306.0,335.0,soft,6.0
0 days 01:15:06.766000,5,0 days 00:01:47.707000,18,"","",0 days 00:00:35.803000,0 days 00:00:31.361000,0 days 00:00:40.543000,262.0,318.0,204.0,166.0,soft,7.0
0 days 01:16:59.227000,5,0 days 00:01:52.461000,19,"","",0 days 00:00:35.603000,0 days 00:00:35.512000,0 days 00:00:41.346000,265.0,316.0,142.0,200.0,soft,8.0
0 days 01:19:17.646000,5,"",20,"",0 days 01:19:17.646000,0 days 00:01:13.783000,0 days 00:00:32.306000,"",288.0,295.0,"",220.0,soft,9.0
0 days 00:31:33.004000,4,"",1,0 days 00:29:41.966000,"","",0 days 00:00:32.596000,0 days 00:00:29.985000,287.0,309.0,303.0,183.0,medium,1.0
0 days 00:32:56.774000,4,0 days 00:01:23.770000,2,"","",0 days 00:00:27.771000,0 days 00:00:28.319000,0 days 00:00:27.680000,313.0,324.0,303.0,333.0,medium,2.0
0 days 00:35:06.956000,4,0 days 00:02:10.182000,3,"","",0 days 00:00:45.232000,0 days 00:00:52.657000,0 days 00:00:32.293000,119.0,143.0,304.0,199.0,medium,3.0
0 days 00:36:30.407000,4,0 days 00:01:23.451000,4,"","",0 days 00:00:27.536000,0 days 00:00:28.289000,0 days 00:00:27.626000,313.0,325.0,302.0,336.0,medium,4.0
0 days 00:38:03.360000,4,0 days 00:01:32.953000,5,"","",0 days 00:00:34.358000,0 days 00:00:29.809000,0 days 00:00:28.786000,281.0,301.0,303.0,258.0,medium,5.0
0 days 00:39:29.798000,4,0 days 00:01:26.438000,6,"","",0 days 00:00:28.034000,0 days 00:00:29.552000,0 days 00:00:28.852000,301.0,299.0,306.0,324.0,medium,6.0
0 days 00:40:54.367000,4,0 days 00:01:24.569000,7,"","",0 days 00:00:27.650000,0 days 00:00:28.749000,0 days 00:00:28.170000,304.0,300.0,301.0,323.0,medium,7.0
0 days 00:42:19.813000,4,0 days 00:01:25.446000,8,"","",0 days 00:00:28.178000,0 days 00:00:29.060000,0 days 00:00:28.208000,301.0,300.0,301.0,307.0,medium,8.0
0 days 00:43:52.184000,4,0 days 00:01:32.371000,9,"",0 days 00:43:48.348000,0 days 00:00:28.126000,0 days 00:00:28.980000,0 days 00:00:35.265000,"",303.0,"",309.0,medium,9.0
0 days 00:57:51.983000,4,"",10,0 days 00:56:04.476000,"","",0 days 00:00:34.023000,0 days 00:00:41.639000,295.0,308.0,309.0,256.0,soft,1.0
0 days 00:59:14.302000,4,0 days 00:01:22.319000,11,"","",0 days 00:00:27.141000,0 days 00:00:27.995000,0 days 00:00:27.183000,317.0,329.0,306.0,338.0,soft,2.0
0 days 01:01:24.324000,4,0 days 00:02:10.022000,12,"","",0 days 00:00:42.866000,0 days 00:00:51.768000,0 days 00:00:35.388000,173.0,257.0,307.0,193.0,soft,3.0
0 days 01:03:14.015000,4,0 days 00:01:49.691000,13,"","",0 days 00:00:27.226000,0 days 00:00:44.122000,0 days 00:00:38.343000,312.0,181.0,307.0,334.0,soft,4.0
0 days 01:04:46.995000,4,0 days 00:01:32.980000,14,"",0 days 01:04:43.139000,0 days 00:00:27.282000,0 days 00:00:28.120000,0 days 00:00:37.578000,313.0,326.0,"",335.0,soft,5.0
0 days 01:13:21.928000,4,"",15,0 days 01:11:33.702000,"","",0 days 00:00:32.768000,0 days 00:00:31.911000,285.0,290.0,295.0,262.0,soft,6.0
0 days 01:14:49.324000,4,0 days 00:01:27.396000,16,"","",0 days 00:00:28.575000,0 days 00:00:29.658000,0 days 00:00:29.163000,297.0,299.0,298.0,306.0,soft,7.0
0 days 01:16:16.428000,4,0 days 00:01:27.104000,17,"","",0 days 00:00:28.408000,0 days 00:00:29.722000,0 days 00:00:28.974000,296.0,301.0,296.0,316.0,soft,8.0
0 days 01:18:04.736000,4,0 days 00:01:48.308000,18,"","",0 days 00:00:30.315000,0 days 00:00:35.680000,0 days 00:00:42.313000,260.0,238.0,67.0,264.0,soft,9.0
0 days 01:20:14.595000,4,0 days 00:02:09.859000,19,"",0 days 01:20:10.694000,0 days 00:00:58.603000,0 days 00:00:32.283000,0 days 00:00:38.973000,302.0,245.0,"",292.0,soft,10.0
0 days 00:34:51.505000,3,"",1,0 days 00:33:03.191000,"","",0 days 00:00:35.417000,0 days 00:00:31.376000,299.0,302.0,301.0,229.0,medium,1.0
0 days 00:36:15.515000,3,0 days 00:01:24.010000,2,"","",0 days 00:00:27.702000,0 days 00:00:28.472000,0 days 00:00:27.836000,311.0,323.0,301.0,331.0,medium,2.0
0 days 00:38:19.084000,3,0 days 00:02:03.569000,3,"","",0 days 00:00:42.691000,0 days 00:00:44.762000,0 days 00:00:36.116000,206.0,220.0,302.0,267.0,medium,3.0
0 days 00:39:42.711000,3,0 days 00:01:23.627000,4,"","",0 days 00:00:27.552000,0 days 00:00:28.347000,0 days 00:00:27.728000,314.0,327.0,304.0,335.0,medium,4.0
0 days 00:41:48.151000,3,0 days 00:02:05.440000,5,"","",0 days 00:00:43.605000,0 days 00:00:42.422000,0 days 00:00:39.413000,258.0,283.0,300.0,277.0,medium,5.0
0 days 00:43:11.849000,3,0 days 00:01:23.698000,6,"","",0 days 00:00:27.470000,0 days 00:00:28.368000,0 days 00:00:27.860000,314.0,326.0,302.0,335.0,medium,6.0
0 days 00:44:38.446000,3,0 days 00:01:26.597000,7,"","",0 days 00:00:28.220000,0 days 00:00:29.671000,0 days 00:00:28.706000,296.0,299.0,300.0,308.0,medium,7.0
0 days 00:46:05.410000,3,0 days 00:01:26.964000,8,"","",0 days 00:00:28.122000,0 days 00:00:29.996000,0 days 00:00:28.846000,299.0,300.0,301.0,314.0,medium,8.0
0 days 00:47:37.711000,3,0 days 00:01:32.301000,9,"",0 days 00:47:33.888000,0 days 00:00:27.937000,0 days 00:00:29.212000,0 days 00:00:35.152000,303.0,306.0,"",323.0,medium,9.0
0 days 00:57:58.828000,3,"",10,0 days 00:56:15.009000,"","",0 days 00:00:33.459000,0 days 00:00:39.352000,311.0,312.0,303.0,266.0,soft,1.0
0 days 00:59:36.321000,3,0 days 00:01:37.493000,11,"","",0 days 00:00:27.322000,0 days 00:00:36.787000,0 days 00:00:33.384000,317.0,258.0,303.0,339.0,soft,2.0
0 days 01:00:59.455000,3,0 days 00:01:23.134000,12,"","",0 days 00:00:27.582000,0 days 00:00:28.044000,0 days 00:00:27.508000,312.0,324.0,304.0,331.0,soft,3.0
0 days 01:02:59.061000,3,0 days 00:01:59.606000,13,"","",0 days 00:00:39.190000,0 days 00:00:47.265000,0 days 00:00:33.151000,257.0,241.0,303.0,309.0,soft,4.0
0 days 01:04:21.932000,3,0 days 00:01:22.871000,14,"","",0 days 00:00:27.435000,0 days 00:00:28.063000,0 days 00:00:27.373000,313.0,327.0,306.0,335.0,soft,5.0
0 days 01:06:28.077000,3,0 days 00:02:06.145000,15,"","",0 days 00:00:40.149000,0 days 00:00:41.666000,0 days 00:00:44.330000,261.0,238.0,303.0,320.0,soft,6.0
0 days 01:07:59.010000,3,0 days 00:01:30.933000,16,"",0 days 01:07:55.190000,0 days 00:00:27.429000,0 days 00:00:28.301000,0 days 00:00:35.203000,312.0,311.0,"",333.0,soft,7.0
0 days 01:15:32.257000,3,"",17,0 days 01:13:34.619000,"","",0 days 00:00:38.218000,0 days 00:00:34.214000,285.0,280.0,275.0,223.0,soft,8.0
0 days 01:17:27.781000,3,0 days 00:01:55.524000,18,"","",0 days 00:00:30.655000,0 days 00:00:34.119000,0 days 00:00:50.750000,249.0,228.0,63.0,276.0,soft,9.0
0 days 01:19:47.363000,3,0 days 00:02:19.582000,19,"",0 days 01:19:43.118000,0 days 00:01:03.859000,0 days 00:00:33.266000,0 days 00:00:42.457000,261.0,273.0,"",282.0,soft,10.0
0 days 00:27:33.066000,63,"",1,0 days 00:26:05.659000,"","",0 days 00:00:30.002000,0 days 00:00:28.899000,293.0,303.0,302.0,276.0,medium,1.0
0 days 00:28:58.443000,63,0 days 00:01:25.377000,2,"","",0 days 00:00:28.108000,0 days 00:00:29.142000,0 days 00:00:28.127000,297.0,297.0,303.0,318.0,medium,2.0
0 days 00:30:23.545000,63,0 days 00:01:25.102000,3,"","",0 days 00:00:28.002000,0 days 00:00:28.855000,0 days 00:00:28.245000,301.0,303.0,304.0,319.0,medium,3.0
0 days 00:31:48.540000,63,0 days 00:01:24.995000,4,"","",0 days 00:00:27.992000,0 days 00:00:28.816000,0 days 00:00:28.187000,308.0,302.0,304.0,309.0,medium,4.0
0 days 00:33:12.994000,63,0 days 00:01:24.454000,5,"","",0 days 00:00:27.988000,0 days 00:00:28.590000,0 days 00:00:27.876000,306.0,305.0,304.0,304.0,medium,5.0
0 days 00:34:37.934000,63,0 days 00:01:24.940000,6,"","",0 days 00:00:27.995000,0 days 00:00:28.866000,0 days 00:00:28.079000,305.0,300.0,303.0,"",medium,6.0
0 days 00:36:02.669000,63,0 days 00:01:24.735000,7,"","",0 days 00:00:28.051000,0 days 00:00:28.727000,0 days 00:00:27.957000,"",302.0,303.0,"",medium,7.0
0 days 00:37:27.406000,63,0 days 00:01:24.737000,8,"","",0 days 00:00:27.968000,0 days 00:00:28.647000,0 days 00:00:28.122000,308.0,302.0,307.0,305.0,medium,8.0
0 days 00:38:52.332000,63,0 days 00:01:24.926000,9,"","",0 days 00:00:27.639000,0 days 00:00:29.033000,0 days 00:00:28.254000,314.0,320.0,306.0,321.0,medium,9.0
0 days 00:40:50.335000,63,0 days 00:01:58.003000,10,"",0 days 00:40:46.456000,0 days 00:00:35.769000,0 days 00:00:40.133000,0 days 00:00:42.101000,213.0,229.0,"",229.0,medium,10.0
0 days 00:43:29.251000,63,"",11,0 days 00:41:15.931000,"",0 days 00:01:19.222000,0 days 00:00:40.234000,0 days 00:00:39.453000,225.0,213.0,302.0,214.0,medium,11.0
0 days 00:44:53.127000,63,0 days 00:01:23.876000,12,"","",0 days 00:00:27.704000,0 days 00:00:28.387000,0 days 00:00:27.785000,312.0,325.0,303.0,332.0,medium,12.0
0 days 00:46:51.599000,63,0 days 00:01:58.472000,13,"",0 days 00:46:47.730000,0 days 00:00:32.641000,0 days 00:00:43.538000,0 days 00:00:42.293000,244.0,239.0,"",240.0,medium,13.0
0 days 00:57:30.785000,63,"",14,0 days 00:55:55.212000,"","",0 days 00:00:33.130000,0 days 00:00:32.031000,215.0,273.0,307.0,252.0,soft,1.0
0 days 00:58:53.142000,63,0 days 00:01:22.357000,15,"","",0 days 00:00:27.292000,0 days 00:00:27.808000,0 days 00:00:27.257000,317.0,327.0,308.0,331.0,soft,2.0
0 days 01:00:58.222000,63,0 days 00:02:05.080000,16,"",0 days 01:00:54.355000,0 days 00:00:37.523000,0 days 00:00:43.057000,0 days 00:00:44.500000,205.0,249.0,"",216.0,soft,3.0
0 days 01:06:05.080000,63,"",17,0 days 01:04:19.547000,"","",0 days 00:00:36.812000,0 days 00:00:35.116000,242.0,259.0,308.0,220.0,soft,4.0
0 days 01:07:28.004000,63,0 days 00:01:22.924000,18,"","",0 days 00:00:27.427000,0 days 00:00:28.133000,0 days 00:00:27.364000,312.0,323.0,306.0,333.0,soft,5.0
0 days 01:09:35.109000,63,0 days 00:02:07.105000,19,"","",0 days 00:00:39.007000,0 days 00:00:47.606000,0 days 00:00:40.492000,193.0,220.0,220.0,250.0,soft,6.0
0 days 01:11:26.614000,63,0 days 00:01:51.505000,20,"","",0 days 00:00:37.344000,0 days 00:00:40.335000,0 days 00:00:33.826000,264.0,305.0,305.0,265.0,soft,7.0
0 days 01:12:49.209000,63,0 days 00:01:22.595000,21,"","",0 days 00:00:27.258000,0 days 00:00:27.855000,0 days 00:00:27.482000,312.0,324.0,304.0,333.0,soft,8.0
0 days 01:15:04.656000,63,0 days 00:02:15.447000,22,"","",0 days 00:00:38.187000,0 days 00:00:36.701000,0 days 00:01:00.559000,214.0,219.0,225.0,183.0,soft,9.0
0 days 01:16:50.954000,63,0 days 00:01:46.298000,23,"","",0 days 00:00:32.935000,0 days 00:00:34.995000,0 days 00:00:38.368000,258.0,252.0,133.0,283.0,soft,10.0
0 days 01:18:54.939000,63,0 days 00:02:03.985000,24,"",0 days 01:18:51.042000,0 days 00:00:57.629000,0 days 00:00:31.006000,0 days 00:00:35.350000,309.0,244.0,"",282.0,soft,11.0
0 days 00:16:45.962000,77,"",1,0 days 00:15:10.001000,"","",0 days 00:00:32.107000,0 days 00:00:33.276000,294.0,289.0,299.0,249.0,soft,1.0
0 days 00:18:25.496000,77,0 days 00:01:39.534000,2,"","",0 days 00:00:27.878000,0 days 00:00:34.746000,0 days 00:00:36.910000,315.0,286.0,299.0,330.0,soft,2.0
0 days 00:19:49.740000,77,0 days 00:01:24.244000,3,"","",0 days 00:00:27.806000,0 days 00:00:28.381000,0 days 00:00:28.057000,313.0,323.0,302.0,"",soft,3.0
0 days 00:21:42.862000,77,0 days 00:01:53.122000,4,"","",0 days 00:00:36.015000,0 days 00:00:39.967000,0 days 00:00:37.140000,275.0,183.0,300.0,201.0,soft,4.0
0 days 00:23:07.225000,77,0 days 00:01:24.363000,5,"","",0 days 00:00:27.739000,0 days 00:00:28.581000,0 days 00:00:28.043000,312.0,324.0,303.0,331.0,soft,5.0
0 days 00:25:01.093000,77,0 days 00:01:53.868000,6,"",0 days 00:24:57.313000,0 days 00:00:37.040000,0 days 00:00:35.770000,0 days 00:00:41.058000,225.0,213.0,"",156.0,soft,6.0
0 days 00:32:22.302000,77,"",7,0 days 00:30:41.286000,"","",0 days 00:00:29.905000,0 days 00:00:29.545000,308.0,295.0,299.0,265.0,soft,7.0
0 days 00:33:49.528000,77,0 days 00:01:27.226000,8,"","",0 days 00:00:28.425000,0 days 00:00:29.816000,0 days 00:00:28.985000,299.0,301.0,299.0,311.0,soft,8.0
0 days 00:35:27.495000,77,0 days 00:01:37.967000,9,"","",0 days 00:00:38.736000,0 days 00:00:29.961000,0 days 00:00:29.270000,295.0,307.0,298.0,306.0,soft,9.0
0 days 00:36:58.293000,77,0 days 00:01:30.798000,10,"","",0 days 00:00:28.388000,0 days 00:00:33.297000,0 days 00:00:29.113000,298.0,304.0,297.0,312.0,soft,10.0
0 days 00:38:26.774000,77,0 days 00:01:28.481000,11,"","","",0 days 00:00:29.761000,0 days 00:00:30.332000,305.0,306.0,289.0,308.0,soft,11.0
0 days 00:39:53.992000,77,0 days 00:01:27.218000,12,"","",0 days 00:00:28.434000,0 days 00:00:29.674000,0 days 00:00:29.110000,303.0,306.0,298.0,"",soft,12.0
0 days 00:41:21.357000,77,0 days 00:01:27.365000,13,"","",0 days 00:00:28.316000,0 days 00:00:29.952000,0 days 00:00:29.097000,297.0,300.0,298.0,304.0,soft,13.0
0 days 00:42:48.591000,77,0 days 00:01:27.234000,14,"","",0 days 00:00:28.350000,0 days 00:00:29.868000,0 days 00:00:29.016000,300.0,305.0,299.0,309.0,soft,14.0
0 days 00:44:17.035000,77,0 days 00:01:28.444000,15,"","",0 days 00:00:29.100000,0 days 00:00:30.228000,0 days 00:00:29.116000,265.0,305.0,296.0,313.0,soft,15.0
0 days 00:45:45.550000,77,0 days 00:01:28.515000,16,"","",0 days 00:00:28.298000,0 days 00:00:30.614000,0 days 00:00:29.603000,302.0,306.0,297.0,309.0,soft,16.0
0 days 00:47:12.843000,77,0 days 00:01:27.293000,17,"","",0 days 00:00:28.252000,0 days 00:00:29.989000,0 days 00:00:29.052000,300.0,304.0,299.0,308.0,soft,17.0
0 days 00:48:47.879000,77,0 days 00:01:35.036000,18,"",0 days 00:48:43.999000,0 days 00:00:31.174000,0 days 00:00:30.415000,0 days 00:00:33.447000,279.0,296.0,"",324.0,soft,18.0
0 days 00:59:00.128000,77,"",19,0 days 00:57:21.397000,"","",0 days 00:00:33.709000,0 days 00:00:35.305000,296.0,128.0,305.0,263.0,soft,1.0
0 days 01:00:28.421000,77,0 days 00:01:28.293000,20,"","",0 days 00:00:27.398000,0 days 00:00:28.123000,0 days 00:00:32.772000,315.0,328.0,280.0,332.0,soft,2.0
0 days 01:02:20.704000,77,0 days 00:01:52.283000,21,"","",0 days 00:00:32.714000,0 days 00:00:37.878000,0 days 00:00:41.691000,257.0,271.0,303.0,227.0,soft,3.0
0 days 01:03:43.654000,77,0 days 00:01:22.950000,22,"","",0 days 00:00:27.236000,0 days 00:00:28.027000,0 days 00:00:27.687000,319.0,332.0,307.0,338.0,soft,4.0
0 days 01:05:37.114000,77,0 days 00:01:53.460000,23,"",0 days 01:05:33.273000,0 days 00:00:36.272000,0 days 00:00:35.057000,0 days 00:00:42.131000,229.0,222.0,"",167.0,soft,5.0
0 days 01:15:30.162000,77,"",24,0 days 01:13:50.984000,"","",0 days 00:00:29.624000,0 days 00:00:29.839000,293.0,305.0,300.0,270.0,soft,6.0
0 days 01:17:25.395000,77,0 days 00:01:55.233000,25,"","",0 days 00:00:30.970000,0 days 00:00:35.602000,0 days 00:00:48.661000,263.0,225.0,66.0,284.0,soft,7.0
0 days 01:19:41.362000,77,0 days 00:02:15.967000,26,"",0 days 01:19:37.492000,0 days 00:01:06.486000,0 days 00:00:30.353000,0 days 00:00:39.128000,319.0,244.0,"",292.0,soft,8.0
